{"artists": {"next": "https://api.spotify.com/v1/search?query=artist%3ABastille&type=artist&offset=10&limit=10", "total": 18, "href": "https://api.spotify.com/v1/search?query=artist%3ABastille&type=artist&offset=0&limit=10", "offset": 0, "items": [{"type": "artist", "external_urls": {"spotify": "https://open.spotify.com/artist/7EQ0qTo7fWT7DPxmxtSYEc"}, "uri": "spotify:artist:7EQ0qTo7fWT7DPxmxtSYEc", "href": "https://api.spotify.com/v1/artists/7EQ0qTo7fWT7DPxmxtSYEc", "genres": ["metropopolis", "modern rock", "pop"], "popularity": 82, "images": [{"height": 640, "width": 640, "url": "https://i.scdn.co/image/7fd538c4aa21542d840e17773e6c8802196d1c4d"}, {"height": 320, "width": 320, "url": "https://i.scdn.co/image/8f8a0353e40f0dd07dc9c199ae4c10342ced7152"}, {"height": 160, "width": 160, "url": "https://i.scdn.co/image/cd4ee1e62c2e738ff450f7327571caedc7b652f6"}], "name": "Bastille", "followers": {"total": 3872190, "href": null}, "id": "7EQ0qTo7fWT7DPxmxtSYEc"}, {"type": "artist", "external_urls": {"spotify": "https://open.spotify.com/artist/4w8yzPixoCNwxRpUZYpWpP"}, "uri": "spotify:artist:4w8yzPixoCNwxRpUZYpWpP", "href": "https://api.spotify.com/v1/artists/4w8yzPixoCNwxRpUZYpWpP", "genres": [], "popularity": 34, "images": [{"height": 640, "width": 640, "url": "https://i.scdn.co/image/ab67616d0000b273871e240b217ba8ae6b061363"}, {"height": 300, "width": 300, "url": "https://i.scdn.co/image/ab67616d00001e02871e240b217ba8ae6b061363"}, {"height": 64, "width": 64, "url": "https://i.scdn.co/image/ab67616d00004851871e240b217ba8ae6b061363"}], "name": "Orchestre de l'Op\u00e9ra Bastille", "followers": {"total": 239, "href": null}, "id": "4w8yzPixoCNwxRpUZYpWpP"}, {"type": "artist", "external_urls": {"spotify": "https://open.spotify.com/artist/7ALN8203eCI5UtiiRb4P7R"}, "uri": "spotify:artist:7ALN8203eCI5UtiiRb4P7R", "href": "https://api.spotify.com/v1/artists/7ALN8203eCI5UtiiRb4P7R", "genres": [], "popularity": 15, "images": [{"height": 640, "width": 640, "url": "https://i.scdn.co/image/ab67616d0000b273c094446d73a7f34f14aad4e9"}, {"height": 300, "width": 300, "url": "https://i.scdn.co/image/ab67616d00001e02c094446d73a7f34f14aad4e9"}, {"height": 64, "width": 64, "url": "https://i.scdn.co/image/ab67616d00004851c094446d73a7f34f14aad4e9"}], "name": "Bastille", "followers": {"total": 1408, "href": null}, "id": "7ALN8203eCI5UtiiRb4P7R"}, {"type": "artist", "external_urls": {"spotify": "https://open.spotify.com/artist/5QQTFNd1m5qKSP8b9Jj93E"}, "uri": "spotify:artist:5QQTFNd1m5qKSP8b9Jj93E", "href": "https://api.spotify.com/v1/artists/5QQTFNd1m5qKSP8b9Jj93E", "genres": [], "popularity": 11, "images": [], "name": "Choeurs de l'Opera Bastille", "followers": {"total": 28, "href": null}, "id": "5QQTFNd1m5qKSP8b9Jj93E"}, {"type": "artist", "external_urls": {"spotify": "https://open.spotify.com/artist/0yEbbDT9QvOMYE3g53WKvV"}, "uri": "spotify:artist:0yEbbDT9QvOMYE3g53WKvV", "href": "https://api.spotify.com/v1/artists/0yEbbDT9QvOMYE3g53WKvV", "genres": [], "popularity": 0, "images": [{"height": 640, "width": 640, "url": "https://i.scdn.co/image/cc0db2c27dde28f3eda9b91aa8f693ace9a4693a"}, {"height": 300, "width": 300, "url": "https://i.scdn.co/image/e96be49941a1a825c7da09a6ad90e92f0afe2934"}, {"height": 64, "width": 64, "url": "https://i.scdn.co/image/2bce1ac1e853ee2b2a7618de138e45119768e163"}], "name": "Carson Bastille", "followers": {"total": 0, "href": null}, "id": "0yEbbDT9QvOMYE3g53WKvV"}, {"type": "artist", "external_urls": {"spotify": "https://open.spotify.com/artist/2QS54zBHMU8zdaRs1pQRF0"}, "uri": "spotify:artist:2QS54zBHMU8zdaRs1pQRF0", "href": "https://api.spotify.com/v1/artists/2QS54zBHMU8zdaRs1pQRF0", "genres": [], "popularity": 7, "images": [{"height": 640, "width": 640, "url": "https://i.scdn.co/image/ab67616d0000b2733eeb2559ccde62abfe8cf52c"}, {"height": 300, "width": 300, "url": "https://i.scdn.co/image/ab67616d00001e023eeb2559ccde62abfe8cf52c"}, {"height": 64, "width": 64, "url": "https://i.scdn.co/image/ab67616d000048513eeb2559ccde62abfe8cf52c"}], "name": "Vincent Bastille", "followers": {"total": 29, "href": null}, "id": "2QS54zBHMU8zdaRs1pQRF0"}, {"type": "artist", "external_urls": {"spotify": "https://open.spotify.com/artist/2WtsYI1UMzl2hEUy5M8vIC"}, "uri": "spotify:artist:2WtsYI1UMzl2hEUy5M8vIC", "href": "https://api.spotify.com/v1/artists/2WtsYI1UMzl2hEUy5M8vIC", "genres": [], "popularity": 3, "images": [{"height": 640, "width": 640, "url": "https://i.scdn.co/image/ab67616d0000b27321575df3d223ba627dbb8ff3"}, {"height": 300, "width": 300, "url": "https://i.scdn.co/image/ab67616d00001e0221575df3d223ba627dbb8ff3"}, {"height": 64, "width": 64, "url": "https://i.scdn.co/image/ab67616d0000485121575df3d223ba627dbb8ff3"}], "name": "Stress Bastille", "followers": {"total": 11, "href": null}, "id": "2WtsYI1UMzl2hEUy5M8vIC"}, {"type": "artist", "external_urls": {"spotify": "https://open.spotify.com/artist/6B3Py7hiFv7V2dSbwKIvgG"}, "uri": "spotify:artist:6B3Py7hiFv7V2dSbwKIvgG", "href": "https://api.spotify.com/v1/artists/6B3Py7hiFv7V2dSbwKIvgG", "genres": [], "popularity": 11, "images": [], "name": "Michael Bastille", "followers": {"total": 0, "href": null}, "id": "6B3Py7hiFv7V2dSbwKIvgG"}, {"type": "artist", "external_urls": {"spotify": "https://open.spotify.com/artist/0gp1Gl3kL4YrVICjrZXEoK"}, "uri": "spotify:artist:0gp1Gl3kL4YrVICjrZXEoK", "href": "https://api.spotify.com/v1/artists/0gp1Gl3kL4YrVICjrZXEoK", "genres": [], "popularity": 3, "images": [], "name": "Bastille Opera Orchestra", "followers": {"total": 8, "href": null}, "id": "0gp1Gl3kL4YrVICjrZXEoK"}, {"type": "artist", "external_urls": {"spotify": "https://open.spotify.com/artist/3b08Ubi0aJdnRTJzUnT7J6"}, "uri": "spotify:artist:3b08Ubi0aJdnRTJzUnT7J6", "href": "https://api.spotify.com/v1/artists/3b08Ubi0aJdnRTJzUnT7J6", "genres": [], "popularity": 0, "images": [], "name": "Choeur de l'Op\u00e9ra Bastille", "followers": {"total": 0, "href": null}, "id": "3b08Ubi0aJdnRTJzUnT7J6"}], "limit": 10, "previous": null}}