{"artists": {"total": 481, "offset": 0, "limit": 10, "next": "https://api.spotify.com/v1/search?query=artist%3ADrake&type=artist&offset=10&limit=10", "href": "https://api.spotify.com/v1/search?query=artist%3ADrake&type=artist&offset=0&limit=10", "items": [{"href": "https://api.spotify.com/v1/artists/3TVXtAsR1Inumwj472S9r4", "name": "Drake", "popularity": 96, "uri": "spotify:artist:3TVXtAsR1Inumwj472S9r4", "type": "artist", "images": [{"url": "https://i.scdn.co/image/012ecd119617ac24ab56620ace4b81735b172686", "width": 640, "height": 640}, {"url": "https://i.scdn.co/image/55e3fb26d67b4d71321440b3a440eecd9d8f20f7", "width": 320, "height": 320}, {"url": "https://i.scdn.co/image/ad10179d5f27ba77c7d6c95abd6e26f6a227e0d5", "width": 160, "height": 160}], "followers": {"total": 41234432, "href": null}, "genres": ["canadian hip hop", "canadian pop", "hip hop", "pop rap", "rap", "toronto rap"], "external_urls": {"spotify": "https://open.spotify.com/artist/3TVXtAsR1Inumwj472S9r4"}, "id": "3TVXtAsR1Inumwj472S9r4"}, {"href": "https://api.spotify.com/v1/artists/5c3GLXai8YOMid29ZEuR9y", "name": "Nick Drake", "popularity": 63, "uri": "spotify:artist:5c3GLXai8YOMid29ZEuR9y", "type": "artist", "images": [{"url": "https://i.scdn.co/image/d364b498f85ae764cd278fbba9a8ed7f00c3e434", "width": 1000, "height": 1484}, {"url": "https://i.scdn.co/image/087fb05851e498c2791ca99000acf35b0fd49f19", "width": 640, "height": 950}, {"url": "https://i.scdn.co/image/9a74a7d885abe5da94ac812546d0146cfe4a1ceb", "width": 200, "height": 297}, {"url": "https://i.scdn.co/image/267080662cf3c019ea8020a4e0e8dd5a7be4d909", "width": 64, "height": 95}], "followers": {"total": 389372, "href": null}, "genres": ["art rock", "british folk", "chamber pop", "folk", "folk rock", "folk-pop", "freak folk", "indie folk", "indie rock", "melancholia", "rock", "singer-songwriter", "slow core", "traditional folk"], "external_urls": {"spotify": "https://open.spotify.com/artist/5c3GLXai8YOMid29ZEuR9y"}, "id": "5c3GLXai8YOMid29ZEuR9y"}, {"href": "https://api.spotify.com/v1/artists/29ijED2bnnprp2TciAK1aO", "name": "Drake White", "popularity": 50, "uri": "spotify:artist:29ijED2bnnprp2TciAK1aO", "type": "artist", "images": [{"url": "https://i.scdn.co/image/26f7e576fdb359276baeefd6bb40018376e664fa", "width": 640, "height": 640}, {"url": "https://i.scdn.co/image/2616d02877f7187a974cdb7dbbaefc1783ef8910", "width": 320, "height": 320}, {"url": "https://i.scdn.co/image/359e122432ab86ef00e4a1331ebd8a089eb81312", "width": 160, "height": 160}], "followers": {"total": 55890, "href": null}, "genres": ["contemporary country"], "external_urls": {"spotify": "https://open.spotify.com/artist/29ijED2bnnprp2TciAK1aO"}, "id": "29ijED2bnnprp2TciAK1aO"}, {"href": "https://api.spotify.com/v1/artists/03ilIKH0i08IxmjKcn63ne", "name": "Drake Bell", "popularity": 56, "uri": "spotify:artist:03ilIKH0i08IxmjKcn63ne", "type": "artist", "images": [{"url": "https://i.scdn.co/image/8a5b3d79e60dfd8c024be2cae7fe7a9d78ed01b2", "width": 640, "height": 640}, {"url": "https://i.scdn.co/image/791a797e5a6e3b33eaa6a2fbf44cf99149c061a1", "width": 320, "height": 320}, {"url": "https://i.scdn.co/image/7b002b864455e66bad45907252ab3a82c5c20c91", "width": 160, "height": 160}], "followers": {"total": 262458, "href": null}, "genres": ["post-teen pop"], "external_urls": {"spotify": "https://open.spotify.com/artist/03ilIKH0i08IxmjKcn63ne"}, "id": "03ilIKH0i08IxmjKcn63ne"}, {"href": "https://api.spotify.com/v1/artists/7rvB7ONJSqlmaCrcbhelir", "name": "Jamie Drake", "popularity": 45, "uri": "spotify:artist:7rvB7ONJSqlmaCrcbhelir", "type": "artist", "images": [{"url": "https://i.scdn.co/image/1b49be9bb5b1f8f249da5f12885f080852ce248d", "width": 640, "height": 640}, {"url": "https://i.scdn.co/image/a097abbf9fcefb59bf79e096ede0d43f22541645", "width": 320, "height": 320}, {"url": "https://i.scdn.co/image/9f8257d145ae743c769cdd3898bb0c89dac60e5d", "width": 160, "height": 160}], "followers": {"total": 2450, "href": null}, "genres": ["la pop"], "external_urls": {"spotify": "https://open.spotify.com/artist/7rvB7ONJSqlmaCrcbhelir"}, "id": "7rvB7ONJSqlmaCrcbhelir"}, {"href": "https://api.spotify.com/v1/artists/3KLA7mvD10XxcjRbo3uTdB", "name": "Christopher Drake", "popularity": 41, "uri": "spotify:artist:3KLA7mvD10XxcjRbo3uTdB", "type": "artist", "images": [{"url": "https://i.scdn.co/image/ab67616d0000b273fded328c6ba87b43251c5abb", "width": 640, "height": 640}, {"url": "https://i.scdn.co/image/ab67616d00001e02fded328c6ba87b43251c5abb", "width": 300, "height": 300}, {"url": "https://i.scdn.co/image/ab67616d00004851fded328c6ba87b43251c5abb", "width": 64, "height": 64}], "followers": {"total": 6701, "href": null}, "genres": ["epicore", "scorecore", "soundtrack", "video game music"], "external_urls": {"spotify": "https://open.spotify.com/artist/3KLA7mvD10XxcjRbo3uTdB"}, "id": "3KLA7mvD10XxcjRbo3uTdB"}, {"href": "https://api.spotify.com/v1/artists/4Zpu1Fk4QY2RYZj9rDlNnr", "name": "Drake Jackson", "popularity": 30, "uri": "spotify:artist:4Zpu1Fk4QY2RYZj9rDlNnr", "type": "artist", "images": [{"url": "https://i.scdn.co/image/ab67616d0000b2732fe90288709df23cdfc27f90", "width": 640, "height": 640}, {"url": "https://i.scdn.co/image/ab67616d00001e022fe90288709df23cdfc27f90", "width": 300, "height": 300}, {"url": "https://i.scdn.co/image/ab67616d000048512fe90288709df23cdfc27f90", "width": 64, "height": 64}], "followers": {"total": 26, "href": null}, "genres": [], "external_urls": {"spotify": "https://open.spotify.com/artist/4Zpu1Fk4QY2RYZj9rDlNnr"}, "id": "4Zpu1Fk4QY2RYZj9rDlNnr"}, {"href": "https://api.spotify.com/v1/artists/15QFACW5Ds2oQABA1Atqxs", "name": "Pete Drake", "popularity": 31, "uri": "spotify:artist:15QFACW5Ds2oQABA1Atqxs", "type": "artist", "images": [{"url": "https://i.scdn.co/image/ab67616d0000b2737abb34dd0ff66b5154d129e5", "width": 640, "height": 640}, {"url": "https://i.scdn.co/image/ab67616d00001e027abb34dd0ff66b5154d129e5", "width": 300, "height": 300}, {"url": "https://i.scdn.co/image/ab67616d000048517abb34dd0ff66b5154d129e5", "width": 64, "height": 64}], "followers": {"total": 3336, "href": null}, "genres": ["steel guitar"], "external_urls": {"spotify": "https://open.spotify.com/artist/15QFACW5Ds2oQABA1Atqxs"}, "id": "15QFACW5Ds2oQABA1Atqxs"}, {"href": "https://api.spotify.com/v1/artists/1xDIDfyzRo8HNGsLp4JfzO", "name": "Ludwig Von Drake", "popularity": 29, "uri": "spotify:artist:1xDIDfyzRo8HNGsLp4JfzO", "type": "artist", "images": [], "followers": {"total": 320, "href": null}, "genres": ["movie tunes"], "external_urls": {"spotify": "https://open.spotify.com/artist/1xDIDfyzRo8HNGsLp4JfzO"}, "id": "1xDIDfyzRo8HNGsLp4JfzO"}, {"href": "https://api.spotify.com/v1/artists/2y7pPMQioLwMFUKhK9Pyow", "name": "Eleni Drake", "popularity": 32, "uri": "spotify:artist:2y7pPMQioLwMFUKhK9Pyow", "type": "artist", "images": [{"url": "https://i.scdn.co/image/47709035ef0636b0092cb480eb071a796a856855", "width": 640, "height": 640}, {"url": "https://i.scdn.co/image/a113dce1c1ce74a865ae157b85f9a33328794cd7", "width": 320, "height": 320}, {"url": "https://i.scdn.co/image/eebe0e3e3546bb859511a8206de381f902473afd", "width": 160, "height": 160}], "followers": {"total": 931, "href": null}, "genres": [], "external_urls": {"spotify": "https://open.spotify.com/artist/2y7pPMQioLwMFUKhK9Pyow"}, "id": "2y7pPMQioLwMFUKhK9Pyow"}], "previous": null}}