{"artists": {"total": 11, "offset": 0, "limit": 10, "next": "https://api.spotify.com/v1/search?query=artist%3ABruno+Mars&type=artist&offset=10&limit=10", "href": "https://api.spotify.com/v1/search?query=artist%3ABruno+Mars&type=artist&offset=0&limit=10", "items": [{"href": "https://api.spotify.com/v1/artists/0du5cEVh5yTK9QJze8zA0C", "name": "Bruno Mars", "popularity": 88, "uri": "spotify:artist:0du5cEVh5yTK9QJze8zA0C", "type": "artist", "images": [{"url": "https://i.scdn.co/image/aa32d6d4ca2467974403518dd3ebfe8831c5ced1", "width": 640, "height": 640}, {"url": "https://i.scdn.co/image/63cad86cb183568085a4e5f0be86aa187cc511e4", "width": 320, "height": 320}, {"url": "https://i.scdn.co/image/5461dcbb3f23e1df62d85c8273fc49cc4edd49d5", "width": 160, "height": 160}], "followers": {"total": 22615459, "href": null}, "genres": ["dance pop", "pop", "post-teen pop"], "external_urls": {"spotify": "https://open.spotify.com/artist/0du5cEVh5yTK9QJze8zA0C"}, "id": "0du5cEVh5yTK9QJze8zA0C"}, {"href": "https://api.spotify.com/v1/artists/3nVO2uL9ooyVeiCVjOCtAV", "name": "Berklee Bruno Mars Ensemble", "popularity": 5, "uri": "spotify:artist:3nVO2uL9ooyVeiCVjOCtAV", "type": "artist", "images": [{"url": "https://i.scdn.co/image/ab67616d0000b2732b30ccbd290fb9aeb6ef54c9", "width": 640, "height": 640}, {"url": "https://i.scdn.co/image/ab67616d00001e022b30ccbd290fb9aeb6ef54c9", "width": 300, "height": 300}, {"url": "https://i.scdn.co/image/ab67616d000048512b30ccbd290fb9aeb6ef54c9", "width": 64, "height": 64}], "followers": {"total": 131, "href": null}, "genres": [], "external_urls": {"spotify": "https://open.spotify.com/artist/3nVO2uL9ooyVeiCVjOCtAV"}, "id": "3nVO2uL9ooyVeiCVjOCtAV"}, {"href": "https://api.spotify.com/v1/artists/2aGUnteqLSVKdfyYGzixl9", "name": "Jaeson Ma featuring Bruno Mars", "popularity": 3, "uri": "spotify:artist:2aGUnteqLSVKdfyYGzixl9", "type": "artist", "images": [], "followers": {"total": 979, "href": null}, "genres": [], "external_urls": {"spotify": "https://open.spotify.com/artist/2aGUnteqLSVKdfyYGzixl9"}, "id": "2aGUnteqLSVKdfyYGzixl9"}, {"href": "https://api.spotify.com/v1/artists/7FQ1aQmO1oIStViqLdP7MD", "name": "Beat Rabbi and Deepspace5, Playdough, Sev Statik, Illtripp, Listener, Manchild of Mars ILL, Sintax the Terrific, Freddie Bruno, Sivion, Blake Kilgore", "popularity": 0, "uri": "spotify:artist:7FQ1aQmO1oIStViqLdP7MD", "type": "artist", "images": [], "followers": {"total": 51, "href": null}, "genres": [], "external_urls": {"spotify": "https://open.spotify.com/artist/7FQ1aQmO1oIStViqLdP7MD"}, "id": "7FQ1aQmO1oIStViqLdP7MD"}, {"href": "https://api.spotify.com/v1/artists/7Hfyvu6WCgn8aF7IBePAuu", "name": "Bruno Mars Tribute", "popularity": 0, "uri": "spotify:artist:7Hfyvu6WCgn8aF7IBePAuu", "type": "artist", "images": [], "followers": {"total": 61, "href": null}, "genres": [], "external_urls": {"spotify": "https://open.spotify.com/artist/7Hfyvu6WCgn8aF7IBePAuu"}, "id": "7Hfyvu6WCgn8aF7IBePAuu"}, {"href": "https://api.spotify.com/v1/artists/28C2CsASI2YBDzcMbrebIH", "name": "Bruno Mars Karaoke Band", "popularity": 2, "uri": "spotify:artist:28C2CsASI2YBDzcMbrebIH", "type": "artist", "images": [], "followers": {"total": 80, "href": null}, "genres": [], "external_urls": {"spotify": "https://open.spotify.com/artist/28C2CsASI2YBDzcMbrebIH"}, "id": "28C2CsASI2YBDzcMbrebIH"}, {"href": "https://api.spotify.com/v1/artists/3JdZTBCIL1VbNt8U1m6QPW", "name": "Bruno Mars Cover Band", "popularity": 2, "uri": "spotify:artist:3JdZTBCIL1VbNt8U1m6QPW", "type": "artist", "images": [{"url": "https://i.scdn.co/image/ab67616d0000b2738bfe10b1e981d173413f3d6b", "width": 640, "height": 640}, {"url": "https://i.scdn.co/image/ab67616d00001e028bfe10b1e981d173413f3d6b", "width": 300, "height": 300}, {"url": "https://i.scdn.co/image/ab67616d000048518bfe10b1e981d173413f3d6b", "width": 64, "height": 64}], "followers": {"total": 1281, "href": null}, "genres": [], "external_urls": {"spotify": "https://open.spotify.com/artist/3JdZTBCIL1VbNt8U1m6QPW"}, "id": "3JdZTBCIL1VbNt8U1m6QPW"}, {"href": "https://api.spotify.com/v1/artists/3PUkeXvSs1089gRmDnEQhf", "name": "Tribute to Bruno Mars", "popularity": 0, "uri": "spotify:artist:3PUkeXvSs1089gRmDnEQhf", "type": "artist", "images": [{"url": "https://i.scdn.co/image/ab67616d0000b273868f3fa4c659af63b504ec0b", "width": 640, "height": 640}, {"url": "https://i.scdn.co/image/ab67616d00001e02868f3fa4c659af63b504ec0b", "width": 300, "height": 300}, {"url": "https://i.scdn.co/image/ab67616d00004851868f3fa4c659af63b504ec0b", "width": 64, "height": 64}], "followers": {"total": 299, "href": null}, "genres": [], "external_urls": {"spotify": "https://open.spotify.com/artist/3PUkeXvSs1089gRmDnEQhf"}, "id": "3PUkeXvSs1089gRmDnEQhf"}, {"href": "https://api.spotify.com/v1/artists/709PHGs9WIRnShpd8M1Gbj", "name": "Bruno Mars Karaoke's Band", "popularity": 0, "uri": "spotify:artist:709PHGs9WIRnShpd8M1Gbj", "type": "artist", "images": [{"url": "https://i.scdn.co/image/ab67616d0000b27389ccdab4a3ec7b11a8b5cccf", "width": 640, "height": 640}, {"url": "https://i.scdn.co/image/ab67616d00001e0289ccdab4a3ec7b11a8b5cccf", "width": 300, "height": 300}, {"url": "https://i.scdn.co/image/ab67616d0000485189ccdab4a3ec7b11a8b5cccf", "width": 64, "height": 64}], "followers": {"total": 226, "href": null}, "genres": [], "external_urls": {"spotify": "https://open.spotify.com/artist/709PHGs9WIRnShpd8M1Gbj"}, "id": "709PHGs9WIRnShpd8M1Gbj"}, {"href": "https://api.spotify.com/v1/artists/6FgUy8sHjwUIXiu088bwQH", "name": "Made famous by Bruno Mars", "popularity": 3, "uri": "spotify:artist:6FgUy8sHjwUIXiu088bwQH", "type": "artist", "images": [], "followers": {"total": 82, "href": null}, "genres": [], "external_urls": {"spotify": "https://open.spotify.com/artist/6FgUy8sHjwUIXiu088bwQH"}, "id": "6FgUy8sHjwUIXiu088bwQH"}], "previous": null}}