{"artists": {"total": 23, "offset": 0, "limit": 10, "next": "https://api.spotify.com/v1/search?query=artist%3AM.I.A.&type=artist&offset=10&limit=10", "href": "https://api.spotify.com/v1/search?query=artist%3AM.I.A.&type=artist&offset=0&limit=10", "items": [{"href": "https://api.spotify.com/v1/artists/0QJIPDAEDILuo8AIq3pMuU", "name": "M.I.A.", "popularity": 67, "uri": "spotify:artist:0QJIPDAEDILuo8AIq3pMuU", "type": "artist", "images": [{"url": "https://i.scdn.co/image/31ef1aaf80f623deaeda9c8d5a4074b7f8b34516", "width": 640, "height": 640}, {"url": "https://i.scdn.co/image/f6f94b8063350e59fc51acdc42391d416b60e7d5", "width": 320, "height": 320}, {"url": "https://i.scdn.co/image/aa279ce259072a3f820739d10779c4561656090c", "width": 160, "height": 160}], "followers": {"total": 832637, "href": null}, "genres": ["art pop", "dance pop", "escape room", "new rave", "pop"], "external_urls": {"spotify": "https://open.spotify.com/artist/0QJIPDAEDILuo8AIq3pMuU"}, "id": "0QJIPDAEDILuo8AIq3pMuU"}, {"href": "https://api.spotify.com/v1/artists/451jqMEf2cDjJKgw1uBFGe", "name": "M.I.A.", "popularity": 33, "uri": "spotify:artist:451jqMEf2cDjJKgw1uBFGe", "type": "artist", "images": [{"url": "https://i.scdn.co/image/ab67616d0000b27355b43ce6ecee349bf4677507", "width": 640, "height": 640}, {"url": "https://i.scdn.co/image/ab67616d00001e0255b43ce6ecee349bf4677507", "width": 300, "height": 300}, {"url": "https://i.scdn.co/image/ab67616d0000485155b43ce6ecee349bf4677507", "width": 64, "height": 64}], "followers": {"total": 607, "href": null}, "genres": [], "external_urls": {"spotify": "https://open.spotify.com/artist/451jqMEf2cDjJKgw1uBFGe"}, "id": "451jqMEf2cDjJKgw1uBFGe"}, {"href": "https://api.spotify.com/v1/artists/6DAD2DVlNt9PnKzy58xXp1", "name": "M.I.A.", "popularity": 10, "uri": "spotify:artist:6DAD2DVlNt9PnKzy58xXp1", "type": "artist", "images": [], "followers": {"total": 0, "href": null}, "genres": [], "external_urls": {"spotify": "https://open.spotify.com/artist/6DAD2DVlNt9PnKzy58xXp1"}, "id": "6DAD2DVlNt9PnKzy58xXp1"}, {"href": "https://api.spotify.com/v1/artists/17NeD1lVAkc9Yx9HgTsppS", "name": "M.I.A.", "popularity": 22, "uri": "spotify:artist:17NeD1lVAkc9Yx9HgTsppS", "type": "artist", "images": [{"url": "https://i.scdn.co/image/ab67616d0000b273163c99723a71753613a5f491", "width": 640, "height": 640}, {"url": "https://i.scdn.co/image/ab67616d00001e02163c99723a71753613a5f491", "width": 300, "height": 300}, {"url": "https://i.scdn.co/image/ab67616d00004851163c99723a71753613a5f491", "width": 64, "height": 64}], "followers": {"total": 174, "href": null}, "genres": ["cologne electronic"], "external_urls": {"spotify": "https://open.spotify.com/artist/17NeD1lVAkc9Yx9HgTsppS"}, "id": "17NeD1lVAkc9Yx9HgTsppS"}, {"href": "https://api.spotify.com/v1/artists/4EL3DPx6P5mjdFKO8YZJuw", "name": "M.I.A", "popularity": 12, "uri": "spotify:artist:4EL3DPx6P5mjdFKO8YZJuw", "type": "artist", "images": [], "followers": {"total": 9, "href": null}, "genres": [], "external_urls": {"spotify": "https://open.spotify.com/artist/4EL3DPx6P5mjdFKO8YZJuw"}, "id": "4EL3DPx6P5mjdFKO8YZJuw"}, {"href": "https://api.spotify.com/v1/artists/01wTO8RSh159KDX43bml6F", "name": "Manny M.I.A", "popularity": 4, "uri": "spotify:artist:01wTO8RSh159KDX43bml6F", "type": "artist", "images": [{"url": "https://i.scdn.co/image/afad019b79818a1d768f0b88cab26f82ad3f436c", "width": 640, "height": 640}, {"url": "https://i.scdn.co/image/43b8e08857fc50b35b0481067b40b48d78df492c", "width": 320, "height": 320}, {"url": "https://i.scdn.co/image/c24770e192932e6678948dad69686297916d2ab7", "width": 160, "height": 160}], "followers": {"total": 9, "href": null}, "genres": [], "external_urls": {"spotify": "https://open.spotify.com/artist/01wTO8RSh159KDX43bml6F"}, "id": "01wTO8RSh159KDX43bml6F"}, {"href": "https://api.spotify.com/v1/artists/7p2VQlYsuXp8H7CPB8rmfL", "name": "M.I.A", "popularity": 9, "uri": "spotify:artist:7p2VQlYsuXp8H7CPB8rmfL", "type": "artist", "images": [{"url": "https://i.scdn.co/image/ab67616d0000b27346d1aca8fc287baabfbe5ae2", "width": 640, "height": 640}, {"url": "https://i.scdn.co/image/ab67616d00001e0246d1aca8fc287baabfbe5ae2", "width": 300, "height": 300}, {"url": "https://i.scdn.co/image/ab67616d0000485146d1aca8fc287baabfbe5ae2", "width": 64, "height": 64}], "followers": {"total": 268, "href": null}, "genres": [], "external_urls": {"spotify": "https://open.spotify.com/artist/7p2VQlYsuXp8H7CPB8rmfL"}, "id": "7p2VQlYsuXp8H7CPB8rmfL"}, {"href": "https://api.spotify.com/v1/artists/022kNWOFCf3zHs95OaIp8u", "name": "Poon M.I.A.", "popularity": 0, "uri": "spotify:artist:022kNWOFCf3zHs95OaIp8u", "type": "artist", "images": [], "followers": {"total": 0, "href": null}, "genres": [], "external_urls": {"spotify": "https://open.spotify.com/artist/022kNWOFCf3zHs95OaIp8u"}, "id": "022kNWOFCf3zHs95OaIp8u"}, {"href": "https://api.spotify.com/v1/artists/17e5j4GkQIpEdOwDBDTFdV", "name": "M.I.A. Dre", "popularity": 0, "uri": "spotify:artist:17e5j4GkQIpEdOwDBDTFdV", "type": "artist", "images": [], "followers": {"total": 1, "href": null}, "genres": [], "external_urls": {"spotify": "https://open.spotify.com/artist/17e5j4GkQIpEdOwDBDTFdV"}, "id": "17e5j4GkQIpEdOwDBDTFdV"}, {"href": "https://api.spotify.com/v1/artists/1EW01BIb2vywrz8ha5PoCS", "name": "M.I.A.3", "popularity": 0, "uri": "spotify:artist:1EW01BIb2vywrz8ha5PoCS", "type": "artist", "images": [{"url": "https://i.scdn.co/image/ab67616d0000b2739132f5ef597fd6e87ec84b76", "width": 640, "height": 640}, {"url": "https://i.scdn.co/image/ab67616d00001e029132f5ef597fd6e87ec84b76", "width": 300, "height": 300}, {"url": "https://i.scdn.co/image/ab67616d000048519132f5ef597fd6e87ec84b76", "width": 64, "height": 64}], "followers": {"total": 9, "href": null}, "genres": [], "external_urls": {"spotify": "https://open.spotify.com/artist/1EW01BIb2vywrz8ha5PoCS"}, "id": "1EW01BIb2vywrz8ha5PoCS"}], "previous": null}}