{"artists": {"total": 57, "offset": 0, "limit": 10, "next": "https://api.spotify.com/v1/search?query=artist%3ABlur&type=artist&offset=10&limit=10", "href": "https://api.spotify.com/v1/search?query=artist%3ABlur&type=artist&offset=0&limit=10", "items": [{"href": "https://api.spotify.com/v1/artists/7MhMgCo0Bl0Kukl93PZbYS", "name": "Blur", "popularity": 70, "uri": "spotify:artist:7MhMgCo0Bl0Kukl93PZbYS", "type": "artist", "images": [{"url": "https://i.scdn.co/image/b3fa1dd751944a695df05624d4449d2862dc8fba", "width": 400, "height": 400}, {"url": "https://i.scdn.co/image/78a6b33a8b1d2e627d21e979f0cac8a6d7ad402f", "width": 200, "height": 200}, {"url": "https://i.scdn.co/image/4bc14479e0cb481f40ac103db6fd9ef078a583cb", "width": 64, "height": 64}], "followers": {"total": 1552238, "href": null}, "genres": ["alternative rock", "britpop", "dance rock", "garage rock", "indie rock", "madchester", "modern rock", "new wave", "permanent wave", "pop rock", "rock"], "external_urls": {"spotify": "https://open.spotify.com/artist/7MhMgCo0Bl0Kukl93PZbYS"}, "id": "7MhMgCo0Bl0Kukl93PZbYS"}, {"href": "https://api.spotify.com/v1/artists/2NnBvycZmkfFgGyiWZEX3R", "name": "yuzu blur", "popularity": 37, "uri": "spotify:artist:2NnBvycZmkfFgGyiWZEX3R", "type": "artist", "images": [{"url": "https://i.scdn.co/image/ab67616d0000b273900bf0ce7e9b2accab8f3515", "width": 640, "height": 640}, {"url": "https://i.scdn.co/image/ab67616d00001e02900bf0ce7e9b2accab8f3515", "width": 300, "height": 300}, {"url": "https://i.scdn.co/image/ab67616d00004851900bf0ce7e9b2accab8f3515", "width": 64, "height": 64}], "followers": {"total": 830, "href": null}, "genres": [], "external_urls": {"spotify": "https://open.spotify.com/artist/2NnBvycZmkfFgGyiWZEX3R"}, "id": "2NnBvycZmkfFgGyiWZEX3R"}, {"href": "https://api.spotify.com/v1/artists/7mNvLAQSGOGMrdIuGmm5Oh", "name": "Motion Blur", "popularity": 37, "uri": "spotify:artist:7mNvLAQSGOGMrdIuGmm5Oh", "type": "artist", "images": [{"url": "https://i.scdn.co/image/c0a66c288c11ba7423e588d6afc008b8a042cc03", "width": 640, "height": 640}, {"url": "https://i.scdn.co/image/54557d15e86d352881eb5bf0332f2fac80f0c1fb", "width": 320, "height": 320}, {"url": "https://i.scdn.co/image/aff20a18bb9848a571a4873f756326f7eabb72ef", "width": 160, "height": 160}], "followers": {"total": 365, "href": null}, "genres": [], "external_urls": {"spotify": "https://open.spotify.com/artist/7mNvLAQSGOGMrdIuGmm5Oh"}, "id": "7mNvLAQSGOGMrdIuGmm5Oh"}, {"href": "https://api.spotify.com/v1/artists/1xs7MfQs9ixKviXWN2rt0j", "name": "Blur Violet", "popularity": 24, "uri": "spotify:artist:1xs7MfQs9ixKviXWN2rt0j", "type": "artist", "images": [{"url": "https://i.scdn.co/image/d027c4bd7882faea8bc48dc430a080290377f60c", "width": 640, "height": 640}, {"url": "https://i.scdn.co/image/0e58072e6834f83b1b8fd18cafee6d7680cfbfe9", "width": 300, "height": 300}, {"url": "https://i.scdn.co/image/a67b4df4bad8286807bb4e8e3a83038901a49127", "width": 64, "height": 64}], "followers": {"total": 4760, "href": null}, "genres": [], "external_urls": {"spotify": "https://open.spotify.com/artist/1xs7MfQs9ixKviXWN2rt0j"}, "id": "1xs7MfQs9ixKviXWN2rt0j"}, {"href": "https://api.spotify.com/v1/artists/5rnugF74l7U6wHsG7zh56G", "name": "Blur", "popularity": 19, "uri": "spotify:artist:5rnugF74l7U6wHsG7zh56G", "type": "artist", "images": [{"url": "https://i.scdn.co/image/ab67616d0000b27372d2339ef4d45399c45c50ea", "width": 640, "height": 640}, {"url": "https://i.scdn.co/image/ab67616d00001e0272d2339ef4d45399c45c50ea", "width": 300, "height": 300}, {"url": "https://i.scdn.co/image/ab67616d0000485172d2339ef4d45399c45c50ea", "width": 64, "height": 64}], "followers": {"total": 42, "href": null}, "genres": [], "external_urls": {"spotify": "https://open.spotify.com/artist/5rnugF74l7U6wHsG7zh56G"}, "id": "5rnugF74l7U6wHsG7zh56G"}, {"href": "https://api.spotify.com/v1/artists/6knuICI0vnKPNx7ZrZflZu", "name": "Blur Traps", "popularity": 17, "uri": "spotify:artist:6knuICI0vnKPNx7ZrZflZu", "type": "artist", "images": [{"url": "https://i.scdn.co/image/9d9e2b93d43202c92e1f47b24476303d6eac837d", "width": 640, "height": 640}, {"url": "https://i.scdn.co/image/e95c6115b43a59534f39365ee779f5f33fe3ac3b", "width": 300, "height": 300}, {"url": "https://i.scdn.co/image/f8f4f879c71e4bdbab832d60b4ac4850a211cf98", "width": 64, "height": 64}], "followers": {"total": 1122, "href": null}, "genres": [], "external_urls": {"spotify": "https://open.spotify.com/artist/6knuICI0vnKPNx7ZrZflZu"}, "id": "6knuICI0vnKPNx7ZrZflZu"}, {"href": "https://api.spotify.com/v1/artists/3Ge3E0m3zrQyJopUyody7T", "name": "Motion Picture Blur", "popularity": 22, "uri": "spotify:artist:3Ge3E0m3zrQyJopUyody7T", "type": "artist", "images": [{"url": "https://i.scdn.co/image/dee41e8a5f068f8f2aa0922060afe75bab073ab4", "width": 640, "height": 640}, {"url": "https://i.scdn.co/image/74b8d497259be41413bbd35a56afab5df85a4775", "width": 320, "height": 320}, {"url": "https://i.scdn.co/image/533a971fdfdf1582fdd92b5570e17fa21a1506c3", "width": 160, "height": 160}], "followers": {"total": 664, "href": null}, "genres": [], "external_urls": {"spotify": "https://open.spotify.com/artist/3Ge3E0m3zrQyJopUyody7T"}, "id": "3Ge3E0m3zrQyJopUyody7T"}, {"href": "https://api.spotify.com/v1/artists/7CYhAviIKy7BratfELyUD1", "name": "On Blur", "popularity": 5, "uri": "spotify:artist:7CYhAviIKy7BratfELyUD1", "type": "artist", "images": [{"url": "https://i.scdn.co/image/a14764c512e02a20d37abf4cdf97b3f5b271decd", "width": 640, "height": 640}, {"url": "https://i.scdn.co/image/9a7db698115e6d2e424bfc30d3a69fbe13b97787", "width": 320, "height": 320}, {"url": "https://i.scdn.co/image/602992e192bdbb5f65a39fad961fd9ffd15dc1e7", "width": 160, "height": 160}], "followers": {"total": 19, "href": null}, "genres": [], "external_urls": {"spotify": "https://open.spotify.com/artist/7CYhAviIKy7BratfELyUD1"}, "id": "7CYhAviIKy7BratfELyUD1"}, {"href": "https://api.spotify.com/v1/artists/0QVKEPGs1hqMFtp5GBFxNc", "name": "Blur", "popularity": 0, "uri": "spotify:artist:0QVKEPGs1hqMFtp5GBFxNc", "type": "artist", "images": [], "followers": {"total": 83, "href": null}, "genres": [], "external_urls": {"spotify": "https://open.spotify.com/artist/0QVKEPGs1hqMFtp5GBFxNc"}, "id": "0QVKEPGs1hqMFtp5GBFxNc"}, {"href": "https://api.spotify.com/v1/artists/3cUa7LDygLIU7u0hbsWTQe", "name": "Blur", "popularity": 0, "uri": "spotify:artist:3cUa7LDygLIU7u0hbsWTQe", "type": "artist", "images": [], "followers": {"total": 55, "href": null}, "genres": [], "external_urls": {"spotify": "https://open.spotify.com/artist/3cUa7LDygLIU7u0hbsWTQe"}, "id": "3cUa7LDygLIU7u0hbsWTQe"}], "previous": null}}