{"artists": {"total": 20, "offset": 0, "limit": 10, "next": "https://api.spotify.com/v1/search?query=artist%3ARihanna&type=artist&offset=10&limit=10", "href": "https://api.spotify.com/v1/search?query=artist%3ARihanna&type=artist&offset=0&limit=10", "items": [{"href": "https://api.spotify.com/v1/artists/5pKCCKE2ajJHZ9KAiaK11H", "name": "Rihanna", "popularity": 89, "uri": "spotify:artist:5pKCCKE2ajJHZ9KAiaK11H", "type": "artist", "images": [{"url": "https://i.scdn.co/image/1fc2f537d678d701d7d143a8fd4f0c2f29fbde22", "width": 640, "height": 640}, {"url": "https://i.scdn.co/image/e8a018bfd60bf25519fd4dc8ca941263afa66651", "width": 320, "height": 320}, {"url": "https://i.scdn.co/image/9dfb8baea10b330f5400922ec4d40d01922e805b", "width": 160, "height": 160}], "followers": {"total": 34316884, "href": null}, "genres": ["barbadian pop", "dance pop", "pop", "post-teen pop", "r&b", "urban contemporary"], "external_urls": {"spotify": "https://open.spotify.com/artist/5pKCCKE2ajJHZ9KAiaK11H"}, "id": "5pKCCKE2ajJHZ9KAiaK11H"}, {"href": "https://api.spotify.com/v1/artists/6ZMElZVjKXjGvfNgCjdCAm", "name": "Rihanna Henderson", "popularity": 9, "uri": "spotify:artist:6ZMElZVjKXjGvfNgCjdCAm", "type": "artist", "images": [{"url": "https://i.scdn.co/image/ab67616d0000b273cf99185dc370e2039303c7a4", "width": 640, "height": 640}, {"url": "https://i.scdn.co/image/ab67616d00001e02cf99185dc370e2039303c7a4", "width": 300, "height": 300}, {"url": "https://i.scdn.co/image/ab67616d00004851cf99185dc370e2039303c7a4", "width": 64, "height": 64}], "followers": {"total": 74, "href": null}, "genres": [], "external_urls": {"spotify": "https://open.spotify.com/artist/6ZMElZVjKXjGvfNgCjdCAm"}, "id": "6ZMElZVjKXjGvfNgCjdCAm"}, {"href": "https://api.spotify.com/v1/artists/7iSyRLMVFWXbP1t3Nzq27X", "name": "Rihanna Johnson", "popularity": 10, "uri": "spotify:artist:7iSyRLMVFWXbP1t3Nzq27X", "type": "artist", "images": [], "followers": {"total": 778, "href": null}, "genres": [], "external_urls": {"spotify": "https://open.spotify.com/artist/7iSyRLMVFWXbP1t3Nzq27X"}, "id": "7iSyRLMVFWXbP1t3Nzq27X"}, {"href": "https://api.spotify.com/v1/artists/1Sci5K6M8HJkUJcf3qTOb8", "name": "Rihanna Harmon", "popularity": 0, "uri": "spotify:artist:1Sci5K6M8HJkUJcf3qTOb8", "type": "artist", "images": [{"url": "https://i.scdn.co/image/ab67616d0000b2730a6d4f2faa58af4f35540ef1", "width": 640, "height": 640}, {"url": "https://i.scdn.co/image/ab67616d00001e020a6d4f2faa58af4f35540ef1", "width": 300, "height": 300}, {"url": "https://i.scdn.co/image/ab67616d000048510a6d4f2faa58af4f35540ef1", "width": 64, "height": 64}], "followers": {"total": 4, "href": null}, "genres": [], "external_urls": {"spotify": "https://open.spotify.com/artist/1Sci5K6M8HJkUJcf3qTOb8"}, "id": "1Sci5K6M8HJkUJcf3qTOb8"}, {"href": "https://api.spotify.com/v1/artists/2VSbwSOaGywKZ8S1MyVk6H", "name": "Rebecca Rihanna", "popularity": 0, "uri": "spotify:artist:2VSbwSOaGywKZ8S1MyVk6H", "type": "artist", "images": [], "followers": {"total": 31, "href": null}, "genres": [], "external_urls": {"spotify": "https://open.spotify.com/artist/2VSbwSOaGywKZ8S1MyVk6H"}, "id": "2VSbwSOaGywKZ8S1MyVk6H"}, {"href": "https://api.spotify.com/v1/artists/4evsbyR4r4vo6QfoPRC5Tg", "name": "Rihanna Paige", "popularity": 0, "uri": "spotify:artist:4evsbyR4r4vo6QfoPRC5Tg", "type": "artist", "images": [], "followers": {"total": 257, "href": null}, "genres": [], "external_urls": {"spotify": "https://open.spotify.com/artist/4evsbyR4r4vo6QfoPRC5Tg"}, "id": "4evsbyR4r4vo6QfoPRC5Tg"}, {"href": "https://api.spotify.com/v1/artists/4pSWDyXmjyMGQKRzDrqyag", "name": "Rihanna Nicole", "popularity": 0, "uri": "spotify:artist:4pSWDyXmjyMGQKRzDrqyag", "type": "artist", "images": [], "followers": {"total": 83, "href": null}, "genres": [], "external_urls": {"spotify": "https://open.spotify.com/artist/4pSWDyXmjyMGQKRzDrqyag"}, "id": "4pSWDyXmjyMGQKRzDrqyag"}, {"href": "https://api.spotify.com/v1/artists/6dI84J43Td2NJ78Q5w5KaR", "name": "Rihanna Shea", "popularity": 0, "uri": "spotify:artist:6dI84J43Td2NJ78Q5w5KaR", "type": "artist", "images": [{"url": "https://i.scdn.co/image/d060924eef5b5872362ad1913626b45b697a86b6", "width": 640, "height": 640}, {"url": "https://i.scdn.co/image/4dbcbf4c170b0a8b4d28150ec2f7860d7eced8d4", "width": 300, "height": 300}, {"url": "https://i.scdn.co/image/beabe406c61b50a61f51dc2886fcce8cac896e88", "width": 64, "height": 64}], "followers": {"total": 7, "href": null}, "genres": [], "external_urls": {"spotify": "https://open.spotify.com/artist/6dI84J43Td2NJ78Q5w5KaR"}, "id": "6dI84J43Td2NJ78Q5w5KaR"}, {"href": "https://api.spotify.com/v1/artists/0TpVyDAUg0c4sMlQJR803T", "name": "Robyn Rihanna Fenty", "popularity": 0, "uri": "spotify:artist:0TpVyDAUg0c4sMlQJR803T", "type": "artist", "images": [], "followers": {"total": 3, "href": null}, "genres": [], "external_urls": {"spotify": "https://open.spotify.com/artist/0TpVyDAUg0c4sMlQJR803T"}, "id": "0TpVyDAUg0c4sMlQJR803T"}, {"href": "https://api.spotify.com/v1/artists/03gYBRh1ngdHPOJv8TD5Bn", "name": "Fran London feat. Rihanna", "popularity": 0, "uri": "spotify:artist:03gYBRh1ngdHPOJv8TD5Bn", "type": "artist", "images": [{"url": "https://i.scdn.co/image/ab67616d0000b273a2c9c2c962c7a1f4dedcc51a", "width": 640, "height": 640}, {"url": "https://i.scdn.co/image/ab67616d00001e02a2c9c2c962c7a1f4dedcc51a", "width": 300, "height": 300}, {"url": "https://i.scdn.co/image/ab67616d00004851a2c9c2c962c7a1f4dedcc51a", "width": 64, "height": 64}], "followers": {"total": 618, "href": null}, "genres": [], "external_urls": {"spotify": "https://open.spotify.com/artist/03gYBRh1ngdHPOJv8TD5Bn"}, "id": "03gYBRh1ngdHPOJv8TD5Bn"}], "previous": null}}