{"artists": {"total": 543, "offset": 0, "limit": 10, "next": "https://api.spotify.com/v1/search?query=artist%3Afun.&type=artist&offset=10&limit=10", "href": "https://api.spotify.com/v1/search?query=artist%3Afun.&type=artist&offset=0&limit=10", "items": [{"href": "https://api.spotify.com/v1/artists/5nCi3BB41mBaMH9gfr6Su0", "name": "fun.", "popularity": 70, "uri": "spotify:artist:5nCi3BB41mBaMH9gfr6Su0", "type": "artist", "images": [{"url": "https://i.scdn.co/image/37bc85c957e17d3463ae40da1c8ade6bb5ecd546", "width": 1000, "height": 563}, {"url": "https://i.scdn.co/image/876de0e2ae7910ee6ad6b3dee6e1408e8d83a207", "width": 640, "height": 360}, {"url": "https://i.scdn.co/image/25eee8e9db00a929448c32f67c7e158b53488979", "width": 200, "height": 113}, {"url": "https://i.scdn.co/image/3b24a69ed9c20a9a899d328b7aefc3750e4c712f", "width": 64, "height": 36}], "followers": {"total": 3287134, "href": null}, "genres": ["baroque pop", "metropopolis", "modern rock", "pop"], "external_urls": {"spotify": "https://open.spotify.com/artist/5nCi3BB41mBaMH9gfr6Su0"}, "id": "5nCi3BB41mBaMH9gfr6Su0"}, {"href": "https://api.spotify.com/v1/artists/4XU5f8nGiPMr6eetud6epC", "name": "Nitro Fun", "popularity": 50, "uri": "spotify:artist:4XU5f8nGiPMr6eetud6epC", "type": "artist", "images": [{"url": "https://i.scdn.co/image/38b8e5edf09971a7d06bf6117ec602ca34b94317", "width": 640, "height": 640}, {"url": "https://i.scdn.co/image/1bba0004780e7624cc1cbc4eef8454efa3a7df18", "width": 320, "height": 320}, {"url": "https://i.scdn.co/image/cdcf0edd469d5276e09807922b61415715c20a0a", "width": 160, "height": 160}], "followers": {"total": 58185, "href": null}, "genres": ["catstep", "complextro", "edm", "electro house", "tracestep"], "external_urls": {"spotify": "https://open.spotify.com/artist/4XU5f8nGiPMr6eetud6epC"}, "id": "4XU5f8nGiPMr6eetud6epC"}, {"href": "https://api.spotify.com/v1/artists/13H2PbDHYtjo8v0R8HMAao", "name": "Summer Was Fun", "popularity": 45, "uri": "spotify:artist:13H2PbDHYtjo8v0R8HMAao", "type": "artist", "images": [{"url": "https://i.scdn.co/image/ab073e11631632a8179a3c7420ebf2d7dc2cd176", "width": 640, "height": 640}, {"url": "https://i.scdn.co/image/100a99c971a2b87d4fa70da73c6745510a6dfcae", "width": 320, "height": 320}, {"url": "https://i.scdn.co/image/2d310142cf639d4c326290fe2e37d42da0dfac8a", "width": 160, "height": 160}], "followers": {"total": 10807, "href": null}, "genres": ["catstep", "tracestep"], "external_urls": {"spotify": "https://open.spotify.com/artist/13H2PbDHYtjo8v0R8HMAao"}, "id": "13H2PbDHYtjo8v0R8HMAao"}, {"href": "https://api.spotify.com/v1/artists/0yYjsueZmwhiPmoza6oObu", "name": "KIds Music Fun Zone", "popularity": 39, "uri": "spotify:artist:0yYjsueZmwhiPmoza6oObu", "type": "artist", "images": [{"url": "https://i.scdn.co/image/ab67616d0000b273d1bbc42a73f475397edbaa44", "width": 640, "height": 640}, {"url": "https://i.scdn.co/image/ab67616d00001e02d1bbc42a73f475397edbaa44", "width": 300, "height": 300}, {"url": "https://i.scdn.co/image/ab67616d00004851d1bbc42a73f475397edbaa44", "width": 64, "height": 64}], "followers": {"total": 492, "href": null}, "genres": [], "external_urls": {"spotify": "https://open.spotify.com/artist/0yYjsueZmwhiPmoza6oObu"}, "id": "0yYjsueZmwhiPmoza6oObu"}, {"href": "https://api.spotify.com/v1/artists/0hWRiJV8KlRZvsZeemUJVv", "name": "Fun Lovin' Criminals", "popularity": 48, "uri": "spotify:artist:0hWRiJV8KlRZvsZeemUJVv", "type": "artist", "images": [{"url": "https://i.scdn.co/image/38e9c596ab2bd46c472012984e135aeba756b4db", "width": 640, "height": 640}, {"url": "https://i.scdn.co/image/905185a657313709b4d1c559ff64f6cd204a2b3f", "width": 320, "height": 320}, {"url": "https://i.scdn.co/image/29eb027302811167494ffe0de2890a9cb4289962", "width": 160, "height": 160}], "followers": {"total": 60662, "href": null}, "genres": [], "external_urls": {"spotify": "https://open.spotify.com/artist/0hWRiJV8KlRZvsZeemUJVv"}, "id": "0hWRiJV8KlRZvsZeemUJVv"}, {"href": "https://api.spotify.com/v1/artists/6J7tunc4bHIFmzTevQ2J6Q", "name": "Toddler Fun Learning", "popularity": 44, "uri": "spotify:artist:6J7tunc4bHIFmzTevQ2J6Q", "type": "artist", "images": [{"url": "https://i.scdn.co/image/16215c2d2d144d924a1a41f628a9bd86f8fa6a12", "width": 640, "height": 640}, {"url": "https://i.scdn.co/image/9d692c7398280f8d9e8fc9435c105567a8eb32b1", "width": 320, "height": 320}, {"url": "https://i.scdn.co/image/3191d1fa617265a227bd7e13de22105283639c64", "width": 160, "height": 160}], "followers": {"total": 3823, "href": null}, "genres": [], "external_urls": {"spotify": "https://open.spotify.com/artist/6J7tunc4bHIFmzTevQ2J6Q"}, "id": "6J7tunc4bHIFmzTevQ2J6Q"}, {"href": "https://api.spotify.com/v1/artists/1dmEUAQBopYUrsMnQnScWL", "name": "Fun Boy Three", "popularity": 41, "uri": "spotify:artist:1dmEUAQBopYUrsMnQnScWL", "type": "artist", "images": [{"url": "https://i.scdn.co/image/f5544a6b5e6eefeb78277c427faf1c3d3bb09cb7", "width": 1000, "height": 645}, {"url": "https://i.scdn.co/image/6043f58428a90816adc1461ada946f89b85e159e", "width": 640, "height": 413}, {"url": "https://i.scdn.co/image/d24f704de04792da78f59f0809081c11e79027db", "width": 200, "height": 129}, {"url": "https://i.scdn.co/image/8482bd40309ce5f726762f1db4d2102a54442712", "width": 64, "height": 41}], "followers": {"total": 41636, "href": null}, "genres": ["dance rock", "new romantic", "new wave", "new wave pop", "ska", "ska revival"], "external_urls": {"spotify": "https://open.spotify.com/artist/1dmEUAQBopYUrsMnQnScWL"}, "id": "1dmEUAQBopYUrsMnQnScWL"}, {"href": "https://api.spotify.com/v1/artists/5dStRnsw0zCLVtMOe6X1d0", "name": "Fun Guns", "popularity": 34, "uri": "spotify:artist:5dStRnsw0zCLVtMOe6X1d0", "type": "artist", "images": [{"url": "https://i.scdn.co/image/ab67616d0000b2736542a2025e61ac153606f906", "width": 640, "height": 640}, {"url": "https://i.scdn.co/image/ab67616d00001e026542a2025e61ac153606f906", "width": 300, "height": 300}, {"url": "https://i.scdn.co/image/ab67616d000048516542a2025e61ac153606f906", "width": 64, "height": 64}], "followers": {"total": 1393, "href": null}, "genres": [], "external_urls": {"spotify": "https://open.spotify.com/artist/5dStRnsw0zCLVtMOe6X1d0"}, "id": "5dStRnsw0zCLVtMOe6X1d0"}, {"href": "https://api.spotify.com/v1/artists/705Z0iFTodc8kuWuq6s5ah", "name": "Have Fun Teaching", "popularity": 29, "uri": "spotify:artist:705Z0iFTodc8kuWuq6s5ah", "type": "artist", "images": [{"url": "https://i.scdn.co/image/7ca2a6adac213210dbefe2abafa48943e11aa243", "width": 640, "height": 640}, {"url": "https://i.scdn.co/image/b04f091716080defaea52e3d6fb6601544c2ae1d", "width": 320, "height": 320}, {"url": "https://i.scdn.co/image/3c281d46c000cfd934053bb783746859ce43dd3c", "width": 160, "height": 160}], "followers": {"total": 1697, "href": null}, "genres": [], "external_urls": {"spotify": "https://open.spotify.com/artist/705Z0iFTodc8kuWuq6s5ah"}, "id": "705Z0iFTodc8kuWuq6s5ah"}, {"href": "https://api.spotify.com/v1/artists/6usO1o98RY3cUWxqaQxi8O", "name": "No Fun At All", "popularity": 42, "uri": "spotify:artist:6usO1o98RY3cUWxqaQxi8O", "type": "artist", "images": [{"url": "https://i.scdn.co/image/33e9db26e63f07b0c322e6853e0c4700ce448ae1", "width": 640, "height": 640}, {"url": "https://i.scdn.co/image/1303d7446cd1d132db311e700cbb439581571623", "width": 320, "height": 320}, {"url": "https://i.scdn.co/image/117863045702f49c01e28d8b66006f487396c3ef", "width": 160, "height": 160}], "followers": {"total": 34158, "href": null}, "genres": ["melodic hardcore", "punk", "skate punk"], "external_urls": {"spotify": "https://open.spotify.com/artist/6usO1o98RY3cUWxqaQxi8O"}, "id": "6usO1o98RY3cUWxqaQxi8O"}], "previous": null}}