{"artists": {"next": "https://api.spotify.com/v1/search?query=artist%3ASurvivor&type=artist&offset=10&limit=10", "total": 42, "href": "https://api.spotify.com/v1/search?query=artist%3ASurvivor&type=artist&offset=0&limit=10", "offset": 0, "items": [{"type": "artist", "external_urls": {"spotify": "https://open.spotify.com/artist/26bcq2nyj5GB7uRr558iQg"}, "uri": "spotify:artist:26bcq2nyj5GB7uRr558iQg", "href": "https://api.spotify.com/v1/artists/26bcq2nyj5GB7uRr558iQg", "genres": ["album rock", "hard rock", "rock", "soft rock"], "popularity": 69, "images": [{"height": 647, "width": 1000, "url": "https://i.scdn.co/image/da30acd2c9d0f32f5f5a2d69f32c2d30335466b5"}, {"height": 414, "width": 640, "url": "https://i.scdn.co/image/4b664fd84812a6275249447cae61ca048721c52d"}, {"height": 129, "width": 199, "url": "https://i.scdn.co/image/7b6f21db11d15febd6e8079f0f2b147ccac427b4"}, {"height": 41, "width": 63, "url": "https://i.scdn.co/image/b138642e8356c9b946e82cfc79d0b047fa886a02"}], "name": "Survivor", "followers": {"total": 473877, "href": null}, "id": "26bcq2nyj5GB7uRr558iQg"}, {"type": "artist", "external_urls": {"spotify": "https://open.spotify.com/artist/3jTzI8EpjES1TRYhWs34nm"}, "uri": "spotify:artist:3jTzI8EpjES1TRYhWs34nm", "href": "https://api.spotify.com/v1/artists/3jTzI8EpjES1TRYhWs34nm", "genres": ["uk worship", "world worship", "worship"], "popularity": 41, "images": [{"height": 640, "width": 640, "url": "https://i.scdn.co/image/79fc7fa3e49edff8e55c26fa18462856bf077930"}, {"height": 320, "width": 320, "url": "https://i.scdn.co/image/9f86cc097488991076385721ad3062a10a80ed77"}, {"height": 160, "width": 160, "url": "https://i.scdn.co/image/317c2d381aa80f92887f6352f06065bca08eee2c"}], "name": "Soul Survivor", "followers": {"total": 22075, "href": null}, "id": "3jTzI8EpjES1TRYhWs34nm"}, {"type": "artist", "external_urls": {"spotify": "https://open.spotify.com/artist/2UL98f5ep2GPpYP2Q9kAik"}, "uri": "spotify:artist:2UL98f5ep2GPpYP2Q9kAik", "href": "https://api.spotify.com/v1/artists/2UL98f5ep2GPpYP2Q9kAik", "genres": [], "popularity": 8, "images": [], "name": "The Holocaust Survivor Band", "followers": {"total": 16, "href": null}, "id": "2UL98f5ep2GPpYP2Q9kAik"}, {"type": "artist", "external_urls": {"spotify": "https://open.spotify.com/artist/1tH1KlSlxM0wKJ494Z106n"}, "uri": "spotify:artist:1tH1KlSlxM0wKJ494Z106n", "href": "https://api.spotify.com/v1/artists/1tH1KlSlxM0wKJ494Z106n", "genres": [], "popularity": 11, "images": [{"height": 640, "width": 640, "url": "https://i.scdn.co/image/ab67616d0000b273ba4279ff181fd848f7e3f35c"}, {"height": 300, "width": 300, "url": "https://i.scdn.co/image/ab67616d00001e02ba4279ff181fd848f7e3f35c"}, {"height": 64, "width": 64, "url": "https://i.scdn.co/image/ab67616d00004851ba4279ff181fd848f7e3f35c"}], "name": "Survivor", "followers": {"total": 89, "href": null}, "id": "1tH1KlSlxM0wKJ494Z106n"}, {"type": "artist", "external_urls": {"spotify": "https://open.spotify.com/artist/4HmAlbr49oLGDMxCfpug9V"}, "uri": "spotify:artist:4HmAlbr49oLGDMxCfpug9V", "href": "https://api.spotify.com/v1/artists/4HmAlbr49oLGDMxCfpug9V", "genres": [], "popularity": 2, "images": [{"height": 640, "width": 640, "url": "https://i.scdn.co/image/ab67616d0000b273bde07c418ffc6688bfee65a0"}, {"height": 300, "width": 300, "url": "https://i.scdn.co/image/ab67616d00001e02bde07c418ffc6688bfee65a0"}, {"height": 64, "width": 64, "url": "https://i.scdn.co/image/ab67616d00004851bde07c418ffc6688bfee65a0"}], "name": "Survivor", "followers": {"total": 43, "href": null}, "id": "4HmAlbr49oLGDMxCfpug9V"}, {"type": "artist", "external_urls": {"spotify": "https://open.spotify.com/artist/5ocYCa3PoMc3VMGbwCmFRe"}, "uri": "spotify:artist:5ocYCa3PoMc3VMGbwCmFRe", "href": "https://api.spotify.com/v1/artists/5ocYCa3PoMc3VMGbwCmFRe", "genres": [], "popularity": 0, "images": [{"height": 640, "width": 640, "url": "https://i.scdn.co/image/ab67616d0000b273aadcf989c02fe1e64d659080"}, {"height": 300, "width": 300, "url": "https://i.scdn.co/image/ab67616d00001e02aadcf989c02fe1e64d659080"}, {"height": 64, "width": 64, "url": "https://i.scdn.co/image/ab67616d00004851aadcf989c02fe1e64d659080"}], "name": "Survivor", "followers": {"total": 36, "href": null}, "id": "5ocYCa3PoMc3VMGbwCmFRe"}, {"type": "artist", "external_urls": {"spotify": "https://open.spotify.com/artist/0HHMocCdhbFi4FqfmbKpie"}, "uri": "spotify:artist:0HHMocCdhbFi4FqfmbKpie", "href": "https://api.spotify.com/v1/artists/0HHMocCdhbFi4FqfmbKpie", "genres": [], "popularity": 0, "images": [], "name": "Black Survivor", "followers": {"total": 1, "href": null}, "id": "0HHMocCdhbFi4FqfmbKpie"}, {"type": "artist", "external_urls": {"spotify": "https://open.spotify.com/artist/13aW7JAGwAKtH9QU9FoZOA"}, "uri": "spotify:artist:13aW7JAGwAKtH9QU9FoZOA", "href": "https://api.spotify.com/v1/artists/13aW7JAGwAKtH9QU9FoZOA", "genres": [], "popularity": 1, "images": [{"height": 640, "width": 640, "url": "https://i.scdn.co/image/ab67616d0000b2737061697254bc6c1f5cd205f7"}, {"height": 300, "width": 300, "url": "https://i.scdn.co/image/ab67616d00001e027061697254bc6c1f5cd205f7"}, {"height": 64, "width": 64, "url": "https://i.scdn.co/image/ab67616d000048517061697254bc6c1f5cd205f7"}], "name": "Survivor Q", "followers": {"total": 79, "href": null}, "id": "13aW7JAGwAKtH9QU9FoZOA"}, {"type": "artist", "external_urls": {"spotify": "https://open.spotify.com/artist/1DTfOXn5nIwerxIcWlEZfe"}, "uri": "spotify:artist:1DTfOXn5nIwerxIcWlEZfe", "href": "https://api.spotify.com/v1/artists/1DTfOXn5nIwerxIcWlEZfe", "genres": [], "popularity": 2, "images": [{"height": 640, "width": 640, "url": "https://i.scdn.co/image/ab67616d0000b273550225e1784127e6b9deed94"}, {"height": 300, "width": 300, "url": "https://i.scdn.co/image/ab67616d00001e02550225e1784127e6b9deed94"}, {"height": 64, "width": 64, "url": "https://i.scdn.co/image/ab67616d00004851550225e1784127e6b9deed94"}], "name": "Survivor Beatz", "followers": {"total": 1, "href": null}, "id": "1DTfOXn5nIwerxIcWlEZfe"}, {"type": "artist", "external_urls": {"spotify": "https://open.spotify.com/artist/1ERZVABCQki8Bqq8sdESth"}, "uri": "spotify:artist:1ERZVABCQki8Bqq8sdESth", "href": "https://api.spotify.com/v1/artists/1ERZVABCQki8Bqq8sdESth", "genres": [], "popularity": 1, "images": [{"height": 640, "width": 640, "url": "https://i.scdn.co/image/ab67616d0000b273b90a5e71a0382c0159e0abca"}, {"height": 300, "width": 300, "url": "https://i.scdn.co/image/ab67616d00001e02b90a5e71a0382c0159e0abca"}, {"height": 64, "width": 64, "url": "https://i.scdn.co/image/ab67616d00004851b90a5e71a0382c0159e0abca"}], "name": "Son Survivor", "followers": {"total": 105, "href": null}, "id": "1ERZVABCQki8Bqq8sdESth"}], "limit": 10, "previous": null}}