{"artists": {"next": "https://api.spotify.com/v1/search?query=artist%3AMAGIC%21&type=artist&offset=10&limit=10", "total": 1723, "href": "https://api.spotify.com/v1/search?query=artist%3AMAGIC%21&type=artist&offset=0&limit=10", "offset": 0, "items": [{"type": "artist", "external_urls": {"spotify": "https://open.spotify.com/artist/0DxeaLnv6SyYk2DOqkLO8c"}, "uri": "spotify:artist:0DxeaLnv6SyYk2DOqkLO8c", "href": "https://api.spotify.com/v1/artists/0DxeaLnv6SyYk2DOqkLO8c", "genres": ["pop", "reggae fusion"], "popularity": 70, "images": [{"height": 640, "width": 640, "url": "https://i.scdn.co/image/1c937bc84a8929a1844af2d4f7e41c3b800bb597"}, {"height": 320, "width": 320, "url": "https://i.scdn.co/image/57b132b04154822ba9f8d0e8dfb087f4ec363fd0"}, {"height": 160, "width": 160, "url": "https://i.scdn.co/image/8044cb738f150136fba1baa045efe0d33a89fb0f"}], "name": "MAGIC!", "followers": {"total": 1062701, "href": null}, "id": "0DxeaLnv6SyYk2DOqkLO8c"}, {"type": "artist", "external_urls": {"spotify": "https://open.spotify.com/artist/3cuVSUrq0yoSSP7gpvI6q1"}, "uri": "spotify:artist:3cuVSUrq0yoSSP7gpvI6q1", "href": "https://api.spotify.com/v1/artists/3cuVSUrq0yoSSP7gpvI6q1", "genres": ["chicano rap", "latin hip hop"], "popularity": 55, "images": [{"height": 640, "width": 640, "url": "https://i.scdn.co/image/610daa28e6a8ee1957fabd25004016093a07aeb7"}, {"height": 320, "width": 320, "url": "https://i.scdn.co/image/79a141fe5b0b174e6516741afc0e127146b9ceca"}, {"height": 160, "width": 160, "url": "https://i.scdn.co/image/851787ab14504a15cccbcff743d3443d677d03a6"}], "name": "MC Magic", "followers": {"total": 158471, "href": null}, "id": "3cuVSUrq0yoSSP7gpvI6q1"}, {"type": "artist", "external_urls": {"spotify": "https://open.spotify.com/artist/1ikg4sypcURm8Vy5GP68xb"}, "uri": "spotify:artist:1ikg4sypcURm8Vy5GP68xb", "href": "https://api.spotify.com/v1/artists/1ikg4sypcURm8Vy5GP68xb", "genres": ["indie pop", "indie poptimism", "indie rock", "indietronica", "miami indie", "modern rock", "vapor soul"], "popularity": 56, "images": [{"height": 640, "width": 640, "url": "https://i.scdn.co/image/3279ab0d919e451e7e8a78b5f6216652208c1ae1"}, {"height": 320, "width": 320, "url": "https://i.scdn.co/image/6429a9554bb183419f0ab104d38ebcba713459de"}, {"height": 160, "width": 160, "url": "https://i.scdn.co/image/ed112ab87c7b93e51f600deb1869c7130c4d68cf"}], "name": "Magic City Hippies", "followers": {"total": 58651, "href": null}, "id": "1ikg4sypcURm8Vy5GP68xb"}, {"type": "artist", "external_urls": {"spotify": "https://open.spotify.com/artist/4e0Z9S1BolFuwPDnA8wOjF"}, "uri": "spotify:artist:4e0Z9S1BolFuwPDnA8wOjF", "href": "https://api.spotify.com/v1/artists/4e0Z9S1BolFuwPDnA8wOjF", "genres": [], "popularity": 58, "images": [{"height": 640, "width": 640, "url": "https://i.scdn.co/image/ab67616d0000b27309146645a45e86cce7bd7ae3"}, {"height": 300, "width": 300, "url": "https://i.scdn.co/image/ab67616d00001e0209146645a45e86cce7bd7ae3"}, {"height": 64, "width": 64, "url": "https://i.scdn.co/image/ab67616d0000485109146645a45e86cce7bd7ae3"}], "name": "Mr Magic", "followers": {"total": 2929, "href": null}, "id": "4e0Z9S1BolFuwPDnA8wOjF"}, {"type": "artist", "external_urls": {"spotify": "https://open.spotify.com/artist/7eaa5bidliPI0djFYv166f"}, "uri": "spotify:artist:7eaa5bidliPI0djFYv166f", "href": "https://api.spotify.com/v1/artists/7eaa5bidliPI0djFYv166f", "genres": ["indie poptimism", "modern rock"], "popularity": 48, "images": [{"height": 640, "width": 640, "url": "https://i.scdn.co/image/30e2663e560a1cec8407f686927c84da0fce7438"}, {"height": 320, "width": 320, "url": "https://i.scdn.co/image/55a46af253f464e37653e411e4f77ef5f9d61215"}, {"height": 160, "width": 160, "url": "https://i.scdn.co/image/455c68482ec80ffa95d343992bfb4d758f51d41e"}], "name": "MAGIC GIANT", "followers": {"total": 25511, "href": null}, "id": "7eaa5bidliPI0djFYv166f"}, {"type": "artist", "external_urls": {"spotify": "https://open.spotify.com/artist/6ejhZKxWJr9apHAzj74DHv"}, "uri": "spotify:artist:6ejhZKxWJr9apHAzj74DHv", "href": "https://api.spotify.com/v1/artists/6ejhZKxWJr9apHAzj74DHv", "genres": ["indie pop", "indie poptimism", "indie rockism", "indietronica", "modern rock", "shimmer pop"], "popularity": 48, "images": [{"height": 500, "width": 500, "url": "https://i.scdn.co/image/eb6a0e35973977032f5e73aa1c25caabe34e507a"}, {"height": 200, "width": 200, "url": "https://i.scdn.co/image/ccf8a8a4e333ffb4295887375d6a2bf1c71b0516"}, {"height": 64, "width": 64, "url": "https://i.scdn.co/image/2cbc39685e26967b901422b5f83cdef9a8ba3b08"}], "name": "Magic Man", "followers": {"total": 84631, "href": null}, "id": "6ejhZKxWJr9apHAzj74DHv"}, {"type": "artist", "external_urls": {"spotify": "https://open.spotify.com/artist/6PzFRXjgGHQw6K4WeERMK1"}, "uri": "spotify:artist:6PzFRXjgGHQw6K4WeERMK1", "href": "https://api.spotify.com/v1/artists/6PzFRXjgGHQw6K4WeERMK1", "genres": ["retro electro"], "popularity": 50, "images": [{"height": 640, "width": 640, "url": "https://i.scdn.co/image/927da1dbfcb9c26b53c7fa90fc518600a42a9ae5"}, {"height": 320, "width": 320, "url": "https://i.scdn.co/image/a1a83ba07c5127a8f619ff291affba86ab133c47"}, {"height": 160, "width": 160, "url": "https://i.scdn.co/image/cd31835f5395a8719e65b5e67c0b468c67fdf64b"}], "name": "Magic Sword", "followers": {"total": 64175, "href": null}, "id": "6PzFRXjgGHQw6K4WeERMK1"}, {"type": "artist", "external_urls": {"spotify": "https://open.spotify.com/artist/3htNAy3vYWWYV8RZFeyRMT"}, "uri": "spotify:artist:3htNAy3vYWWYV8RZFeyRMT", "href": "https://api.spotify.com/v1/artists/3htNAy3vYWWYV8RZFeyRMT", "genres": ["chillwave", "gauze pop", "indie dream pop", "indietronica", "vapor soul", "vapor twitch"], "popularity": 47, "images": [{"height": 640, "width": 640, "url": "https://i.scdn.co/image/3554c339df081f49f928cc5279c3283db1b6f9a9"}, {"height": 320, "width": 320, "url": "https://i.scdn.co/image/0c57b37570955ce2419bc1e121dc56f709ccf050"}, {"height": 160, "width": 160, "url": "https://i.scdn.co/image/d72d1fe3dc567ae808927234cb83f0ffa8c6304a"}], "name": "Slow Magic", "followers": {"total": 98823, "href": null}, "id": "3htNAy3vYWWYV8RZFeyRMT"}, {"type": "artist", "external_urls": {"spotify": "https://open.spotify.com/artist/6z6gmIKKTBiWB65ICOXdF6"}, "uri": "spotify:artist:6z6gmIKKTBiWB65ICOXdF6", "href": "https://api.spotify.com/v1/artists/6z6gmIKKTBiWB65ICOXdF6", "genres": [], "popularity": 40, "images": [{"height": 640, "width": 640, "url": "https://i.scdn.co/image/8af8f9158ee9062a8a7862af44264c0d00803c1b"}, {"height": 320, "width": 320, "url": "https://i.scdn.co/image/20c34d3a2627df800562ce794d4107f6baeeac3c"}, {"height": 160, "width": 160, "url": "https://i.scdn.co/image/ba7303826fe0ccd5084fc7bda137c79749efd995"}], "name": "Magic", "followers": {"total": 78, "href": null}, "id": "6z6gmIKKTBiWB65ICOXdF6"}, {"type": "artist", "external_urls": {"spotify": "https://open.spotify.com/artist/7rQ1JKZl3iz9SjRZ59VTv3"}, "uri": "spotify:artist:7rQ1JKZl3iz9SjRZ59VTv3", "href": "https://api.spotify.com/v1/artists/7rQ1JKZl3iz9SjRZ59VTv3", "genres": [], "popularity": 41, "images": [{"height": 640, "width": 640, "url": "https://i.scdn.co/image/ab67616d0000b273ee01f40d21a44d747141fcc8"}, {"height": 300, "width": 300, "url": "https://i.scdn.co/image/ab67616d00001e02ee01f40d21a44d747141fcc8"}, {"height": 64, "width": 64, "url": "https://i.scdn.co/image/ab67616d00004851ee01f40d21a44d747141fcc8"}], "name": "Dj spin magic", "followers": {"total": 122, "href": null}, "id": "7rQ1JKZl3iz9SjRZ59VTv3"}], "limit": 10, "previous": null}}