{"artists": {"total": 198, "offset": 0, "limit": 10, "next": "https://api.spotify.com/v1/search?query=artist%3AAdele&type=artist&offset=10&limit=10", "href": "https://api.spotify.com/v1/search?query=artist%3AAdele&type=artist&offset=0&limit=10", "items": [{"href": "https://api.spotify.com/v1/artists/4dpARuHxo51G3z768sgnrY", "name": "Adele", "popularity": 84, "uri": "spotify:artist:4dpARuHxo51G3z768sgnrY", "type": "artist", "images": [{"url": "https://i.scdn.co/image/ccbe7b4fef679f821988c78dbd4734471834e3d9", "width": 1000, "height": 1000}, {"url": "https://i.scdn.co/image/f8737f6fda048b45efe91f81c2bda2b601ae689c", "width": 640, "height": 640}, {"url": "https://i.scdn.co/image/df070ad127f62d682596e515ac69d5bef56e0897", "width": 200, "height": 200}, {"url": "https://i.scdn.co/image/cbbdfb209cc38b2999b1882f42ee642555316313", "width": 64, "height": 64}], "followers": {"total": 17864276, "href": null}, "genres": ["british soul", "pop", "uk pop"], "external_urls": {"spotify": "https://open.spotify.com/artist/4dpARuHxo51G3z768sgnrY"}, "id": "4dpARuHxo51G3z768sgnrY"}, {"href": "https://api.spotify.com/v1/artists/19RHMn8FFkEFmhPwyDW2ZC", "name": "Robyn Adele Anderson", "popularity": 43, "uri": "spotify:artist:19RHMn8FFkEFmhPwyDW2ZC", "type": "artist", "images": [{"url": "https://i.scdn.co/image/ca1b7900859930a1ffd8bde7d67647ea3d141b26", "width": 640, "height": 640}, {"url": "https://i.scdn.co/image/fc6cb619b190b271c6fedffd3eb028224f649e32", "width": 320, "height": 320}, {"url": "https://i.scdn.co/image/312f2f048d0516d3d24afd3c761855ebab0a4083", "width": 160, "height": 160}], "followers": {"total": 19929, "href": null}, "genres": ["cabaret"], "external_urls": {"spotify": "https://open.spotify.com/artist/19RHMn8FFkEFmhPwyDW2ZC"}, "id": "19RHMn8FFkEFmhPwyDW2ZC"}, {"href": "https://api.spotify.com/v1/artists/1IzWkJHqWXjQzaDYavdVAX", "name": "Adele Sunniva", "popularity": 29, "uri": "spotify:artist:1IzWkJHqWXjQzaDYavdVAX", "type": "artist", "images": [{"url": "https://i.scdn.co/image/a2b1c6b9a97ca2b1d8e56b84a8ccf2b13b3f334d", "width": 640, "height": 640}, {"url": "https://i.scdn.co/image/d1c7509b75414fa136b35ca1a3a262f44500afbf", "width": 300, "height": 300}, {"url": "https://i.scdn.co/image/afb5cfac81c1b948790d1b31aaa03d3f27c14ade", "width": 64, "height": 64}], "followers": {"total": 4, "href": null}, "genres": [], "external_urls": {"spotify": "https://open.spotify.com/artist/1IzWkJHqWXjQzaDYavdVAX"}, "id": "1IzWkJHqWXjQzaDYavdVAX"}, {"href": "https://api.spotify.com/v1/artists/5zEh5XsQAkg0iUY3vPNU0l", "name": "Ester Adele", "popularity": 31, "uri": "spotify:artist:5zEh5XsQAkg0iUY3vPNU0l", "type": "artist", "images": [{"url": "https://i.scdn.co/image/175c4c5770408560d431def43ad54eb3306c2222", "width": 640, "height": 640}, {"url": "https://i.scdn.co/image/df6812943e54df6c65ec96192a3e3244b947860f", "width": 320, "height": 320}, {"url": "https://i.scdn.co/image/29de9c0fbaeb79405a8c63a42aef9523f04fe237", "width": 160, "height": 160}], "followers": {"total": 412, "href": null}, "genres": [], "external_urls": {"spotify": "https://open.spotify.com/artist/5zEh5XsQAkg0iUY3vPNU0l"}, "id": "5zEh5XsQAkg0iUY3vPNU0l"}, {"href": "https://api.spotify.com/v1/artists/5yUp79jSBSGdkbufl2hmcY", "name": "Adele Anthony", "popularity": 26, "uri": "spotify:artist:5yUp79jSBSGdkbufl2hmcY", "type": "artist", "images": [{"url": "https://i.scdn.co/image/f872ff81d488a571190f9e3ab162db15361f7060", "width": 1000, "height": 1000}, {"url": "https://i.scdn.co/image/cdc5a89e78fff546f1939e7dd68904bd061b36f9", "width": 640, "height": 640}, {"url": "https://i.scdn.co/image/1edaaef2eaefbf2bfb6a530e5464e40e5f398819", "width": 200, "height": 200}, {"url": "https://i.scdn.co/image/4cab46ac52af13c19ecf94b9b36197fc4c09e664", "width": 64, "height": 64}], "followers": {"total": 754, "href": null}, "genres": ["violin"], "external_urls": {"spotify": "https://open.spotify.com/artist/5yUp79jSBSGdkbufl2hmcY"}, "id": "5yUp79jSBSGdkbufl2hmcY"}, {"href": "https://api.spotify.com/v1/artists/2TJ4prkqVniH0HhuuiCsZc", "name": "Cameo Adele", "popularity": 19, "uri": "spotify:artist:2TJ4prkqVniH0HhuuiCsZc", "type": "artist", "images": [{"url": "https://i.scdn.co/image/f6d7cb4e3b756c90f53c281ef8134fef45c39c5e", "width": 640, "height": 640}, {"url": "https://i.scdn.co/image/8232a5751eee42159b073843aa64717ba4078580", "width": 320, "height": 320}, {"url": "https://i.scdn.co/image/191e930bd8b8d6301b7c863c04934d1367a37da6", "width": 160, "height": 160}], "followers": {"total": 581, "href": null}, "genres": [], "external_urls": {"spotify": "https://open.spotify.com/artist/2TJ4prkqVniH0HhuuiCsZc"}, "id": "2TJ4prkqVniH0HhuuiCsZc"}, {"href": "https://api.spotify.com/v1/artists/7wm3zwQUO1hPk4m4sOUz1E", "name": "Ad\u00e8le Carlier", "popularity": 21, "uri": "spotify:artist:7wm3zwQUO1hPk4m4sOUz1E", "type": "artist", "images": [], "followers": {"total": 47, "href": null}, "genres": [], "external_urls": {"spotify": "https://open.spotify.com/artist/7wm3zwQUO1hPk4m4sOUz1E"}, "id": "7wm3zwQUO1hPk4m4sOUz1E"}, {"href": "https://api.spotify.com/v1/artists/4AEv9RpfPAr67W04LqWLDb", "name": "Adele Roberts", "popularity": 21, "uri": "spotify:artist:4AEv9RpfPAr67W04LqWLDb", "type": "artist", "images": [{"url": "https://i.scdn.co/image/ab67616d0000b2737f70c74de1d0adfbf3c4e451", "width": 640, "height": 640}, {"url": "https://i.scdn.co/image/ab67616d00001e027f70c74de1d0adfbf3c4e451", "width": 300, "height": 300}, {"url": "https://i.scdn.co/image/ab67616d000048517f70c74de1d0adfbf3c4e451", "width": 64, "height": 64}], "followers": {"total": 78, "href": null}, "genres": [], "external_urls": {"spotify": "https://open.spotify.com/artist/4AEv9RpfPAr67W04LqWLDb"}, "id": "4AEv9RpfPAr67W04LqWLDb"}, {"href": "https://api.spotify.com/v1/artists/0UhoqhbYoPuORgj24VBUcp", "name": "Ad\u00e8le Anderson", "popularity": 20, "uri": "spotify:artist:0UhoqhbYoPuORgj24VBUcp", "type": "artist", "images": [{"url": "https://i.scdn.co/image/ab67616d0000b273f6a15fc6db4a2038a4059b82", "width": 640, "height": 640}, {"url": "https://i.scdn.co/image/ab67616d00001e02f6a15fc6db4a2038a4059b82", "width": 300, "height": 300}, {"url": "https://i.scdn.co/image/ab67616d00004851f6a15fc6db4a2038a4059b82", "width": 64, "height": 64}], "followers": {"total": 184, "href": null}, "genres": [], "external_urls": {"spotify": "https://open.spotify.com/artist/0UhoqhbYoPuORgj24VBUcp"}, "id": "0UhoqhbYoPuORgj24VBUcp"}, {"href": "https://api.spotify.com/v1/artists/10UHmKyfLXudqVHU9PnHEZ", "name": "Laila Adele", "popularity": 29, "uri": "spotify:artist:10UHmKyfLXudqVHU9PnHEZ", "type": "artist", "images": [{"url": "https://i.scdn.co/image/ab67616d0000b273e28d33aeda23a42dbf8ee363", "width": 640, "height": 640}, {"url": "https://i.scdn.co/image/ab67616d00001e02e28d33aeda23a42dbf8ee363", "width": 300, "height": 300}, {"url": "https://i.scdn.co/image/ab67616d00004851e28d33aeda23a42dbf8ee363", "width": 64, "height": 64}], "followers": {"total": 326, "href": null}, "genres": [], "external_urls": {"spotify": "https://open.spotify.com/artist/10UHmKyfLXudqVHU9PnHEZ"}, "id": "10UHmKyfLXudqVHU9PnHEZ"}], "previous": null}}