{"artists": {"next": "https://api.spotify.com/v1/search?query=artist%3ATOTO&type=artist&offset=10&limit=10", "total": 238, "href": "https://api.spotify.com/v1/search?query=artist%3ATOTO&type=artist&offset=0&limit=10", "offset": 0, "items": [{"type": "artist", "external_urls": {"spotify": "https://open.spotify.com/artist/0PFtn5NtBbbUNbU9EAmIWF"}, "uri": "spotify:artist:0PFtn5NtBbbUNbU9EAmIWF", "href": "https://api.spotify.com/v1/artists/0PFtn5NtBbbUNbU9EAmIWF", "genres": ["album rock", "mellow gold", "rock", "soft rock", "yacht rock"], "popularity": 75, "images": [{"height": 640, "width": 640, "url": "https://i.scdn.co/image/a47fe4b4087afd805a6e40730023b5d182423990"}, {"height": 320, "width": 320, "url": "https://i.scdn.co/image/83fcf2c20ec747118b954242691499aa3cbfb202"}, {"height": 160, "width": 160, "url": "https://i.scdn.co/image/f013f3bdc61ec18986d4f9e411689fd28b19a013"}], "name": "TOTO", "followers": {"total": 1200978, "href": null}, "id": "0PFtn5NtBbbUNbU9EAmIWF"}, {"type": "artist", "external_urls": {"spotify": "https://open.spotify.com/artist/26BL0aeVS96sje8JfCNfUk"}, "uri": "spotify:artist:26BL0aeVS96sje8JfCNfUk", "href": "https://api.spotify.com/v1/artists/26BL0aeVS96sje8JfCNfUk", "genres": ["chicha", "cumbia", "folclor afrocolombiano", "porro"], "popularity": 57, "images": [{"height": 640, "width": 640, "url": "https://i.scdn.co/image/ca17c01c167871b31dfc0a4b9c7b99b78333abbd"}, {"height": 320, "width": 320, "url": "https://i.scdn.co/image/53ab95ec285d519eefbb82faa7faa994757c9267"}, {"height": 160, "width": 160, "url": "https://i.scdn.co/image/8e1f3c0abdf434c4e6175fcea5e6461648379153"}], "name": "Tot\u00f3 La Momposina", "followers": {"total": 54476, "href": null}, "id": "26BL0aeVS96sje8JfCNfUk"}, {"type": "artist", "external_urls": {"spotify": "https://open.spotify.com/artist/6elIiwc8OyeqKxXe2rmPXZ"}, "uri": "spotify:artist:6elIiwc8OyeqKxXe2rmPXZ", "href": "https://api.spotify.com/v1/artists/6elIiwc8OyeqKxXe2rmPXZ", "genres": ["classic italian pop", "italian pop"], "popularity": 51, "images": [{"height": 1000, "width": 1000, "url": "https://i.scdn.co/image/ec77f5a1ab08dc093cc793f35f87a799910cb95b"}, {"height": 640, "width": 640, "url": "https://i.scdn.co/image/523f821995489a3890a029fe4baf3d231ac0ffb3"}, {"height": 200, "width": 200, "url": "https://i.scdn.co/image/7d9d3431eec1411ff9ac07621930f050aea7947d"}, {"height": 64, "width": 64, "url": "https://i.scdn.co/image/51ed5afc6eaf1e95677dafc48d9db162ed77bdce"}], "name": "Toto Cutugno", "followers": {"total": 46045, "href": null}, "id": "6elIiwc8OyeqKxXe2rmPXZ"}, {"type": "artist", "external_urls": {"spotify": "https://open.spotify.com/artist/1Mj0XQhXbzIXfoWTN391N6"}, "uri": "spotify:artist:1Mj0XQhXbzIXfoWTN391N6", "href": "https://api.spotify.com/v1/artists/1Mj0XQhXbzIXfoWTN391N6", "genres": [], "popularity": 62, "images": [{"height": 640, "width": 640, "url": "https://i.scdn.co/image/e828b33763f236e7e8f8d9c9bc2782b8c32746a1"}, {"height": 320, "width": 320, "url": "https://i.scdn.co/image/e1f01f86c1b8b2763f272eaa466a545b51318bd2"}, {"height": 160, "width": 160, "url": "https://i.scdn.co/image/d407dbc9c9ac23fe36175f520a481981cfc97a39"}], "name": "Kiddo Toto", "followers": {"total": 17974, "href": null}, "id": "1Mj0XQhXbzIXfoWTN391N6"}, {"type": "artist", "external_urls": {"spotify": "https://open.spotify.com/artist/5yGh5A5zAzDYeAeSksnWiW"}, "uri": "spotify:artist:5yGh5A5zAzDYeAeSksnWiW", "href": "https://api.spotify.com/v1/artists/5yGh5A5zAzDYeAeSksnWiW", "genres": [], "popularity": 35, "images": [{"height": 640, "width": 640, "url": "https://i.scdn.co/image/d69dbaeda1a7a4aed2d7069e7c402c2494ceb910"}, {"height": 320, "width": 320, "url": "https://i.scdn.co/image/f93df8484d3a72e1d3f4b60540919d80f9c282cb"}, {"height": 160, "width": 160, "url": "https://i.scdn.co/image/9873761d4b304d28393d0e5e6bbe2cb746ca5160"}], "name": "Gerald Toto", "followers": {"total": 1671, "href": null}, "id": "5yGh5A5zAzDYeAeSksnWiW"}, {"type": "artist", "external_urls": {"spotify": "https://open.spotify.com/artist/0DBwNrdGSluzJl24pHRiOk"}, "uri": "spotify:artist:0DBwNrdGSluzJl24pHRiOk", "href": "https://api.spotify.com/v1/artists/0DBwNrdGSluzJl24pHRiOk", "genres": ["italian tech house"], "popularity": 32, "images": [{"height": 640, "width": 640, "url": "https://i.scdn.co/image/320273e161803dcebee8afcfb1cf99c92bb35c54"}, {"height": 320, "width": 320, "url": "https://i.scdn.co/image/0b2731918d5f60946aaaeb6b36541600b2433add"}, {"height": 160, "width": 160, "url": "https://i.scdn.co/image/08936d4e9a2531c9fe529e8c06005c305c56b1ee"}], "name": "Toto Chiavetta", "followers": {"total": 2665, "href": null}, "id": "0DBwNrdGSluzJl24pHRiOk"}, {"type": "artist", "external_urls": {"spotify": "https://open.spotify.com/artist/6J9jWZeMO2D14IJEO1gbmr"}, "uri": "spotify:artist:6J9jWZeMO2D14IJEO1gbmr", "href": "https://api.spotify.com/v1/artists/6J9jWZeMO2D14IJEO1gbmr", "genres": [], "popularity": 22, "images": [{"height": 640, "width": 640, "url": "https://i.scdn.co/image/afdb32fefab1d59e06827756bb37c32f948d09b3"}, {"height": 300, "width": 300, "url": "https://i.scdn.co/image/813a46a699e51af3fd848906779c1967beed6d29"}, {"height": 64, "width": 64, "url": "https://i.scdn.co/image/0a8950e87571a7f605eb3647345bcd30687fdf71"}], "name": "Toto Coelo", "followers": {"total": 1029, "href": null}, "id": "6J9jWZeMO2D14IJEO1gbmr"}, {"type": "artist", "external_urls": {"spotify": "https://open.spotify.com/artist/3vFDvFtR8VKEITzDa2ddKe"}, "uri": "spotify:artist:3vFDvFtR8VKEITzDa2ddKe", "href": "https://api.spotify.com/v1/artists/3vFDvFtR8VKEITzDa2ddKe", "genres": ["acoustic opm"], "popularity": 35, "images": [{"height": 640, "width": 640, "url": "https://i.scdn.co/image/50964939e74d3dd75c2bf0ddafdcf9145b8ae3bb"}, {"height": 320, "width": 320, "url": "https://i.scdn.co/image/0109f512f9a2e18b4cfeb422304914a0999af65e"}, {"height": 160, "width": 160, "url": "https://i.scdn.co/image/a57f1e70e56c78e7b2d57f7d8ff76bda51364ddf"}], "name": "Toto Sorioso", "followers": {"total": 1196, "href": null}, "id": "3vFDvFtR8VKEITzDa2ddKe"}, {"type": "artist", "external_urls": {"spotify": "https://open.spotify.com/artist/2RLCBdgug0tYFPbicFTQow"}, "uri": "spotify:artist:2RLCBdgug0tYFPbicFTQow", "href": "https://api.spotify.com/v1/artists/2RLCBdgug0tYFPbicFTQow", "genres": [], "popularity": 11, "images": [], "name": "Toto Flingo", "followers": {"total": 0, "href": null}, "id": "2RLCBdgug0tYFPbicFTQow"}, {"type": "artist", "external_urls": {"spotify": "https://open.spotify.com/artist/2FuKS7GsD89q336FtXQW05"}, "uri": "spotify:artist:2FuKS7GsD89q336FtXQW05", "href": "https://api.spotify.com/v1/artists/2FuKS7GsD89q336FtXQW05", "genres": ["kompa"], "popularity": 15, "images": [{"height": 640, "width": 640, "url": "https://i.scdn.co/image/ab67616d0000b273f9dba8ca16a6d66c27fcd550"}, {"height": 300, "width": 300, "url": "https://i.scdn.co/image/ab67616d00001e02f9dba8ca16a6d66c27fcd550"}, {"height": 64, "width": 64, "url": "https://i.scdn.co/image/ab67616d00004851f9dba8ca16a6d66c27fcd550"}], "name": "Toto N\u00e9cessit\u00e9", "followers": {"total": 1373, "href": null}, "id": "2FuKS7GsD89q336FtXQW05"}], "limit": 10, "previous": null}}