{"artists": {"next": "https://api.spotify.com/v1/search?query=artist%3AGorillaz&type=artist&offset=10&limit=10", "total": 16, "href": "https://api.spotify.com/v1/search?query=artist%3AGorillaz&type=artist&offset=0&limit=10", "offset": 0, "items": [{"type": "artist", "external_urls": {"spotify": "https://open.spotify.com/artist/3AA28KZvwAUcZuOKwyblJQ"}, "uri": "spotify:artist:3AA28KZvwAUcZuOKwyblJQ", "href": "https://api.spotify.com/v1/artists/3AA28KZvwAUcZuOKwyblJQ", "genres": ["alternative hip hop", "art pop", "rock"], "popularity": 79, "images": [{"height": 640, "width": 640, "url": "https://i.scdn.co/image/65337ddeabde0998208cd7c1da6f2fc11a915f89"}, {"height": 320, "width": 320, "url": "https://i.scdn.co/image/158c6c5fe8d28382cdaf359ec9e021233fba8b45"}, {"height": 160, "width": 160, "url": "https://i.scdn.co/image/9982493f3b6576e9ccc9f195650afb69e0b24a72"}], "name": "Gorillaz", "followers": {"total": 4791073, "href": null}, "id": "3AA28KZvwAUcZuOKwyblJQ"}, {"type": "artist", "external_urls": {"spotify": "https://open.spotify.com/artist/0AnzADJxsrc6Kgnv4AqwDw"}, "uri": "spotify:artist:0AnzADJxsrc6Kgnv4AqwDw", "href": "https://api.spotify.com/v1/artists/0AnzADJxsrc6Kgnv4AqwDw", "genres": [], "popularity": 5, "images": [{"height": 640, "width": 640, "url": "https://i.scdn.co/image/ab67616d0000b273e3fb3154db88c369f9868f9c"}, {"height": 300, "width": 300, "url": "https://i.scdn.co/image/ab67616d00001e02e3fb3154db88c369f9868f9c"}, {"height": 64, "width": 64, "url": "https://i.scdn.co/image/ab67616d00004851e3fb3154db88c369f9868f9c"}], "name": "Red Gorillaz", "followers": {"total": 425, "href": null}, "id": "0AnzADJxsrc6Kgnv4AqwDw"}, {"type": "artist", "external_urls": {"spotify": "https://open.spotify.com/artist/13lvpAnM9chgENNOOvLECT"}, "uri": "spotify:artist:13lvpAnM9chgENNOOvLECT", "href": "https://api.spotify.com/v1/artists/13lvpAnM9chgENNOOvLECT", "genres": [], "popularity": 0, "images": [{"height": 640, "width": 640, "url": "https://i.scdn.co/image/ab67616d0000b273295508bf05f1a45107d409bf"}, {"height": 300, "width": 300, "url": "https://i.scdn.co/image/ab67616d00001e02295508bf05f1a45107d409bf"}, {"height": 64, "width": 64, "url": "https://i.scdn.co/image/ab67616d00004851295508bf05f1a45107d409bf"}], "name": "Vanilla Gorillaz", "followers": {"total": 16, "href": null}, "id": "13lvpAnM9chgENNOOvLECT"}, {"type": "artist", "external_urls": {"spotify": "https://open.spotify.com/artist/3hjp2GfGJGyjiplu9FPE1m"}, "uri": "spotify:artist:3hjp2GfGJGyjiplu9FPE1m", "href": "https://api.spotify.com/v1/artists/3hjp2GfGJGyjiplu9FPE1m", "genres": [], "popularity": 0, "images": [{"height": 640, "width": 640, "url": "https://i.scdn.co/image/ab67616d0000b2735e67b520ad26102c1b2817d8"}, {"height": 300, "width": 300, "url": "https://i.scdn.co/image/ab67616d00001e025e67b520ad26102c1b2817d8"}, {"height": 64, "width": 64, "url": "https://i.scdn.co/image/ab67616d000048515e67b520ad26102c1b2817d8"}], "name": "Illa Gorillaz", "followers": {"total": 198, "href": null}, "id": "3hjp2GfGJGyjiplu9FPE1m"}, {"type": "artist", "external_urls": {"spotify": "https://open.spotify.com/artist/44UwNbMvH3LL0X88vaqLM4"}, "uri": "spotify:artist:44UwNbMvH3LL0X88vaqLM4", "href": "https://api.spotify.com/v1/artists/44UwNbMvH3LL0X88vaqLM4", "genres": [], "popularity": 0, "images": [{"height": 640, "width": 640, "url": "https://i.scdn.co/image/ab67616d0000b273af1332bbf8c48bb830478d02"}, {"height": 300, "width": 300, "url": "https://i.scdn.co/image/ab67616d00001e02af1332bbf8c48bb830478d02"}, {"height": 64, "width": 64, "url": "https://i.scdn.co/image/ab67616d00004851af1332bbf8c48bb830478d02"}], "name": "I.n.s gorillaz", "followers": {"total": 28, "href": null}, "id": "44UwNbMvH3LL0X88vaqLM4"}, {"type": "artist", "external_urls": {"spotify": "https://open.spotify.com/artist/45WNgk9ahBlxT1cvT0rcH5"}, "uri": "spotify:artist:45WNgk9ahBlxT1cvT0rcH5", "href": "https://api.spotify.com/v1/artists/45WNgk9ahBlxT1cvT0rcH5", "genres": [], "popularity": 0, "images": [{"height": 640, "width": 640, "url": "https://i.scdn.co/image/ab67616d0000b27382d2d7b8b509e147e44f0b3a"}, {"height": 300, "width": 300, "url": "https://i.scdn.co/image/ab67616d00001e0282d2d7b8b509e147e44f0b3a"}, {"height": 64, "width": 64, "url": "https://i.scdn.co/image/ab67616d0000485182d2d7b8b509e147e44f0b3a"}], "name": "Untamed Gorillaz", "followers": {"total": 39, "href": null}, "id": "45WNgk9ahBlxT1cvT0rcH5"}, {"type": "artist", "external_urls": {"spotify": "https://open.spotify.com/artist/45ZlAYj33stOvxOBLlYDnK"}, "uri": "spotify:artist:45ZlAYj33stOvxOBLlYDnK", "href": "https://api.spotify.com/v1/artists/45ZlAYj33stOvxOBLlYDnK", "genres": [], "popularity": 0, "images": [{"height": 640, "width": 640, "url": "https://i.scdn.co/image/ab67616d0000b27302d1dff3859cce25745689c6"}, {"height": 300, "width": 300, "url": "https://i.scdn.co/image/ab67616d00001e0202d1dff3859cce25745689c6"}, {"height": 64, "width": 64, "url": "https://i.scdn.co/image/ab67616d0000485102d1dff3859cce25745689c6"}], "name": "Albino Gorillaz", "followers": {"total": 11, "href": null}, "id": "45ZlAYj33stOvxOBLlYDnK"}, {"type": "artist", "external_urls": {"spotify": "https://open.spotify.com/artist/4czaLY1WbjfWbmdjpzIwUQ"}, "uri": "spotify:artist:4czaLY1WbjfWbmdjpzIwUQ", "href": "https://api.spotify.com/v1/artists/4czaLY1WbjfWbmdjpzIwUQ", "genres": [], "popularity": 0, "images": [{"height": 640, "width": 640, "url": "https://i.scdn.co/image/ab67616d0000b27334b88622f848a6ab3805ff69"}, {"height": 300, "width": 300, "url": "https://i.scdn.co/image/ab67616d00001e0234b88622f848a6ab3805ff69"}, {"height": 64, "width": 64, "url": "https://i.scdn.co/image/ab67616d0000485134b88622f848a6ab3805ff69"}], "name": "Silverback Gorillaz", "followers": {"total": 3, "href": null}, "id": "4czaLY1WbjfWbmdjpzIwUQ"}, {"type": "artist", "external_urls": {"spotify": "https://open.spotify.com/artist/4fjsFjUrcMsdHdobWU8BSh"}, "uri": "spotify:artist:4fjsFjUrcMsdHdobWU8BSh", "href": "https://api.spotify.com/v1/artists/4fjsFjUrcMsdHdobWU8BSh", "genres": [], "popularity": 0, "images": [{"height": 640, "width": 640, "url": "https://i.scdn.co/image/ab67616d0000b273f8af97abf48df541d4a08fd8"}, {"height": 300, "width": 300, "url": "https://i.scdn.co/image/ab67616d00001e02f8af97abf48df541d4a08fd8"}, {"height": 64, "width": 64, "url": "https://i.scdn.co/image/ab67616d00004851f8af97abf48df541d4a08fd8"}], "name": "Suluie Gorillaz", "followers": {"total": 23, "href": null}, "id": "4fjsFjUrcMsdHdobWU8BSh"}, {"type": "artist", "external_urls": {"spotify": "https://open.spotify.com/artist/4srvb5WHQsfDUaIkClivEY"}, "uri": "spotify:artist:4srvb5WHQsfDUaIkClivEY", "href": "https://api.spotify.com/v1/artists/4srvb5WHQsfDUaIkClivEY", "genres": [], "popularity": 0, "images": [], "name": "Pink Gorillaz", "followers": {"total": 7, "href": null}, "id": "4srvb5WHQsfDUaIkClivEY"}], "limit": 10, "previous": null}}