{"artists": {"next": "https://api.spotify.com/v1/search?query=artist%3AThe+Cure&type=artist&offset=10&limit=10", "total": 30, "href": "https://api.spotify.com/v1/search?query=artist%3AThe+Cure&type=artist&offset=0&limit=10", "offset": 0, "items": [{"type": "artist", "external_urls": {"spotify": "https://open.spotify.com/artist/7bu3H8JO7d0UbMoVzbo70s"}, "uri": "spotify:artist:7bu3H8JO7d0UbMoVzbo70s", "href": "https://api.spotify.com/v1/artists/7bu3H8JO7d0UbMoVzbo70s", "genres": ["dance rock", "new romantic", "new wave", "permanent wave", "rock"], "popularity": 76, "images": [{"height": 640, "width": 640, "url": "https://i.scdn.co/image/7ca743e822b80133971ccf5c70fcbd77a4f4f508"}, {"height": 200, "width": 200, "url": "https://i.scdn.co/image/2cb2e14783685fd3d27006891aaaa35fc53cd82d"}, {"height": 64, "width": 64, "url": "https://i.scdn.co/image/9e1ed6613ac0ef103fbfca3c11ff35fec8d9c6b1"}], "name": "The Cure", "followers": {"total": 2191592, "href": null}, "id": "7bu3H8JO7d0UbMoVzbo70s"}, {"type": "artist", "external_urls": {"spotify": "https://open.spotify.com/artist/2PtmXtHGHD5DKryjupo1K9"}, "uri": "spotify:artist:2PtmXtHGHD5DKryjupo1K9", "href": "https://api.spotify.com/v1/artists/2PtmXtHGHD5DKryjupo1K9", "genres": [], "popularity": 19, "images": [{"height": 640, "width": 640, "url": "https://i.scdn.co/image/ab67616d0000b27385045262347459c536626a5d"}, {"height": 300, "width": 300, "url": "https://i.scdn.co/image/ab67616d00001e0285045262347459c536626a5d"}, {"height": 64, "width": 64, "url": "https://i.scdn.co/image/ab67616d0000485185045262347459c536626a5d"}], "name": "Cure the Common", "followers": {"total": 508, "href": null}, "id": "2PtmXtHGHD5DKryjupo1K9"}, {"type": "artist", "external_urls": {"spotify": "https://open.spotify.com/artist/5uQxynzaPs934N0LoYZU0Z"}, "uri": "spotify:artist:5uQxynzaPs934N0LoYZU0Z", "href": "https://api.spotify.com/v1/artists/5uQxynzaPs934N0LoYZU0Z", "genres": [], "popularity": 12, "images": [{"height": 640, "width": 640, "url": "https://i.scdn.co/image/ab67616d0000b273cfa9ee62c224da3b6b7b5c1b"}, {"height": 300, "width": 300, "url": "https://i.scdn.co/image/ab67616d00001e02cfa9ee62c224da3b6b7b5c1b"}, {"height": 64, "width": 64, "url": "https://i.scdn.co/image/ab67616d00004851cfa9ee62c224da3b6b7b5c1b"}], "name": "The Cure-Alls", "followers": {"total": 69, "href": null}, "id": "5uQxynzaPs934N0LoYZU0Z"}, {"type": "artist", "external_urls": {"spotify": "https://open.spotify.com/artist/7MtXNCQVmb5ArefebyDKDa"}, "uri": "spotify:artist:7MtXNCQVmb5ArefebyDKDa", "href": "https://api.spotify.com/v1/artists/7MtXNCQVmb5ArefebyDKDa", "genres": ["canadian post-hardcore"], "popularity": 10, "images": [{"height": 640, "width": 640, "url": "https://i.scdn.co/image/cdcd97825082cd9252cccb00cd66197a6b61b30d"}, {"height": 320, "width": 320, "url": "https://i.scdn.co/image/0ed8768d39e7c76b25979525ffe53d7a820d0610"}, {"height": 160, "width": 160, "url": "https://i.scdn.co/image/bb0e4b58b6ed2b3c07554fdd163fb1f1a6550c6f"}], "name": "The Ocean Cure", "followers": {"total": 455, "href": null}, "id": "7MtXNCQVmb5ArefebyDKDa"}, {"type": "artist", "external_urls": {"spotify": "https://open.spotify.com/artist/2zLjnIKn8G0PR6rmuTwVln"}, "uri": "spotify:artist:2zLjnIKn8G0PR6rmuTwVln", "href": "https://api.spotify.com/v1/artists/2zLjnIKn8G0PR6rmuTwVln", "genres": [], "popularity": 3, "images": [{"height": 640, "width": 640, "url": "https://i.scdn.co/image/ab67616d0000b273ee42058a41e4d0976b40897c"}, {"height": 300, "width": 300, "url": "https://i.scdn.co/image/ab67616d00001e02ee42058a41e4d0976b40897c"}, {"height": 64, "width": 64, "url": "https://i.scdn.co/image/ab67616d00004851ee42058a41e4d0976b40897c"}], "name": "The Cure", "followers": {"total": 2939, "href": null}, "id": "2zLjnIKn8G0PR6rmuTwVln"}, {"type": "artist", "external_urls": {"spotify": "https://open.spotify.com/artist/6CsZaqXBsgoxed36xFTzl7"}, "uri": "spotify:artist:6CsZaqXBsgoxed36xFTzl7", "href": "https://api.spotify.com/v1/artists/6CsZaqXBsgoxed36xFTzl7", "genres": ["montana indie"], "popularity": 2, "images": [{"height": 640, "width": 640, "url": "https://i.scdn.co/image/ab67616d0000b273a81e7c830b836224951c1bd3"}, {"height": 300, "width": 300, "url": "https://i.scdn.co/image/ab67616d00001e02a81e7c830b836224951c1bd3"}, {"height": 64, "width": 64, "url": "https://i.scdn.co/image/ab67616d00004851a81e7c830b836224951c1bd3"}], "name": "Cure for the Common", "followers": {"total": 432, "href": null}, "id": "6CsZaqXBsgoxed36xFTzl7"}, {"type": "artist", "external_urls": {"spotify": "https://open.spotify.com/artist/0GdG2Zi4kps2xuVoOrqc41"}, "uri": "spotify:artist:0GdG2Zi4kps2xuVoOrqc41", "href": "https://api.spotify.com/v1/artists/0GdG2Zi4kps2xuVoOrqc41", "genres": [], "popularity": 0, "images": [{"height": 640, "width": 640, "url": "https://i.scdn.co/image/4ad224d6b5934c158808832bd52615c69f81a64f"}, {"height": 300, "width": 300, "url": "https://i.scdn.co/image/ce52500bf403495d32a2f99dbec77cdbb761947b"}, {"height": 64, "width": 64, "url": "https://i.scdn.co/image/63b298e678790a495acb73ecbfdf52b7818c6b6a"}], "name": "Cure the Curse", "followers": {"total": 3, "href": null}, "id": "0GdG2Zi4kps2xuVoOrqc41"}, {"type": "artist", "external_urls": {"spotify": "https://open.spotify.com/artist/0HBygw0Pu7JomOmtGJVtHk"}, "uri": "spotify:artist:0HBygw0Pu7JomOmtGJVtHk", "href": "https://api.spotify.com/v1/artists/0HBygw0Pu7JomOmtGJVtHk", "genres": [], "popularity": 0, "images": [{"height": 640, "width": 640, "url": "https://i.scdn.co/image/ab67616d0000b273d4a9a064147a99eb2bf06ee5"}, {"height": 300, "width": 300, "url": "https://i.scdn.co/image/ab67616d00001e02d4a9a064147a99eb2bf06ee5"}, {"height": 64, "width": 64, "url": "https://i.scdn.co/image/ab67616d00004851d4a9a064147a99eb2bf06ee5"}], "name": "The Venom Cure", "followers": {"total": 18, "href": null}, "id": "0HBygw0Pu7JomOmtGJVtHk"}, {"type": "artist", "external_urls": {"spotify": "https://open.spotify.com/artist/0lqn99f3saKoIE7JaEWReS"}, "uri": "spotify:artist:0lqn99f3saKoIE7JaEWReS", "href": "https://api.spotify.com/v1/artists/0lqn99f3saKoIE7JaEWReS", "genres": [], "popularity": 3, "images": [{"height": 640, "width": 640, "url": "https://i.scdn.co/image/ab67616d0000b273b8f21577abb8f8c5fe4a88cd"}, {"height": 300, "width": 300, "url": "https://i.scdn.co/image/ab67616d00001e02b8f21577abb8f8c5fe4a88cd"}, {"height": 64, "width": 64, "url": "https://i.scdn.co/image/ab67616d00004851b8f21577abb8f8c5fe4a88cd"}], "name": "The Lexington Cure", "followers": {"total": 17, "href": null}, "id": "0lqn99f3saKoIE7JaEWReS"}, {"type": "artist", "external_urls": {"spotify": "https://open.spotify.com/artist/1Me8AE6W6Q7DUo2gYKNvrk"}, "uri": "spotify:artist:1Me8AE6W6Q7DUo2gYKNvrk", "href": "https://api.spotify.com/v1/artists/1Me8AE6W6Q7DUo2gYKNvrk", "genres": [], "popularity": 1, "images": [{"height": 640, "width": 640, "url": "https://i.scdn.co/image/ab67616d0000b273bd2ef1eaf93bfa65887d242d"}, {"height": 300, "width": 300, "url": "https://i.scdn.co/image/ab67616d00001e02bd2ef1eaf93bfa65887d242d"}, {"height": 64, "width": 64, "url": "https://i.scdn.co/image/ab67616d00004851bd2ef1eaf93bfa65887d242d"}], "name": "Jaiden the Cure", "followers": {"total": 57, "href": null}, "id": "1Me8AE6W6Q7DUo2gYKNvrk"}], "limit": 10, "previous": null}}