{"artists": {"total": 12, "offset": 0, "limit": 10, "next": "https://api.spotify.com/v1/search?query=artist%3AKaty+Perry&type=artist&offset=10&limit=10", "href": "https://api.spotify.com/v1/search?query=artist%3AKaty+Perry&type=artist&offset=0&limit=10", "items": [{"href": "https://api.spotify.com/v1/artists/6jJ0s89eD6GaHleKKya26X", "name": "Katy Perry", "popularity": 86, "uri": "spotify:artist:6jJ0s89eD6GaHleKKya26X", "type": "artist", "images": [{"url": "https://i.scdn.co/image/de737e8c8ea06501da9f0a3c2a6a5c3a37bdd816", "width": 640, "height": 640}, {"url": "https://i.scdn.co/image/bdec2fe20284fa9f4eac36b5d2ad6df3faf89346", "width": 320, "height": 320}, {"url": "https://i.scdn.co/image/9fbbb6a80fc61ed1b83d886f382349fa474784f4", "width": 160, "height": 160}], "followers": {"total": 13955842, "href": null}, "genres": ["dance pop", "pop", "post-teen pop"], "external_urls": {"spotify": "https://open.spotify.com/artist/6jJ0s89eD6GaHleKKya26X"}, "id": "6jJ0s89eD6GaHleKKya26X"}, {"href": "https://api.spotify.com/v1/artists/5He6InD3axXIVS3SCQPFp6", "name": "Perry Katy", "popularity": 0, "uri": "spotify:artist:5He6InD3axXIVS3SCQPFp6", "type": "artist", "images": [{"url": "https://i.scdn.co/image/ab67616d0000b273d47fc24836db6d47bcd2c5c1", "width": 640, "height": 640}, {"url": "https://i.scdn.co/image/ab67616d00001e02d47fc24836db6d47bcd2c5c1", "width": 300, "height": 300}, {"url": "https://i.scdn.co/image/ab67616d00004851d47fc24836db6d47bcd2c5c1", "width": 64, "height": 64}], "followers": {"total": 347, "href": null}, "genres": [], "external_urls": {"spotify": "https://open.spotify.com/artist/5He6InD3axXIVS3SCQPFp6"}, "id": "5He6InD3axXIVS3SCQPFp6"}, {"href": "https://api.spotify.com/v1/artists/66baY8S7blE6glpQW35Wtf", "name": "Made Famous By Katy Perry & Snoop Dogg", "popularity": 9, "uri": "spotify:artist:66baY8S7blE6glpQW35Wtf", "type": "artist", "images": [], "followers": {"total": 97, "href": null}, "genres": [], "external_urls": {"spotify": "https://open.spotify.com/artist/66baY8S7blE6glpQW35Wtf"}, "id": "66baY8S7blE6glpQW35Wtf"}, {"href": "https://api.spotify.com/v1/artists/2wqobWgvgDpmCH6A5f6EbR", "name": "Katy Perry Tribute", "popularity": 1, "uri": "spotify:artist:2wqobWgvgDpmCH6A5f6EbR", "type": "artist", "images": [{"url": "https://i.scdn.co/image/ab67616d0000b273be519fce1f118053f4df4028", "width": 640, "height": 640}, {"url": "https://i.scdn.co/image/ab67616d00001e02be519fce1f118053f4df4028", "width": 300, "height": 300}, {"url": "https://i.scdn.co/image/ab67616d00004851be519fce1f118053f4df4028", "width": 64, "height": 64}], "followers": {"total": 173, "href": null}, "genres": [], "external_urls": {"spotify": "https://open.spotify.com/artist/2wqobWgvgDpmCH6A5f6EbR"}, "id": "2wqobWgvgDpmCH6A5f6EbR"}, {"href": "https://api.spotify.com/v1/artists/3bvKQjoxbJJjytqNVkAN98", "name": "Katy Perry Tribute Team", "popularity": 1, "uri": "spotify:artist:3bvKQjoxbJJjytqNVkAN98", "type": "artist", "images": [{"url": "https://i.scdn.co/image/ab67616d0000b273680e12214abc7edbd877a0f7", "width": 640, "height": 640}, {"url": "https://i.scdn.co/image/ab67616d00001e02680e12214abc7edbd877a0f7", "width": 300, "height": 300}, {"url": "https://i.scdn.co/image/ab67616d00004851680e12214abc7edbd877a0f7", "width": 64, "height": 64}], "followers": {"total": 158, "href": null}, "genres": [], "external_urls": {"spotify": "https://open.spotify.com/artist/3bvKQjoxbJJjytqNVkAN98"}, "id": "3bvKQjoxbJJjytqNVkAN98"}, {"href": "https://api.spotify.com/v1/artists/57EpMiVlwVnv2kvGskCA1k", "name": "Tribute To Katy Perry", "popularity": 2, "uri": "spotify:artist:57EpMiVlwVnv2kvGskCA1k", "type": "artist", "images": [{"url": "https://i.scdn.co/image/73d7cd65685d97c1253119095c53cbc4c0fed6ec", "width": 640, "height": 640}, {"url": "https://i.scdn.co/image/7e024ebf0b4fa37bdd6d91982d8961953d0d0e1a", "width": 300, "height": 300}, {"url": "https://i.scdn.co/image/8b0f3b409d9c6dddd4229718e92050b6bfca8287", "width": 64, "height": 64}], "followers": {"total": 608, "href": null}, "genres": [], "external_urls": {"spotify": "https://open.spotify.com/artist/57EpMiVlwVnv2kvGskCA1k"}, "id": "57EpMiVlwVnv2kvGskCA1k"}, {"href": "https://api.spotify.com/v1/artists/5w5kwkHlfcpNxOSBDYEuk5", "name": "Katy Perry Karaoke Band", "popularity": 0, "uri": "spotify:artist:5w5kwkHlfcpNxOSBDYEuk5", "type": "artist", "images": [{"url": "https://i.scdn.co/image/ab67616d0000b2739bfa7cfd3fda823475e9a695", "width": 640, "height": 640}, {"url": "https://i.scdn.co/image/ab67616d00001e029bfa7cfd3fda823475e9a695", "width": 300, "height": 300}, {"url": "https://i.scdn.co/image/ab67616d000048519bfa7cfd3fda823475e9a695", "width": 64, "height": 64}], "followers": {"total": 93, "href": null}, "genres": [], "external_urls": {"spotify": "https://open.spotify.com/artist/5w5kwkHlfcpNxOSBDYEuk5"}, "id": "5w5kwkHlfcpNxOSBDYEuk5"}, {"href": "https://api.spotify.com/v1/artists/72S9ffNvi1wam83yQV05fH", "name": "Katy Perry Karaoke's Band", "popularity": 2, "uri": "spotify:artist:72S9ffNvi1wam83yQV05fH", "type": "artist", "images": [{"url": "https://i.scdn.co/image/ab67616d0000b27308942b1efe2adb9eb5516337", "width": 640, "height": 640}, {"url": "https://i.scdn.co/image/ab67616d00001e0208942b1efe2adb9eb5516337", "width": 300, "height": 300}, {"url": "https://i.scdn.co/image/ab67616d0000485108942b1efe2adb9eb5516337", "width": 64, "height": 64}], "followers": {"total": 119, "href": null}, "genres": [], "external_urls": {"spotify": "https://open.spotify.com/artist/72S9ffNvi1wam83yQV05fH"}, "id": "72S9ffNvi1wam83yQV05fH"}, {"href": "https://api.spotify.com/v1/artists/076jUf2hFwIMOhSXS626Op", "name": "#1 Katy Perry Tribute Band", "popularity": 0, "uri": "spotify:artist:076jUf2hFwIMOhSXS626Op", "type": "artist", "images": [{"url": "https://i.scdn.co/image/ab67616d0000b273fe17c339bdec820d9bcb3333", "width": 640, "height": 640}, {"url": "https://i.scdn.co/image/ab67616d00001e02fe17c339bdec820d9bcb3333", "width": 300, "height": 300}, {"url": "https://i.scdn.co/image/ab67616d00004851fe17c339bdec820d9bcb3333", "width": 64, "height": 64}], "followers": {"total": 115, "href": null}, "genres": [], "external_urls": {"spotify": "https://open.spotify.com/artist/076jUf2hFwIMOhSXS626Op"}, "id": "076jUf2hFwIMOhSXS626Op"}, {"href": "https://api.spotify.com/v1/artists/5b49WYJaBmap5HcqecZL6g", "name": "Katy Perry Piano Tribute Performers", "popularity": 0, "uri": "spotify:artist:5b49WYJaBmap5HcqecZL6g", "type": "artist", "images": [{"url": "https://i.scdn.co/image/ab67616d0000b2737d4ccf387af77ad35d898082", "width": 640, "height": 640}, {"url": "https://i.scdn.co/image/ab67616d00001e027d4ccf387af77ad35d898082", "width": 300, "height": 300}, {"url": "https://i.scdn.co/image/ab67616d000048517d4ccf387af77ad35d898082", "width": 64, "height": 64}], "followers": {"total": 80, "href": null}, "genres": [], "external_urls": {"spotify": "https://open.spotify.com/artist/5b49WYJaBmap5HcqecZL6g"}, "id": "5b49WYJaBmap5HcqecZL6g"}], "previous": null}}