{"artists": {"total": 69, "offset": 0, "limit": 10, "next": "https://api.spotify.com/v1/search?query=artist%3AThe+Killers&type=artist&offset=10&limit=10", "href": "https://api.spotify.com/v1/search?query=artist%3AThe+Killers&type=artist&offset=0&limit=10", "items": [{"href": "https://api.spotify.com/v1/artists/0C0XlULifJtAgn6ZNCW2eu", "name": "The Killers", "popularity": 79, "uri": "spotify:artist:0C0XlULifJtAgn6ZNCW2eu", "type": "artist", "images": [{"url": "https://i.scdn.co/image/a841f0ee4f2d88c42f55f76c2cc6b588841f5d2f", "width": 500, "height": 500}, {"url": "https://i.scdn.co/image/c47117e331659695a4674b48d23003708be3fb77", "width": 200, "height": 200}, {"url": "https://i.scdn.co/image/35eb446a46cf7ba603b540b88a5cb4ec219a9f02", "width": 64, "height": 64}], "followers": {"total": 4876938, "href": null}, "genres": ["indie rock", "modern rock", "permanent wave", "rock"], "external_urls": {"spotify": "https://open.spotify.com/artist/0C0XlULifJtAgn6ZNCW2eu"}, "id": "0C0XlULifJtAgn6ZNCW2eu"}, {"href": "https://api.spotify.com/v1/artists/3do7OIiTLJkRcWn4VD4116", "name": "The Karma Killers", "popularity": 22, "uri": "spotify:artist:3do7OIiTLJkRcWn4VD4116", "type": "artist", "images": [{"url": "https://i.scdn.co/image/b9015b139376f61a23500b072757885d447fb46b", "width": 1000, "height": 1000}, {"url": "https://i.scdn.co/image/3e3799e38866d2ddd819e8ce06861fb06215c891", "width": 640, "height": 640}, {"url": "https://i.scdn.co/image/42706a07ef8c58b31dee99938e11d33368491753", "width": 200, "height": 200}, {"url": "https://i.scdn.co/image/982544d35f8d5be8213582cad467e253a7e180bb", "width": 64, "height": 64}], "followers": {"total": 2178, "href": null}, "genres": ["indie rockism"], "external_urls": {"spotify": "https://open.spotify.com/artist/3do7OIiTLJkRcWn4VD4116"}, "id": "3do7OIiTLJkRcWn4VD4116"}, {"href": "https://api.spotify.com/v1/artists/3qLzl5NnEuOcfeTghVY3QZ", "name": "The Triple Killers", "popularity": 24, "uri": "spotify:artist:3qLzl5NnEuOcfeTghVY3QZ", "type": "artist", "images": [], "followers": {"total": 34, "href": null}, "genres": [], "external_urls": {"spotify": "https://open.spotify.com/artist/3qLzl5NnEuOcfeTghVY3QZ"}, "id": "3qLzl5NnEuOcfeTghVY3QZ"}, {"href": "https://api.spotify.com/v1/artists/7E6hOwVznxKBLIEFnnbwmC", "name": "The Honeymoon Killers", "popularity": 12, "uri": "spotify:artist:7E6hOwVznxKBLIEFnnbwmC", "type": "artist", "images": [{"url": "https://i.scdn.co/image/ab67616d0000b27379a67df4bd8b2d9a75a6b4d3", "width": 640, "height": 640}, {"url": "https://i.scdn.co/image/ab67616d00001e0279a67df4bd8b2d9a75a6b4d3", "width": 300, "height": 300}, {"url": "https://i.scdn.co/image/ab67616d0000485179a67df4bd8b2d9a75a6b4d3", "width": 64, "height": 64}], "followers": {"total": 704, "href": null}, "genres": ["zolo"], "external_urls": {"spotify": "https://open.spotify.com/artist/7E6hOwVznxKBLIEFnnbwmC"}, "id": "7E6hOwVznxKBLIEFnnbwmC"}, {"href": "https://api.spotify.com/v1/artists/6cmNzSaJnjoD3yF6WgznrK", "name": "The Little Killers", "popularity": 5, "uri": "spotify:artist:6cmNzSaJnjoD3yF6WgznrK", "type": "artist", "images": [{"url": "https://i.scdn.co/image/5626ebfa6ad6b562407555d10b26531a89b0569b", "width": 1000, "height": 688}, {"url": "https://i.scdn.co/image/8dd4799baf395c239790c6329c79cef0559eefda", "width": 640, "height": 441}, {"url": "https://i.scdn.co/image/d4576c07feb0ab151e05642be26567d9b2d57f24", "width": 200, "height": 138}, {"url": "https://i.scdn.co/image/ab58b207af758021f908316d62d61bb6c826bc53", "width": 64, "height": 44}], "followers": {"total": 847, "href": null}, "genres": ["punk blues"], "external_urls": {"spotify": "https://open.spotify.com/artist/6cmNzSaJnjoD3yF6WgznrK"}, "id": "6cmNzSaJnjoD3yF6WgznrK"}, {"href": "https://api.spotify.com/v1/artists/7axXOkUtclzookTMlcyUiM", "name": "The Ice Cold Killers", "popularity": 4, "uri": "spotify:artist:7axXOkUtclzookTMlcyUiM", "type": "artist", "images": [{"url": "https://i.scdn.co/image/ab67616d0000b2735dfcf67d476ec227d00bfce3", "width": 640, "height": 640}, {"url": "https://i.scdn.co/image/ab67616d00001e025dfcf67d476ec227d00bfce3", "width": 300, "height": 300}, {"url": "https://i.scdn.co/image/ab67616d000048515dfcf67d476ec227d00bfce3", "width": 64, "height": 64}], "followers": {"total": 62, "href": null}, "genres": [], "external_urls": {"spotify": "https://open.spotify.com/artist/7axXOkUtclzookTMlcyUiM"}, "id": "7axXOkUtclzookTMlcyUiM"}, {"href": "https://api.spotify.com/v1/artists/7mzzuhFduLNTGTbBcXBwEb", "name": "Jack Oblivian and the Dream Killers", "popularity": 6, "uri": "spotify:artist:7mzzuhFduLNTGTbBcXBwEb", "type": "artist", "images": [{"url": "https://i.scdn.co/image/ab67616d0000b2735a9e3ad71594133e2a085996", "width": 640, "height": 640}, {"url": "https://i.scdn.co/image/ab67616d00001e025a9e3ad71594133e2a085996", "width": 300, "height": 300}, {"url": "https://i.scdn.co/image/ab67616d000048515a9e3ad71594133e2a085996", "width": 64, "height": 64}], "followers": {"total": 66, "href": null}, "genres": [], "external_urls": {"spotify": "https://open.spotify.com/artist/7mzzuhFduLNTGTbBcXBwEb"}, "id": "7mzzuhFduLNTGTbBcXBwEb"}, {"href": "https://api.spotify.com/v1/artists/0LO8hPVLI3wJqC5TpQJFya", "name": "The Fat Killers", "popularity": 0, "uri": "spotify:artist:0LO8hPVLI3wJqC5TpQJFya", "type": "artist", "images": [], "followers": {"total": 0, "href": null}, "genres": [], "external_urls": {"spotify": "https://open.spotify.com/artist/0LO8hPVLI3wJqC5TpQJFya"}, "id": "0LO8hPVLI3wJqC5TpQJFya"}, {"href": "https://api.spotify.com/v1/artists/0Lo9vmJjkdKWMgJeNxC33t", "name": "The Cop Killers", "popularity": 0, "uri": "spotify:artist:0Lo9vmJjkdKWMgJeNxC33t", "type": "artist", "images": [{"url": "https://i.scdn.co/image/ab67616d0000b273b778386bc03e4319be749f01", "width": 640, "height": 640}, {"url": "https://i.scdn.co/image/ab67616d00001e02b778386bc03e4319be749f01", "width": 300, "height": 300}, {"url": "https://i.scdn.co/image/ab67616d00004851b778386bc03e4319be749f01", "width": 64, "height": 64}], "followers": {"total": 38, "href": null}, "genres": [], "external_urls": {"spotify": "https://open.spotify.com/artist/0Lo9vmJjkdKWMgJeNxC33t"}, "id": "0Lo9vmJjkdKWMgJeNxC33t"}, {"href": "https://api.spotify.com/v1/artists/0Q9s84pGj2A34pmXGNYzOv", "name": "The Beautiful Killers", "popularity": 0, "uri": "spotify:artist:0Q9s84pGj2A34pmXGNYzOv", "type": "artist", "images": [{"url": "https://i.scdn.co/image/ab67616d0000b273cfd392cbbd09f22d648d42ec", "width": 640, "height": 640}, {"url": "https://i.scdn.co/image/ab67616d00001e02cfd392cbbd09f22d648d42ec", "width": 300, "height": 300}, {"url": "https://i.scdn.co/image/ab67616d00004851cfd392cbbd09f22d648d42ec", "width": 64, "height": 64}], "followers": {"total": 5, "href": null}, "genres": [], "external_urls": {"spotify": "https://open.spotify.com/artist/0Q9s84pGj2A34pmXGNYzOv"}, "id": "0Q9s84pGj2A34pmXGNYzOv"}], "previous": null}}