{"artists": {"total": 95, "offset": 0, "limit": 10, "next": "https://api.spotify.com/v1/search?query=artist%3ASia&type=artist&offset=10&limit=10", "href": "https://api.spotify.com/v1/search?query=artist%3ASia&type=artist&offset=0&limit=10", "items": [{"href": "https://api.spotify.com/v1/artists/5WUlDfRSoLAfcVSX1WnrxN", "name": "Sia", "popularity": 85, "uri": "spotify:artist:5WUlDfRSoLAfcVSX1WnrxN", "type": "artist", "images": [{"url": "https://i.scdn.co/image/652b6bb0dfaf8aa444f4414ee018699260e74306", "width": 1000, "height": 1333}, {"url": "https://i.scdn.co/image/a82822ab211cbe28a0a1dbcb16902a1a8a2ea791", "width": 640, "height": 853}, {"url": "https://i.scdn.co/image/dd3e336d456172bbda56b543c5389e1490903a30", "width": 200, "height": 267}, {"url": "https://i.scdn.co/image/95a2aa98384b31336b8d56f8b470c45b12dcd550", "width": 64, "height": 85}], "followers": {"total": 14021110, "href": null}, "genres": ["australian dance", "australian pop", "dance pop", "pop"], "external_urls": {"spotify": "https://open.spotify.com/artist/5WUlDfRSoLAfcVSX1WnrxN"}, "id": "5WUlDfRSoLAfcVSX1WnrxN"}, {"href": "https://api.spotify.com/v1/artists/6vYYsmA7fdkIGOCPjAM7hM", "name": "Sia Furler", "popularity": 26, "uri": "spotify:artist:6vYYsmA7fdkIGOCPjAM7hM", "type": "artist", "images": [], "followers": {"total": 788, "href": null}, "genres": [], "external_urls": {"spotify": "https://open.spotify.com/artist/6vYYsmA7fdkIGOCPjAM7hM"}, "id": "6vYYsmA7fdkIGOCPjAM7hM"}, {"href": "https://api.spotify.com/v1/artists/09TByg0w14pxR1ktq6DIt6", "name": "Sia Babez", "popularity": 26, "uri": "spotify:artist:09TByg0w14pxR1ktq6DIt6", "type": "artist", "images": [{"url": "https://i.scdn.co/image/e3403955034d6a92df95aa1cac87a20c84997bd8", "width": 640, "height": 640}, {"url": "https://i.scdn.co/image/07630df05e21ff5fbd8e279e19cede73a84df1d8", "width": 320, "height": 320}, {"url": "https://i.scdn.co/image/beeee81585ae58b6d99426fbada36c112e05ae91", "width": 160, "height": 160}], "followers": {"total": 635, "href": null}, "genres": [], "external_urls": {"spotify": "https://open.spotify.com/artist/09TByg0w14pxR1ktq6DIt6"}, "id": "09TByg0w14pxR1ktq6DIt6"}, {"href": "https://api.spotify.com/v1/artists/4kUO7fQ1UaC7i5qscfXX8c", "name": "Sia Kiwa", "popularity": 20, "uri": "spotify:artist:4kUO7fQ1UaC7i5qscfXX8c", "type": "artist", "images": [], "followers": {"total": 3, "href": null}, "genres": [], "external_urls": {"spotify": "https://open.spotify.com/artist/4kUO7fQ1UaC7i5qscfXX8c"}, "id": "4kUO7fQ1UaC7i5qscfXX8c"}, {"href": "https://api.spotify.com/v1/artists/1B8AzN6Ydwa64DOdlk6s6s", "name": "Sia Samimi", "popularity": 8, "uri": "spotify:artist:1B8AzN6Ydwa64DOdlk6s6s", "type": "artist", "images": [], "followers": {"total": 13, "href": null}, "genres": [], "external_urls": {"spotify": "https://open.spotify.com/artist/1B8AzN6Ydwa64DOdlk6s6s"}, "id": "1B8AzN6Ydwa64DOdlk6s6s"}, {"href": "https://api.spotify.com/v1/artists/3CRgqzoWgBtvsl8aZ5mnTn", "name": "Ana Sia", "popularity": 5, "uri": "spotify:artist:3CRgqzoWgBtvsl8aZ5mnTn", "type": "artist", "images": [{"url": "https://i.scdn.co/image/285463943e29fb3d0ef34716188e657ec11e4e83", "width": 640, "height": 640}, {"url": "https://i.scdn.co/image/c01d874835cd898a34718501a15edf694e3bf6b9", "width": 320, "height": 320}, {"url": "https://i.scdn.co/image/59b0aa1cd751472fcbd2711b86b08e53d772dad0", "width": 160, "height": 160}], "followers": {"total": 1554, "href": null}, "genres": ["glitch hop"], "external_urls": {"spotify": "https://open.spotify.com/artist/3CRgqzoWgBtvsl8aZ5mnTn"}, "id": "3CRgqzoWgBtvsl8aZ5mnTn"}, {"href": "https://api.spotify.com/v1/artists/2c8C6NJx7VyLathetev2Og", "name": "Sia", "popularity": 19, "uri": "spotify:artist:2c8C6NJx7VyLathetev2Og", "type": "artist", "images": [], "followers": {"total": 637, "href": null}, "genres": [], "external_urls": {"spotify": "https://open.spotify.com/artist/2c8C6NJx7VyLathetev2Og"}, "id": "2c8C6NJx7VyLathetev2Og"}, {"href": "https://api.spotify.com/v1/artists/3lXue3OnYbBC9Ag6nWu0TL", "name": "Frances Sia", "popularity": 10, "uri": "spotify:artist:3lXue3OnYbBC9Ag6nWu0TL", "type": "artist", "images": [{"url": "https://i.scdn.co/image/ab67616d0000b273fa60395e2fbad21056a1ca20", "width": 640, "height": 640}, {"url": "https://i.scdn.co/image/ab67616d00001e02fa60395e2fbad21056a1ca20", "width": 300, "height": 300}, {"url": "https://i.scdn.co/image/ab67616d00004851fa60395e2fbad21056a1ca20", "width": 64, "height": 64}], "followers": {"total": 25, "href": null}, "genres": [], "external_urls": {"spotify": "https://open.spotify.com/artist/3lXue3OnYbBC9Ag6nWu0TL"}, "id": "3lXue3OnYbBC9Ag6nWu0TL"}, {"href": "https://api.spotify.com/v1/artists/3otiBYeIAa5xnOAVLj97jF", "name": "Sia Amun", "popularity": 3, "uri": "spotify:artist:3otiBYeIAa5xnOAVLj97jF", "type": "artist", "images": [{"url": "https://i.scdn.co/image/553d678e437c2e4c5b825b1576daef5dca99ea98", "width": 640, "height": 640}, {"url": "https://i.scdn.co/image/315a415953529926953bec9b236a8fb5018e8c42", "width": 320, "height": 320}, {"url": "https://i.scdn.co/image/94ca3b0a0942b04b630659e2839b5c11948d61d0", "width": 160, "height": 160}], "followers": {"total": 264, "href": null}, "genres": [], "external_urls": {"spotify": "https://open.spotify.com/artist/3otiBYeIAa5xnOAVLj97jF"}, "id": "3otiBYeIAa5xnOAVLj97jF"}, {"href": "https://api.spotify.com/v1/artists/0rp3Y0nKNlFstHcCV3crdF", "name": "Sia", "popularity": 0, "uri": "spotify:artist:0rp3Y0nKNlFstHcCV3crdF", "type": "artist", "images": [{"url": "https://i.scdn.co/image/9c0a0a64671ff167fcc679b9108c65ad5e0d2052", "width": 640, "height": 640}, {"url": "https://i.scdn.co/image/cb8f9b2f2bbd74a42f78234a84771cbdd983a9b2", "width": 300, "height": 300}, {"url": "https://i.scdn.co/image/c49138ab067eb324391d2fe377dd3a188d2049ab", "width": 64, "height": 64}], "followers": {"total": 122, "href": null}, "genres": [], "external_urls": {"spotify": "https://open.spotify.com/artist/0rp3Y0nKNlFstHcCV3crdF"}, "id": "0rp3Y0nKNlFstHcCV3crdF"}], "previous": null}}