{"artists": {"total": 266, "offset": 0, "limit": 10, "next": "https://api.spotify.com/v1/search?query=artist%3AOasis&type=artist&offset=10&limit=10", "href": "https://api.spotify.com/v1/search?query=artist%3AOasis&type=artist&offset=0&limit=10", "items": [{"href": "https://api.spotify.com/v1/artists/2DaxqgrOhkeH0fpeiQq2f4", "name": "Oasis", "popularity": 79, "uri": "spotify:artist:2DaxqgrOhkeH0fpeiQq2f4", "type": "artist", "images": [{"url": "https://i.scdn.co/image/2a4e00f806df130d22e4bfc19243bbe743c304b3", "width": 640, "height": 640}, {"url": "https://i.scdn.co/image/7e3a0b98c2854b0d3a46ea23060acd927bbb3537", "width": 320, "height": 320}, {"url": "https://i.scdn.co/image/3688881f227dde356e4553fffacc282efe60bd93", "width": 160, "height": 160}], "followers": {"total": 4470291, "href": null}, "genres": ["britpop", "madchester", "permanent wave", "rock"], "external_urls": {"spotify": "https://open.spotify.com/artist/2DaxqgrOhkeH0fpeiQq2f4"}, "id": "2DaxqgrOhkeH0fpeiQq2f4"}, {"href": "https://api.spotify.com/v1/artists/0FGyUMgumQqwP8DIKXY4vK", "name": "Oasis 4you", "popularity": 34, "uri": "spotify:artist:0FGyUMgumQqwP8DIKXY4vK", "type": "artist", "images": [{"url": "https://i.scdn.co/image/ab67616d0000b273437f965ebd30f5f26c14d0a5", "width": 640, "height": 640}, {"url": "https://i.scdn.co/image/ab67616d00001e02437f965ebd30f5f26c14d0a5", "width": 300, "height": 300}, {"url": "https://i.scdn.co/image/ab67616d00004851437f965ebd30f5f26c14d0a5", "width": 64, "height": 64}], "followers": {"total": 6803, "href": null}, "genres": ["corridos cristianos"], "external_urls": {"spotify": "https://open.spotify.com/artist/0FGyUMgumQqwP8DIKXY4vK"}, "id": "0FGyUMgumQqwP8DIKXY4vK"}, {"href": "https://api.spotify.com/v1/artists/3f6qVRsU5TTzy8OjfZesBT", "name": "Oasis Worship", "popularity": 34, "uri": "spotify:artist:3f6qVRsU5TTzy8OjfZesBT", "type": "artist", "images": [{"url": "https://i.scdn.co/image/ab67616d0000b273cf4979cde6ebc220270efef2", "width": 640, "height": 640}, {"url": "https://i.scdn.co/image/ab67616d00001e02cf4979cde6ebc220270efef2", "width": 300, "height": 300}, {"url": "https://i.scdn.co/image/ab67616d00004851cf4979cde6ebc220270efef2", "width": 64, "height": 64}], "followers": {"total": 1808, "href": null}, "genres": [], "external_urls": {"spotify": "https://open.spotify.com/artist/3f6qVRsU5TTzy8OjfZesBT"}, "id": "3f6qVRsU5TTzy8OjfZesBT"}, {"href": "https://api.spotify.com/v1/artists/71Q7jmvxx7g06qlWNEU45p", "name": "Oasis Ministry", "popularity": 32, "uri": "spotify:artist:71Q7jmvxx7g06qlWNEU45p", "type": "artist", "images": [{"url": "https://i.scdn.co/image/83a46e68d432afc60e7a0a3f43b15106191750d2", "width": 640, "height": 640}, {"url": "https://i.scdn.co/image/182e6109e47c5e85fd266f35332f3e289ee9297e", "width": 320, "height": 320}, {"url": "https://i.scdn.co/image/0f6e2c7bfab82398d5b758e662954422dd882d03", "width": 160, "height": 160}], "followers": {"total": 2554, "href": null}, "genres": ["adoracion"], "external_urls": {"spotify": "https://open.spotify.com/artist/71Q7jmvxx7g06qlWNEU45p"}, "id": "71Q7jmvxx7g06qlWNEU45p"}, {"href": "https://api.spotify.com/v1/artists/2h6L0VqIEGqlslzLLXxKIT", "name": "Asian Flute Music Oasis", "popularity": 33, "uri": "spotify:artist:2h6L0VqIEGqlslzLLXxKIT", "type": "artist", "images": [{"url": "https://i.scdn.co/image/ab67616d0000b2736813cafa034ae6d6829dc2c8", "width": 640, "height": 640}, {"url": "https://i.scdn.co/image/ab67616d00001e026813cafa034ae6d6829dc2c8", "width": 300, "height": 300}, {"url": "https://i.scdn.co/image/ab67616d000048516813cafa034ae6d6829dc2c8", "width": 64, "height": 64}], "followers": {"total": 880, "href": null}, "genres": [], "external_urls": {"spotify": "https://open.spotify.com/artist/2h6L0VqIEGqlslzLLXxKIT"}, "id": "2h6L0VqIEGqlslzLLXxKIT"}, {"href": "https://api.spotify.com/v1/artists/64OtVKK5ivOgqJZLAy749o", "name": "Stress Relief Calm Oasis", "popularity": 32, "uri": "spotify:artist:64OtVKK5ivOgqJZLAy749o", "type": "artist", "images": [{"url": "https://i.scdn.co/image/ab67616d0000b273a863569f4df9afbce149d7db", "width": 640, "height": 640}, {"url": "https://i.scdn.co/image/ab67616d00001e02a863569f4df9afbce149d7db", "width": 300, "height": 300}, {"url": "https://i.scdn.co/image/ab67616d00004851a863569f4df9afbce149d7db", "width": 64, "height": 64}], "followers": {"total": 1757, "href": null}, "genres": [], "external_urls": {"spotify": "https://open.spotify.com/artist/64OtVKK5ivOgqJZLAy749o"}, "id": "64OtVKK5ivOgqJZLAy749o"}, {"href": "https://api.spotify.com/v1/artists/0fjxee1xsPYdr06YEMj3DQ", "name": "Oasis Chorale", "popularity": 24, "uri": "spotify:artist:0fjxee1xsPYdr06YEMj3DQ", "type": "artist", "images": [{"url": "https://i.scdn.co/image/ab67616d0000b2731d0f7b6f62a17530d3c7b249", "width": 640, "height": 640}, {"url": "https://i.scdn.co/image/ab67616d00001e021d0f7b6f62a17530d3c7b249", "width": 300, "height": 300}, {"url": "https://i.scdn.co/image/ab67616d000048511d0f7b6f62a17530d3c7b249", "width": 64, "height": 64}], "followers": {"total": 1171, "href": null}, "genres": [], "external_urls": {"spotify": "https://open.spotify.com/artist/0fjxee1xsPYdr06YEMj3DQ"}, "id": "0fjxee1xsPYdr06YEMj3DQ"}, {"href": "https://api.spotify.com/v1/artists/1isjL7whJKI0FmlHg73tH8", "name": "Mantra Yoga Music Oasis", "popularity": 37, "uri": "spotify:artist:1isjL7whJKI0FmlHg73tH8", "type": "artist", "images": [{"url": "https://i.scdn.co/image/ab67616d0000b2734e396d07e3c511d466151e50", "width": 640, "height": 640}, {"url": "https://i.scdn.co/image/ab67616d00001e024e396d07e3c511d466151e50", "width": 300, "height": 300}, {"url": "https://i.scdn.co/image/ab67616d000048514e396d07e3c511d466151e50", "width": 64, "height": 64}], "followers": {"total": 12134, "href": null}, "genres": ["yoga"], "external_urls": {"spotify": "https://open.spotify.com/artist/1isjL7whJKI0FmlHg73tH8"}, "id": "1isjL7whJKI0FmlHg73tH8"}, {"href": "https://api.spotify.com/v1/artists/5r03x6bfk8Eskhjln1PmKv", "name": "French Piano Jazz Music Oasis", "popularity": 33, "uri": "spotify:artist:5r03x6bfk8Eskhjln1PmKv", "type": "artist", "images": [{"url": "https://i.scdn.co/image/286a81d120301ed74d86e0b0f09a5b1f348338cd", "width": 640, "height": 640}, {"url": "https://i.scdn.co/image/73b7e3fd5fd99a2a4689eca162af2a34856503e6", "width": 320, "height": 320}, {"url": "https://i.scdn.co/image/d30eaefbfd461f86148ae110565bc8c16b79ff0f", "width": 160, "height": 160}], "followers": {"total": 4616, "href": null}, "genres": ["pianissimo"], "external_urls": {"spotify": "https://open.spotify.com/artist/5r03x6bfk8Eskhjln1PmKv"}, "id": "5r03x6bfk8Eskhjln1PmKv"}, {"href": "https://api.spotify.com/v1/artists/2lXyng8FoUwRpX7fkAnWKf", "name": "Healing Power Natural Sounds Oasis", "popularity": 32, "uri": "spotify:artist:2lXyng8FoUwRpX7fkAnWKf", "type": "artist", "images": [{"url": "https://i.scdn.co/image/1300026dbdf5af2399ea79f3e6d50c4fb1a2b5ae", "width": 640, "height": 640}, {"url": "https://i.scdn.co/image/3f7f2bf0308942279211f106ef96009b310262a1", "width": 300, "height": 300}, {"url": "https://i.scdn.co/image/0dd2f55e76b6dee990f4d8e3f88a2edf2a9705c0", "width": 64, "height": 64}], "followers": {"total": 436, "href": null}, "genres": [], "external_urls": {"spotify": "https://open.spotify.com/artist/2lXyng8FoUwRpX7fkAnWKf"}, "id": "2lXyng8FoUwRpX7fkAnWKf"}], "previous": null}}