{"artists": {"total": 12, "offset": 0, "limit": 10, "next": "https://api.spotify.com/v1/search?query=artist%3AFranz+Ferdinand&type=artist&offset=10&limit=10", "href": "https://api.spotify.com/v1/search?query=artist%3AFranz+Ferdinand&type=artist&offset=0&limit=10", "items": [{"href": "https://api.spotify.com/v1/artists/0XNa1vTidXlvJ2gHSsRi4A", "name": "Franz Ferdinand", "popularity": 68, "uri": "spotify:artist:0XNa1vTidXlvJ2gHSsRi4A", "type": "artist", "images": [{"url": "https://i.scdn.co/image/445c11fcc1637f94f48cee1d3354d478f10ac403", "width": 640, "height": 640}, {"url": "https://i.scdn.co/image/74d44570990858341836261beb39b3faa18f7603", "width": 320, "height": 320}, {"url": "https://i.scdn.co/image/83bb403e52b2c05b7420a5ebd8e502915b6ec6ad", "width": 160, "height": 160}], "followers": {"total": 1604490, "href": null}, "genres": ["alternative rock", "dance-punk", "garage rock", "indie pop", "indie rock", "modern rock", "new rave", "rock", "scottish rock"], "external_urls": {"spotify": "https://open.spotify.com/artist/0XNa1vTidXlvJ2gHSsRi4A"}, "id": "0XNa1vTidXlvJ2gHSsRi4A"}, {"href": "https://api.spotify.com/v1/artists/294wsVEHBdqhZ7e614su4v", "name": "Franz Ferdinand Moser", "popularity": 0, "uri": "spotify:artist:294wsVEHBdqhZ7e614su4v", "type": "artist", "images": [], "followers": {"total": 9, "href": null}, "genres": [], "external_urls": {"spotify": "https://open.spotify.com/artist/294wsVEHBdqhZ7e614su4v"}, "id": "294wsVEHBdqhZ7e614su4v"}, {"href": "https://api.spotify.com/v1/artists/5GA9RrtbPBvJGqxzUacjYb", "name": "Franz-Ferdinand Nentwig", "popularity": 0, "uri": "spotify:artist:5GA9RrtbPBvJGqxzUacjYb", "type": "artist", "images": [{"url": "https://i.scdn.co/image/ab67616d0000b2735a222fe1ff996a74dd393aa3", "width": 640, "height": 640}, {"url": "https://i.scdn.co/image/ab67616d00001e025a222fe1ff996a74dd393aa3", "width": 300, "height": 300}, {"url": "https://i.scdn.co/image/ab67616d000048515a222fe1ff996a74dd393aa3", "width": 64, "height": 64}], "followers": {"total": 3, "href": null}, "genres": [], "external_urls": {"spotify": "https://open.spotify.com/artist/5GA9RrtbPBvJGqxzUacjYb"}, "id": "5GA9RrtbPBvJGqxzUacjYb"}, {"href": "https://api.spotify.com/v1/artists/710WEO2FbJDPMnVBQaIbU7", "name": "Franz Ferdinand Nentwig", "popularity": 0, "uri": "spotify:artist:710WEO2FbJDPMnVBQaIbU7", "type": "artist", "images": [], "followers": {"total": 12, "href": null}, "genres": [], "external_urls": {"spotify": "https://open.spotify.com/artist/710WEO2FbJDPMnVBQaIbU7"}, "id": "710WEO2FbJDPMnVBQaIbU7"}, {"href": "https://api.spotify.com/v1/artists/0XR9Z4wMRRpMeCnKkQJfYJ", "name": "Franz Ferdinand August Rieks", "popularity": 0, "uri": "spotify:artist:0XR9Z4wMRRpMeCnKkQJfYJ", "type": "artist", "images": [{"url": "https://i.scdn.co/image/ab67616d0000b2735734152c7fe3f2c776f4bb7d", "width": 640, "height": 640}, {"url": "https://i.scdn.co/image/ab67616d00001e025734152c7fe3f2c776f4bb7d", "width": 300, "height": 300}, {"url": "https://i.scdn.co/image/ab67616d000048515734152c7fe3f2c776f4bb7d", "width": 64, "height": 64}], "followers": {"total": 5, "href": null}, "genres": [], "external_urls": {"spotify": "https://open.spotify.com/artist/0XR9Z4wMRRpMeCnKkQJfYJ"}, "id": "0XR9Z4wMRRpMeCnKkQJfYJ"}, {"href": "https://api.spotify.com/v1/artists/2wnEPyxKAP8gIY8z64Kx9n", "name": "Debbie Harry & Franz Ferdinand", "popularity": 2, "uri": "spotify:artist:2wnEPyxKAP8gIY8z64Kx9n", "type": "artist", "images": [], "followers": {"total": 127, "href": null}, "genres": [], "external_urls": {"spotify": "https://open.spotify.com/artist/2wnEPyxKAP8gIY8z64Kx9n"}, "id": "2wnEPyxKAP8gIY8z64Kx9n"}, {"href": "https://api.spotify.com/v1/artists/0MYSgsSQHSKwrL4tbUje4x", "name": "Franz Ferdinand Tribute Band", "popularity": 0, "uri": "spotify:artist:0MYSgsSQHSKwrL4tbUje4x", "type": "artist", "images": [], "followers": {"total": 14, "href": null}, "genres": [], "external_urls": {"spotify": "https://open.spotify.com/artist/0MYSgsSQHSKwrL4tbUje4x"}, "id": "0MYSgsSQHSKwrL4tbUje4x"}, {"href": "https://api.spotify.com/v1/artists/2uBoqpLj0daLea2SweqN5u", "name": "Pro Musica Chamber Orchestra Vienna, Ferdinand Grossmann, Franz Gruber", "popularity": 0, "uri": "spotify:artist:2uBoqpLj0daLea2SweqN5u", "type": "artist", "images": [], "followers": {"total": 2, "href": null}, "genres": [], "external_urls": {"spotify": "https://open.spotify.com/artist/2uBoqpLj0daLea2SweqN5u"}, "id": "2uBoqpLj0daLea2SweqN5u"}, {"href": "https://api.spotify.com/v1/artists/66IfXlOPGc0arCcq140bCn", "name": "Pro Musica Chamber Orchestra Vienna, Ferdinand Grossmann, Franz Gruber, Otto Wiener, Akademie Kammerchor,", "popularity": 0, "uri": "spotify:artist:66IfXlOPGc0arCcq140bCn", "type": "artist", "images": [], "followers": {"total": 1, "href": null}, "genres": [], "external_urls": {"spotify": "https://open.spotify.com/artist/66IfXlOPGc0arCcq140bCn"}, "id": "66IfXlOPGc0arCcq140bCn"}, {"href": "https://api.spotify.com/v1/artists/6HBTcGPcYjPSovfYwI3Lvd", "name": "Pro Musica Chamber Orchestra Vienna, Ferdinand Grossmann, Maria Nussbaumer, Franz Gruber, Otto Wiener", "popularity": 0, "uri": "spotify:artist:6HBTcGPcYjPSovfYwI3Lvd", "type": "artist", "images": [], "followers": {"total": 1, "href": null}, "genres": [], "external_urls": {"spotify": "https://open.spotify.com/artist/6HBTcGPcYjPSovfYwI3Lvd"}, "id": "6HBTcGPcYjPSovfYwI3Lvd"}], "previous": null}}