{"artists": {"total": 18, "offset": 0, "limit": 10, "next": "https://api.spotify.com/v1/search?query=artist%3AJAY+Z&type=artist&offset=10&limit=10", "href": "https://api.spotify.com/v1/search?query=artist%3AJAY+Z&type=artist&offset=0&limit=10", "items": [{"href": "https://api.spotify.com/v1/artists/3nFkdlSjzX9mRTtwJOzDYB", "name": "JAY Z", "popularity": 81, "uri": "spotify:artist:3nFkdlSjzX9mRTtwJOzDYB", "type": "artist", "images": [{"url": "https://i.scdn.co/image/4912d27d6b01dd790313d8ef76586be6b100550f", "width": 640, "height": 640}, {"url": "https://i.scdn.co/image/027c5605d895158497ff377d92d69fe89dba1730", "width": 320, "height": 320}, {"url": "https://i.scdn.co/image/1420226e471d0e56ae4de7cb28ba2eb4de0a29ce", "width": 160, "height": 160}], "followers": {"total": 4897874, "href": null}, "genres": ["east coast hip hop", "gangster rap", "hip hop", "pop rap", "rap", "southern hip hop"], "external_urls": {"spotify": "https://open.spotify.com/artist/3nFkdlSjzX9mRTtwJOzDYB"}, "id": "3nFkdlSjzX9mRTtwJOzDYB"}, {"href": "https://api.spotify.com/v1/artists/2KUhiqlXzyDGS97SSaUsqn", "name": "Jay Z", "popularity": 37, "uri": "spotify:artist:2KUhiqlXzyDGS97SSaUsqn", "type": "artist", "images": [{"url": "https://i.scdn.co/image/ab67616d0000b273eaabec1fbfd45d2552cced7a", "width": 640, "height": 640}, {"url": "https://i.scdn.co/image/ab67616d00001e02eaabec1fbfd45d2552cced7a", "width": 300, "height": 300}, {"url": "https://i.scdn.co/image/ab67616d00004851eaabec1fbfd45d2552cced7a", "width": 64, "height": 64}], "followers": {"total": 417, "href": null}, "genres": [], "external_urls": {"spotify": "https://open.spotify.com/artist/2KUhiqlXzyDGS97SSaUsqn"}, "id": "2KUhiqlXzyDGS97SSaUsqn"}, {"href": "https://api.spotify.com/v1/artists/523DmwgD1gR3sTr9Tzitee", "name": "Jay Z and Kayne West", "popularity": 27, "uri": "spotify:artist:523DmwgD1gR3sTr9Tzitee", "type": "artist", "images": [], "followers": {"total": 2546, "href": null}, "genres": [], "external_urls": {"spotify": "https://open.spotify.com/artist/523DmwgD1gR3sTr9Tzitee"}, "id": "523DmwgD1gR3sTr9Tzitee"}, {"href": "https://api.spotify.com/v1/artists/0RKTOhuaDKchco8Ku9Av9u", "name": "Lay-Z-Jay", "popularity": 2, "uri": "spotify:artist:0RKTOhuaDKchco8Ku9Av9u", "type": "artist", "images": [{"url": "https://i.scdn.co/image/ab67616d0000b273af2e5bf0e9572161a41995b4", "width": 640, "height": 640}, {"url": "https://i.scdn.co/image/ab67616d00001e02af2e5bf0e9572161a41995b4", "width": 300, "height": 300}, {"url": "https://i.scdn.co/image/ab67616d00004851af2e5bf0e9572161a41995b4", "width": 64, "height": 64}], "followers": {"total": 3, "href": null}, "genres": [], "external_urls": {"spotify": "https://open.spotify.com/artist/0RKTOhuaDKchco8Ku9Av9u"}, "id": "0RKTOhuaDKchco8Ku9Av9u"}, {"href": "https://api.spotify.com/v1/artists/1ErO0dgxofZnM8hW3FSmY5", "name": "Jo Z Jay", "popularity": 16, "uri": "spotify:artist:1ErO0dgxofZnM8hW3FSmY5", "type": "artist", "images": [], "followers": {"total": 12, "href": null}, "genres": [], "external_urls": {"spotify": "https://open.spotify.com/artist/1ErO0dgxofZnM8hW3FSmY5"}, "id": "1ErO0dgxofZnM8hW3FSmY5"}, {"href": "https://api.spotify.com/v1/artists/04Y7VT0MqS4wfGBu2uG0XO", "name": "Fat Joe, Jay-Z, Young Jeezy", "popularity": 3, "uri": "spotify:artist:04Y7VT0MqS4wfGBu2uG0XO", "type": "artist", "images": [], "followers": {"total": 314, "href": null}, "genres": [], "external_urls": {"spotify": "https://open.spotify.com/artist/04Y7VT0MqS4wfGBu2uG0XO"}, "id": "04Y7VT0MqS4wfGBu2uG0XO"}, {"href": "https://api.spotify.com/v1/artists/1xoSqil06jH9aaPJ3NcA9m", "name": "Z-Jay", "popularity": 0, "uri": "spotify:artist:1xoSqil06jH9aaPJ3NcA9m", "type": "artist", "images": [], "followers": {"total": 15, "href": null}, "genres": [], "external_urls": {"spotify": "https://open.spotify.com/artist/1xoSqil06jH9aaPJ3NcA9m"}, "id": "1xoSqil06jH9aaPJ3NcA9m"}, {"href": "https://api.spotify.com/v1/artists/0zUS2SIbaxI3J82dwYu0eT", "name": "Jo-Z Jay", "popularity": 0, "uri": "spotify:artist:0zUS2SIbaxI3J82dwYu0eT", "type": "artist", "images": [{"url": "https://i.scdn.co/image/ab67616d0000b273130cd8019c97ffef64107a98", "width": 640, "height": 640}, {"url": "https://i.scdn.co/image/ab67616d00001e02130cd8019c97ffef64107a98", "width": 300, "height": 300}, {"url": "https://i.scdn.co/image/ab67616d00004851130cd8019c97ffef64107a98", "width": 64, "height": 64}], "followers": {"total": 3, "href": null}, "genres": [], "external_urls": {"spotify": "https://open.spotify.com/artist/0zUS2SIbaxI3J82dwYu0eT"}, "id": "0zUS2SIbaxI3J82dwYu0eT"}, {"href": "https://api.spotify.com/v1/artists/3E2Xmu6fX5wh3HW88RaZgF", "name": "King Jay Z", "popularity": 0, "uri": "spotify:artist:3E2Xmu6fX5wh3HW88RaZgF", "type": "artist", "images": [{"url": "https://i.scdn.co/image/ab67616d0000b273e587760110af71141e187031", "width": 640, "height": 640}, {"url": "https://i.scdn.co/image/ab67616d00001e02e587760110af71141e187031", "width": 300, "height": 300}, {"url": "https://i.scdn.co/image/ab67616d00004851e587760110af71141e187031", "width": 64, "height": 64}], "followers": {"total": 9, "href": null}, "genres": [], "external_urls": {"spotify": "https://open.spotify.com/artist/3E2Xmu6fX5wh3HW88RaZgF"}, "id": "3E2Xmu6fX5wh3HW88RaZgF"}, {"href": "https://api.spotify.com/v1/artists/6iwizc4SmGmpav5nTt9hWP", "name": "Jay Z Owejanzi", "popularity": 0, "uri": "spotify:artist:6iwizc4SmGmpav5nTt9hWP", "type": "artist", "images": [{"url": "https://i.scdn.co/image/bc145f72ae132c1ee5c52e59c54f1aaffc8db792", "width": 640, "height": 640}, {"url": "https://i.scdn.co/image/75a8f28d94afdce816b4cd28be4496832b53339b", "width": 300, "height": 300}, {"url": "https://i.scdn.co/image/8c6abebce6664c4e23e872b4fa8daaad7a154021", "width": 64, "height": 64}], "followers": {"total": 2, "href": null}, "genres": [], "external_urls": {"spotify": "https://open.spotify.com/artist/6iwizc4SmGmpav5nTt9hWP"}, "id": "6iwizc4SmGmpav5nTt9hWP"}], "previous": null}}