{"artists": {"next": "https://api.spotify.com/v1/search?query=artist%3APixies&type=artist&offset=10&limit=10", "total": 11, "href": "https://api.spotify.com/v1/search?query=artist%3APixies&type=artist&offset=0&limit=10", "offset": 0, "items": [{"type": "artist", "external_urls": {"spotify": "https://open.spotify.com/artist/6zvul52xwTWzilBZl6BUbT"}, "uri": "spotify:artist:6zvul52xwTWzilBZl6BUbT", "href": "https://api.spotify.com/v1/artists/6zvul52xwTWzilBZl6BUbT", "genres": ["alternative rock", "art rock", "boston rock", "garage rock", "indie rock", "modern rock", "new wave", "noise pop", "permanent wave", "rock"], "popularity": 71, "images": [{"height": 640, "width": 640, "url": "https://i.scdn.co/image/70c017b2dae508c4a4a66dc370caa7849d623a3b"}, {"height": 320, "width": 320, "url": "https://i.scdn.co/image/f3ed963d1578a0aff0be16e3e0914f2ca3c7adc5"}, {"height": 160, "width": 160, "url": "https://i.scdn.co/image/cd7c3526a7408327c36fc00a5eedd810d5b964a4"}], "name": "Pixies", "followers": {"total": 1357308, "href": null}, "id": "6zvul52xwTWzilBZl6BUbT"}, {"type": "artist", "external_urls": {"spotify": "https://open.spotify.com/artist/1TRB3maFZsT9FzO2Ua5KSD"}, "uri": "spotify:artist:1TRB3maFZsT9FzO2Ua5KSD", "href": "https://api.spotify.com/v1/artists/1TRB3maFZsT9FzO2Ua5KSD", "genres": [], "popularity": 2, "images": [{"height": 640, "width": 640, "url": "https://i.scdn.co/image/d138030b7e341458795a4a41e39d90b50ecaef07"}, {"height": 300, "width": 300, "url": "https://i.scdn.co/image/82ef61bb621c8130df6f1cc92cf8f23a3027dc61"}, {"height": 64, "width": 64, "url": "https://i.scdn.co/image/d4c970a4fa366250a02bb3691b17fd458e470185"}], "name": "Charmed Pixies", "followers": {"total": 0, "href": null}, "id": "1TRB3maFZsT9FzO2Ua5KSD"}, {"type": "artist", "external_urls": {"spotify": "https://open.spotify.com/artist/0miz0JiU0e8Gcd3etIGWuR"}, "uri": "spotify:artist:0miz0JiU0e8Gcd3etIGWuR", "href": "https://api.spotify.com/v1/artists/0miz0JiU0e8Gcd3etIGWuR", "genres": [], "popularity": 0, "images": [{"height": 640, "width": 640, "url": "https://i.scdn.co/image/ab67616d0000b273957d6eb2a99834f78b435848"}, {"height": 300, "width": 300, "url": "https://i.scdn.co/image/ab67616d00001e02957d6eb2a99834f78b435848"}, {"height": 64, "width": 64, "url": "https://i.scdn.co/image/ab67616d00004851957d6eb2a99834f78b435848"}], "name": "Indigo Pixies", "followers": {"total": 9, "href": null}, "id": "0miz0JiU0e8Gcd3etIGWuR"}, {"type": "artist", "external_urls": {"spotify": "https://open.spotify.com/artist/3h8uYQ6dcIZLMta4ZZiHr1"}, "uri": "spotify:artist:3h8uYQ6dcIZLMta4ZZiHr1", "href": "https://api.spotify.com/v1/artists/3h8uYQ6dcIZLMta4ZZiHr1", "genres": [], "popularity": 0, "images": [{"height": 640, "width": 640, "url": "https://i.scdn.co/image/ab67616d0000b2732db74ccd43f68f2d0940ee4a"}, {"height": 300, "width": 300, "url": "https://i.scdn.co/image/ab67616d00001e022db74ccd43f68f2d0940ee4a"}, {"height": 64, "width": 64, "url": "https://i.scdn.co/image/ab67616d000048512db74ccd43f68f2d0940ee4a"}], "name": "Holographic Pixies", "followers": {"total": 2, "href": null}, "id": "3h8uYQ6dcIZLMta4ZZiHr1"}, {"type": "artist", "external_urls": {"spotify": "https://open.spotify.com/artist/4mMd7UZ4CYWuaIDYealOPl"}, "uri": "spotify:artist:4mMd7UZ4CYWuaIDYealOPl", "href": "https://api.spotify.com/v1/artists/4mMd7UZ4CYWuaIDYealOPl", "genres": [], "popularity": 0, "images": [], "name": "Pixies N1ghtcor3", "followers": {"total": 1, "href": null}, "id": "4mMd7UZ4CYWuaIDYealOPl"}, {"type": "artist", "external_urls": {"spotify": "https://open.spotify.com/artist/5hSdTtaJOWfmgyUWPyK8NL"}, "uri": "spotify:artist:5hSdTtaJOWfmgyUWPyK8NL", "href": "https://api.spotify.com/v1/artists/5hSdTtaJOWfmgyUWPyK8NL", "genres": [], "popularity": 0, "images": [{"height": 640, "width": 640, "url": "https://i.scdn.co/image/ab67616d0000b273a5b5ff4b6854252d732f28cb"}, {"height": 300, "width": 300, "url": "https://i.scdn.co/image/ab67616d00001e02a5b5ff4b6854252d732f28cb"}, {"height": 64, "width": 64, "url": "https://i.scdn.co/image/ab67616d00004851a5b5ff4b6854252d732f28cb"}], "name": "Grit Pixies", "followers": {"total": 54, "href": null}, "id": "5hSdTtaJOWfmgyUWPyK8NL"}, {"type": "artist", "external_urls": {"spotify": "https://open.spotify.com/artist/6M35OnquOnwaaV8RlHUxyS"}, "uri": "spotify:artist:6M35OnquOnwaaV8RlHUxyS", "href": "https://api.spotify.com/v1/artists/6M35OnquOnwaaV8RlHUxyS", "genres": [], "popularity": 0, "images": [], "name": "The Pixies", "followers": {"total": 140, "href": null}, "id": "6M35OnquOnwaaV8RlHUxyS"}, {"type": "artist", "external_urls": {"spotify": "https://open.spotify.com/artist/3gq3Rfb4znYUcTtu31s6CR"}, "uri": "spotify:artist:3gq3Rfb4znYUcTtu31s6CR", "href": "https://api.spotify.com/v1/artists/3gq3Rfb4znYUcTtu31s6CR", "genres": [], "popularity": 0, "images": [{"height": 640, "width": 640, "url": "https://i.scdn.co/image/ab67616d0000b273a77d9ae00ad457677703bbe0"}, {"height": 300, "width": 300, "url": "https://i.scdn.co/image/ab67616d00001e02a77d9ae00ad457677703bbe0"}, {"height": 64, "width": 64, "url": "https://i.scdn.co/image/ab67616d00004851a77d9ae00ad457677703bbe0"}], "name": "The Storybook Pixies", "followers": {"total": 17, "href": null}, "id": "3gq3Rfb4znYUcTtu31s6CR"}, {"type": "artist", "external_urls": {"spotify": "https://open.spotify.com/artist/4eBQ52kRba7jYsnntGD2Go"}, "uri": "spotify:artist:4eBQ52kRba7jYsnntGD2Go", "href": "https://api.spotify.com/v1/artists/4eBQ52kRba7jYsnntGD2Go", "genres": ["classic girl group"], "popularity": 4, "images": [{"height": 640, "width": 640, "url": "https://i.scdn.co/image/ab67616d0000b2733240940df6c3d9566a3b01c3"}, {"height": 300, "width": 300, "url": "https://i.scdn.co/image/ab67616d00001e023240940df6c3d9566a3b01c3"}, {"height": 64, "width": 64, "url": "https://i.scdn.co/image/ab67616d000048513240940df6c3d9566a3b01c3"}], "name": "The Pixies Three", "followers": {"total": 565, "href": null}, "id": "4eBQ52kRba7jYsnntGD2Go"}, {"type": "artist", "external_urls": {"spotify": "https://open.spotify.com/artist/4rG5yTHWZQHNdE1N3nUDi3"}, "uri": "spotify:artist:4rG5yTHWZQHNdE1N3nUDi3", "href": "https://api.spotify.com/v1/artists/4rG5yTHWZQHNdE1N3nUDi3", "genres": [], "popularity": 0, "images": [{"height": 640, "width": 640, "url": "https://i.scdn.co/image/ab67616d0000b2730ceb8f37afee74c9791a3505"}, {"height": 300, "width": 300, "url": "https://i.scdn.co/image/ab67616d00001e020ceb8f37afee74c9791a3505"}, {"height": 64, "width": 64, "url": "https://i.scdn.co/image/ab67616d000048510ceb8f37afee74c9791a3505"}], "name": "Popeye and the Pixies", "followers": {"total": 37, "href": null}, "id": "4rG5yTHWZQHNdE1N3nUDi3"}], "limit": 10, "previous": null}}