{"artists": {"total": 76, "offset": 0, "limit": 10, "next": "https://api.spotify.com/v1/search?query=artist%3APassenger&type=artist&offset=10&limit=10", "href": "https://api.spotify.com/v1/search?query=artist%3APassenger&type=artist&offset=0&limit=10", "items": [{"href": "https://api.spotify.com/v1/artists/0gadJ2b9A4SKsB1RFkBb66", "name": "Passenger", "popularity": 74, "uri": "spotify:artist:0gadJ2b9A4SKsB1RFkBb66", "type": "artist", "images": [{"url": "https://i.scdn.co/image/fc2aee1377e3fe2b5ab4b2ef143f13851577dc6b", "width": 640, "height": 640}, {"url": "https://i.scdn.co/image/c26997fc7c4b7b33db11b0d752f1ad874735774e", "width": 320, "height": 320}, {"url": "https://i.scdn.co/image/9e6613802c4c07f06de5502387c01a0a655f2e23", "width": 160, "height": 160}], "followers": {"total": 2327103, "href": null}, "genres": ["indie folk", "neo mellow"], "external_urls": {"spotify": "https://open.spotify.com/artist/0gadJ2b9A4SKsB1RFkBb66"}, "id": "0gadJ2b9A4SKsB1RFkBb66"}, {"href": "https://api.spotify.com/v1/artists/1Rmh4YOuttbNyVthCkTokT", "name": "Passenger 10", "popularity": 42, "uri": "spotify:artist:1Rmh4YOuttbNyVthCkTokT", "type": "artist", "images": [{"url": "https://i.scdn.co/image/459c690b5dddb5337a5978542258cbacf687f94f", "width": 640, "height": 640}, {"url": "https://i.scdn.co/image/4d0a7ae4ffce964bc26dc85385dc235bf74fd55f", "width": 320, "height": 320}, {"url": "https://i.scdn.co/image/c210dc01af8104b68130a34143273085f94c5d1f", "width": 160, "height": 160}], "followers": {"total": 4821, "href": null}, "genres": ["progressive electro house", "progressive house"], "external_urls": {"spotify": "https://open.spotify.com/artist/1Rmh4YOuttbNyVthCkTokT"}, "id": "1Rmh4YOuttbNyVthCkTokT"}, {"href": "https://api.spotify.com/v1/artists/6bM14DiKAfKYJlSsNlmGiY", "name": "Phantom Passenger", "popularity": 27, "uri": "spotify:artist:6bM14DiKAfKYJlSsNlmGiY", "type": "artist", "images": [{"url": "https://i.scdn.co/image/ab67616d0000b2734670067fa90190be6f645ed4", "width": 640, "height": 640}, {"url": "https://i.scdn.co/image/ab67616d00001e024670067fa90190be6f645ed4", "width": 300, "height": 300}, {"url": "https://i.scdn.co/image/ab67616d000048514670067fa90190be6f645ed4", "width": 64, "height": 64}], "followers": {"total": 292, "href": null}, "genres": [], "external_urls": {"spotify": "https://open.spotify.com/artist/6bM14DiKAfKYJlSsNlmGiY"}, "id": "6bM14DiKAfKYJlSsNlmGiY"}, {"href": "https://api.spotify.com/v1/artists/4x9OkGDATJa93lbMMCeZaL", "name": "Poe the Passenger", "popularity": 19, "uri": "spotify:artist:4x9OkGDATJa93lbMMCeZaL", "type": "artist", "images": [{"url": "https://i.scdn.co/image/53edabfb1c45dd3abecf1788a3571183682d4901", "width": 640, "height": 640}, {"url": "https://i.scdn.co/image/982efaab7b2866243bd3ca828f57bb63a7c54f54", "width": 320, "height": 320}, {"url": "https://i.scdn.co/image/973b3a9916aed5143aeec358431a674db15212a1", "width": 160, "height": 160}], "followers": {"total": 504, "href": null}, "genres": [], "external_urls": {"spotify": "https://open.spotify.com/artist/4x9OkGDATJa93lbMMCeZaL"}, "id": "4x9OkGDATJa93lbMMCeZaL"}, {"href": "https://api.spotify.com/v1/artists/4HTRMJ8oySgoqgW9GRvWRF", "name": "X Passenger", "popularity": 22, "uri": "spotify:artist:4HTRMJ8oySgoqgW9GRvWRF", "type": "artist", "images": [{"url": "https://i.scdn.co/image/385a7d30a46c96ab7f418c52e20d3af3a70bf16d", "width": 640, "height": 640}, {"url": "https://i.scdn.co/image/9d1c63ccaebdefb95ab21960147cea2f98bd0485", "width": 320, "height": 320}, {"url": "https://i.scdn.co/image/0370bcbcf15ca5e0e1061f62474aabe021ce5ee6", "width": 160, "height": 160}], "followers": {"total": 48, "href": null}, "genres": [], "external_urls": {"spotify": "https://open.spotify.com/artist/4HTRMJ8oySgoqgW9GRvWRF"}, "id": "4HTRMJ8oySgoqgW9GRvWRF"}, {"href": "https://api.spotify.com/v1/artists/7FjMt19dPu74TyfCMnCN96", "name": "Passenger of Fire", "popularity": 24, "uri": "spotify:artist:7FjMt19dPu74TyfCMnCN96", "type": "artist", "images": [{"url": "https://i.scdn.co/image/8d836a52407b1b78f937a8ae982d75d27c632d23", "width": 640, "height": 640}, {"url": "https://i.scdn.co/image/4e249dae8c353619193c506b2781746407b192cf", "width": 300, "height": 300}, {"url": "https://i.scdn.co/image/e3bea4396b7d13fb3aee697987387cc5d07a85c2", "width": 64, "height": 64}], "followers": {"total": 0, "href": null}, "genres": [], "external_urls": {"spotify": "https://open.spotify.com/artist/7FjMt19dPu74TyfCMnCN96"}, "id": "7FjMt19dPu74TyfCMnCN96"}, {"href": "https://api.spotify.com/v1/artists/5vYYk3KqBFCEkXiMMqym4D", "name": "Passenger", "popularity": 32, "uri": "spotify:artist:5vYYk3KqBFCEkXiMMqym4D", "type": "artist", "images": [{"url": "https://i.scdn.co/image/ab67616d0000b2739367f4db4b652e2341782c6b", "width": 640, "height": 640}, {"url": "https://i.scdn.co/image/ab67616d00001e029367f4db4b652e2341782c6b", "width": 300, "height": 300}, {"url": "https://i.scdn.co/image/ab67616d000048519367f4db4b652e2341782c6b", "width": 64, "height": 64}], "followers": {"total": 727, "href": null}, "genres": [], "external_urls": {"spotify": "https://open.spotify.com/artist/5vYYk3KqBFCEkXiMMqym4D"}, "id": "5vYYk3KqBFCEkXiMMqym4D"}, {"href": "https://api.spotify.com/v1/artists/1EerKpQ7bkz8t35cs8z4sc", "name": "Passenger 75", "popularity": 17, "uri": "spotify:artist:1EerKpQ7bkz8t35cs8z4sc", "type": "artist", "images": [{"url": "https://i.scdn.co/image/5fe59e58dabefc2a88571c6647996f7ce9b20b77", "width": 640, "height": 640}, {"url": "https://i.scdn.co/image/403c7b6539ae0d88fbfe4e34df9768e3783529f8", "width": 320, "height": 320}, {"url": "https://i.scdn.co/image/0b522c9a156503478bfc69288582dc4cfd34694a", "width": 160, "height": 160}], "followers": {"total": 221, "href": null}, "genres": [], "external_urls": {"spotify": "https://open.spotify.com/artist/1EerKpQ7bkz8t35cs8z4sc"}, "id": "1EerKpQ7bkz8t35cs8z4sc"}, {"href": "https://api.spotify.com/v1/artists/67K7idnuGeHTmpU2giuPnh", "name": "Passenger", "popularity": 20, "uri": "spotify:artist:67K7idnuGeHTmpU2giuPnh", "type": "artist", "images": [{"url": "https://i.scdn.co/image/ab67616d0000b27348afeb0cc8b65e6db7f0db86", "width": 640, "height": 640}, {"url": "https://i.scdn.co/image/ab67616d00001e0248afeb0cc8b65e6db7f0db86", "width": 300, "height": 300}, {"url": "https://i.scdn.co/image/ab67616d0000485148afeb0cc8b65e6db7f0db86", "width": 64, "height": 64}], "followers": {"total": 2548, "href": null}, "genres": [], "external_urls": {"spotify": "https://open.spotify.com/artist/67K7idnuGeHTmpU2giuPnh"}, "id": "67K7idnuGeHTmpU2giuPnh"}, {"href": "https://api.spotify.com/v1/artists/6dZM967IflheoWJDx1Vba0", "name": "Ruby Turner feat. Passenger", "popularity": 24, "uri": "spotify:artist:6dZM967IflheoWJDx1Vba0", "type": "artist", "images": [], "followers": {"total": 44, "href": null}, "genres": [], "external_urls": {"spotify": "https://open.spotify.com/artist/6dZM967IflheoWJDx1Vba0"}, "id": "6dZM967IflheoWJDx1Vba0"}], "previous": null}}