{"artists": {"total": 17, "offset": 0, "limit": 10, "next": "https://api.spotify.com/v1/search?query=artist%3ASam+Smith&type=artist&offset=10&limit=10", "href": "https://api.spotify.com/v1/search?query=artist%3ASam+Smith&type=artist&offset=0&limit=10", "items": [{"href": "https://api.spotify.com/v1/artists/2wY79sveU1sp5g7SokKOiI", "name": "Sam Smith", "popularity": 90, "uri": "spotify:artist:2wY79sveU1sp5g7SokKOiI", "type": "artist", "images": [{"url": "https://i.scdn.co/image/43c481adb3f39709882a7058c2c4c7538d79aa17", "width": 640, "height": 640}, {"url": "https://i.scdn.co/image/6c484dceeecd500e0eb30c35e396d0b80093eff8", "width": 320, "height": 320}, {"url": "https://i.scdn.co/image/4e7454ba7759e5de5462f531bc165d8087b45388", "width": 160, "height": 160}], "followers": {"total": 10054618, "href": null}, "genres": ["pop", "uk pop"], "external_urls": {"spotify": "https://open.spotify.com/artist/2wY79sveU1sp5g7SokKOiI"}, "id": "2wY79sveU1sp5g7SokKOiI"}, {"href": "https://api.spotify.com/v1/artists/4kNHs1OvhTfdpGPt7QslOG", "name": "Sam Smith", "popularity": 25, "uri": "spotify:artist:4kNHs1OvhTfdpGPt7QslOG", "type": "artist", "images": [{"url": "https://i.scdn.co/image/ab67616d0000b27317c9aa988e9b640feb831a14", "width": 640, "height": 640}, {"url": "https://i.scdn.co/image/ab67616d00001e0217c9aa988e9b640feb831a14", "width": 300, "height": 300}, {"url": "https://i.scdn.co/image/ab67616d0000485117c9aa988e9b640feb831a14", "width": 64, "height": 64}], "followers": {"total": 7762, "href": null}, "genres": [], "external_urls": {"spotify": "https://open.spotify.com/artist/4kNHs1OvhTfdpGPt7QslOG"}, "id": "4kNHs1OvhTfdpGPt7QslOG"}, {"href": "https://api.spotify.com/v1/artists/5iL7G1oT0KklL6FtSWnWPP", "name": "Sam L. Smith", "popularity": 3, "uri": "spotify:artist:5iL7G1oT0KklL6FtSWnWPP", "type": "artist", "images": [{"url": "https://i.scdn.co/image/ab67616d0000b27341627a40da96325122e9d5c0", "width": 640, "height": 640}, {"url": "https://i.scdn.co/image/ab67616d00001e0241627a40da96325122e9d5c0", "width": 300, "height": 300}, {"url": "https://i.scdn.co/image/ab67616d0000485141627a40da96325122e9d5c0", "width": 64, "height": 64}], "followers": {"total": 37, "href": null}, "genres": [], "external_urls": {"spotify": "https://open.spotify.com/artist/5iL7G1oT0KklL6FtSWnWPP"}, "id": "5iL7G1oT0KklL6FtSWnWPP"}, {"href": "https://api.spotify.com/v1/artists/1kfkO0WoU730mwpowc4bqJ", "name": "Sam Smith", "popularity": 0, "uri": "spotify:artist:1kfkO0WoU730mwpowc4bqJ", "type": "artist", "images": [], "followers": {"total": 193, "href": null}, "genres": [], "external_urls": {"spotify": "https://open.spotify.com/artist/1kfkO0WoU730mwpowc4bqJ"}, "id": "1kfkO0WoU730mwpowc4bqJ"}, {"href": "https://api.spotify.com/v1/artists/3gn475pcu8CeAgrKF1HinF", "name": "Sam Smith", "popularity": 0, "uri": "spotify:artist:3gn475pcu8CeAgrKF1HinF", "type": "artist", "images": [{"url": "https://i.scdn.co/image/ab67616d0000b273fda15e45ded99218e5942c26", "width": 640, "height": 640}, {"url": "https://i.scdn.co/image/ab67616d00001e02fda15e45ded99218e5942c26", "width": 300, "height": 300}, {"url": "https://i.scdn.co/image/ab67616d00004851fda15e45ded99218e5942c26", "width": 64, "height": 64}], "followers": {"total": 262, "href": null}, "genres": [], "external_urls": {"spotify": "https://open.spotify.com/artist/3gn475pcu8CeAgrKF1HinF"}, "id": "3gn475pcu8CeAgrKF1HinF"}, {"href": "https://api.spotify.com/v1/artists/6pjjUgj668gwI3tBa3xRsD", "name": "Sam Smith", "popularity": 2, "uri": "spotify:artist:6pjjUgj668gwI3tBa3xRsD", "type": "artist", "images": [{"url": "https://i.scdn.co/image/5d80960c5d9dfbdbec015f67e6e403c2e51dc583", "width": 640, "height": 640}, {"url": "https://i.scdn.co/image/a745eb18a8781500d6afbf920ebca02c3a887eb8", "width": 320, "height": 320}, {"url": "https://i.scdn.co/image/00e9fb206d9e55ada6229a12b064f060c665d177", "width": 160, "height": 160}], "followers": {"total": 838, "href": null}, "genres": [], "external_urls": {"spotify": "https://open.spotify.com/artist/6pjjUgj668gwI3tBa3xRsD"}, "id": "6pjjUgj668gwI3tBa3xRsD"}, {"href": "https://api.spotify.com/v1/artists/1zuVm886uLC3RXPq2vXuLD", "name": "Sam T Smith", "popularity": 0, "uri": "spotify:artist:1zuVm886uLC3RXPq2vXuLD", "type": "artist", "images": [{"url": "https://i.scdn.co/image/ab67616d0000b273365eece6ee6eb8990f80ba3d", "width": 640, "height": 640}, {"url": "https://i.scdn.co/image/ab67616d00001e02365eece6ee6eb8990f80ba3d", "width": 300, "height": 300}, {"url": "https://i.scdn.co/image/ab67616d00004851365eece6ee6eb8990f80ba3d", "width": 64, "height": 64}], "followers": {"total": 37, "href": null}, "genres": [], "external_urls": {"spotify": "https://open.spotify.com/artist/1zuVm886uLC3RXPq2vXuLD"}, "id": "1zuVm886uLC3RXPq2vXuLD"}, {"href": "https://api.spotify.com/v1/artists/4HsUaqfAczj8cbpEWaAlI3", "name": "Sam Smith (AUS)", "popularity": 1, "uri": "spotify:artist:4HsUaqfAczj8cbpEWaAlI3", "type": "artist", "images": [{"url": "https://i.scdn.co/image/ab67616d0000b2739cfab5f781739140bfa4d80c", "width": 640, "height": 640}, {"url": "https://i.scdn.co/image/ab67616d00001e029cfab5f781739140bfa4d80c", "width": 300, "height": 300}, {"url": "https://i.scdn.co/image/ab67616d000048519cfab5f781739140bfa4d80c", "width": 64, "height": 64}], "followers": {"total": 877, "href": null}, "genres": [], "external_urls": {"spotify": "https://open.spotify.com/artist/4HsUaqfAczj8cbpEWaAlI3"}, "id": "4HsUaqfAczj8cbpEWaAlI3"}, {"href": "https://api.spotify.com/v1/artists/4xSxzQVfB1auaKtVoDAzEG", "name": "Sam J Smith", "popularity": 0, "uri": "spotify:artist:4xSxzQVfB1auaKtVoDAzEG", "type": "artist", "images": [], "followers": {"total": 25, "href": null}, "genres": [], "external_urls": {"spotify": "https://open.spotify.com/artist/4xSxzQVfB1auaKtVoDAzEG"}, "id": "4xSxzQVfB1auaKtVoDAzEG"}, {"href": "https://api.spotify.com/v1/artists/5EOiBVPiTYdzgAQ9JIztp4", "name": "Sam Linton-Smith", "popularity": 0, "uri": "spotify:artist:5EOiBVPiTYdzgAQ9JIztp4", "type": "artist", "images": [{"url": "https://i.scdn.co/image/ab67616d0000b273eff6f9c681ccce43b532da36", "width": 640, "height": 640}, {"url": "https://i.scdn.co/image/ab67616d00001e02eff6f9c681ccce43b532da36", "width": 300, "height": 300}, {"url": "https://i.scdn.co/image/ab67616d00004851eff6f9c681ccce43b532da36", "width": 64, "height": 64}], "followers": {"total": 28, "href": null}, "genres": [], "external_urls": {"spotify": "https://open.spotify.com/artist/5EOiBVPiTYdzgAQ9JIztp4"}, "id": "5EOiBVPiTYdzgAQ9JIztp4"}], "previous": null}}