{"artists": {"total": 45, "offset": 0, "limit": 10, "next": "https://api.spotify.com/v1/search?query=artist%3APitbull&type=artist&offset=10&limit=10", "href": "https://api.spotify.com/v1/search?query=artist%3APitbull&type=artist&offset=0&limit=10", "items": [{"href": "https://api.spotify.com/v1/artists/0TnOYISbd1XYRBk9myaseg", "name": "Pitbull", "popularity": 84, "uri": "spotify:artist:0TnOYISbd1XYRBk9myaseg", "type": "artist", "images": [{"url": "https://i.scdn.co/image/1353990534aef10c946cf3a47865ac22471be5c4", "width": 640, "height": 640}, {"url": "https://i.scdn.co/image/f3a0aca9f85c6cdad37ebcc51a01879bf8c50af9", "width": 320, "height": 320}, {"url": "https://i.scdn.co/image/5ede30313c461d7ed0f5c4f3dea484fd349d49a9", "width": 160, "height": 160}], "followers": {"total": 7276642, "href": null}, "genres": ["dance pop", "latin", "miami hip hop", "pop", "pop rap"], "external_urls": {"spotify": "https://open.spotify.com/artist/0TnOYISbd1XYRBk9myaseg"}, "id": "0TnOYISbd1XYRBk9myaseg"}, {"href": "https://api.spotify.com/v1/artists/7dAHtsQREpROy9PWxNdgdG", "name": "Pitbull Daycare", "popularity": 8, "uri": "spotify:artist:7dAHtsQREpROy9PWxNdgdG", "type": "artist", "images": [{"url": "https://i.scdn.co/image/ab67616d0000b27349c59170ec1bd138ac618dc2", "width": 640, "height": 640}, {"url": "https://i.scdn.co/image/ab67616d00001e0249c59170ec1bd138ac618dc2", "width": 300, "height": 300}, {"url": "https://i.scdn.co/image/ab67616d0000485149c59170ec1bd138ac618dc2", "width": 64, "height": 64}], "followers": {"total": 872, "href": null}, "genres": ["industrial metal"], "external_urls": {"spotify": "https://open.spotify.com/artist/7dAHtsQREpROy9PWxNdgdG"}, "id": "7dAHtsQREpROy9PWxNdgdG"}, {"href": "https://api.spotify.com/v1/artists/09SkQ5DUxfcudAmYdjuaU7", "name": "Pitbull King", "popularity": 8, "uri": "spotify:artist:09SkQ5DUxfcudAmYdjuaU7", "type": "artist", "images": [], "followers": {"total": 105, "href": null}, "genres": [], "external_urls": {"spotify": "https://open.spotify.com/artist/09SkQ5DUxfcudAmYdjuaU7"}, "id": "09SkQ5DUxfcudAmYdjuaU7"}, {"href": "https://api.spotify.com/v1/artists/1a9dSHb2qTkmoB0gUqDMm3", "name": "Team Pitbull", "popularity": 3, "uri": "spotify:artist:1a9dSHb2qTkmoB0gUqDMm3", "type": "artist", "images": [], "followers": {"total": 96, "href": null}, "genres": [], "external_urls": {"spotify": "https://open.spotify.com/artist/1a9dSHb2qTkmoB0gUqDMm3"}, "id": "1a9dSHb2qTkmoB0gUqDMm3"}, {"href": "https://api.spotify.com/v1/artists/56V8QVAFIpNfxesJQIu43g", "name": "Casely Feat Pitbull", "popularity": 6, "uri": "spotify:artist:56V8QVAFIpNfxesJQIu43g", "type": "artist", "images": [{"url": "https://i.scdn.co/image/ab67616d0000b2737ae329b05eeb4bf5937dd361", "width": 640, "height": 640}, {"url": "https://i.scdn.co/image/ab67616d00001e027ae329b05eeb4bf5937dd361", "width": 300, "height": 300}, {"url": "https://i.scdn.co/image/ab67616d000048517ae329b05eeb4bf5937dd361", "width": 64, "height": 64}], "followers": {"total": 67, "href": null}, "genres": [], "external_urls": {"spotify": "https://open.spotify.com/artist/56V8QVAFIpNfxesJQIu43g"}, "id": "56V8QVAFIpNfxesJQIu43g"}, {"href": "https://api.spotify.com/v1/artists/0JASBIyxKtFvHj46LRDNlL", "name": "Dj Pitbull", "popularity": 7, "uri": "spotify:artist:0JASBIyxKtFvHj46LRDNlL", "type": "artist", "images": [{"url": "https://i.scdn.co/image/ab67616d0000b273498b5655d55395256dc3b9ea", "width": 640, "height": 640}, {"url": "https://i.scdn.co/image/ab67616d00001e02498b5655d55395256dc3b9ea", "width": 300, "height": 300}, {"url": "https://i.scdn.co/image/ab67616d00004851498b5655d55395256dc3b9ea", "width": 64, "height": 64}], "followers": {"total": 1255, "href": null}, "genres": [], "external_urls": {"spotify": "https://open.spotify.com/artist/0JASBIyxKtFvHj46LRDNlL"}, "id": "0JASBIyxKtFvHj46LRDNlL"}, {"href": "https://api.spotify.com/v1/artists/0L67weQYcQ99RPaG8vP1qi", "name": "Naturaleza Pitbull", "popularity": 0, "uri": "spotify:artist:0L67weQYcQ99RPaG8vP1qi", "type": "artist", "images": [{"url": "https://i.scdn.co/image/ab67616d0000b27364dd486db19f4b7b53e224b2", "width": 640, "height": 640}, {"url": "https://i.scdn.co/image/ab67616d00001e0264dd486db19f4b7b53e224b2", "width": 300, "height": 300}, {"url": "https://i.scdn.co/image/ab67616d0000485164dd486db19f4b7b53e224b2", "width": 64, "height": 64}], "followers": {"total": 2, "href": null}, "genres": [], "external_urls": {"spotify": "https://open.spotify.com/artist/0L67weQYcQ99RPaG8vP1qi"}, "id": "0L67weQYcQ99RPaG8vP1qi"}, {"href": "https://api.spotify.com/v1/artists/0Re2ExDbjDLQh2e2drXMBS", "name": "J\u00e9ssica Pitbull", "popularity": 5, "uri": "spotify:artist:0Re2ExDbjDLQh2e2drXMBS", "type": "artist", "images": [{"url": "https://i.scdn.co/image/ab67616d0000b273cef89661bf653d3c00eca76b", "width": 640, "height": 640}, {"url": "https://i.scdn.co/image/ab67616d00001e02cef89661bf653d3c00eca76b", "width": 300, "height": 300}, {"url": "https://i.scdn.co/image/ab67616d00004851cef89661bf653d3c00eca76b", "width": 64, "height": 64}], "followers": {"total": 22, "href": null}, "genres": [], "external_urls": {"spotify": "https://open.spotify.com/artist/0Re2ExDbjDLQh2e2drXMBS"}, "id": "0Re2ExDbjDLQh2e2drXMBS"}, {"href": "https://api.spotify.com/v1/artists/0U7Hcy0so0OBeK6RMmZTiA", "name": "Pitbull Boy", "popularity": 0, "uri": "spotify:artist:0U7Hcy0so0OBeK6RMmZTiA", "type": "artist", "images": [{"url": "https://i.scdn.co/image/ab67616d0000b273b7a5db9654f5ce96ae3b9d4c", "width": 640, "height": 640}, {"url": "https://i.scdn.co/image/ab67616d00001e02b7a5db9654f5ce96ae3b9d4c", "width": 300, "height": 300}, {"url": "https://i.scdn.co/image/ab67616d00004851b7a5db9654f5ce96ae3b9d4c", "width": 64, "height": 64}], "followers": {"total": 18, "href": null}, "genres": [], "external_urls": {"spotify": "https://open.spotify.com/artist/0U7Hcy0so0OBeK6RMmZTiA"}, "id": "0U7Hcy0so0OBeK6RMmZTiA"}, {"href": "https://api.spotify.com/v1/artists/0jyxYrV1VVfVO1luWUN8Ym", "name": "Sany Pitbull", "popularity": 1, "uri": "spotify:artist:0jyxYrV1VVfVO1luWUN8Ym", "type": "artist", "images": [{"url": "https://i.scdn.co/image/90dbee839b2ab5f800357838baca3739a6e5bfd9", "width": 640, "height": 640}, {"url": "https://i.scdn.co/image/29fccf41e1dd6df686d919390780842c5e296bb0", "width": 320, "height": 320}, {"url": "https://i.scdn.co/image/def8a307d189cddf30d0bd5e2feed335f489c280", "width": 160, "height": 160}], "followers": {"total": 391, "href": null}, "genres": [], "external_urls": {"spotify": "https://open.spotify.com/artist/0jyxYrV1VVfVO1luWUN8Ym"}, "id": "0jyxYrV1VVfVO1luWUN8Ym"}], "previous": null}}