{"artists": {"total": 844, "offset": 0, "limit": 10, "next": "https://api.spotify.com/v1/search?query=artist%3APhoenix&type=artist&offset=10&limit=10", "href": "https://api.spotify.com/v1/search?query=artist%3APhoenix&type=artist&offset=0&limit=10", "items": [{"href": "https://api.spotify.com/v1/artists/1xU878Z1QtBldR7ru9owdU", "name": "Phoenix", "popularity": 67, "uri": "spotify:artist:1xU878Z1QtBldR7ru9owdU", "type": "artist", "images": [{"url": "https://i.scdn.co/image/4547d3204aad5959d55d8cc73ddcedfef4865671", "width": 640, "height": 640}, {"url": "https://i.scdn.co/image/d883bb45bbb9f810182f93992c1e0614634e13af", "width": 320, "height": 320}, {"url": "https://i.scdn.co/image/9bd8d1322345729e61e918ecfbddcd23eab3038c", "width": 160, "height": 160}], "followers": {"total": 1513066, "href": null}, "genres": ["alternative dance", "dance-punk", "indie pop", "indie rock", "indietronica", "modern rock", "new rave"], "external_urls": {"spotify": "https://open.spotify.com/artist/1xU878Z1QtBldR7ru9owdU"}, "id": "1xU878Z1QtBldR7ru9owdU"}, {"href": "https://api.spotify.com/v1/artists/3EvzCyNmY3kbUkMawjsndF", "name": "Nick Phoenix", "popularity": 55, "uri": "spotify:artist:3EvzCyNmY3kbUkMawjsndF", "type": "artist", "images": [{"url": "https://i.scdn.co/image/ab67616d0000b273b39c2cbabff56ac3c55b6f4e", "width": 640, "height": 640}, {"url": "https://i.scdn.co/image/ab67616d00001e02b39c2cbabff56ac3c55b6f4e", "width": 300, "height": 300}, {"url": "https://i.scdn.co/image/ab67616d00004851b39c2cbabff56ac3c55b6f4e", "width": 64, "height": 64}], "followers": {"total": 12775, "href": null}, "genres": ["epicore", "scorecore", "video game music"], "external_urls": {"spotify": "https://open.spotify.com/artist/3EvzCyNmY3kbUkMawjsndF"}, "id": "3EvzCyNmY3kbUkMawjsndF"}, {"href": "https://api.spotify.com/v1/artists/3j507n6aQUbtVxQv2Q6Usv", "name": "Joaquin Phoenix", "popularity": 45, "uri": "spotify:artist:3j507n6aQUbtVxQv2Q6Usv", "type": "artist", "images": [], "followers": {"total": 13292, "href": null}, "genres": [], "external_urls": {"spotify": "https://open.spotify.com/artist/3j507n6aQUbtVxQv2Q6Usv"}, "id": "3j507n6aQUbtVxQv2Q6Usv"}, {"href": "https://api.spotify.com/v1/artists/46FkXEJ8NJakX3s2QM4nFm", "name": "Phoenix Juggernaut", "popularity": 37, "uri": "spotify:artist:46FkXEJ8NJakX3s2QM4nFm", "type": "artist", "images": [{"url": "https://i.scdn.co/image/bc913026fe0f849b249dc059a94386e7391c6545", "width": 640, "height": 640}, {"url": "https://i.scdn.co/image/0050baac5eed9a5706c9c2ab671ad5f96ab66180", "width": 320, "height": 320}, {"url": "https://i.scdn.co/image/cb71759a08bce366688ef83148e3736ad2932c69", "width": 160, "height": 160}], "followers": {"total": 121, "href": null}, "genres": [], "external_urls": {"spotify": "https://open.spotify.com/artist/46FkXEJ8NJakX3s2QM4nFm"}, "id": "46FkXEJ8NJakX3s2QM4nFm"}, {"href": "https://api.spotify.com/v1/artists/0o0PoOOyXcmqcyVz8aSdYu", "name": "Moe Phoenix", "popularity": 65, "uri": "spotify:artist:0o0PoOOyXcmqcyVz8aSdYu", "type": "artist", "images": [{"url": "https://i.scdn.co/image/288c71f6276660caf149b45ab3cf70926deb645f", "width": 640, "height": 640}, {"url": "https://i.scdn.co/image/82628d9c87607cd2684b8180179b96f61c8872f5", "width": 320, "height": 320}, {"url": "https://i.scdn.co/image/1a418a1b8caf90716087c798136e3efd94ddcbf8", "width": 160, "height": 160}], "followers": {"total": 151358, "href": null}, "genres": ["german hip hop"], "external_urls": {"spotify": "https://open.spotify.com/artist/0o0PoOOyXcmqcyVz8aSdYu"}, "id": "0o0PoOOyXcmqcyVz8aSdYu"}, {"href": "https://api.spotify.com/v1/artists/2bMw6rIx4S9uymqxxQ1vkh", "name": "Dana Jean Phoenix", "popularity": 39, "uri": "spotify:artist:2bMw6rIx4S9uymqxxQ1vkh", "type": "artist", "images": [{"url": "https://i.scdn.co/image/02e5516f3b67cc59b58ddb4563489a777fe636c3", "width": 640, "height": 640}, {"url": "https://i.scdn.co/image/64a011047323a61b5311c2354966887caa74e965", "width": 320, "height": 320}, {"url": "https://i.scdn.co/image/a931b40a262d03938f36ac9c07443fbaba04876e", "width": 160, "height": 160}], "followers": {"total": 4615, "href": null}, "genres": ["retro electro"], "external_urls": {"spotify": "https://open.spotify.com/artist/2bMw6rIx4S9uymqxxQ1vkh"}, "id": "2bMw6rIx4S9uymqxxQ1vkh"}, {"href": "https://api.spotify.com/v1/artists/18YneNJbsTdMUWiKQDiD9P", "name": "Bohan Phoenix", "popularity": 35, "uri": "spotify:artist:18YneNJbsTdMUWiKQDiD9P", "type": "artist", "images": [{"url": "https://i.scdn.co/image/8067ac5f4c93646ba2e50c663aa6fc4aba4087dc", "width": 640, "height": 640}, {"url": "https://i.scdn.co/image/9b146b5b0eff62d35f72cc7117834e5e59462502", "width": 320, "height": 320}, {"url": "https://i.scdn.co/image/db3223c7225d0eecbebb3ffaa77345282a1d7189", "width": 160, "height": 160}], "followers": {"total": 8392, "href": null}, "genres": ["chinese hip hop"], "external_urls": {"spotify": "https://open.spotify.com/artist/18YneNJbsTdMUWiKQDiD9P"}, "id": "18YneNJbsTdMUWiKQDiD9P"}, {"href": "https://api.spotify.com/v1/artists/2yhOwlNZ2v49Vwq5Vco0mn", "name": "J. Phoenix", "popularity": 37, "uri": "spotify:artist:2yhOwlNZ2v49Vwq5Vco0mn", "type": "artist", "images": [{"url": "https://i.scdn.co/image/ab67616d0000b273fd6013f33298c0d7303757cd", "width": 640, "height": 640}, {"url": "https://i.scdn.co/image/ab67616d00001e02fd6013f33298c0d7303757cd", "width": 300, "height": 300}, {"url": "https://i.scdn.co/image/ab67616d00004851fd6013f33298c0d7303757cd", "width": 64, "height": 64}], "followers": {"total": 196, "href": null}, "genres": [], "external_urls": {"spotify": "https://open.spotify.com/artist/2yhOwlNZ2v49Vwq5Vco0mn"}, "id": "2yhOwlNZ2v49Vwq5Vco0mn"}, {"href": "https://api.spotify.com/v1/artists/0Do4W4pX9MGQgAHF7TAE8d", "name": "Phoenix Chamber Choir", "popularity": 33, "uri": "spotify:artist:0Do4W4pX9MGQgAHF7TAE8d", "type": "artist", "images": [{"url": "https://i.scdn.co/image/cb7ea4517c7e433d24acc15ec231179a7f112327", "width": 640, "height": 640}, {"url": "https://i.scdn.co/image/1a48b0c0eea43c41b9a62c1ff55337b87c1e6c93", "width": 320, "height": 320}, {"url": "https://i.scdn.co/image/0f79d36dfd52473348156468325e985538596108", "width": 160, "height": 160}], "followers": {"total": 450, "href": null}, "genres": ["canadian choir", "chamber choir"], "external_urls": {"spotify": "https://open.spotify.com/artist/0Do4W4pX9MGQgAHF7TAE8d"}, "id": "0Do4W4pX9MGQgAHF7TAE8d"}, {"href": "https://api.spotify.com/v1/artists/33YCmNkqNaxaGlCMisYKCd", "name": "Phoenix Chorale", "popularity": 34, "uri": "spotify:artist:33YCmNkqNaxaGlCMisYKCd", "type": "artist", "images": [{"url": "https://i.scdn.co/image/079e74b80b70ebd250c7a792787261a3bb35c99b", "width": 640, "height": 640}, {"url": "https://i.scdn.co/image/afc79c755cf7f349b9684b579b590ed74fac54b2", "width": 320, "height": 320}, {"url": "https://i.scdn.co/image/5a63d04b68bf84c5c332c234134c9edee8d8e0ba", "width": 160, "height": 160}], "followers": {"total": 1198, "href": null}, "genres": ["american choir", "chamber choir", "choral"], "external_urls": {"spotify": "https://open.spotify.com/artist/33YCmNkqNaxaGlCMisYKCd"}, "id": "33YCmNkqNaxaGlCMisYKCd"}], "previous": null}}