{"artists": {"next": "https://api.spotify.com/v1/search?query=artist%3AThe+Neighbourhood&type=artist&offset=10&limit=10", "total": 16, "href": "https://api.spotify.com/v1/search?query=artist%3AThe+Neighbourhood&type=artist&offset=0&limit=10", "offset": 0, "items": [{"type": "artist", "external_urls": {"spotify": "https://open.spotify.com/artist/77SW9BnxLY8rJ0RciFqkHh"}, "uri": "spotify:artist:77SW9BnxLY8rJ0RciFqkHh", "href": "https://api.spotify.com/v1/artists/77SW9BnxLY8rJ0RciFqkHh", "genres": ["electropop", "modern alternative rock", "modern rock", "pop"], "popularity": 78, "images": [{"height": 640, "width": 640, "url": "https://i.scdn.co/image/7880e6831c1b83030a4c261f46386b04003b0a97"}, {"height": 320, "width": 320, "url": "https://i.scdn.co/image/ad76578926bf4d5905a86edd51d3db9f621203a2"}, {"height": 160, "width": 160, "url": "https://i.scdn.co/image/39b84f6034757c4bed31d497e7810dc84af6fa48"}], "name": "The Neighbourhood", "followers": {"total": 3302461, "href": null}, "id": "77SW9BnxLY8rJ0RciFqkHh"}, {"type": "artist", "external_urls": {"spotify": "https://open.spotify.com/artist/5mLLBMFdffkAGaMJDgVlez"}, "uri": "spotify:artist:5mLLBMFdffkAGaMJDgVlez", "href": "https://api.spotify.com/v1/artists/5mLLBMFdffkAGaMJDgVlez", "genres": [], "popularity": 28, "images": [{"height": 640, "width": 640, "url": "https://i.scdn.co/image/ab67616d0000b2732aa5663b3ec2b5aa601f0e78"}, {"height": 300, "width": 300, "url": "https://i.scdn.co/image/ab67616d00001e022aa5663b3ec2b5aa601f0e78"}, {"height": 64, "width": 64, "url": "https://i.scdn.co/image/ab67616d000048512aa5663b3ec2b5aa601f0e78"}], "name": "The Old Neighbourhood", "followers": {"total": 6, "href": null}, "id": "5mLLBMFdffkAGaMJDgVlez"}, {"type": "artist", "external_urls": {"spotify": "https://open.spotify.com/artist/5F462TaDD6zu9c21NYVtl9"}, "uri": "spotify:artist:5F462TaDD6zu9c21NYVtl9", "href": "https://api.spotify.com/v1/artists/5F462TaDD6zu9c21NYVtl9", "genres": ["toronto indie"], "popularity": 31, "images": [{"height": 640, "width": 640, "url": "https://i.scdn.co/image/4f92b5c4bfed7847dfac277e4738c26e1a83b33d"}, {"height": 320, "width": 320, "url": "https://i.scdn.co/image/b999f797ec18f4ef33f2c75949c1be2ac60d9ab4"}, {"height": 160, "width": 160, "url": "https://i.scdn.co/image/2f1a705e0391e6266846008383b588d18d1fe723"}], "name": "The Neighbourhood Watch", "followers": {"total": 1843, "href": null}, "id": "5F462TaDD6zu9c21NYVtl9"}, {"type": "artist", "external_urls": {"spotify": "https://open.spotify.com/artist/3lxnqIwxAdHQzdySuUt61J"}, "uri": "spotify:artist:3lxnqIwxAdHQzdySuUt61J", "href": "https://api.spotify.com/v1/artists/3lxnqIwxAdHQzdySuUt61J", "genres": [], "popularity": 11, "images": [], "name": "The Neighbourhood", "followers": {"total": 76, "href": null}, "id": "3lxnqIwxAdHQzdySuUt61J"}, {"type": "artist", "external_urls": {"spotify": "https://open.spotify.com/artist/09UG0CDaidW9diJSE3rAOa"}, "uri": "spotify:artist:09UG0CDaidW9diJSE3rAOa", "href": "https://api.spotify.com/v1/artists/09UG0CDaidW9diJSE3rAOa", "genres": [], "popularity": 6, "images": [{"height": 640, "width": 640, "url": "https://i.scdn.co/image/ad57a88c638d501bdb16c0d2dd67e8ff2f3c04fa"}, {"height": 320, "width": 320, "url": "https://i.scdn.co/image/bc23508c77fea58823122710533a9f9577989f45"}, {"height": 160, "width": 160, "url": "https://i.scdn.co/image/dfbc345b69d8dcd7e9676361f8e62fa35bf9ef9f"}], "name": "The Odd Neighbourhood", "followers": {"total": 94, "href": null}, "id": "09UG0CDaidW9diJSE3rAOa"}, {"type": "artist", "external_urls": {"spotify": "https://open.spotify.com/artist/0qWzhNWJUVGVdQuEMaFfgF"}, "uri": "spotify:artist:0qWzhNWJUVGVdQuEMaFfgF", "href": "https://api.spotify.com/v1/artists/0qWzhNWJUVGVdQuEMaFfgF", "genres": [], "popularity": 3, "images": [{"height": 640, "width": 640, "url": "https://i.scdn.co/image/ab67616d0000b273e5e8b22c556efd90d2fd14bc"}, {"height": 300, "width": 300, "url": "https://i.scdn.co/image/ab67616d00001e02e5e8b22c556efd90d2fd14bc"}, {"height": 64, "width": 64, "url": "https://i.scdn.co/image/ab67616d00004851e5e8b22c556efd90d2fd14bc"}], "name": "The Neighbourhood", "followers": {"total": 318, "href": null}, "id": "0qWzhNWJUVGVdQuEMaFfgF"}, {"type": "artist", "external_urls": {"spotify": "https://open.spotify.com/artist/1nBdYrkE4hNARXWsjbt3sk"}, "uri": "spotify:artist:1nBdYrkE4hNARXWsjbt3sk", "href": "https://api.spotify.com/v1/artists/1nBdYrkE4hNARXWsjbt3sk", "genres": [], "popularity": 0, "images": [{"height": 640, "width": 640, "url": "https://i.scdn.co/image/ab67616d0000b27321091d691b2d520da3cd592b"}, {"height": 300, "width": 300, "url": "https://i.scdn.co/image/ab67616d00001e0221091d691b2d520da3cd592b"}, {"height": 64, "width": 64, "url": "https://i.scdn.co/image/ab67616d0000485121091d691b2d520da3cd592b"}], "name": "The Neighbourhood Strange", "followers": {"total": 54, "href": null}, "id": "1nBdYrkE4hNARXWsjbt3sk"}, {"type": "artist", "external_urls": {"spotify": "https://open.spotify.com/artist/3y2OytcUvDg0EaR65f3M6w"}, "uri": "spotify:artist:3y2OytcUvDg0EaR65f3M6w", "href": "https://api.spotify.com/v1/artists/3y2OytcUvDg0EaR65f3M6w", "genres": [], "popularity": 0, "images": [{"height": 640, "width": 640, "url": "https://i.scdn.co/image/ab67616d0000b27373b64ac2d3cd2cfb9928cd01"}, {"height": 300, "width": 300, "url": "https://i.scdn.co/image/ab67616d00001e0273b64ac2d3cd2cfb9928cd01"}, {"height": 64, "width": 64, "url": "https://i.scdn.co/image/ab67616d0000485173b64ac2d3cd2cfb9928cd01"}], "name": "The Neighbourhood Watch", "followers": {"total": 7, "href": null}, "id": "3y2OytcUvDg0EaR65f3M6w"}, {"type": "artist", "external_urls": {"spotify": "https://open.spotify.com/artist/6mfCjPMtydHEqoqhUa2XN5"}, "uri": "spotify:artist:6mfCjPMtydHEqoqhUa2XN5", "href": "https://api.spotify.com/v1/artists/6mfCjPMtydHEqoqhUa2XN5", "genres": [], "popularity": 6, "images": [{"height": 640, "width": 640, "url": "https://i.scdn.co/image/18fe69fc691404d005c00773d05d2e891872883f"}, {"height": 320, "width": 320, "url": "https://i.scdn.co/image/dd943ad4b549227bdb0865fcbb0d737d1425bcd0"}, {"height": 160, "width": 160, "url": "https://i.scdn.co/image/90de30624fa240f61631265d45493b55f6671afa"}], "name": "The Neighbourhood Creeps", "followers": {"total": 120, "href": null}, "id": "6mfCjPMtydHEqoqhUa2XN5"}, {"type": "artist", "external_urls": {"spotify": "https://open.spotify.com/artist/1S62Z3unoppMaWwjMCtHbp"}, "uri": "spotify:artist:1S62Z3unoppMaWwjMCtHbp", "href": "https://api.spotify.com/v1/artists/1S62Z3unoppMaWwjMCtHbp", "genres": [], "popularity": 2, "images": [{"height": 640, "width": 640, "url": "https://i.scdn.co/image/ab67616d0000b2737041846dd144d05c1e3c18fa"}, {"height": 300, "width": 300, "url": "https://i.scdn.co/image/ab67616d00001e027041846dd144d05c1e3c18fa"}, {"height": 64, "width": 64, "url": "https://i.scdn.co/image/ab67616d000048517041846dd144d05c1e3c18fa"}], "name": "Tommee And The Neighbourhood", "followers": {"total": 33, "href": null}, "id": "1S62Z3unoppMaWwjMCtHbp"}], "limit": 10, "previous": null}}