{"artists": {"total": 14, "offset": 0, "limit": 10, "next": "https://api.spotify.com/v1/search?query=artist%3ADisclosure&type=artist&offset=10&limit=10", "href": "https://api.spotify.com/v1/search?query=artist%3ADisclosure&type=artist&offset=0&limit=10", "items": [{"href": "https://api.spotify.com/v1/artists/6nS5roXSAGhTGr34W6n7Et", "name": "Disclosure", "popularity": 79, "uri": "spotify:artist:6nS5roXSAGhTGr34W6n7Et", "type": "artist", "images": [{"url": "https://i.scdn.co/image/abe3f9908500776b9c2d528022763e08d89bffc1", "width": 640, "height": 640}, {"url": "https://i.scdn.co/image/7cc875f7510cac85ba0b6a7e9e469e9612a08175", "width": 320, "height": 320}, {"url": "https://i.scdn.co/image/08dce620c96c0a37f99cafba720b2804bf113d44", "width": 160, "height": 160}], "followers": {"total": 1646553, "href": null}, "genres": ["house", "pop", "uk dance"], "external_urls": {"spotify": "https://open.spotify.com/artist/6nS5roXSAGhTGr34W6n7Et"}, "id": "6nS5roXSAGhTGr34W6n7Et"}, {"href": "https://api.spotify.com/v1/artists/5kEMsZhrbCQcl5Zzv0VIpY", "name": "Disclosure", "popularity": 28, "uri": "spotify:artist:5kEMsZhrbCQcl5Zzv0VIpY", "type": "artist", "images": [{"url": "https://i.scdn.co/image/ab67616d0000b273a678705935b101e8d0ed6e28", "width": 640, "height": 640}, {"url": "https://i.scdn.co/image/ab67616d00001e02a678705935b101e8d0ed6e28", "width": 300, "height": 300}, {"url": "https://i.scdn.co/image/ab67616d00004851a678705935b101e8d0ed6e28", "width": 64, "height": 64}], "followers": {"total": 6493, "href": null}, "genres": [], "external_urls": {"spotify": "https://open.spotify.com/artist/5kEMsZhrbCQcl5Zzv0VIpY"}, "id": "5kEMsZhrbCQcl5Zzv0VIpY"}, {"href": "https://api.spotify.com/v1/artists/1P9Lp7dOF7SJuMGZea5GGf", "name": "The Disclosure Project", "popularity": 8, "uri": "spotify:artist:1P9Lp7dOF7SJuMGZea5GGf", "type": "artist", "images": [{"url": "https://i.scdn.co/image/ab67616d0000b27376219f0b79a502e875c2c81e", "width": 640, "height": 640}, {"url": "https://i.scdn.co/image/ab67616d00001e0276219f0b79a502e875c2c81e", "width": 300, "height": 300}, {"url": "https://i.scdn.co/image/ab67616d0000485176219f0b79a502e875c2c81e", "width": 64, "height": 64}], "followers": {"total": 822, "href": null}, "genres": ["deep deep house"], "external_urls": {"spotify": "https://open.spotify.com/artist/1P9Lp7dOF7SJuMGZea5GGf"}, "id": "1P9Lp7dOF7SJuMGZea5GGf"}, {"href": "https://api.spotify.com/v1/artists/5rDB9PxZUYaopFsVFcv2vd", "name": "Disclosure", "popularity": 0, "uri": "spotify:artist:5rDB9PxZUYaopFsVFcv2vd", "type": "artist", "images": [{"url": "https://i.scdn.co/image/ab67616d0000b273e6bb8f53ea747fe96884991c", "width": 640, "height": 640}, {"url": "https://i.scdn.co/image/ab67616d00001e02e6bb8f53ea747fe96884991c", "width": 300, "height": 300}, {"url": "https://i.scdn.co/image/ab67616d00004851e6bb8f53ea747fe96884991c", "width": 64, "height": 64}], "followers": {"total": 33, "href": null}, "genres": [], "external_urls": {"spotify": "https://open.spotify.com/artist/5rDB9PxZUYaopFsVFcv2vd"}, "id": "5rDB9PxZUYaopFsVFcv2vd"}, {"href": "https://api.spotify.com/v1/artists/3GFEp9Xnah75qhBeNQJvx6", "name": "Summer Disclosure", "popularity": 0, "uri": "spotify:artist:3GFEp9Xnah75qhBeNQJvx6", "type": "artist", "images": [{"url": "https://i.scdn.co/image/ab67616d0000b27349ec7d5285fe684df4320871", "width": 640, "height": 640}, {"url": "https://i.scdn.co/image/ab67616d00001e0249ec7d5285fe684df4320871", "width": 300, "height": 300}, {"url": "https://i.scdn.co/image/ab67616d0000485149ec7d5285fe684df4320871", "width": 64, "height": 64}], "followers": {"total": 17, "href": null}, "genres": [], "external_urls": {"spotify": "https://open.spotify.com/artist/3GFEp9Xnah75qhBeNQJvx6"}, "id": "3GFEp9Xnah75qhBeNQJvx6"}, {"href": "https://api.spotify.com/v1/artists/4o7OFLbg2KBaBpI9GDMQGA", "name": "Watcher's Disclosure", "popularity": 0, "uri": "spotify:artist:4o7OFLbg2KBaBpI9GDMQGA", "type": "artist", "images": [{"url": "https://i.scdn.co/image/ab67616d0000b27384af5b70f8e83d7688bfd6a1", "width": 640, "height": 640}, {"url": "https://i.scdn.co/image/ab67616d00001e0284af5b70f8e83d7688bfd6a1", "width": 300, "height": 300}, {"url": "https://i.scdn.co/image/ab67616d0000485184af5b70f8e83d7688bfd6a1", "width": 64, "height": 64}], "followers": {"total": 8, "href": null}, "genres": [], "external_urls": {"spotify": "https://open.spotify.com/artist/4o7OFLbg2KBaBpI9GDMQGA"}, "id": "4o7OFLbg2KBaBpI9GDMQGA"}, {"href": "https://api.spotify.com/v1/artists/58wM8D6LjKzOcqfWnL1yeN", "name": "Full Disclosure", "popularity": 0, "uri": "spotify:artist:58wM8D6LjKzOcqfWnL1yeN", "type": "artist", "images": [], "followers": {"total": 3, "href": null}, "genres": [], "external_urls": {"spotify": "https://open.spotify.com/artist/58wM8D6LjKzOcqfWnL1yeN"}, "id": "58wM8D6LjKzOcqfWnL1yeN"}, {"href": "https://api.spotify.com/v1/artists/6Bg6hpC7K5K6xvd8By1X85", "name": "Full Disclosure", "popularity": 0, "uri": "spotify:artist:6Bg6hpC7K5K6xvd8By1X85", "type": "artist", "images": [{"url": "https://i.scdn.co/image/6a4d5a536ce544be34ea7985cd344e79d9f593d8", "width": 640, "height": 640}, {"url": "https://i.scdn.co/image/4891a603277c1e3513c9fdb0b3ce2ac03d4154da", "width": 320, "height": 320}, {"url": "https://i.scdn.co/image/787da770508f6c64f38ea56a67ce02380dd9e620", "width": 160, "height": 160}], "followers": {"total": 66, "href": null}, "genres": [], "external_urls": {"spotify": "https://open.spotify.com/artist/6Bg6hpC7K5K6xvd8By1X85"}, "id": "6Bg6hpC7K5K6xvd8By1X85"}, {"href": "https://api.spotify.com/v1/artists/0b1svLrmAZkUrPjbOo4rT0", "name": "Age of Disclosure", "popularity": 0, "uri": "spotify:artist:0b1svLrmAZkUrPjbOo4rT0", "type": "artist", "images": [{"url": "https://i.scdn.co/image/ab67616d0000b273a14debcc2bcb2f545aa3a45f", "width": 640, "height": 640}, {"url": "https://i.scdn.co/image/ab67616d00001e02a14debcc2bcb2f545aa3a45f", "width": 300, "height": 300}, {"url": "https://i.scdn.co/image/ab67616d00004851a14debcc2bcb2f545aa3a45f", "width": 64, "height": 64}], "followers": {"total": 17, "href": null}, "genres": [], "external_urls": {"spotify": "https://open.spotify.com/artist/0b1svLrmAZkUrPjbOo4rT0"}, "id": "0b1svLrmAZkUrPjbOo4rT0"}, {"href": "https://api.spotify.com/v1/artists/3LDmgD0RWx6rOpD5Jiam5x", "name": "The Disclosure Projcect", "popularity": 0, "uri": "spotify:artist:3LDmgD0RWx6rOpD5Jiam5x", "type": "artist", "images": [], "followers": {"total": 6, "href": null}, "genres": [], "external_urls": {"spotify": "https://open.spotify.com/artist/3LDmgD0RWx6rOpD5Jiam5x"}, "id": "3LDmgD0RWx6rOpD5Jiam5x"}], "previous": null}}