{"artists": {"next": "https://api.spotify.com/v1/search?query=artist%3AEminem&type=artist&offset=10&limit=10", "total": 11, "href": "https://api.spotify.com/v1/search?query=artist%3AEminem&type=artist&offset=0&limit=10", "offset": 0, "items": [{"type": "artist", "external_urls": {"spotify": "https://open.spotify.com/artist/7dGJo4pcD2V6oG8kP0tJRR"}, "uri": "spotify:artist:7dGJo4pcD2V6oG8kP0tJRR", "href": "https://api.spotify.com/v1/artists/7dGJo4pcD2V6oG8kP0tJRR", "genres": ["detroit hip hop", "g funk", "hip hop", "rap"], "popularity": 92, "images": [{"height": 640, "width": 640, "url": "https://i.scdn.co/image/60c4daa4721f666c6afaee82a39bd413979a0474"}, {"height": 320, "width": 320, "url": "https://i.scdn.co/image/ae8dd3b01ada324eeb8c0b341e8f7ebda406095e"}, {"height": 160, "width": 160, "url": "https://i.scdn.co/image/ed213a32e1327f3f2d7b2539eb1db57f55b68dbb"}], "name": "Eminem", "followers": {"total": 30073431, "href": null}, "id": "7dGJo4pcD2V6oG8kP0tJRR"}, {"type": "artist", "external_urls": {"spotify": "https://open.spotify.com/artist/16SfgOBulDFXWORWr5d3qq"}, "uri": "spotify:artist:16SfgOBulDFXWORWr5d3qq", "href": "https://api.spotify.com/v1/artists/16SfgOBulDFXWORWr5d3qq", "genres": [], "popularity": 2, "images": [{"height": 640, "width": 640, "url": "https://i.scdn.co/image/ab67616d0000b2737999b090c18df4d3b2e206db"}, {"height": 300, "width": 300, "url": "https://i.scdn.co/image/ab67616d00001e027999b090c18df4d3b2e206db"}, {"height": 64, "width": 64, "url": "https://i.scdn.co/image/ab67616d000048517999b090c18df4d3b2e206db"}], "name": "Emine'm", "followers": {"total": 1163, "href": null}, "id": "16SfgOBulDFXWORWr5d3qq"}, {"type": "artist", "external_urls": {"spotify": "https://open.spotify.com/artist/0KT9w8O0PggwZ5ZsAQG0xL"}, "uri": "spotify:artist:0KT9w8O0PggwZ5ZsAQG0xL", "href": "https://api.spotify.com/v1/artists/0KT9w8O0PggwZ5ZsAQG0xL", "genres": [], "popularity": 0, "images": [{"height": 640, "width": 640, "url": "https://i.scdn.co/image/ab67616d0000b2735369ab27272c93dd6daa787d"}, {"height": 300, "width": 300, "url": "https://i.scdn.co/image/ab67616d00001e025369ab27272c93dd6daa787d"}, {"height": 64, "width": 64, "url": "https://i.scdn.co/image/ab67616d000048515369ab27272c93dd6daa787d"}], "name": "Z\u00fcleyha Eminem", "followers": {"total": 8, "href": null}, "id": "0KT9w8O0PggwZ5ZsAQG0xL"}, {"type": "artist", "external_urls": {"spotify": "https://open.spotify.com/artist/52Qhb96Tc4f0zMSiqqRKr7"}, "uri": "spotify:artist:52Qhb96Tc4f0zMSiqqRKr7", "href": "https://api.spotify.com/v1/artists/52Qhb96Tc4f0zMSiqqRKr7", "genres": [], "popularity": 2, "images": [], "name": "Mc Cavallo feat. Gli Eminem, I Nate Dogg", "followers": {"total": 157, "href": null}, "id": "52Qhb96Tc4f0zMSiqqRKr7"}, {"type": "artist", "external_urls": {"spotify": "https://open.spotify.com/artist/3INvGVvQJoD9RWQUc7ogl1"}, "uri": "spotify:artist:3INvGVvQJoD9RWQUc7ogl1", "href": "https://api.spotify.com/v1/artists/3INvGVvQJoD9RWQUc7ogl1", "genres": [], "popularity": 0, "images": [], "name": "Jason Porter, Duke, PROOF of Eminem D12, D-Roll, Crooked", "followers": {"total": 57, "href": null}, "id": "3INvGVvQJoD9RWQUc7ogl1"}, {"type": "artist", "external_urls": {"spotify": "https://open.spotify.com/artist/7Aw10uVpJqPO2VgY1ku7a9"}, "uri": "spotify:artist:7Aw10uVpJqPO2VgY1ku7a9", "href": "https://api.spotify.com/v1/artists/7Aw10uVpJqPO2VgY1ku7a9", "genres": [], "popularity": 1, "images": [{"height": 640, "width": 640, "url": "https://i.scdn.co/image/ab67616d0000b27334deaebacbd043845111ffc9"}, {"height": 300, "width": 300, "url": "https://i.scdn.co/image/ab67616d00001e0234deaebacbd043845111ffc9"}, {"height": 64, "width": 64, "url": "https://i.scdn.co/image/ab67616d0000485134deaebacbd043845111ffc9"}], "name": "Tribute to Eminem", "followers": {"total": 335, "href": null}, "id": "7Aw10uVpJqPO2VgY1ku7a9"}, {"type": "artist", "external_urls": {"spotify": "https://open.spotify.com/artist/2mOgJyJzA4bxXT5DIMhCII"}, "uri": "spotify:artist:2mOgJyJzA4bxXT5DIMhCII", "href": "https://api.spotify.com/v1/artists/2mOgJyJzA4bxXT5DIMhCII", "genres": [], "popularity": 0, "images": [], "name": "Made famous by Eminem", "followers": {"total": 64, "href": null}, "id": "2mOgJyJzA4bxXT5DIMhCII"}, {"type": "artist", "external_urls": {"spotify": "https://open.spotify.com/artist/0mO14O4JX0YcZvRBp3BH1s"}, "uri": "spotify:artist:0mO14O4JX0YcZvRBp3BH1s", "href": "https://api.spotify.com/v1/artists/0mO14O4JX0YcZvRBp3BH1s", "genres": [], "popularity": 0, "images": [{"height": 640, "width": 640, "url": "https://i.scdn.co/image/ab67616d0000b273ff944a91a510e9a85d891f6e"}, {"height": 300, "width": 300, "url": "https://i.scdn.co/image/ab67616d00001e02ff944a91a510e9a85d891f6e"}, {"height": 64, "width": 64, "url": "https://i.scdn.co/image/ab67616d00004851ff944a91a510e9a85d891f6e"}], "name": "Eminem feat Dr. Dre Karaoke Band", "followers": {"total": 408, "href": null}, "id": "0mO14O4JX0YcZvRBp3BH1s"}, {"type": "artist", "external_urls": {"spotify": "https://open.spotify.com/artist/1kmA3iIroiYXIQ3UY4sBhx"}, "uri": "spotify:artist:1kmA3iIroiYXIQ3UY4sBhx", "href": "https://api.spotify.com/v1/artists/1kmA3iIroiYXIQ3UY4sBhx", "genres": [], "popularity": 7, "images": [], "name": "Made Famous By Eminem & Rihanna", "followers": {"total": 285, "href": null}, "id": "1kmA3iIroiYXIQ3UY4sBhx"}, {"type": "artist", "external_urls": {"spotify": "https://open.spotify.com/artist/3ElRipFF8JTX7w7wvC0GJh"}, "uri": "spotify:artist:3ElRipFF8JTX7w7wvC0GJh", "href": "https://api.spotify.com/v1/artists/3ElRipFF8JTX7w7wvC0GJh", "genres": [], "popularity": 5, "images": [{"height": 640, "width": 640, "url": "https://i.scdn.co/image/ab67616d0000b273a0663003ed041a450f3e3d61"}, {"height": 300, "width": 300, "url": "https://i.scdn.co/image/ab67616d00001e02a0663003ed041a450f3e3d61"}, {"height": 64, "width": 64, "url": "https://i.scdn.co/image/ab67616d00004851a0663003ed041a450f3e3d61"}], "name": "Eminem ft. - Dr. Dre Tribute Band", "followers": {"total": 1501, "href": null}, "id": "3ElRipFF8JTX7w7wvC0GJh"}], "limit": 10, "previous": null}}