{"artists": {"total": 248, "offset": 0, "limit": 10, "next": "https://api.spotify.com/v1/search?query=artist%3AMuse&type=artist&offset=10&limit=10", "href": "https://api.spotify.com/v1/search?query=artist%3AMuse&type=artist&offset=0&limit=10", "items": [{"href": "https://api.spotify.com/v1/artists/12Chz98pHFMPJEknJQMWvI", "name": "Muse", "popularity": 80, "uri": "spotify:artist:12Chz98pHFMPJEknJQMWvI", "type": "artist", "images": [{"url": "https://i.scdn.co/image/12450535621500d6e519275f2c52d49c00a0168f", "width": 640, "height": 640}, {"url": "https://i.scdn.co/image/17f00ec7613d733f2dd88de8f2c1628ea5f9adde", "width": 320, "height": 320}, {"url": "https://i.scdn.co/image/2da69b7920c065afc835124c4786025820adab8c", "width": 160, "height": 160}], "followers": {"total": 5282739, "href": null}, "genres": ["modern rock", "permanent wave", "piano rock", "post-grunge", "rock"], "external_urls": {"spotify": "https://open.spotify.com/artist/12Chz98pHFMPJEknJQMWvI"}, "id": "12Chz98pHFMPJEknJQMWvI"}, {"href": "https://api.spotify.com/v1/artists/1PgZeUa7uRiBu1XU02hiBH", "name": "The Muse Of Meditation", "popularity": 35, "uri": "spotify:artist:1PgZeUa7uRiBu1XU02hiBH", "type": "artist", "images": [{"url": "https://i.scdn.co/image/ab67616d0000b27345b862bc673e69699b1a3e63", "width": 640, "height": 640}, {"url": "https://i.scdn.co/image/ab67616d00001e0245b862bc673e69699b1a3e63", "width": 300, "height": 300}, {"url": "https://i.scdn.co/image/ab67616d0000485145b862bc673e69699b1a3e63", "width": 64, "height": 64}], "followers": {"total": 10, "href": null}, "genres": [], "external_urls": {"spotify": "https://open.spotify.com/artist/1PgZeUa7uRiBu1XU02hiBH"}, "id": "1PgZeUa7uRiBu1XU02hiBH"}, {"href": "https://api.spotify.com/v1/artists/6dauOpCe6nbJap574c28ss", "name": "Kenif Muse", "popularity": 19, "uri": "spotify:artist:6dauOpCe6nbJap574c28ss", "type": "artist", "images": [{"url": "https://i.scdn.co/image/b0d32677fac641bcb903dbae397ddb164b8c87f2", "width": 640, "height": 640}, {"url": "https://i.scdn.co/image/59fba5418d8d5cf27d246292280b19d65f99959f", "width": 320, "height": 320}, {"url": "https://i.scdn.co/image/66dd32c54ee40a9b9408135ff8cf80f61716ab29", "width": 160, "height": 160}], "followers": {"total": 772, "href": null}, "genres": [], "external_urls": {"spotify": "https://open.spotify.com/artist/6dauOpCe6nbJap574c28ss"}, "id": "6dauOpCe6nbJap574c28ss"}, {"href": "https://api.spotify.com/v1/artists/3waFze2hMUecCLD0BJ4rvU", "name": "Faith And The Muse", "popularity": 26, "uri": "spotify:artist:3waFze2hMUecCLD0BJ4rvU", "type": "artist", "images": [{"url": "https://i.scdn.co/image/bf5ef59f96049d1969f99fb292f15607efd4fa42", "width": 279, "height": 432}, {"url": "https://i.scdn.co/image/420c64d3d03da48bccee6dcba3abb2db67fa6772", "width": 200, "height": 310}, {"url": "https://i.scdn.co/image/46bf71307e4debfd814bf47b344af8b19759ed57", "width": 64, "height": 99}], "followers": {"total": 12134, "href": null}, "genres": ["dark wave", "ethereal wave", "gothic rock", "medieval folk", "neoclassical", "steampunk"], "external_urls": {"spotify": "https://open.spotify.com/artist/3waFze2hMUecCLD0BJ4rvU"}, "id": "3waFze2hMUecCLD0BJ4rvU"}, {"href": "https://api.spotify.com/v1/artists/1u3g8PeUxNzaQmolXTwZRL", "name": "Iberian Muse", "popularity": 26, "uri": "spotify:artist:1u3g8PeUxNzaQmolXTwZRL", "type": "artist", "images": [{"url": "https://i.scdn.co/image/ab67616d0000b273b65379756a7767cc90eca7c0", "width": 640, "height": 640}, {"url": "https://i.scdn.co/image/ab67616d00001e02b65379756a7767cc90eca7c0", "width": 300, "height": 300}, {"url": "https://i.scdn.co/image/ab67616d00004851b65379756a7767cc90eca7c0", "width": 64, "height": 64}], "followers": {"total": 167, "href": null}, "genres": [], "external_urls": {"spotify": "https://open.spotify.com/artist/1u3g8PeUxNzaQmolXTwZRL"}, "id": "1u3g8PeUxNzaQmolXTwZRL"}, {"href": "https://api.spotify.com/v1/artists/2nYRDHDPqrclxCKNOCFY2j", "name": "Pixy Muse", "popularity": 14, "uri": "spotify:artist:2nYRDHDPqrclxCKNOCFY2j", "type": "artist", "images": [{"url": "https://i.scdn.co/image/0ca8d7ae75313ea5cfac1abbb31a2333b4a58a69", "width": 640, "height": 640}, {"url": "https://i.scdn.co/image/8d962f49bc3441072811a982ab900517c9bdf374", "width": 320, "height": 320}, {"url": "https://i.scdn.co/image/9baaccc4812a187202e7ebdbc300c37997cc1373", "width": 160, "height": 160}], "followers": {"total": 3441, "href": null}, "genres": [], "external_urls": {"spotify": "https://open.spotify.com/artist/2nYRDHDPqrclxCKNOCFY2j"}, "id": "2nYRDHDPqrclxCKNOCFY2j"}, {"href": "https://api.spotify.com/v1/artists/0LjVOGAofVR8GpUkRODKhA", "name": "Sky Muse", "popularity": 23, "uri": "spotify:artist:0LjVOGAofVR8GpUkRODKhA", "type": "artist", "images": [{"url": "https://i.scdn.co/image/ab67616d0000b2734d8daf2479026d770d0e5f1e", "width": 640, "height": 640}, {"url": "https://i.scdn.co/image/ab67616d00001e024d8daf2479026d770d0e5f1e", "width": 300, "height": 300}, {"url": "https://i.scdn.co/image/ab67616d000048514d8daf2479026d770d0e5f1e", "width": 64, "height": 64}], "followers": {"total": 1639, "href": null}, "genres": [], "external_urls": {"spotify": "https://open.spotify.com/artist/0LjVOGAofVR8GpUkRODKhA"}, "id": "0LjVOGAofVR8GpUkRODKhA"}, {"href": "https://api.spotify.com/v1/artists/15qpUkIDVVWsb60MTzCVsJ", "name": "Clip Muse", "popularity": 23, "uri": "spotify:artist:15qpUkIDVVWsb60MTzCVsJ", "type": "artist", "images": [{"url": "https://i.scdn.co/image/ab67616d0000b27356b629c85dae601593c66784", "width": 640, "height": 640}, {"url": "https://i.scdn.co/image/ab67616d00001e0256b629c85dae601593c66784", "width": 300, "height": 300}, {"url": "https://i.scdn.co/image/ab67616d0000485156b629c85dae601593c66784", "width": 64, "height": 64}], "followers": {"total": 229, "href": null}, "genres": [], "external_urls": {"spotify": "https://open.spotify.com/artist/15qpUkIDVVWsb60MTzCVsJ"}, "id": "15qpUkIDVVWsb60MTzCVsJ"}, {"href": "https://api.spotify.com/v1/artists/4EieLdBUvmICuAO5n8uELW", "name": "Sleeping Muse", "popularity": 25, "uri": "spotify:artist:4EieLdBUvmICuAO5n8uELW", "type": "artist", "images": [], "followers": {"total": 4, "href": null}, "genres": [], "external_urls": {"spotify": "https://open.spotify.com/artist/4EieLdBUvmICuAO5n8uELW"}, "id": "4EieLdBUvmICuAO5n8uELW"}, {"href": "https://api.spotify.com/v1/artists/0EcCExwuVReDp8Y86sLXUo", "name": "Charlee Muse", "popularity": 19, "uri": "spotify:artist:0EcCExwuVReDp8Y86sLXUo", "type": "artist", "images": [{"url": "https://i.scdn.co/image/fef4944016086c9f0afb7ee943ab0a0d746b30e7", "width": 640, "height": 640}, {"url": "https://i.scdn.co/image/39d74c5be6e3e929bdca315b2a4c60fc6c581487", "width": 320, "height": 320}, {"url": "https://i.scdn.co/image/ae04510bb2b9493375de9e3748651e4574de4084", "width": 160, "height": 160}], "followers": {"total": 129, "href": null}, "genres": [], "external_urls": {"spotify": "https://open.spotify.com/artist/0EcCExwuVReDp8Y86sLXUo"}, "id": "0EcCExwuVReDp8Y86sLXUo"}], "previous": null}}