{"artists": {"next": "https://api.spotify.com/v1/search?query=artist%3AJohnny+Cash&type=artist&offset=10&limit=10", "total": 18, "href": "https://api.spotify.com/v1/search?query=artist%3AJohnny+Cash&type=artist&offset=0&limit=10", "offset": 0, "items": [{"type": "artist", "external_urls": {"spotify": "https://open.spotify.com/artist/6kACVPfCOnqzgfEF5ryl0x"}, "uri": "spotify:artist:6kACVPfCOnqzgfEF5ryl0x", "href": "https://api.spotify.com/v1/artists/6kACVPfCOnqzgfEF5ryl0x", "genres": ["arkansas country", "outlaw country", "traditional country"], "popularity": 78, "images": [{"height": 640, "width": 640, "url": "https://i.scdn.co/image/4eac84cd2ac4bf737f80ab9cd2357d41a11229fb"}, {"height": 320, "width": 320, "url": "https://i.scdn.co/image/9843d2085246e5cc7dcf98429dc7b4f6682fb37f"}, {"height": 160, "width": 160, "url": "https://i.scdn.co/image/db4ff48f1170deaa0daa299f9b1617d7c6204928"}], "name": "Johnny Cash", "followers": {"total": 3499771, "href": null}, "id": "6kACVPfCOnqzgfEF5ryl0x"}, {"type": "artist", "external_urls": {"spotify": "https://open.spotify.com/artist/12UQDFCHnDPPe6yBi8jKyc"}, "uri": "spotify:artist:12UQDFCHnDPPe6yBi8jKyc", "href": "https://api.spotify.com/v1/artists/12UQDFCHnDPPe6yBi8jKyc", "genres": ["chicago rap", "drill"], "popularity": 26, "images": [{"height": 640, "width": 640, "url": "https://i.scdn.co/image/ab67616d0000b273b2a7924f8aa1cd82b41d1b35"}, {"height": 300, "width": 300, "url": "https://i.scdn.co/image/ab67616d00001e02b2a7924f8aa1cd82b41d1b35"}, {"height": 64, "width": 64, "url": "https://i.scdn.co/image/ab67616d00004851b2a7924f8aa1cd82b41d1b35"}], "name": "Johnny May Cash", "followers": {"total": 4780, "href": null}, "id": "12UQDFCHnDPPe6yBi8jKyc"}, {"type": "artist", "external_urls": {"spotify": "https://open.spotify.com/artist/7J7zkant0HwoShdwP6FHbe"}, "uri": "spotify:artist:7J7zkant0HwoShdwP6FHbe", "href": "https://api.spotify.com/v1/artists/7J7zkant0HwoShdwP6FHbe", "genres": ["outlaw country", "roots americana", "texas country"], "popularity": 21, "images": [{"height": 640, "width": 640, "url": "https://i.scdn.co/image/ab67616d0000b273f91fa92cc1939b3e58f0ce7d"}, {"height": 300, "width": 300, "url": "https://i.scdn.co/image/ab67616d00001e02f91fa92cc1939b3e58f0ce7d"}, {"height": 64, "width": 64, "url": "https://i.scdn.co/image/ab67616d00004851f91fa92cc1939b3e58f0ce7d"}], "name": "Bastard Sons of Johnny Cash", "followers": {"total": 3596, "href": null}, "id": "7J7zkant0HwoShdwP6FHbe"}, {"type": "artist", "external_urls": {"spotify": "https://open.spotify.com/artist/0eFDoPeIh3iGgEoF38lDS1"}, "uri": "spotify:artist:0eFDoPeIh3iGgEoF38lDS1", "href": "https://api.spotify.com/v1/artists/0eFDoPeIh3iGgEoF38lDS1", "genres": [], "popularity": 11, "images": [], "name": "The Johnny Cash Family", "followers": {"total": 66, "href": null}, "id": "0eFDoPeIh3iGgEoF38lDS1"}, {"type": "artist", "external_urls": {"spotify": "https://open.spotify.com/artist/7yevnZHnLPyJI956C26B1w"}, "uri": "spotify:artist:7yevnZHnLPyJI956C26B1w", "href": "https://api.spotify.com/v1/artists/7yevnZHnLPyJI956C26B1w", "genres": [], "popularity": 10, "images": [{"height": 640, "width": 640, "url": "https://i.scdn.co/image/ab67616d0000b273a18a572fed0a7112fcbe6205"}, {"height": 300, "width": 300, "url": "https://i.scdn.co/image/ab67616d00001e02a18a572fed0a7112fcbe6205"}, {"height": 64, "width": 64, "url": "https://i.scdn.co/image/ab67616d00004851a18a572fed0a7112fcbe6205"}], "name": "The Ghost of Johnny Cash", "followers": {"total": 151, "href": null}, "id": "7yevnZHnLPyJI956C26B1w"}, {"type": "artist", "external_urls": {"spotify": "https://open.spotify.com/artist/4Blz1xETAydCUXxqee6PEV"}, "uri": "spotify:artist:4Blz1xETAydCUXxqee6PEV", "href": "https://api.spotify.com/v1/artists/4Blz1xETAydCUXxqee6PEV", "genres": [], "popularity": 3, "images": [], "name": "Willie Nelson, Johnny Cash, Waylon Jennings & Kris Kristofferson", "followers": {"total": 619, "href": null}, "id": "4Blz1xETAydCUXxqee6PEV"}, {"type": "artist", "external_urls": {"spotify": "https://open.spotify.com/artist/68yHqD6bMXBC1cfGRZZK1x"}, "uri": "spotify:artist:68yHqD6bMXBC1cfGRZZK1x", "href": "https://api.spotify.com/v1/artists/68yHqD6bMXBC1cfGRZZK1x", "genres": [], "popularity": 0, "images": [], "name": "Johnny Cash (R.I.P.)", "followers": {"total": 74, "href": null}, "id": "68yHqD6bMXBC1cfGRZZK1x"}, {"type": "artist", "external_urls": {"spotify": "https://open.spotify.com/artist/7sXFw4wrQtx9ahfcxPHmaB"}, "uri": "spotify:artist:7sXFw4wrQtx9ahfcxPHmaB", "href": "https://api.spotify.com/v1/artists/7sXFw4wrQtx9ahfcxPHmaB", "genres": [], "popularity": 0, "images": [{"height": 640, "width": 640, "url": "https://i.scdn.co/image/ab67616d0000b2732588900d3ae346b7109f2dd4"}, {"height": 300, "width": 300, "url": "https://i.scdn.co/image/ab67616d00001e022588900d3ae346b7109f2dd4"}, {"height": 64, "width": 64, "url": "https://i.scdn.co/image/ab67616d000048512588900d3ae346b7109f2dd4"}], "name": "Johnny Cash Flo", "followers": {"total": 72, "href": null}, "id": "7sXFw4wrQtx9ahfcxPHmaB"}, {"type": "artist", "external_urls": {"spotify": "https://open.spotify.com/artist/4Fqe1qlSOOjMuyIGM6O4EI"}, "uri": "spotify:artist:4Fqe1qlSOOjMuyIGM6O4EI", "href": "https://api.spotify.com/v1/artists/4Fqe1qlSOOjMuyIGM6O4EI", "genres": [], "popularity": 0, "images": [], "name": "Dave Roe (Johnny Cash)", "followers": {"total": 7, "href": null}, "id": "4Fqe1qlSOOjMuyIGM6O4EI"}, {"type": "artist", "external_urls": {"spotify": "https://open.spotify.com/artist/7izCRu68MVxck3LDBy0t6l"}, "uri": "spotify:artist:7izCRu68MVxck3LDBy0t6l", "href": "https://api.spotify.com/v1/artists/7izCRu68MVxck3LDBy0t6l", "genres": [], "popularity": 2, "images": [{"height": 640, "width": 640, "url": "https://i.scdn.co/image/ab67616d0000b2733a91215e879bead1990c9ba8"}, {"height": 300, "width": 300, "url": "https://i.scdn.co/image/ab67616d00001e023a91215e879bead1990c9ba8"}, {"height": 64, "width": 64, "url": "https://i.scdn.co/image/ab67616d000048513a91215e879bead1990c9ba8"}], "name": "I Am Johnny Cash", "followers": {"total": 82, "href": null}, "id": "7izCRu68MVxck3LDBy0t6l"}], "limit": 10, "previous": null}}