{"artists": {"total": 11, "offset": 0, "limit": 10, "next": "https://api.spotify.com/v1/search?query=artist%3AKanye+West&type=artist&offset=10&limit=10", "href": "https://api.spotify.com/v1/search?query=artist%3AKanye+West&type=artist&offset=0&limit=10", "items": [{"href": "https://api.spotify.com/v1/artists/5K4W6rqBFWDnAN6FQUkS6x", "name": "Kanye West", "popularity": 89, "uri": "spotify:artist:5K4W6rqBFWDnAN6FQUkS6x", "type": "artist", "images": [{"url": "https://i.scdn.co/image/a12d8543e28d71d9f1e7f5f363c1a6c73316f9e6", "width": 640, "height": 640}, {"url": "https://i.scdn.co/image/42119cbcb4d694e7f0fe4a6d684fbc63902a916d", "width": 320, "height": 320}, {"url": "https://i.scdn.co/image/e36258fefdac3bef70bbfa6eca6cb5ecf9f22cea", "width": 160, "height": 160}], "followers": {"total": 10425628, "href": null}, "genres": ["chicago rap", "hip hop", "pop rap", "rap"], "external_urls": {"spotify": "https://open.spotify.com/artist/5K4W6rqBFWDnAN6FQUkS6x"}, "id": "5K4W6rqBFWDnAN6FQUkS6x"}, {"href": "https://api.spotify.com/v1/artists/5xMcX1WiPEq5BMw0Xz42Z4", "name": "Kanye West for KanMan Productions, Inc. and Krazy Kat Catalogue, Inc.", "popularity": 15, "uri": "spotify:artist:5xMcX1WiPEq5BMw0Xz42Z4", "type": "artist", "images": [], "followers": {"total": 39, "href": null}, "genres": [], "external_urls": {"spotify": "https://open.spotify.com/artist/5xMcX1WiPEq5BMw0Xz42Z4"}, "id": "5xMcX1WiPEq5BMw0Xz42Z4"}, {"href": "https://api.spotify.com/v1/artists/2BYfXvfV9YJR4orpk4PET2", "name": "Kanye Omari West", "popularity": 4, "uri": "spotify:artist:2BYfXvfV9YJR4orpk4PET2", "type": "artist", "images": [], "followers": {"total": 9, "href": null}, "genres": [], "external_urls": {"spotify": "https://open.spotify.com/artist/2BYfXvfV9YJR4orpk4PET2"}, "id": "2BYfXvfV9YJR4orpk4PET2"}, {"href": "https://api.spotify.com/v1/artists/5wUrFJpvNRKTXfV7lqDo2a", "name": "Kanye West prod. B.o.B", "popularity": 4, "uri": "spotify:artist:5wUrFJpvNRKTXfV7lqDo2a", "type": "artist", "images": [], "followers": {"total": 10, "href": null}, "genres": [], "external_urls": {"spotify": "https://open.spotify.com/artist/5wUrFJpvNRKTXfV7lqDo2a"}, "id": "5wUrFJpvNRKTXfV7lqDo2a"}, {"href": "https://api.spotify.com/v1/artists/0JzERClnaGwpsLlQZG9PNY", "name": "Hot Karl & Kanye West", "popularity": 0, "uri": "spotify:artist:0JzERClnaGwpsLlQZG9PNY", "type": "artist", "images": [], "followers": {"total": 26, "href": null}, "genres": [], "external_urls": {"spotify": "https://open.spotify.com/artist/0JzERClnaGwpsLlQZG9PNY"}, "id": "0JzERClnaGwpsLlQZG9PNY"}, {"href": "https://api.spotify.com/v1/artists/3ufE7FlElQOONgUc47xWqC", "name": "Asher Roth Prod. By Kanye West", "popularity": 3, "uri": "spotify:artist:3ufE7FlElQOONgUc47xWqC", "type": "artist", "images": [], "followers": {"total": 3, "href": null}, "genres": [], "external_urls": {"spotify": "https://open.spotify.com/artist/3ufE7FlElQOONgUc47xWqC"}, "id": "3ufE7FlElQOONgUc47xWqC"}, {"href": "https://api.spotify.com/v1/artists/1FSBOmsZvUb3sjGO0EeFkA", "name": "Rihanna & Kanye West", "popularity": 0, "uri": "spotify:artist:1FSBOmsZvUb3sjGO0EeFkA", "type": "artist", "images": [], "followers": {"total": 244, "href": null}, "genres": [], "external_urls": {"spotify": "https://open.spotify.com/artist/1FSBOmsZvUb3sjGO0EeFkA"}, "id": "1FSBOmsZvUb3sjGO0EeFkA"}, {"href": "https://api.spotify.com/v1/artists/5IbkSI5jXbcHgmOCQeL1Tj", "name": "Kanye West Tribute Team", "popularity": 1, "uri": "spotify:artist:5IbkSI5jXbcHgmOCQeL1Tj", "type": "artist", "images": [{"url": "https://i.scdn.co/image/ab67616d0000b2731a9b06523b46e6feec0cf69c", "width": 640, "height": 640}, {"url": "https://i.scdn.co/image/ab67616d00001e021a9b06523b46e6feec0cf69c", "width": 300, "height": 300}, {"url": "https://i.scdn.co/image/ab67616d000048511a9b06523b46e6feec0cf69c", "width": 64, "height": 64}], "followers": {"total": 85, "href": null}, "genres": [], "external_urls": {"spotify": "https://open.spotify.com/artist/5IbkSI5jXbcHgmOCQeL1Tj"}, "id": "5IbkSI5jXbcHgmOCQeL1Tj"}, {"href": "https://api.spotify.com/v1/artists/2k9CWxElb7Z6749jgeylsE", "name": "Made famous by Kanye West", "popularity": 0, "uri": "spotify:artist:2k9CWxElb7Z6749jgeylsE", "type": "artist", "images": [], "followers": {"total": 31, "href": null}, "genres": [], "external_urls": {"spotify": "https://open.spotify.com/artist/2k9CWxElb7Z6749jgeylsE"}, "id": "2k9CWxElb7Z6749jgeylsE"}, {"href": "https://api.spotify.com/v1/artists/0JI5J5OgHKVgtKfPoZuOmT", "name": "made famous by Kid Cudi feat Kanye West", "popularity": 3, "uri": "spotify:artist:0JI5J5OgHKVgtKfPoZuOmT", "type": "artist", "images": [], "followers": {"total": 37, "href": null}, "genres": [], "external_urls": {"spotify": "https://open.spotify.com/artist/0JI5J5OgHKVgtKfPoZuOmT"}, "id": "0JI5J5OgHKVgtKfPoZuOmT"}], "previous": null}}