{"artists": {"total": 40, "offset": 0, "limit": 10, "next": "https://api.spotify.com/v1/search?query=artist%3ALorde&type=artist&offset=10&limit=10", "href": "https://api.spotify.com/v1/search?query=artist%3ALorde&type=artist&offset=0&limit=10", "items": [{"href": "https://api.spotify.com/v1/artists/163tK9Wjr9P9DmM0AVK7lm", "name": "Lorde", "popularity": 77, "uri": "spotify:artist:163tK9Wjr9P9DmM0AVK7lm", "type": "artist", "images": [{"url": "https://i.scdn.co/image/d25fc756cd04c8b3ea196b7c07c6d057685cc405", "width": 640, "height": 640}, {"url": "https://i.scdn.co/image/ca2e7772dcdfd03401cdd0c66aeee1bea8ea3904", "width": 320, "height": 320}, {"url": "https://i.scdn.co/image/2f22ea3ea1597887d86441a030204dac49a74a81", "width": 160, "height": 160}], "followers": {"total": 4859476, "href": null}, "genres": ["art pop", "dance pop", "electropop", "metropopolis", "nz pop", "pop"], "external_urls": {"spotify": "https://open.spotify.com/artist/163tK9Wjr9P9DmM0AVK7lm"}, "id": "163tK9Wjr9P9DmM0AVK7lm"}, {"href": "https://api.spotify.com/v1/artists/4uokTIPJMgLqvYmYYXY8JK", "name": "Lorde Sanctus", "popularity": 22, "uri": "spotify:artist:4uokTIPJMgLqvYmYYXY8JK", "type": "artist", "images": [], "followers": {"total": 1, "href": null}, "genres": [], "external_urls": {"spotify": "https://open.spotify.com/artist/4uokTIPJMgLqvYmYYXY8JK"}, "id": "4uokTIPJMgLqvYmYYXY8JK"}, {"href": "https://api.spotify.com/v1/artists/3hb9hQLDvGNeZY0T6zhnve", "name": "Lorde Fredd33", "popularity": 24, "uri": "spotify:artist:3hb9hQLDvGNeZY0T6zhnve", "type": "artist", "images": [{"url": "https://i.scdn.co/image/dbc58fcf0441f465400c830d06ddba8193d8e7cd", "width": 640, "height": 640}, {"url": "https://i.scdn.co/image/a6ad8544709c53744ffdd21eb578a58a783e5045", "width": 320, "height": 320}, {"url": "https://i.scdn.co/image/b706018f5703ab5923fbb444b5547d13b5405757", "width": 160, "height": 160}], "followers": {"total": 1008, "href": null}, "genres": ["milwaukee hip hop"], "external_urls": {"spotify": "https://open.spotify.com/artist/3hb9hQLDvGNeZY0T6zhnve"}, "id": "3hb9hQLDvGNeZY0T6zhnve"}, {"href": "https://api.spotify.com/v1/artists/2eU4XsCquIPSI7OmgFudTF", "name": "Lorde $anctu$", "popularity": 21, "uri": "spotify:artist:2eU4XsCquIPSI7OmgFudTF", "type": "artist", "images": [], "followers": {"total": 1, "href": null}, "genres": [], "external_urls": {"spotify": "https://open.spotify.com/artist/2eU4XsCquIPSI7OmgFudTF"}, "id": "2eU4XsCquIPSI7OmgFudTF"}, {"href": "https://api.spotify.com/v1/artists/6shY6D0A4NFmB8m15oV479", "name": "Lorde Sanctus", "popularity": 19, "uri": "spotify:artist:6shY6D0A4NFmB8m15oV479", "type": "artist", "images": [{"url": "https://i.scdn.co/image/09fad969cebd4895e580cce4da8a142a3ee796df", "width": 640, "height": 640}, {"url": "https://i.scdn.co/image/1e30469a8234542c6423998e719bd6a83fea81f5", "width": 320, "height": 320}, {"url": "https://i.scdn.co/image/25b66e57e6ba39f5922974657a6c1bffa44049b9", "width": 160, "height": 160}], "followers": {"total": 276, "href": null}, "genres": [], "external_urls": {"spotify": "https://open.spotify.com/artist/6shY6D0A4NFmB8m15oV479"}, "id": "6shY6D0A4NFmB8m15oV479"}, {"href": "https://api.spotify.com/v1/artists/4tL9AA0HtF3BfxMhbtFnJR", "name": "Blud Lorde", "popularity": 12, "uri": "spotify:artist:4tL9AA0HtF3BfxMhbtFnJR", "type": "artist", "images": [{"url": "https://i.scdn.co/image/341500246509194b1b9d95a8da3dca6c26e70403", "width": 640, "height": 640}, {"url": "https://i.scdn.co/image/5ea461b2b4c78586747c88109ebe0194599357b0", "width": 320, "height": 320}, {"url": "https://i.scdn.co/image/3c5678dd1175c5036a1f13fdb512d223df830647", "width": 160, "height": 160}], "followers": {"total": 7, "href": null}, "genres": [], "external_urls": {"spotify": "https://open.spotify.com/artist/4tL9AA0HtF3BfxMhbtFnJR"}, "id": "4tL9AA0HtF3BfxMhbtFnJR"}, {"href": "https://api.spotify.com/v1/artists/5boe1GIlCOpLrnilnDDZZU", "name": "Lorde Andrade", "popularity": 12, "uri": "spotify:artist:5boe1GIlCOpLrnilnDDZZU", "type": "artist", "images": [{"url": "https://i.scdn.co/image/ae1d83efe06bc75592b295870a921e57f249b20e", "width": 640, "height": 640}, {"url": "https://i.scdn.co/image/495d37a8422ddc7538475f116c9e42793fb923e1", "width": 320, "height": 320}, {"url": "https://i.scdn.co/image/bdf14078bc669f12cd97ae65f722967c9e43077e", "width": 160, "height": 160}], "followers": {"total": 2, "href": null}, "genres": [], "external_urls": {"spotify": "https://open.spotify.com/artist/5boe1GIlCOpLrnilnDDZZU"}, "id": "5boe1GIlCOpLrnilnDDZZU"}, {"href": "https://api.spotify.com/v1/artists/23XObzIZxcYGLsnhg99BYN", "name": "Lorde", "popularity": 4, "uri": "spotify:artist:23XObzIZxcYGLsnhg99BYN", "type": "artist", "images": [{"url": "https://i.scdn.co/image/ab67616d0000b273fe62f8d49bc56688534e71ab", "width": 640, "height": 640}, {"url": "https://i.scdn.co/image/ab67616d00001e02fe62f8d49bc56688534e71ab", "width": 300, "height": 300}, {"url": "https://i.scdn.co/image/ab67616d00004851fe62f8d49bc56688534e71ab", "width": 64, "height": 64}], "followers": {"total": 949, "href": null}, "genres": [], "external_urls": {"spotify": "https://open.spotify.com/artist/23XObzIZxcYGLsnhg99BYN"}, "id": "23XObzIZxcYGLsnhg99BYN"}, {"href": "https://api.spotify.com/v1/artists/0TbfVqKW2PYQOLv009u3ze", "name": "SurPrin Lorde", "popularity": 0, "uri": "spotify:artist:0TbfVqKW2PYQOLv009u3ze", "type": "artist", "images": [{"url": "https://i.scdn.co/image/ab67616d0000b273d077fba31fbd9e0061412aa2", "width": 640, "height": 640}, {"url": "https://i.scdn.co/image/ab67616d00001e02d077fba31fbd9e0061412aa2", "width": 300, "height": 300}, {"url": "https://i.scdn.co/image/ab67616d00004851d077fba31fbd9e0061412aa2", "width": 64, "height": 64}], "followers": {"total": 6, "href": null}, "genres": [], "external_urls": {"spotify": "https://open.spotify.com/artist/0TbfVqKW2PYQOLv009u3ze"}, "id": "0TbfVqKW2PYQOLv009u3ze"}, {"href": "https://api.spotify.com/v1/artists/1OK9Wf9IbSBGYiY1golt51", "name": "Lorde Smis", "popularity": 0, "uri": "spotify:artist:1OK9Wf9IbSBGYiY1golt51", "type": "artist", "images": [], "followers": {"total": 0, "href": null}, "genres": [], "external_urls": {"spotify": "https://open.spotify.com/artist/1OK9Wf9IbSBGYiY1golt51"}, "id": "1OK9Wf9IbSBGYiY1golt51"}], "previous": null}}