{"artists": {"total": 48, "offset": 0, "limit": 10, "next": "https://api.spotify.com/v1/search?query=artist%3ANirvana&type=artist&offset=10&limit=10", "href": "https://api.spotify.com/v1/search?query=artist%3ANirvana&type=artist&offset=0&limit=10", "items": [{"href": "https://api.spotify.com/v1/artists/6olE6TJLqED3rqDCT0FyPh", "name": "Nirvana", "popularity": 81, "uri": "spotify:artist:6olE6TJLqED3rqDCT0FyPh", "type": "artist", "images": [{"url": "https://i.scdn.co/image/84282c28d851a700132356381fcfbadc67ff498b", "width": 1000, "height": 1057}, {"url": "https://i.scdn.co/image/a4e10b79a642e9891383448cbf37d7266a6883d6", "width": 640, "height": 677}, {"url": "https://i.scdn.co/image/42ae0f180f16e2f21c1f2212717fc436f5b95451", "width": 200, "height": 211}, {"url": "https://i.scdn.co/image/e797ad36d56c3fc8fa06c6fe91263a15bf8391b8", "width": 64, "height": 68}], "followers": {"total": 9569179, "href": null}, "genres": ["alternative rock", "grunge", "permanent wave", "post-grunge", "rock"], "external_urls": {"spotify": "https://open.spotify.com/artist/6olE6TJLqED3rqDCT0FyPh"}, "id": "6olE6TJLqED3rqDCT0FyPh"}, {"href": "https://api.spotify.com/v1/artists/3sS2Q1UZuUXL7TZSbQumDI", "name": "Approaching Nirvana", "popularity": 52, "uri": "spotify:artist:3sS2Q1UZuUXL7TZSbQumDI", "type": "artist", "images": [{"url": "https://i.scdn.co/image/46db0afdd52cbaa7fa1859f908fac18b5f254fdd", "width": 640, "height": 640}, {"url": "https://i.scdn.co/image/3eb78fb754bef6927420f90e984ed7f4cb261438", "width": 320, "height": 320}, {"url": "https://i.scdn.co/image/5281cd86569f56d65b5f1b99870e6c1c3a792d5d", "width": 160, "height": 160}], "followers": {"total": 69012, "href": null}, "genres": ["catstep", "chillstep", "complextro", "edm", "electro house", "tracestep"], "external_urls": {"spotify": "https://open.spotify.com/artist/3sS2Q1UZuUXL7TZSbQumDI"}, "id": "3sS2Q1UZuUXL7TZSbQumDI"}, {"href": "https://api.spotify.com/v1/artists/3M0uIt6ulZiqlVEdWGojXs", "name": "Nirvana Cafe Ambient Healing Meditation Sounds", "popularity": 33, "uri": "spotify:artist:3M0uIt6ulZiqlVEdWGojXs", "type": "artist", "images": [{"url": "https://i.scdn.co/image/ab67616d0000b2731db96dc4b9b0d7eb04f7016f", "width": 640, "height": 640}, {"url": "https://i.scdn.co/image/ab67616d00001e021db96dc4b9b0d7eb04f7016f", "width": 300, "height": 300}, {"url": "https://i.scdn.co/image/ab67616d000048511db96dc4b9b0d7eb04f7016f", "width": 64, "height": 64}], "followers": {"total": 488, "href": null}, "genres": ["meditation"], "external_urls": {"spotify": "https://open.spotify.com/artist/3M0uIt6ulZiqlVEdWGojXs"}, "id": "3M0uIt6ulZiqlVEdWGojXs"}, {"href": "https://api.spotify.com/v1/artists/7dIxU1XgxBIa3KJAWzaFAC", "name": "Nirvana", "popularity": 19, "uri": "spotify:artist:7dIxU1XgxBIa3KJAWzaFAC", "type": "artist", "images": [{"url": "https://i.scdn.co/image/968e7b97bc20bb1358fc4055138b0241dbbf7db1", "width": 640, "height": 635}, {"url": "https://i.scdn.co/image/70765302005c2bca9ed07534867ddbde34809e35", "width": 300, "height": 297}, {"url": "https://i.scdn.co/image/975b8ce1c266b455f48cea5c1327786054980d86", "width": 64, "height": 63}], "followers": {"total": 8490, "href": null}, "genres": [], "external_urls": {"spotify": "https://open.spotify.com/artist/7dIxU1XgxBIa3KJAWzaFAC"}, "id": "7dIxU1XgxBIa3KJAWzaFAC"}, {"href": "https://api.spotify.com/v1/artists/44dyyyxG0bUCLgVRmXQvC5", "name": "Nirvana Meditation School Master", "popularity": 23, "uri": "spotify:artist:44dyyyxG0bUCLgVRmXQvC5", "type": "artist", "images": [{"url": "https://i.scdn.co/image/ab67616d0000b273706953bc9ad32398295253ab", "width": 640, "height": 640}, {"url": "https://i.scdn.co/image/ab67616d00001e02706953bc9ad32398295253ab", "width": 300, "height": 300}, {"url": "https://i.scdn.co/image/ab67616d00004851706953bc9ad32398295253ab", "width": 64, "height": 64}], "followers": {"total": 368, "href": null}, "genres": [], "external_urls": {"spotify": "https://open.spotify.com/artist/44dyyyxG0bUCLgVRmXQvC5"}, "id": "44dyyyxG0bUCLgVRmXQvC5"}, {"href": "https://api.spotify.com/v1/artists/0eIYH8dqSwOAsaXuPdpcL3", "name": "Paz Nirvana", "popularity": 25, "uri": "spotify:artist:0eIYH8dqSwOAsaXuPdpcL3", "type": "artist", "images": [{"url": "https://i.scdn.co/image/ab67616d0000b273d2ac38b028afa9a1cccbda13", "width": 640, "height": 640}, {"url": "https://i.scdn.co/image/ab67616d00001e02d2ac38b028afa9a1cccbda13", "width": 300, "height": 300}, {"url": "https://i.scdn.co/image/ab67616d00004851d2ac38b028afa9a1cccbda13", "width": 64, "height": 64}], "followers": {"total": 92, "href": null}, "genres": [], "external_urls": {"spotify": "https://open.spotify.com/artist/0eIYH8dqSwOAsaXuPdpcL3"}, "id": "0eIYH8dqSwOAsaXuPdpcL3"}, {"href": "https://api.spotify.com/v1/artists/7o0DbCO8JrLSb3Q8c8rFpk", "name": "Nirvana Meditation Orchestra", "popularity": 10, "uri": "spotify:artist:7o0DbCO8JrLSb3Q8c8rFpk", "type": "artist", "images": [{"url": "https://i.scdn.co/image/ab67616d0000b2737e415c6ca60eb976f0f86792", "width": 640, "height": 640}, {"url": "https://i.scdn.co/image/ab67616d00001e027e415c6ca60eb976f0f86792", "width": 300, "height": 300}, {"url": "https://i.scdn.co/image/ab67616d000048517e415c6ca60eb976f0f86792", "width": 64, "height": 64}], "followers": {"total": 759, "href": null}, "genres": [], "external_urls": {"spotify": "https://open.spotify.com/artist/7o0DbCO8JrLSb3Q8c8rFpk"}, "id": "7o0DbCO8JrLSb3Q8c8rFpk"}, {"href": "https://api.spotify.com/v1/artists/424VCRr8HdYc1YqRfLWRs6", "name": "Nirvana", "popularity": 0, "uri": "spotify:artist:424VCRr8HdYc1YqRfLWRs6", "type": "artist", "images": [{"url": "https://i.scdn.co/image/ab67616d0000b2738182a23541a9ad1d659268f1", "width": 640, "height": 640}, {"url": "https://i.scdn.co/image/ab67616d00001e028182a23541a9ad1d659268f1", "width": 300, "height": 300}, {"url": "https://i.scdn.co/image/ab67616d000048518182a23541a9ad1d659268f1", "width": 64, "height": 64}], "followers": {"total": 3235, "href": null}, "genres": [], "external_urls": {"spotify": "https://open.spotify.com/artist/424VCRr8HdYc1YqRfLWRs6"}, "id": "424VCRr8HdYc1YqRfLWRs6"}, {"href": "https://api.spotify.com/v1/artists/0fMZFmaqIeZW7mRFeJKNkz", "name": "Nirvana Rose", "popularity": 0, "uri": "spotify:artist:0fMZFmaqIeZW7mRFeJKNkz", "type": "artist", "images": [{"url": "https://i.scdn.co/image/ab67616d0000b2737bab20596f917444805cd9bd", "width": 640, "height": 640}, {"url": "https://i.scdn.co/image/ab67616d00001e027bab20596f917444805cd9bd", "width": 300, "height": 300}, {"url": "https://i.scdn.co/image/ab67616d000048517bab20596f917444805cd9bd", "width": 64, "height": 64}], "followers": {"total": 25, "href": null}, "genres": [], "external_urls": {"spotify": "https://open.spotify.com/artist/0fMZFmaqIeZW7mRFeJKNkz"}, "id": "0fMZFmaqIeZW7mRFeJKNkz"}, {"href": "https://api.spotify.com/v1/artists/110Gchl68jmM0NVcIj0WhD", "name": "Nirvana Opera", "popularity": 0, "uri": "spotify:artist:110Gchl68jmM0NVcIj0WhD", "type": "artist", "images": [], "followers": {"total": 15, "href": null}, "genres": [], "external_urls": {"spotify": "https://open.spotify.com/artist/110Gchl68jmM0NVcIj0WhD"}, "id": "110Gchl68jmM0NVcIj0WhD"}], "previous": null}}