{"tracks": {"offset": 0, "items": [{"album": {"total_tracks": 15, "type": "album", "release_date": "2014-10-31", "href": "https://api.spotify.com/v1/albums/48zisMeiXniWLzOQghbPqS", "artists": [{"type": "artist", "name": "Calvin Harris", "external_urls": {"spotify": "https://open.spotify.com/artist/7CajNmpbOovFoOoasH2HaY"}, "id": "7CajNmpbOovFoOoasH2HaY", "uri": "spotify:artist:7CajNmpbOovFoOoasH2HaY", "href": "https://api.spotify.com/v1/artists/7CajNmpbOovFoOoasH2HaY"}], "images": [{"width": 640, "url": "https://i.scdn.co/image/ab67616d0000b273063c048e9ef6bd021b744756", "height": 640}, {"width": 300, "url": "https://i.scdn.co/image/ab67616d00001e02063c048e9ef6bd021b744756", "height": 300}, {"width": 64, "url": "https://i.scdn.co/image/ab67616d00004851063c048e9ef6bd021b744756", "height": 64}], "available_markets": ["AD", "AE", "AR", "AT", "AU", "BE", "BG", "BH", "BO", "BR", "CA", "CH", "CL", "CO", "CR", "CY", "CZ", "DE", "DK", "DO", "DZ", "EC", "EE", "EG", "ES", "FI", "FR", "GB", "GR", "GT", "HK", "HN", "HU", "ID", "IE", "IL", "IN", "IS", "IT", "JO", "JP", "KW", "LB", "LI", "LT", "LU", "LV", "MA", "MC", "MT", "MX", "MY", "NI", "NL", "NO", "NZ", "OM", "PA", "PE", "PH", "PL", "PS", "PT", "PY", "QA", "RO", "SA", "SE", "SG", "SK", "SV", "TH", "TN", "TR", "TW", "US", "UY", "VN", "ZA"], "album_type": "album", "release_date_precision": "day", "name": "Motion", "external_urls": {"spotify": "https://open.spotify.com/album/48zisMeiXniWLzOQghbPqS"}, "id": "48zisMeiXniWLzOQghbPqS", "uri": "spotify:album:48zisMeiXniWLzOQghbPqS"}, "external_ids": {"isrc": "GBARL1400296"}, "name": "Summer", "duration_ms": 222533, "is_local": false, "disc_number": 1, "href": "https://api.spotify.com/v1/tracks/6YUTL4dYpB9xZO5qExPf05", "artists": [{"type": "artist", "name": "Calvin Harris", "external_urls": {"spotify": "https://open.spotify.com/artist/7CajNmpbOovFoOoasH2HaY"}, "id": "7CajNmpbOovFoOoasH2HaY", "uri": "spotify:artist:7CajNmpbOovFoOoasH2HaY", "href": "https://api.spotify.com/v1/artists/7CajNmpbOovFoOoasH2HaY"}], "track_number": 8, "available_markets": ["AD", "AE", "AR", "AT", "AU", "BE", "BG", "BH", "BO", "BR", "CA", "CH", "CL", "CO", "CR", "CY", "CZ", "DE", "DK", "DO", "DZ", "EC", "EE", "EG", "ES", "FI", "FR", "GB", "GR", "GT", "HK", "HN", "HU", "ID", "IE", "IL", "IN", "IS", "IT", "JO", "JP", "KW", "LB", "LI", "LT", "LU", "LV", "MA", "MC", "MT", "MX", "MY", "NI", "NL", "NO", "NZ", "OM", "PA", "PE", "PH", "PL", "PS", "PT", "PY", "QA", "RO", "SA", "SE", "SG", "SK", "SV", "TH", "TN", "TR", "TW", "US", "UY", "VN", "ZA"], "type": "track", "preview_url": "https://p.scdn.co/mp3-preview/7747e4abf05e790168b4aeb87de9c008095677a9?cid=0c947b9d3f7547e28aee080174c283c9", "explicit": false, "external_urls": {"spotify": "https://open.spotify.com/track/6YUTL4dYpB9xZO5qExPf05"}, "id": "6YUTL4dYpB9xZO5qExPf05", "uri": "spotify:track:6YUTL4dYpB9xZO5qExPf05", "popularity": 80}, {"album": {"total_tracks": 4, "type": "album", "release_date": "2014-06-20", "href": "https://api.spotify.com/v1/albums/6wN6Mts7jYDFjzMG5m3fM8", "artists": [{"type": "artist", "name": "Calvin Harris", "external_urls": {"spotify": "https://open.spotify.com/artist/7CajNmpbOovFoOoasH2HaY"}, "id": "7CajNmpbOovFoOoasH2HaY", "uri": "spotify:artist:7CajNmpbOovFoOoasH2HaY", "href": "https://api.spotify.com/v1/artists/7CajNmpbOovFoOoasH2HaY"}], "images": [{"width": 640, "url": "https://i.scdn.co/image/abafee7382a63c910b1cbf812464f3d64434836b", "height": 640}, {"width": 300, "url": "https://i.scdn.co/image/c6606e3d7a6ca62513dd7495754b1257e9fe8156", "height": 300}, {"width": 64, "url": "https://i.scdn.co/image/00187cadd0a7d4a947056862c7b14d81501e9769", "height": 64}], "available_markets": ["AD", "AE", "AR", "AT", "AU", "BE", "BG", "BH", "BO", "BR", "CA", "CH", "CL", "CO", "CR", "CY", "CZ", "DE", "DK", "DO", "DZ", "EC", "EE", "EG", "ES", "FI", "FR", "GB", "GR", "GT", "HK", "HN", "HU", "ID", "IE", "IL", "IN", "IS", "IT", "JO", "JP", "KW", "LB", "LI", "LT", "LU", "LV", "MA", "MC", "MT", "MX", "MY", "NI", "NL", "NO", "NZ", "OM", "PA", "PE", "PH", "PL", "PS", "PT", "PY", "QA", "RO", "SA", "SE", "SG", "SK", "SV", "TH", "TN", "TR", "TW", "US", "UY", "VN", "ZA"], "album_type": "single", "release_date_precision": "day", "name": "Summer (Remixes)", "external_urls": {"spotify": "https://open.spotify.com/album/6wN6Mts7jYDFjzMG5m3fM8"}, "id": "6wN6Mts7jYDFjzMG5m3fM8", "uri": "spotify:album:6wN6Mts7jYDFjzMG5m3fM8"}, "external_ids": {"isrc": "GBARL1400811"}, "name": "Summer - Diplo & Grandtheft Remix", "duration_ms": 267253, "is_local": false, "disc_number": 1, "href": "https://api.spotify.com/v1/tracks/6zonhXHUitdQqZTqylx7Jf", "artists": [{"type": "artist", "name": "Calvin Harris", "external_urls": {"spotify": "https://open.spotify.com/artist/7CajNmpbOovFoOoasH2HaY"}, "id": "7CajNmpbOovFoOoasH2HaY", "uri": "spotify:artist:7CajNmpbOovFoOoasH2HaY", "href": "https://api.spotify.com/v1/artists/7CajNmpbOovFoOoasH2HaY"}, {"type": "artist", "name": "Diplo & Grandtheft", "external_urls": {"spotify": "https://open.spotify.com/artist/7cylHrjfynscYWKerh2wjw"}, "id": "7cylHrjfynscYWKerh2wjw", "uri": "spotify:artist:7cylHrjfynscYWKerh2wjw", "href": "https://api.spotify.com/v1/artists/7cylHrjfynscYWKerh2wjw"}], "track_number": 2, "available_markets": ["AD", "AE", "AR", "AT", "AU", "BE", "BG", "BH", "BO", "BR", "CA", "CH", "CL", "CO", "CR", "CY", "CZ", "DE", "DK", "DO", "DZ", "EC", "EE", "EG", "ES", "FI", "FR", "GB", "GR", "GT", "HK", "HN", "HU", "ID", "IE", "IL", "IN", "IS", "IT", "JO", "JP", "KW", "LB", "LI", "LT", "LU", "LV", "MA", "MC", "MT", "MX", "MY", "NI", "NL", "NO", "NZ", "OM", "PA", "PE", "PH", "PL", "PS", "PT", "PY", "QA", "RO", "SA", "SE", "SG", "SK", "SV", "TH", "TN", "TR", "TW", "US", "UY", "VN", "ZA"], "type": "track", "preview_url": "https://p.scdn.co/mp3-preview/e89713a420303e7925c78b4add048b57ac386568?cid=0c947b9d3f7547e28aee080174c283c9", "explicit": false, "external_urls": {"spotify": "https://open.spotify.com/track/6zonhXHUitdQqZTqylx7Jf"}, "id": "6zonhXHUitdQqZTqylx7Jf", "uri": "spotify:track:6zonhXHUitdQqZTqylx7Jf", "popularity": 42}, {"album": {"total_tracks": 4, "type": "album", "release_date": "2014-06-20", "href": "https://api.spotify.com/v1/albums/6wN6Mts7jYDFjzMG5m3fM8", "artists": [{"type": "artist", "name": "Calvin Harris", "external_urls": {"spotify": "https://open.spotify.com/artist/7CajNmpbOovFoOoasH2HaY"}, "id": "7CajNmpbOovFoOoasH2HaY", "uri": "spotify:artist:7CajNmpbOovFoOoasH2HaY", "href": "https://api.spotify.com/v1/artists/7CajNmpbOovFoOoasH2HaY"}], "images": [{"width": 640, "url": "https://i.scdn.co/image/abafee7382a63c910b1cbf812464f3d64434836b", "height": 640}, {"width": 300, "url": "https://i.scdn.co/image/c6606e3d7a6ca62513dd7495754b1257e9fe8156", "height": 300}, {"width": 64, "url": "https://i.scdn.co/image/00187cadd0a7d4a947056862c7b14d81501e9769", "height": 64}], "available_markets": ["AD", "AE", "AR", "AT", "AU", "BE", "BG", "BH", "BO", "BR", "CA", "CH", "CL", "CO", "CR", "CY", "CZ", "DE", "DK", "DO", "DZ", "EC", "EE", "EG", "ES", "FI", "FR", "GB", "GR", "GT", "HK", "HN", "HU", "ID", "IE", "IL", "IN", "IS", "IT", "JO", "JP", "KW", "LB", "LI", "LT", "LU", "LV", "MA", "MC", "MT", "MX", "MY", "NI", "NL", "NO", "NZ", "OM", "PA", "PE", "PH", "PL", "PS", "PT", "PY", "QA", "RO", "SA", "SE", "SG", "SK", "SV", "TH", "TN", "TR", "TW", "US", "UY", "VN", "ZA"], "album_type": "single", "release_date_precision": "day", "name": "Summer (Remixes)", "external_urls": {"spotify": "https://open.spotify.com/album/6wN6Mts7jYDFjzMG5m3fM8"}, "id": "6wN6Mts7jYDFjzMG5m3fM8", "uri": "spotify:album:6wN6Mts7jYDFjzMG5m3fM8"}, "external_ids": {"isrc": "GBARL1400620"}, "name": "Summer - R3hab & Ummet Ozcan Remix", "duration_ms": 280866, "is_local": false, "disc_number": 1, "href": "https://api.spotify.com/v1/tracks/1X4l0BRQfy7K3VkUATgwro", "artists": [{"type": "artist", "name": "Calvin Harris", "external_urls": {"spotify": "https://open.spotify.com/artist/7CajNmpbOovFoOoasH2HaY"}, "id": "7CajNmpbOovFoOoasH2HaY", "uri": "spotify:artist:7CajNmpbOovFoOoasH2HaY", "href": "https://api.spotify.com/v1/artists/7CajNmpbOovFoOoasH2HaY"}, {"type": "artist", "name": "R3hab & Ummet Ozcan", "external_urls": {"spotify": "https://open.spotify.com/artist/6RwVJInalcxtqOKUOryJUJ"}, "id": "6RwVJInalcxtqOKUOryJUJ", "uri": "spotify:artist:6RwVJInalcxtqOKUOryJUJ", "href": "https://api.spotify.com/v1/artists/6RwVJInalcxtqOKUOryJUJ"}], "track_number": 3, "available_markets": ["AD", "AE", "AR", "AT", "AU", "BE", "BG", "BH", "BO", "BR", "CA", "CH", "CL", "CO", "CR", "CY", "CZ", "DE", "DK", "DO", "DZ", "EC", "EE", "EG", "ES", "FI", "FR", "GB", "GR", "GT", "HK", "HN", "HU", "ID", "IE", "IL", "IN", "IS", "IT", "JO", "JP", "KW", "LB", "LI", "LT", "LU", "LV", "MA", "MC", "MT", "MX", "MY", "NI", "NL", "NO", "NZ", "OM", "PA", "PE", "PH", "PL", "PS", "PT", "PY", "QA", "RO", "SA", "SE", "SG", "SK", "SV", "TH", "TN", "TR", "TW", "US", "UY", "VN", "ZA"], "type": "track", "preview_url": "https://p.scdn.co/mp3-preview/630990fbecabcec5afd9c4093fcd3af271f39738?cid=0c947b9d3f7547e28aee080174c283c9", "explicit": false, "external_urls": {"spotify": "https://open.spotify.com/track/1X4l0BRQfy7K3VkUATgwro"}, "id": "1X4l0BRQfy7K3VkUATgwro", "uri": "spotify:track:1X4l0BRQfy7K3VkUATgwro", "popularity": 39}, {"album": {"total_tracks": 4, "type": "album", "release_date": "2014-06-20", "href": "https://api.spotify.com/v1/albums/6wN6Mts7jYDFjzMG5m3fM8", "artists": [{"type": "artist", "name": "Calvin Harris", "external_urls": {"spotify": "https://open.spotify.com/artist/7CajNmpbOovFoOoasH2HaY"}, "id": "7CajNmpbOovFoOoasH2HaY", "uri": "spotify:artist:7CajNmpbOovFoOoasH2HaY", "href": "https://api.spotify.com/v1/artists/7CajNmpbOovFoOoasH2HaY"}], "images": [{"width": 640, "url": "https://i.scdn.co/image/abafee7382a63c910b1cbf812464f3d64434836b", "height": 640}, {"width": 300, "url": "https://i.scdn.co/image/c6606e3d7a6ca62513dd7495754b1257e9fe8156", "height": 300}, {"width": 64, "url": "https://i.scdn.co/image/00187cadd0a7d4a947056862c7b14d81501e9769", "height": 64}], "available_markets": ["AD", "AE", "AR", "AT", "AU", "BE", "BG", "BH", "BO", "BR", "CA", "CH", "CL", "CO", "CR", "CY", "CZ", "DE", "DK", "DO", "DZ", "EC", "EE", "EG", "ES", "FI", "FR", "GB", "GR", "GT", "HK", "HN", "HU", "ID", "IE", "IL", "IN", "IS", "IT", "JO", "JP", "KW", "LB", "LI", "LT", "LU", "LV", "MA", "MC", "MT", "MX", "MY", "NI", "NL", "NO", "NZ", "OM", "PA", "PE", "PH", "PL", "PS", "PT", "PY", "QA", "RO", "SA", "SE", "SG", "SK", "SV", "TH", "TN", "TR", "TW", "US", "UY", "VN", "ZA"], "album_type": "single", "release_date_precision": "day", "name": "Summer (Remixes)", "external_urls": {"spotify": "https://open.spotify.com/album/6wN6Mts7jYDFjzMG5m3fM8"}, "id": "6wN6Mts7jYDFjzMG5m3fM8", "uri": "spotify:album:6wN6Mts7jYDFjzMG5m3fM8"}, "external_ids": {"isrc": "GBARL1400553"}, "name": "Summer - Extended Mix", "duration_ms": 296440, "is_local": false, "disc_number": 1, "href": "https://api.spotify.com/v1/tracks/1xweD94ZrIv1pu6TPJCES9", "artists": [{"type": "artist", "name": "Calvin Harris", "external_urls": {"spotify": "https://open.spotify.com/artist/7CajNmpbOovFoOoasH2HaY"}, "id": "7CajNmpbOovFoOoasH2HaY", "uri": "spotify:artist:7CajNmpbOovFoOoasH2HaY", "href": "https://api.spotify.com/v1/artists/7CajNmpbOovFoOoasH2HaY"}], "track_number": 1, "available_markets": ["AD", "AE", "AR", "AT", "AU", "BE", "BG", "BH", "BO", "BR", "CA", "CH", "CL", "CO", "CR", "CY", "CZ", "DE", "DK", "DO", "DZ", "EC", "EE", "EG", "ES", "FI", "FR", "GB", "GR", "GT", "HK", "HN", "HU", "ID", "IE", "IL", "IN", "IS", "IT", "JO", "JP", "KW", "LB", "LI", "LT", "LU", "LV", "MA", "MC", "MT", "MX", "MY", "NI", "NL", "NO", "NZ", "OM", "PA", "PE", "PH", "PL", "PS", "PT", "PY", "QA", "RO", "SA", "SE", "SG", "SK", "SV", "TH", "TN", "TR", "TW", "US", "UY", "VN", "ZA"], "type": "track", "preview_url": "https://p.scdn.co/mp3-preview/120af93b4b83a327d0e944ef480af453261599dc?cid=0c947b9d3f7547e28aee080174c283c9", "explicit": false, "external_urls": {"spotify": "https://open.spotify.com/track/1xweD94ZrIv1pu6TPJCES9"}, "id": "1xweD94ZrIv1pu6TPJCES9", "uri": "spotify:track:1xweD94ZrIv1pu6TPJCES9", "popularity": 35}, {"album": {"total_tracks": 100, "type": "album", "release_date": "2018-04-10", "href": "https://api.spotify.com/v1/albums/0jVGdTKQ0pValbbtxv5h5O", "artists": [{"type": "artist", "name": "Various Artists", "external_urls": {"spotify": "https://open.spotify.com/artist/0LyfQWJT6nXafLPZqxe9Of"}, "id": "0LyfQWJT6nXafLPZqxe9Of", "uri": "spotify:artist:0LyfQWJT6nXafLPZqxe9Of", "href": "https://api.spotify.com/v1/artists/0LyfQWJT6nXafLPZqxe9Of"}], "images": [{"width": 640, "url": "https://i.scdn.co/image/ab67616d0000b273b33e4b3384a7a0428f990757", "height": 640}, {"width": 300, "url": "https://i.scdn.co/image/ab67616d00001e02b33e4b3384a7a0428f990757", "height": 300}, {"width": 64, "url": "https://i.scdn.co/image/ab67616d00004851b33e4b3384a7a0428f990757", "height": 64}], "available_markets": ["AD", "AE", "AR", "AT", "AU", "BE", "BG", "BH", "BO", "BR", "CA", "CH", "CL", "CO", "CR", "CY", "CZ", "DE", "DK", "DO", "DZ", "EC", "EE", "EG", "ES", "FI", "FR", "GB", "GR", "GT", "HK", "HN", "HU", "ID", "IE", "IL", "IN", "IS", "IT", "JO", "JP", "KW", "LB", "LI", "LT", "LU", "LV", "MA", "MC", "MT", "MX", "MY", "NI", "NL", "NO", "NZ", "OM", "PA", "PE", "PH", "PL", "PS", "PT", "PY", "QA", "RO", "SA", "SE", "SG", "SK", "SV", "TH", "TN", "TR", "TW", "US", "UY", "VN", "ZA"], "album_type": "compilation", "release_date_precision": "day", "name": "Happiness Forever", "external_urls": {"spotify": "https://open.spotify.com/album/0jVGdTKQ0pValbbtxv5h5O"}, "id": "0jVGdTKQ0pValbbtxv5h5O", "uri": "spotify:album:0jVGdTKQ0pValbbtxv5h5O"}, "external_ids": {"isrc": "GBARL1400296"}, "name": "Summer", "duration_ms": 222533, "is_local": false, "disc_number": 1, "href": "https://api.spotify.com/v1/tracks/5GtQkJTQ01zxZ9xRuIBRyY", "artists": [{"type": "artist", "name": "Calvin Harris", "external_urls": {"spotify": "https://open.spotify.com/artist/7CajNmpbOovFoOoasH2HaY"}, "id": "7CajNmpbOovFoOoasH2HaY", "uri": "spotify:artist:7CajNmpbOovFoOoasH2HaY", "href": "https://api.spotify.com/v1/artists/7CajNmpbOovFoOoasH2HaY"}], "track_number": 5, "available_markets": ["AD", "AE", "AR", "AT", "AU", "BE", "BG", "BH", "BO", "BR", "CA", "CH", "CL", "CO", "CR", "CY", "CZ", "DE", "DK", "DO", "DZ", "EC", "EE", "EG", "ES", "FI", "FR", "GB", "GR", "GT", "HK", "HN", "HU", "ID", "IE", "IL", "IN", "IS", "IT", "JO", "JP", "KW", "LB", "LI", "LT", "LU", "LV", "MA", "MC", "MT", "MX", "MY", "NI", "NL", "NO", "NZ", "OM", "PA", "PE", "PH", "PL", "PS", "PT", "PY", "QA", "RO", "SA", "SE", "SG", "SK", "SV", "TH", "TN", "TR", "TW", "US", "UY", "VN", "ZA"], "type": "track", "preview_url": "https://p.scdn.co/mp3-preview/7747e4abf05e790168b4aeb87de9c008095677a9?cid=0c947b9d3f7547e28aee080174c283c9", "explicit": false, "external_urls": {"spotify": "https://open.spotify.com/track/5GtQkJTQ01zxZ9xRuIBRyY"}, "id": "5GtQkJTQ01zxZ9xRuIBRyY", "uri": "spotify:track:5GtQkJTQ01zxZ9xRuIBRyY", "popularity": 33}], "previous": null, "href": "https://api.spotify.com/v1/search?query=artist%3ACalvin+Harris+track%3ASummer&type=track&offset=0&limit=5", "limit": 5, "total": 13, "next": "https://api.spotify.com/v1/search?query=artist%3ACalvin+Harris+track%3ASummer&type=track&offset=5&limit=5"}}