{"tracks": {"offset": 0, "items": [{"album": {"total_tracks": 11, "type": "album", "release_date": "2012-04-03", "href": "https://api.spotify.com/v1/albums/6NWYmlHxAME5KXtxrTlUxW", "artists": [{"type": "artist", "name": "The Lumineers", "external_urls": {"spotify": "https://open.spotify.com/artist/16oZKvXb6WkQlVAjwo2Wbg"}, "id": "16oZKvXb6WkQlVAjwo2Wbg", "uri": "spotify:artist:16oZKvXb6WkQlVAjwo2Wbg", "href": "https://api.spotify.com/v1/artists/16oZKvXb6WkQlVAjwo2Wbg"}], "images": [{"width": 640, "url": "https://i.scdn.co/image/ab67616d0000b2734241433fb84b10663492c0e3", "height": 640}, {"width": 300, "url": "https://i.scdn.co/image/ab67616d00001e024241433fb84b10663492c0e3", "height": 300}, {"width": 64, "url": "https://i.scdn.co/image/ab67616d000048514241433fb84b10663492c0e3", "height": 64}], "available_markets": ["US"], "album_type": "album", "release_date_precision": "day", "name": "The Lumineers", "external_urls": {"spotify": "https://open.spotify.com/album/6NWYmlHxAME5KXtxrTlUxW"}, "id": "6NWYmlHxAME5KXtxrTlUxW", "uri": "spotify:album:6NWYmlHxAME5KXtxrTlUxW"}, "external_ids": {"isrc": "USDMG1260805"}, "name": "Ho Hey", "duration_ms": 163133, "is_local": false, "disc_number": 1, "href": "https://api.spotify.com/v1/tracks/0W4Kpfp1w2xkY3PrV714B7", "artists": [{"type": "artist", "name": "The Lumineers", "external_urls": {"spotify": "https://open.spotify.com/artist/16oZKvXb6WkQlVAjwo2Wbg"}, "id": "16oZKvXb6WkQlVAjwo2Wbg", "uri": "spotify:artist:16oZKvXb6WkQlVAjwo2Wbg", "href": "https://api.spotify.com/v1/artists/16oZKvXb6WkQlVAjwo2Wbg"}], "track_number": 5, "available_markets": ["US"], "type": "track", "preview_url": "https://p.scdn.co/mp3-preview/57e57e6eb594e55de01b85cea4d470243f6121f5?cid=0c947b9d3f7547e28aee080174c283c9", "explicit": false, "external_urls": {"spotify": "https://open.spotify.com/track/0W4Kpfp1w2xkY3PrV714B7"}, "id": "0W4Kpfp1w2xkY3PrV714B7", "uri": "spotify:track:0W4Kpfp1w2xkY3PrV714B7", "popularity": 71}, {"album": {"total_tracks": 16, "type": "album", "release_date": "2013", "href": "https://api.spotify.com/v1/albums/31rem78oWvclOVx1KXBAuq", "artists": [{"type": "artist", "name": "The Lumineers", "external_urls": {"spotify": "https://open.spotify.com/artist/16oZKvXb6WkQlVAjwo2Wbg"}, "id": "16oZKvXb6WkQlVAjwo2Wbg", "uri": "spotify:artist:16oZKvXb6WkQlVAjwo2Wbg", "href": "https://api.spotify.com/v1/artists/16oZKvXb6WkQlVAjwo2Wbg"}], "images": [{"width": 640, "url": "https://i.scdn.co/image/ab67616d0000b27300186f40b6ef5d505056e8f7", "height": 640}, {"width": 300, "url": "https://i.scdn.co/image/ab67616d00001e0200186f40b6ef5d505056e8f7", "height": 300}, {"width": 64, "url": "https://i.scdn.co/image/ab67616d0000485100186f40b6ef5d505056e8f7", "height": 64}], "available_markets": ["US"], "album_type": "album", "release_date_precision": "year", "name": "The Lumineers (Deluxe Edition)", "external_urls": {"spotify": "https://open.spotify.com/album/31rem78oWvclOVx1KXBAuq"}, "id": "31rem78oWvclOVx1KXBAuq", "uri": "spotify:album:31rem78oWvclOVx1KXBAuq"}, "external_ids": {"isrc": "USDMG1260805"}, "name": "Ho Hey", "duration_ms": 163133, "is_local": false, "disc_number": 1, "href": "https://api.spotify.com/v1/tracks/1Mack10LMsmGP9SDeg6Tbf", "artists": [{"type": "artist", "name": "The Lumineers", "external_urls": {"spotify": "https://open.spotify.com/artist/16oZKvXb6WkQlVAjwo2Wbg"}, "id": "16oZKvXb6WkQlVAjwo2Wbg", "uri": "spotify:artist:16oZKvXb6WkQlVAjwo2Wbg", "href": "https://api.spotify.com/v1/artists/16oZKvXb6WkQlVAjwo2Wbg"}], "track_number": 5, "available_markets": ["US"], "type": "track", "preview_url": "https://p.scdn.co/mp3-preview/4020237f7edd173d537aba8a851cc48b00fa91b0?cid=0c947b9d3f7547e28aee080174c283c9", "explicit": false, "external_urls": {"spotify": "https://open.spotify.com/track/1Mack10LMsmGP9SDeg6Tbf"}, "id": "1Mack10LMsmGP9SDeg6Tbf", "uri": "spotify:track:1Mack10LMsmGP9SDeg6Tbf", "popularity": 45}, {"album": {"total_tracks": 2, "type": "album", "release_date": "2013-04-12", "href": "https://api.spotify.com/v1/albums/4t5FR2NN2PQCW4yoa0IIfz", "artists": [{"type": "artist", "name": "Tribute to The Lumineers", "external_urls": {"spotify": "https://open.spotify.com/artist/0dQ45R2wMoqPaySZ8qO4eU"}, "id": "0dQ45R2wMoqPaySZ8qO4eU", "uri": "spotify:artist:0dQ45R2wMoqPaySZ8qO4eU", "href": "https://api.spotify.com/v1/artists/0dQ45R2wMoqPaySZ8qO4eU"}], "images": [{"width": 640, "url": "https://i.scdn.co/image/ab67616d0000b273891e307131609a4f7b8b55df", "height": 640}, {"width": 300, "url": "https://i.scdn.co/image/ab67616d00001e02891e307131609a4f7b8b55df", "height": 300}, {"width": 64, "url": "https://i.scdn.co/image/ab67616d00004851891e307131609a4f7b8b55df", "height": 64}], "available_markets": ["AD", "AE", "AR", "AT", "AU", "BE", "BG", "BH", "BO", "BR", "CA", "CH", "CL", "CO", "CR", "CY", "CZ", "DE", "DK", "DO", "DZ", "EC", "EE", "EG", "ES", "FI", "FR", "GB", "GR", "GT", "HK", "HN", "HU", "ID", "IE", "IL", "IN", "IS", "IT", "JO", "JP", "KW", "LB", "LI", "LT", "LU", "LV", "MA", "MC", "MT", "MX", "MY", "NI", "NL", "NO", "NZ", "OM", "PA", "PE", "PH", "PL", "PS", "PT", "PY", "QA", "RO", "SA", "SE", "SG", "SK", "SV", "TH", "TN", "TR", "TW", "US", "UY", "VN", "ZA"], "album_type": "single", "release_date_precision": "day", "name": "Ho Hey", "external_urls": {"spotify": "https://open.spotify.com/album/4t5FR2NN2PQCW4yoa0IIfz"}, "id": "4t5FR2NN2PQCW4yoa0IIfz", "uri": "spotify:album:4t5FR2NN2PQCW4yoa0IIfz"}, "external_ids": {"isrc": "DEZ651317163"}, "name": "Ho Hey", "duration_ms": 161326, "is_local": false, "disc_number": 1, "href": "https://api.spotify.com/v1/tracks/5R8YOE3rlIpwCftIpqAHPT", "artists": [{"type": "artist", "name": "Tribute to The Lumineers", "external_urls": {"spotify": "https://open.spotify.com/artist/0dQ45R2wMoqPaySZ8qO4eU"}, "id": "0dQ45R2wMoqPaySZ8qO4eU", "uri": "spotify:artist:0dQ45R2wMoqPaySZ8qO4eU", "href": "https://api.spotify.com/v1/artists/0dQ45R2wMoqPaySZ8qO4eU"}], "track_number": 1, "available_markets": ["AD", "AE", "AR", "AT", "AU", "BE", "BG", "BH", "BO", "BR", "CA", "CH", "CL", "CO", "CR", "CY", "CZ", "DE", "DK", "DO", "DZ", "EC", "EE", "EG", "ES", "FI", "FR", "GB", "GR", "GT", "HK", "HN", "HU", "ID", "IE", "IL", "IN", "IS", "IT", "JO", "JP", "KW", "LB", "LI", "LT", "LU", "LV", "MA", "MC", "MT", "MX", "MY", "NI", "NL", "NO", "NZ", "OM", "PA", "PE", "PH", "PL", "PS", "PT", "PY", "QA", "RO", "SA", "SE", "SG", "SK", "SV", "TH", "TN", "TR", "TW", "US", "UY", "VN", "ZA"], "type": "track", "preview_url": "https://p.scdn.co/mp3-preview/d7e8b3a1816c7c25655be240c8b06c31dec84c98?cid=0c947b9d3f7547e28aee080174c283c9", "explicit": false, "external_urls": {"spotify": "https://open.spotify.com/track/5R8YOE3rlIpwCftIpqAHPT"}, "id": "5R8YOE3rlIpwCftIpqAHPT", "uri": "spotify:track:5R8YOE3rlIpwCftIpqAHPT", "popularity": 10}, {"album": {"total_tracks": 50, "type": "album", "release_date": "2012-09-01", "href": "https://api.spotify.com/v1/albums/1z15qEw2qzsSQueOQ3Qfp3", "artists": [{"type": "artist", "name": "The Future Hit Makers", "external_urls": {"spotify": "https://open.spotify.com/artist/4USFzlJddHfaZpNeXN0JPn"}, "id": "4USFzlJddHfaZpNeXN0JPn", "uri": "spotify:artist:4USFzlJddHfaZpNeXN0JPn", "href": "https://api.spotify.com/v1/artists/4USFzlJddHfaZpNeXN0JPn"}], "images": [{"width": 640, "url": "https://i.scdn.co/image/ab67616d0000b273b90f34f134fcca47bbcc3a56", "height": 640}, {"width": 300, "url": "https://i.scdn.co/image/ab67616d00001e02b90f34f134fcca47bbcc3a56", "height": 300}, {"width": 64, "url": "https://i.scdn.co/image/ab67616d00004851b90f34f134fcca47bbcc3a56", "height": 64}], "available_markets": ["AD", "AE", "AR", "AT", "AU", "BE", "BG", "BH", "BO", "BR", "CA", "CH", "CL", "CO", "CR", "CY", "CZ", "DE", "DK", "DO", "DZ", "EC", "EE", "EG", "ES", "FI", "FR", "GB", "GR", "GT", "HK", "HN", "HU", "ID", "IE", "IL", "IN", "IS", "IT", "JO", "JP", "KW", "LB", "LI", "LT", "LU", "LV", "MA", "MC", "MT", "MX", "MY", "NI", "NL", "NO", "NZ", "OM", "PA", "PE", "PH", "PL", "PS", "PT", "PY", "QA", "RO", "SA", "SE", "SG", "SK", "SV", "TH", "TN", "TR", "TW", "US", "UY", "VN", "ZA"], "album_type": "album", "release_date_precision": "day", "name": "Mega Karaoke Hits Now!", "external_urls": {"spotify": "https://open.spotify.com/album/1z15qEw2qzsSQueOQ3Qfp3"}, "id": "1z15qEw2qzsSQueOQ3Qfp3", "uri": "spotify:album:1z15qEw2qzsSQueOQ3Qfp3"}, "external_ids": {"isrc": "USA561331267"}, "name": "Ho Hey (Originally Performed By the Lumineers)", "duration_ms": 160000, "is_local": false, "disc_number": 1, "href": "https://api.spotify.com/v1/tracks/2xsrgFANpxAFiSC82hiOAv", "artists": [{"type": "artist", "name": "The Future Hit Makers", "external_urls": {"spotify": "https://open.spotify.com/artist/4USFzlJddHfaZpNeXN0JPn"}, "id": "4USFzlJddHfaZpNeXN0JPn", "uri": "spotify:artist:4USFzlJddHfaZpNeXN0JPn", "href": "https://api.spotify.com/v1/artists/4USFzlJddHfaZpNeXN0JPn"}], "track_number": 5, "available_markets": ["AD", "AE", "AR", "AT", "AU", "BE", "BG", "BH", "BO", "BR", "CA", "CH", "CL", "CO", "CR", "CY", "CZ", "DE", "DK", "DO", "DZ", "EC", "EE", "EG", "ES", "FI", "FR", "GB", "GR", "GT", "HK", "HN", "HU", "ID", "IE", "IL", "IN", "IS", "IT", "JO", "JP", "KW", "LB", "LI", "LT", "LU", "LV", "MA", "MC", "MT", "MX", "MY", "NI", "NL", "NO", "NZ", "OM", "PA", "PE", "PH", "PL", "PS", "PT", "PY", "QA", "RO", "SA", "SE", "SG", "SK", "SV", "TH", "TN", "TR", "TW", "US", "UY", "VN", "ZA"], "type": "track", "preview_url": "https://p.scdn.co/mp3-preview/0d6f218e69008c6701fd21d2c282e7c114549c7e?cid=0c947b9d3f7547e28aee080174c283c9", "explicit": false, "external_urls": {"spotify": "https://open.spotify.com/track/2xsrgFANpxAFiSC82hiOAv"}, "id": "2xsrgFANpxAFiSC82hiOAv", "uri": "spotify:track:2xsrgFANpxAFiSC82hiOAv", "popularity": 0}, {"album": {"total_tracks": 2, "type": "album", "release_date": "2013-11-21", "href": "https://api.spotify.com/v1/albums/316rhRyJgn1sS4qp8BjVFP", "artists": [{"type": "artist", "name": "The Karaoke Channel", "external_urls": {"spotify": "https://open.spotify.com/artist/5UloVKzUNJcjORzhhTWWiJ"}, "id": "5UloVKzUNJcjORzhhTWWiJ", "uri": "spotify:artist:5UloVKzUNJcjORzhhTWWiJ", "href": "https://api.spotify.com/v1/artists/5UloVKzUNJcjORzhhTWWiJ"}], "images": [{"width": 640, "url": "https://i.scdn.co/image/ab67616d0000b273974bc92bcefc97f9431d069c", "height": 640}, {"width": 300, "url": "https://i.scdn.co/image/ab67616d00001e02974bc92bcefc97f9431d069c", "height": 300}, {"width": 64, "url": "https://i.scdn.co/image/ab67616d00004851974bc92bcefc97f9431d069c", "height": 64}], "available_markets": ["AD", "AE", "AR", "AT", "AU", "BE", "BG", "BH", "BO", "BR", "CA", "CH", "CL", "CO", "CR", "CY", "CZ", "DE", "DK", "DO", "DZ", "EC", "EE", "EG", "ES", "FI", "FR", "GB", "GR", "GT", "HK", "HN", "HU", "ID", "IE", "IL", "IN", "IS", "IT", "JO", "JP", "KW", "LB", "LI", "LT", "LU", "LV", "MA", "MC", "MT", "MX", "MY", "NI", "NL", "NO", "NZ", "OM", "PA", "PE", "PH", "PL", "PS", "PT", "PY", "QA", "RO", "SA", "SE", "SG", "SK", "SV", "TH", "TN", "TR", "TW", "US", "UY", "VN", "ZA"], "album_type": "single", "release_date_precision": "day", "name": "The Karaoke Channel - Sing Ho Hey Like the Lumineers", "external_urls": {"spotify": "https://open.spotify.com/album/316rhRyJgn1sS4qp8BjVFP"}, "id": "316rhRyJgn1sS4qp8BjVFP", "uri": "spotify:album:316rhRyJgn1sS4qp8BjVFP"}, "external_ids": {"isrc": "USK4W0004242"}, "name": "Ho Hey", "duration_ms": 159146, "is_local": false, "disc_number": 1, "href": "https://api.spotify.com/v1/tracks/6Fm7iQ15ZWA28VIHlM3vfH", "artists": [{"type": "artist", "name": "The Karaoke Channel", "external_urls": {"spotify": "https://open.spotify.com/artist/5UloVKzUNJcjORzhhTWWiJ"}, "id": "5UloVKzUNJcjORzhhTWWiJ", "uri": "spotify:artist:5UloVKzUNJcjORzhhTWWiJ", "href": "https://api.spotify.com/v1/artists/5UloVKzUNJcjORzhhTWWiJ"}], "track_number": 2, "available_markets": ["AD", "AE", "AR", "AT", "AU", "BE", "BG", "BH", "BO", "BR", "CA", "CH", "CL", "CO", "CR", "CY", "CZ", "DE", "DK", "DO", "DZ", "EC", "EE", "EG", "ES", "FI", "FR", "GB", "GR", "GT", "HK", "HN", "HU", "ID", "IE", "IL", "IN", "IS", "IT", "JO", "JP", "KW", "LB", "LI", "LT", "LU", "LV", "MA", "MC", "MT", "MX", "MY", "NI", "NL", "NO", "NZ", "OM", "PA", "PE", "PH", "PL", "PS", "PT", "PY", "QA", "RO", "SA", "SE", "SG", "SK", "SV", "TH", "TN", "TR", "TW", "US", "UY", "VN", "ZA"], "type": "track", "preview_url": "https://p.scdn.co/mp3-preview/b277d422dac59f2c951cd7a1a26172c098b22b9f?cid=0c947b9d3f7547e28aee080174c283c9", "explicit": false, "external_urls": {"spotify": "https://open.spotify.com/track/6Fm7iQ15ZWA28VIHlM3vfH"}, "id": "6Fm7iQ15ZWA28VIHlM3vfH", "uri": "spotify:track:6Fm7iQ15ZWA28VIHlM3vfH", "popularity": 0}], "previous": null, "href": "https://api.spotify.com/v1/search?query=artist%3AThe+Lumineers+track%3AHo+Hey&type=track&offset=0&limit=5", "limit": 5, "total": 14, "next": "https://api.spotify.com/v1/search?query=artist%3AThe+Lumineers+track%3AHo+Hey&type=track&offset=5&limit=5"}}