{"tracks": {"offset": 0, "items": [{"album": {"total_tracks": 24, "type": "album", "release_date": "2009", "href": "https://api.spotify.com/v1/albums/2FgknX5e7fJlriQtxvpLhZ", "artists": [{"type": "artist", "name": "Florence + The Machine", "external_urls": {"spotify": "https://open.spotify.com/artist/1moxjboGR7GNWYIMWsRjgG"}, "id": "1moxjboGR7GNWYIMWsRjgG", "uri": "spotify:artist:1moxjboGR7GNWYIMWsRjgG", "href": "https://api.spotify.com/v1/artists/1moxjboGR7GNWYIMWsRjgG"}], "images": [{"width": 640, "url": "https://i.scdn.co/image/ab67616d0000b273ea69d47affea9c7b6fe58b32", "height": 640}, {"width": 300, "url": "https://i.scdn.co/image/ab67616d00001e02ea69d47affea9c7b6fe58b32", "height": 300}, {"width": 64, "url": "https://i.scdn.co/image/ab67616d00004851ea69d47affea9c7b6fe58b32", "height": 64}], "available_markets": ["CA", "MX", "US"], "album_type": "album", "release_date_precision": "year", "name": "Lungs (Deluxe Edition)", "external_urls": {"spotify": "https://open.spotify.com/album/2FgknX5e7fJlriQtxvpLhZ"}, "id": "2FgknX5e7fJlriQtxvpLhZ", "uri": "spotify:album:2FgknX5e7fJlriQtxvpLhZ"}, "external_ids": {"isrc": "GBUM70900209"}, "name": "Dog Days Are Over", "duration_ms": 251840, "is_local": false, "disc_number": 1, "href": "https://api.spotify.com/v1/tracks/1YLJVmuzeM2YSUkCCaTNUB", "artists": [{"type": "artist", "name": "Florence + The Machine", "external_urls": {"spotify": "https://open.spotify.com/artist/1moxjboGR7GNWYIMWsRjgG"}, "id": "1moxjboGR7GNWYIMWsRjgG", "uri": "spotify:artist:1moxjboGR7GNWYIMWsRjgG", "href": "https://api.spotify.com/v1/artists/1moxjboGR7GNWYIMWsRjgG"}], "track_number": 1, "available_markets": ["CA", "MX", "US"], "type": "track", "preview_url": null, "explicit": false, "external_urls": {"spotify": "https://open.spotify.com/track/1YLJVmuzeM2YSUkCCaTNUB"}, "id": "1YLJVmuzeM2YSUkCCaTNUB", "uri": "spotify:track:1YLJVmuzeM2YSUkCCaTNUB", "popularity": 71}, {"album": {"total_tracks": 13, "type": "album", "release_date": "2009-01-01", "href": "https://api.spotify.com/v1/albums/6hs55qjerNNOi4ZT5bOhxV", "artists": [{"type": "artist", "name": "Florence + The Machine", "external_urls": {"spotify": "https://open.spotify.com/artist/1moxjboGR7GNWYIMWsRjgG"}, "id": "1moxjboGR7GNWYIMWsRjgG", "uri": "spotify:artist:1moxjboGR7GNWYIMWsRjgG", "href": "https://api.spotify.com/v1/artists/1moxjboGR7GNWYIMWsRjgG"}], "images": [{"width": 640, "url": "https://i.scdn.co/image/ab67616d0000b273d3a9d1d3603940c94483acd0", "height": 640}, {"width": 300, "url": "https://i.scdn.co/image/ab67616d00001e02d3a9d1d3603940c94483acd0", "height": 300}, {"width": 64, "url": "https://i.scdn.co/image/ab67616d00004851d3a9d1d3603940c94483acd0", "height": 64}], "available_markets": ["MX", "US"], "album_type": "album", "release_date_precision": "day", "name": "Lungs", "external_urls": {"spotify": "https://open.spotify.com/album/6hs55qjerNNOi4ZT5bOhxV"}, "id": "6hs55qjerNNOi4ZT5bOhxV", "uri": "spotify:album:6hs55qjerNNOi4ZT5bOhxV"}, "external_ids": {"isrc": "GBUM70900209"}, "name": "Dog Days Are Over", "duration_ms": 252853, "is_local": false, "disc_number": 1, "href": "https://api.spotify.com/v1/tracks/6eN9yBWv9zFVZFXGsPrMxj", "artists": [{"type": "artist", "name": "Florence + The Machine", "external_urls": {"spotify": "https://open.spotify.com/artist/1moxjboGR7GNWYIMWsRjgG"}, "id": "1moxjboGR7GNWYIMWsRjgG", "uri": "spotify:artist:1moxjboGR7GNWYIMWsRjgG", "href": "https://api.spotify.com/v1/artists/1moxjboGR7GNWYIMWsRjgG"}], "track_number": 1, "available_markets": ["MX", "US"], "type": "track", "preview_url": null, "explicit": false, "external_urls": {"spotify": "https://open.spotify.com/track/6eN9yBWv9zFVZFXGsPrMxj"}, "id": "6eN9yBWv9zFVZFXGsPrMxj", "uri": "spotify:track:6eN9yBWv9zFVZFXGsPrMxj", "popularity": 46}, {"album": {"total_tracks": 25, "type": "album", "release_date": "2010-01-01", "href": "https://api.spotify.com/v1/albums/1iA9sq6Ldnw1HP1YXpa8jh", "artists": [{"type": "artist", "name": "Florence + The Machine", "external_urls": {"spotify": "https://open.spotify.com/artist/1moxjboGR7GNWYIMWsRjgG"}, "id": "1moxjboGR7GNWYIMWsRjgG", "uri": "spotify:artist:1moxjboGR7GNWYIMWsRjgG", "href": "https://api.spotify.com/v1/artists/1moxjboGR7GNWYIMWsRjgG"}], "images": [{"width": 640, "url": "https://i.scdn.co/image/ab67616d0000b273517852a0d86cfb33af2bdbbc", "height": 640}, {"width": 300, "url": "https://i.scdn.co/image/ab67616d00001e02517852a0d86cfb33af2bdbbc", "height": 300}, {"width": 64, "url": "https://i.scdn.co/image/ab67616d00004851517852a0d86cfb33af2bdbbc", "height": 64}], "available_markets": ["AD", "AE", "AR", "AT", "AU", "BE", "BG", "BH", "BO", "BR", "CA", "CH", "CL", "CO", "CR", "CY", "CZ", "DE", "DK", "DO", "DZ", "EC", "EE", "EG", "ES", "FI", "FR", "GB", "GR", "GT", "HK", "HN", "HU", "ID", "IE", "IL", "IN", "IS", "IT", "JO", "JP", "KW", "LB", "LI", "LT", "LU", "LV", "MA", "MC", "MT", "MX", "MY", "NI", "NL", "NO", "NZ", "OM", "PA", "PE", "PH", "PL", "PS", "PT", "PY", "QA", "RO", "SA", "SE", "SG", "SK", "SV", "TH", "TN", "TR", "TW", "US", "UY", "VN", "ZA"], "album_type": "album", "release_date_precision": "day", "name": "Between Two Lungs", "external_urls": {"spotify": "https://open.spotify.com/album/1iA9sq6Ldnw1HP1YXpa8jh"}, "id": "1iA9sq6Ldnw1HP1YXpa8jh", "uri": "spotify:album:1iA9sq6Ldnw1HP1YXpa8jh"}, "external_ids": {"isrc": "GBUM70900209"}, "name": "Dog Days Are Over", "duration_ms": 252818, "is_local": false, "disc_number": 1, "href": "https://api.spotify.com/v1/tracks/6dux5viG3Ku3IefPx3gFNT", "artists": [{"type": "artist", "name": "Florence + The Machine", "external_urls": {"spotify": "https://open.spotify.com/artist/1moxjboGR7GNWYIMWsRjgG"}, "id": "1moxjboGR7GNWYIMWsRjgG", "uri": "spotify:artist:1moxjboGR7GNWYIMWsRjgG", "href": "https://api.spotify.com/v1/artists/1moxjboGR7GNWYIMWsRjgG"}], "track_number": 1, "available_markets": ["AD", "AE", "AR", "AT", "AU", "BE", "BG", "BH", "BO", "BR", "CA", "CH", "CL", "CO", "CR", "CY", "CZ", "DE", "DK", "DO", "DZ", "EC", "EE", "EG", "ES", "FI", "FR", "GB", "GR", "GT", "HK", "HN", "HU", "ID", "IE", "IL", "IN", "IS", "IT", "JO", "JP", "KW", "LB", "LI", "LT", "LU", "LV", "MA", "MC", "MT", "MX", "MY", "NI", "NL", "NO", "NZ", "OM", "PA", "PE", "PH", "PL", "PS", "PT", "PY", "QA", "RO", "SA", "SE", "SG", "SK", "SV", "TH", "TN", "TR", "TW", "US", "UY", "VN", "ZA"], "type": "track", "preview_url": null, "explicit": false, "external_urls": {"spotify": "https://open.spotify.com/track/6dux5viG3Ku3IefPx3gFNT"}, "id": "6dux5viG3Ku3IefPx3gFNT", "uri": "spotify:track:6dux5viG3Ku3IefPx3gFNT", "popularity": 54}, {"album": {"total_tracks": 11, "type": "album", "release_date": "2012-01-01", "href": "https://api.spotify.com/v1/albums/4N2zZysR0BWTLT4uU21PmV", "artists": [{"type": "artist", "name": "Florence + The Machine", "external_urls": {"spotify": "https://open.spotify.com/artist/1moxjboGR7GNWYIMWsRjgG"}, "id": "1moxjboGR7GNWYIMWsRjgG", "uri": "spotify:artist:1moxjboGR7GNWYIMWsRjgG", "href": "https://api.spotify.com/v1/artists/1moxjboGR7GNWYIMWsRjgG"}], "images": [{"width": 640, "url": "https://i.scdn.co/image/ab67616d0000b27354dfd5a8946cd45bacd6a95e", "height": 640}, {"width": 300, "url": "https://i.scdn.co/image/ab67616d00001e0254dfd5a8946cd45bacd6a95e", "height": 300}, {"width": 64, "url": "https://i.scdn.co/image/ab67616d0000485154dfd5a8946cd45bacd6a95e", "height": 64}], "available_markets": ["CA", "US"], "album_type": "album", "release_date_precision": "day", "name": "MTV Presents Unplugged: Florence + The Machine", "external_urls": {"spotify": "https://open.spotify.com/album/4N2zZysR0BWTLT4uU21PmV"}, "id": "4N2zZysR0BWTLT4uU21PmV", "uri": "spotify:album:4N2zZysR0BWTLT4uU21PmV"}, "external_ids": {"isrc": "GBUM71201406"}, "name": "Dog Days Are Over - MTV Unplugged, 2012", "duration_ms": 275320, "is_local": false, "disc_number": 1, "href": "https://api.spotify.com/v1/tracks/5qLOOZwYQ9jygUwEghxxWX", "artists": [{"type": "artist", "name": "Florence + The Machine", "external_urls": {"spotify": "https://open.spotify.com/artist/1moxjboGR7GNWYIMWsRjgG"}, "id": "1moxjboGR7GNWYIMWsRjgG", "uri": "spotify:artist:1moxjboGR7GNWYIMWsRjgG", "href": "https://api.spotify.com/v1/artists/1moxjboGR7GNWYIMWsRjgG"}], "track_number": 10, "available_markets": ["CA", "US"], "type": "track", "preview_url": null, "explicit": false, "external_urls": {"spotify": "https://open.spotify.com/track/5qLOOZwYQ9jygUwEghxxWX"}, "id": "5qLOOZwYQ9jygUwEghxxWX", "uri": "spotify:track:5qLOOZwYQ9jygUwEghxxWX", "popularity": 46}, {"album": {"total_tracks": 14, "type": "album", "release_date": "2012-01-01", "href": "https://api.spotify.com/v1/albums/0wKJlJVLq79jSWHTnsVVq6", "artists": [{"type": "artist", "name": "Florence + The Machine", "external_urls": {"spotify": "https://open.spotify.com/artist/1moxjboGR7GNWYIMWsRjgG"}, "id": "1moxjboGR7GNWYIMWsRjgG", "uri": "spotify:artist:1moxjboGR7GNWYIMWsRjgG", "href": "https://api.spotify.com/v1/artists/1moxjboGR7GNWYIMWsRjgG"}], "images": [{"width": 640, "url": "https://i.scdn.co/image/39752731204f815c23248ea7c1ef2e46f7f7dadc", "height": 640}, {"width": 300, "url": "https://i.scdn.co/image/77814f517cf8e493d66579cce65753148ecb4706", "height": 300}, {"width": 64, "url": "https://i.scdn.co/image/617a53c4cd7c305a027d28320905a1eb78332e16", "height": 64}], "available_markets": ["CA", "CR", "MX", "US"], "album_type": "album", "release_date_precision": "day", "name": "MTV Presents Unplugged: Florence + The Machine (Deluxe Version)", "external_urls": {"spotify": "https://open.spotify.com/album/0wKJlJVLq79jSWHTnsVVq6"}, "id": "0wKJlJVLq79jSWHTnsVVq6", "uri": "spotify:album:0wKJlJVLq79jSWHTnsVVq6"}, "external_ids": {"isrc": "GBUM71201406"}, "name": "Dog Days Are Over - MTV Unplugged, 2012", "duration_ms": 275320, "is_local": false, "disc_number": 1, "href": "https://api.spotify.com/v1/tracks/1EWMC52f81plzO8HIHlO8q", "artists": [{"type": "artist", "name": "Florence + The Machine", "external_urls": {"spotify": "https://open.spotify.com/artist/1moxjboGR7GNWYIMWsRjgG"}, "id": "1moxjboGR7GNWYIMWsRjgG", "uri": "spotify:artist:1moxjboGR7GNWYIMWsRjgG", "href": "https://api.spotify.com/v1/artists/1moxjboGR7GNWYIMWsRjgG"}], "track_number": 10, "available_markets": ["CA", "CR", "MX", "US"], "type": "track", "preview_url": null, "explicit": false, "external_urls": {"spotify": "https://open.spotify.com/track/1EWMC52f81plzO8HIHlO8q"}, "id": "1EWMC52f81plzO8HIHlO8q", "uri": "spotify:track:1EWMC52f81plzO8HIHlO8q", "popularity": 48}], "previous": null, "href": "https://api.spotify.com/v1/search?query=artist%3AFlorence+%2B+The+Machine+track%3ADog+Days+Are+Over&type=track&offset=0&limit=5", "limit": 5, "total": 33, "next": "https://api.spotify.com/v1/search?query=artist%3AFlorence+%2B+The+Machine+track%3ADog+Days+Are+Over&type=track&offset=5&limit=5"}}