{"tracks": {"offset": 0, "items": [{"album": {"total_tracks": 32, "type": "album", "release_date": "2013-11-19", "href": "https://api.spotify.com/v1/albums/6dMfMvS3hyk3ZCl4yljEDD", "artists": [{"type": "artist", "name": "AWOLNATION", "external_urls": {"spotify": "https://open.spotify.com/artist/4njdEjTnLfcGImKZu1iSrz"}, "id": "4njdEjTnLfcGImKZu1iSrz", "uri": "spotify:artist:4njdEjTnLfcGImKZu1iSrz", "href": "https://api.spotify.com/v1/artists/4njdEjTnLfcGImKZu1iSrz"}], "images": [{"width": 640, "url": "https://i.scdn.co/image/5f768d4c8d8fb256cf95a9d8f06679636634e0d3", "height": 640}, {"width": 300, "url": "https://i.scdn.co/image/f04da9d723ea69c96833eb8a1a2a508311422131", "height": 300}, {"width": 64, "url": "https://i.scdn.co/image/ff4a26bbfffbc9224dbd03a5a904d1146e801644", "height": 64}], "available_markets": ["AD", "AE", "AR", "AT", "BE", "BG", "BH", "BO", "BR", "CA", "CH", "CL", "CO", "CR", "CY", "CZ", "DE", "DK", "DO", "DZ", "EC", "EE", "EG", "ES", "FI", "FR", "GB", "GR", "GT", "HN", "HU", "IE", "IL", "IN", "IS", "IT", "JO", "KW", "LB", "LI", "LT", "LU", "LV", "MA", "MC", "MT", "MX", "NI", "NL", "NO", "OM", "PA", "PE", "PL", "PS", "PT", "PY", "QA", "RO", "SA", "SE", "SK", "SV", "TN", "TR", "US", "UY", "ZA"], "album_type": "album", "release_date_precision": "day", "name": "Megalithic Symphony Deluxe", "external_urls": {"spotify": "https://open.spotify.com/album/6dMfMvS3hyk3ZCl4yljEDD"}, "id": "6dMfMvS3hyk3ZCl4yljEDD", "uri": "spotify:album:6dMfMvS3hyk3ZCl4yljEDD"}, "external_ids": {"isrc": "USP6L1000053"}, "name": "Sail", "duration_ms": 259102, "is_local": false, "disc_number": 1, "href": "https://api.spotify.com/v1/tracks/5xhQChGGhKLWqBqX4XhtYE", "artists": [{"type": "artist", "name": "AWOLNATION", "external_urls": {"spotify": "https://open.spotify.com/artist/4njdEjTnLfcGImKZu1iSrz"}, "id": "4njdEjTnLfcGImKZu1iSrz", "uri": "spotify:artist:4njdEjTnLfcGImKZu1iSrz", "href": "https://api.spotify.com/v1/artists/4njdEjTnLfcGImKZu1iSrz"}], "track_number": 10, "available_markets": ["AD", "AE", "AR", "AT", "BE", "BG", "BH", "BO", "BR", "CA", "CH", "CL", "CO", "CR", "CY", "CZ", "DE", "DK", "DO", "DZ", "EC", "EE", "EG", "ES", "FI", "FR", "GB", "GR", "GT", "HN", "HU", "IE", "IL", "IN", "IS", "IT", "JO", "KW", "LB", "LI", "LT", "LU", "LV", "MA", "MC", "MT", "MX", "NI", "NL", "NO", "OM", "PA", "PE", "PL", "PS", "PT", "PY", "QA", "RO", "SA", "SE", "SK", "SV", "TN", "TR", "US", "UY", "ZA"], "type": "track", "preview_url": "https://p.scdn.co/mp3-preview/9a7c9ece7575d0bce24d8a24c0f35f48853655cb?cid=0c947b9d3f7547e28aee080174c283c9", "explicit": false, "external_urls": {"spotify": "https://open.spotify.com/track/5xhQChGGhKLWqBqX4XhtYE"}, "id": "5xhQChGGhKLWqBqX4XhtYE", "uri": "spotify:track:5xhQChGGhKLWqBqX4XhtYE", "popularity": 74}, {"album": {"total_tracks": 15, "type": "album", "release_date": "2011-03-15", "href": "https://api.spotify.com/v1/albums/7I7yoD3GPwYuQcuKS8ZQuM", "artists": [{"type": "artist", "name": "AWOLNATION", "external_urls": {"spotify": "https://open.spotify.com/artist/4njdEjTnLfcGImKZu1iSrz"}, "id": "4njdEjTnLfcGImKZu1iSrz", "uri": "spotify:artist:4njdEjTnLfcGImKZu1iSrz", "href": "https://api.spotify.com/v1/artists/4njdEjTnLfcGImKZu1iSrz"}], "images": [{"width": 640, "url": "https://i.scdn.co/image/ab67616d0000b273cca44c0531b9025de809d1b9", "height": 640}, {"width": 300, "url": "https://i.scdn.co/image/ab67616d00001e02cca44c0531b9025de809d1b9", "height": 300}, {"width": 64, "url": "https://i.scdn.co/image/ab67616d00004851cca44c0531b9025de809d1b9", "height": 64}], "available_markets": ["AD", "AE", "AR", "AT", "BE", "BG", "BH", "BO", "BR", "CA", "CH", "CL", "CO", "CR", "CY", "CZ", "DE", "DK", "DO", "DZ", "EC", "EE", "EG", "ES", "FI", "FR", "GB", "GR", "GT", "HN", "HU", "IE", "IL", "IN", "IS", "IT", "JO", "KW", "LB", "LI", "LT", "LU", "LV", "MA", "MC", "MT", "MX", "NI", "NL", "NO", "OM", "PA", "PE", "PL", "PS", "PT", "PY", "QA", "RO", "SA", "SE", "SK", "SV", "TN", "TR", "US", "UY", "ZA"], "album_type": "album", "release_date_precision": "day", "name": "Megalithic Symphony", "external_urls": {"spotify": "https://open.spotify.com/album/7I7yoD3GPwYuQcuKS8ZQuM"}, "id": "7I7yoD3GPwYuQcuKS8ZQuM", "uri": "spotify:album:7I7yoD3GPwYuQcuKS8ZQuM"}, "external_ids": {"isrc": "USP6L1000053"}, "name": "Sail", "duration_ms": 259093, "is_local": false, "disc_number": 1, "href": "https://api.spotify.com/v1/tracks/5N7d8uxMeuO4HdncbkuhSB", "artists": [{"type": "artist", "name": "AWOLNATION", "external_urls": {"spotify": "https://open.spotify.com/artist/4njdEjTnLfcGImKZu1iSrz"}, "id": "4njdEjTnLfcGImKZu1iSrz", "uri": "spotify:artist:4njdEjTnLfcGImKZu1iSrz", "href": "https://api.spotify.com/v1/artists/4njdEjTnLfcGImKZu1iSrz"}], "track_number": 10, "available_markets": ["AD", "AE", "AR", "AT", "BE", "BG", "BH", "BO", "BR", "CA", "CH", "CL", "CO", "CR", "CY", "CZ", "DE", "DK", "DO", "DZ", "EC", "EE", "EG", "ES", "FI", "FR", "GB", "GR", "GT", "HN", "HU", "IE", "IL", "IN", "IS", "IT", "JO", "KW", "LB", "LI", "LT", "LU", "LV", "MA", "MC", "MT", "MX", "NI", "NL", "NO", "OM", "PA", "PE", "PL", "PS", "PT", "PY", "QA", "RO", "SA", "SE", "SK", "SV", "TN", "TR", "US", "UY", "ZA"], "type": "track", "preview_url": "https://p.scdn.co/mp3-preview/6f5f2bfd5287c6daac7d493cca5b10aaa4041859?cid=0c947b9d3f7547e28aee080174c283c9", "explicit": false, "external_urls": {"spotify": "https://open.spotify.com/track/5N7d8uxMeuO4HdncbkuhSB"}, "id": "5N7d8uxMeuO4HdncbkuhSB", "uri": "spotify:track:5N7d8uxMeuO4HdncbkuhSB", "popularity": 69}, {"album": {"total_tracks": 9, "type": "album", "release_date": "2012-04-10", "href": "https://api.spotify.com/v1/albums/2vbBCOu3B7kTIONAjf0LgQ", "artists": [{"type": "artist", "name": "AWOLNATION", "external_urls": {"spotify": "https://open.spotify.com/artist/4njdEjTnLfcGImKZu1iSrz"}, "id": "4njdEjTnLfcGImKZu1iSrz", "uri": "spotify:artist:4njdEjTnLfcGImKZu1iSrz", "href": "https://api.spotify.com/v1/artists/4njdEjTnLfcGImKZu1iSrz"}], "images": [{"width": 640, "url": "https://i.scdn.co/image/ab67616d0000b273f40ad52afcecbe77fa7950cc", "height": 640}, {"width": 300, "url": "https://i.scdn.co/image/ab67616d00001e02f40ad52afcecbe77fa7950cc", "height": 300}, {"width": 64, "url": "https://i.scdn.co/image/ab67616d00004851f40ad52afcecbe77fa7950cc", "height": 64}], "available_markets": ["AD", "AE", "AR", "AT", "BE", "BG", "BH", "BO", "BR", "CA", "CH", "CL", "CO", "CR", "CY", "CZ", "DE", "DK", "DO", "DZ", "EC", "EE", "EG", "ES", "FI", "FR", "GB", "GR", "GT", "HN", "HU", "IE", "IL", "IN", "IS", "IT", "JO", "KW", "LB", "LI", "LT", "LU", "LV", "MA", "MC", "MT", "MX", "NI", "NL", "NO", "OM", "PA", "PE", "PL", "PS", "PT", "PY", "QA", "RO", "SA", "SE", "SK", "SV", "TN", "TR", "US", "UY", "ZA"], "album_type": "single", "release_date_precision": "day", "name": "RE/Sail", "external_urls": {"spotify": "https://open.spotify.com/album/2vbBCOu3B7kTIONAjf0LgQ"}, "id": "2vbBCOu3B7kTIONAjf0LgQ", "uri": "spotify:album:2vbBCOu3B7kTIONAjf0LgQ"}, "external_ids": {"isrc": "USP6L1180110"}, "name": "Sail - Unlimited Gravity Remix", "duration_ms": 349537, "is_local": false, "disc_number": 1, "href": "https://api.spotify.com/v1/tracks/7qAWdfgvuDJQlhjppYtAfA", "artists": [{"type": "artist", "name": "AWOLNATION", "external_urls": {"spotify": "https://open.spotify.com/artist/4njdEjTnLfcGImKZu1iSrz"}, "id": "4njdEjTnLfcGImKZu1iSrz", "uri": "spotify:artist:4njdEjTnLfcGImKZu1iSrz", "href": "https://api.spotify.com/v1/artists/4njdEjTnLfcGImKZu1iSrz"}], "track_number": 1, "available_markets": ["AD", "AE", "AR", "AT", "BE", "BG", "BH", "BO", "BR", "CA", "CH", "CL", "CO", "CR", "CY", "CZ", "DE", "DK", "DO", "DZ", "EC", "EE", "EG", "ES", "FI", "FR", "GB", "GR", "GT", "HN", "HU", "IE", "IL", "IN", "IS", "IT", "JO", "KW", "LB", "LI", "LT", "LU", "LV", "MA", "MC", "MT", "MX", "NI", "NL", "NO", "OM", "PA", "PE", "PL", "PS", "PT", "PY", "QA", "RO", "SA", "SE", "SK", "SV", "TN", "TR", "US", "UY", "ZA"], "type": "track", "preview_url": "https://p.scdn.co/mp3-preview/11e6567db987515437b587b173b6e9f48f35ba1f?cid=0c947b9d3f7547e28aee080174c283c9", "explicit": false, "external_urls": {"spotify": "https://open.spotify.com/track/7qAWdfgvuDJQlhjppYtAfA"}, "id": "7qAWdfgvuDJQlhjppYtAfA", "uri": "spotify:track:7qAWdfgvuDJQlhjppYtAfA", "popularity": 50}, {"album": {"total_tracks": 32, "type": "album", "release_date": "2013-11-19", "href": "https://api.spotify.com/v1/albums/6dMfMvS3hyk3ZCl4yljEDD", "artists": [{"type": "artist", "name": "AWOLNATION", "external_urls": {"spotify": "https://open.spotify.com/artist/4njdEjTnLfcGImKZu1iSrz"}, "id": "4njdEjTnLfcGImKZu1iSrz", "uri": "spotify:artist:4njdEjTnLfcGImKZu1iSrz", "href": "https://api.spotify.com/v1/artists/4njdEjTnLfcGImKZu1iSrz"}], "images": [{"width": 640, "url": "https://i.scdn.co/image/5f768d4c8d8fb256cf95a9d8f06679636634e0d3", "height": 640}, {"width": 300, "url": "https://i.scdn.co/image/f04da9d723ea69c96833eb8a1a2a508311422131", "height": 300}, {"width": 64, "url": "https://i.scdn.co/image/ff4a26bbfffbc9224dbd03a5a904d1146e801644", "height": 64}], "available_markets": ["AD", "AE", "AR", "AT", "BE", "BG", "BH", "BO", "BR", "CA", "CH", "CL", "CO", "CR", "CY", "CZ", "DE", "DK", "DO", "DZ", "EC", "EE", "EG", "ES", "FI", "FR", "GB", "GR", "GT", "HN", "HU", "IE", "IL", "IN", "IS", "IT", "JO", "KW", "LB", "LI", "LT", "LU", "LV", "MA", "MC", "MT", "MX", "NI", "NL", "NO", "OM", "PA", "PE", "PL", "PS", "PT", "PY", "QA", "RO", "SA", "SE", "SK", "SV", "TN", "TR", "US", "UY", "ZA"], "album_type": "album", "release_date_precision": "day", "name": "Megalithic Symphony Deluxe", "external_urls": {"spotify": "https://open.spotify.com/album/6dMfMvS3hyk3ZCl4yljEDD"}, "id": "6dMfMvS3hyk3ZCl4yljEDD", "uri": "spotify:album:6dMfMvS3hyk3ZCl4yljEDD"}, "external_ids": {"isrc": "USP6L1180110"}, "name": "Sail - Unlimited Gravity Remix", "duration_ms": 349654, "is_local": false, "disc_number": 2, "href": "https://api.spotify.com/v1/tracks/3oYkwkavnMizJhYMBtiAFm", "artists": [{"type": "artist", "name": "AWOLNATION", "external_urls": {"spotify": "https://open.spotify.com/artist/4njdEjTnLfcGImKZu1iSrz"}, "id": "4njdEjTnLfcGImKZu1iSrz", "uri": "spotify:artist:4njdEjTnLfcGImKZu1iSrz", "href": "https://api.spotify.com/v1/artists/4njdEjTnLfcGImKZu1iSrz"}, {"type": "artist", "name": "Unlimited Gravity", "external_urls": {"spotify": "https://open.spotify.com/artist/0yQosVg3rwqj4yD7BHiTjF"}, "id": "0yQosVg3rwqj4yD7BHiTjF", "uri": "spotify:artist:0yQosVg3rwqj4yD7BHiTjF", "href": "https://api.spotify.com/v1/artists/0yQosVg3rwqj4yD7BHiTjF"}], "track_number": 18, "available_markets": ["AD", "AE", "AR", "AT", "BE", "BG", "BH", "BO", "BR", "CA", "CH", "CL", "CO", "CR", "CY", "CZ", "DE", "DK", "DO", "DZ", "EC", "EE", "EG", "ES", "FI", "FR", "GB", "GR", "GT", "HN", "HU", "IE", "IL", "IN", "IS", "IT", "JO", "KW", "LB", "LI", "LT", "LU", "LV", "MA", "MC", "MT", "MX", "NI", "NL", "NO", "OM", "PA", "PE", "PL", "PS", "PT", "PY", "QA", "RO", "SA", "SE", "SK", "SV", "TN", "TR", "US", "UY", "ZA"], "type": "track", "preview_url": "https://p.scdn.co/mp3-preview/1c4698ff77bd10100de9326024d1ad899510cb0f?cid=0c947b9d3f7547e28aee080174c283c9", "explicit": false, "external_urls": {"spotify": "https://open.spotify.com/track/3oYkwkavnMizJhYMBtiAFm"}, "id": "3oYkwkavnMizJhYMBtiAFm", "uri": "spotify:track:3oYkwkavnMizJhYMBtiAFm", "popularity": 47}, {"album": {"total_tracks": 32, "type": "album", "release_date": "2013-11-19", "href": "https://api.spotify.com/v1/albums/6dMfMvS3hyk3ZCl4yljEDD", "artists": [{"type": "artist", "name": "AWOLNATION", "external_urls": {"spotify": "https://open.spotify.com/artist/4njdEjTnLfcGImKZu1iSrz"}, "id": "4njdEjTnLfcGImKZu1iSrz", "uri": "spotify:artist:4njdEjTnLfcGImKZu1iSrz", "href": "https://api.spotify.com/v1/artists/4njdEjTnLfcGImKZu1iSrz"}], "images": [{"width": 640, "url": "https://i.scdn.co/image/5f768d4c8d8fb256cf95a9d8f06679636634e0d3", "height": 640}, {"width": 300, "url": "https://i.scdn.co/image/f04da9d723ea69c96833eb8a1a2a508311422131", "height": 300}, {"width": 64, "url": "https://i.scdn.co/image/ff4a26bbfffbc9224dbd03a5a904d1146e801644", "height": 64}], "available_markets": ["AD", "AE", "AR", "AT", "BE", "BG", "BH", "BO", "BR", "CA", "CH", "CL", "CO", "CR", "CY", "CZ", "DE", "DK", "DO", "DZ", "EC", "EE", "EG", "ES", "FI", "FR", "GB", "GR", "GT", "HN", "HU", "IE", "IL", "IN", "IS", "IT", "JO", "KW", "LB", "LI", "LT", "LU", "LV", "MA", "MC", "MT", "MX", "NI", "NL", "NO", "OM", "PA", "PE", "PL", "PS", "PT", "PY", "QA", "RO", "SA", "SE", "SK", "SV", "TN", "TR", "US", "UY", "ZA"], "album_type": "album", "release_date_precision": "day", "name": "Megalithic Symphony Deluxe", "external_urls": {"spotify": "https://open.spotify.com/album/6dMfMvS3hyk3ZCl4yljEDD"}, "id": "6dMfMvS3hyk3ZCl4yljEDD", "uri": "spotify:album:6dMfMvS3hyk3ZCl4yljEDD"}, "external_ids": {"isrc": "USP6L1280129"}, "name": "Sail - Feed Me Remix", "duration_ms": 209276, "is_local": false, "disc_number": 2, "href": "https://api.spotify.com/v1/tracks/4FjYBt7HYwQKi0FluIpRUY", "artists": [{"type": "artist", "name": "AWOLNATION", "external_urls": {"spotify": "https://open.spotify.com/artist/4njdEjTnLfcGImKZu1iSrz"}, "id": "4njdEjTnLfcGImKZu1iSrz", "uri": "spotify:artist:4njdEjTnLfcGImKZu1iSrz", "href": "https://api.spotify.com/v1/artists/4njdEjTnLfcGImKZu1iSrz"}], "track_number": 16, "available_markets": ["AD", "AE", "AR", "AT", "BE", "BG", "BH", "BO", "BR", "CA", "CH", "CL", "CO", "CR", "CY", "CZ", "DE", "DK", "DO", "DZ", "EC", "EE", "EG", "ES", "FI", "FR", "GB", "GR", "GT", "HN", "HU", "IE", "IL", "IN", "IS", "IT", "JO", "KW", "LB", "LI", "LT", "LU", "LV", "MA", "MC", "MT", "MX", "NI", "NL", "NO", "OM", "PA", "PE", "PL", "PS", "PT", "PY", "QA", "RO", "SA", "SE", "SK", "SV", "TN", "TR", "US", "UY", "ZA"], "type": "track", "preview_url": "https://p.scdn.co/mp3-preview/c6efd17033a30bc6560d2cfbd885628544d68a48?cid=0c947b9d3f7547e28aee080174c283c9", "explicit": false, "external_urls": {"spotify": "https://open.spotify.com/track/4FjYBt7HYwQKi0FluIpRUY"}, "id": "4FjYBt7HYwQKi0FluIpRUY", "uri": "spotify:track:4FjYBt7HYwQKi0FluIpRUY", "popularity": 45}], "previous": null, "href": "https://api.spotify.com/v1/search?query=artist%3AAWOLNATION+track%3ASail&type=track&offset=0&limit=5", "limit": 5, "total": 15, "next": "https://api.spotify.com/v1/search?query=artist%3AAWOLNATION+track%3ASail&type=track&offset=5&limit=5"}}