{"tracks": {"offset": 0, "items": [{"album": {"total_tracks": 10, "type": "album", "release_date": "2011-01-01", "href": "https://api.spotify.com/v1/albums/1MbBSfcqLg2OjkeZ1RMSIq", "artists": [{"type": "artist", "name": "LMFAO", "external_urls": {"spotify": "https://open.spotify.com/artist/3sgFRtyBnxXD5ESfmbK4dl"}, "id": "3sgFRtyBnxXD5ESfmbK4dl", "uri": "spotify:artist:3sgFRtyBnxXD5ESfmbK4dl", "href": "https://api.spotify.com/v1/artists/3sgFRtyBnxXD5ESfmbK4dl"}], "images": [{"width": 640, "url": "https://i.scdn.co/image/ab67616d0000b273b0174c3569733f69e299fb90", "height": 640}, {"width": 300, "url": "https://i.scdn.co/image/ab67616d00001e02b0174c3569733f69e299fb90", "height": 300}, {"width": 64, "url": "https://i.scdn.co/image/ab67616d00004851b0174c3569733f69e299fb90", "height": 64}], "available_markets": ["AE", "AU", "BH", "CA", "CR", "DZ", "EG", "JO", "KW", "LB", "MA", "MX", "NZ", "OM", "QA", "SA", "TN", "US"], "album_type": "album", "release_date_precision": "day", "name": "Sorry For Party Rocking", "external_urls": {"spotify": "https://open.spotify.com/album/1MbBSfcqLg2OjkeZ1RMSIq"}, "id": "1MbBSfcqLg2OjkeZ1RMSIq", "uri": "spotify:album:1MbBSfcqLg2OjkeZ1RMSIq"}, "external_ids": {"isrc": "USUM71100061"}, "name": "Party Rock Anthem", "duration_ms": 262173, "is_local": false, "disc_number": 1, "href": "https://api.spotify.com/v1/tracks/0IkKz2J93C94Ei4BvDop7P", "artists": [{"type": "artist", "name": "LMFAO", "external_urls": {"spotify": "https://open.spotify.com/artist/3sgFRtyBnxXD5ESfmbK4dl"}, "id": "3sgFRtyBnxXD5ESfmbK4dl", "uri": "spotify:artist:3sgFRtyBnxXD5ESfmbK4dl", "href": "https://api.spotify.com/v1/artists/3sgFRtyBnxXD5ESfmbK4dl"}, {"type": "artist", "name": "Lauren Bennett", "external_urls": {"spotify": "https://open.spotify.com/artist/2jLE4BoXHriQ96JagEtiDP"}, "id": "2jLE4BoXHriQ96JagEtiDP", "uri": "spotify:artist:2jLE4BoXHriQ96JagEtiDP", "href": "https://api.spotify.com/v1/artists/2jLE4BoXHriQ96JagEtiDP"}, {"type": "artist", "name": "GoonRock", "external_urls": {"spotify": "https://open.spotify.com/artist/53sIBaVjXQhfH89Vu6nEGh"}, "id": "53sIBaVjXQhfH89Vu6nEGh", "uri": "spotify:artist:53sIBaVjXQhfH89Vu6nEGh", "href": "https://api.spotify.com/v1/artists/53sIBaVjXQhfH89Vu6nEGh"}], "track_number": 3, "available_markets": ["AE", "AU", "BH", "CA", "CR", "DZ", "EG", "JO", "KW", "LB", "MA", "MX", "NZ", "OM", "QA", "SA", "TN", "US"], "type": "track", "preview_url": null, "explicit": false, "external_urls": {"spotify": "https://open.spotify.com/track/0IkKz2J93C94Ei4BvDop7P"}, "id": "0IkKz2J93C94Ei4BvDop7P", "uri": "spotify:track:0IkKz2J93C94Ei4BvDop7P", "popularity": 67}, {"album": {"total_tracks": 14, "type": "album", "release_date": "2011-01-01", "href": "https://api.spotify.com/v1/albums/5EuNq3rYUESwy6Vcsz2PZe", "artists": [{"type": "artist", "name": "LMFAO", "external_urls": {"spotify": "https://open.spotify.com/artist/3sgFRtyBnxXD5ESfmbK4dl"}, "id": "3sgFRtyBnxXD5ESfmbK4dl", "uri": "spotify:artist:3sgFRtyBnxXD5ESfmbK4dl", "href": "https://api.spotify.com/v1/artists/3sgFRtyBnxXD5ESfmbK4dl"}], "images": [{"width": 640, "url": "https://i.scdn.co/image/ab67616d0000b273725f114e285578ea0f0dff26", "height": 640}, {"width": 300, "url": "https://i.scdn.co/image/ab67616d00001e02725f114e285578ea0f0dff26", "height": 300}, {"width": 64, "url": "https://i.scdn.co/image/ab67616d00004851725f114e285578ea0f0dff26", "height": 64}], "available_markets": ["CA", "CR", "MX", "US"], "album_type": "album", "release_date_precision": "day", "name": "Sorry For Party Rocking (Deluxe Version)", "external_urls": {"spotify": "https://open.spotify.com/album/5EuNq3rYUESwy6Vcsz2PZe"}, "id": "5EuNq3rYUESwy6Vcsz2PZe", "uri": "spotify:album:5EuNq3rYUESwy6Vcsz2PZe"}, "external_ids": {"isrc": "USUM71100061"}, "name": "Party Rock Anthem", "duration_ms": 262146, "is_local": false, "disc_number": 1, "href": "https://api.spotify.com/v1/tracks/7FwaX3u4lo5wqF2mdHQlsC", "artists": [{"type": "artist", "name": "LMFAO", "external_urls": {"spotify": "https://open.spotify.com/artist/3sgFRtyBnxXD5ESfmbK4dl"}, "id": "3sgFRtyBnxXD5ESfmbK4dl", "uri": "spotify:artist:3sgFRtyBnxXD5ESfmbK4dl", "href": "https://api.spotify.com/v1/artists/3sgFRtyBnxXD5ESfmbK4dl"}, {"type": "artist", "name": "Lauren Bennett", "external_urls": {"spotify": "https://open.spotify.com/artist/2jLE4BoXHriQ96JagEtiDP"}, "id": "2jLE4BoXHriQ96JagEtiDP", "uri": "spotify:artist:2jLE4BoXHriQ96JagEtiDP", "href": "https://api.spotify.com/v1/artists/2jLE4BoXHriQ96JagEtiDP"}, {"type": "artist", "name": "GoonRock", "external_urls": {"spotify": "https://open.spotify.com/artist/53sIBaVjXQhfH89Vu6nEGh"}, "id": "53sIBaVjXQhfH89Vu6nEGh", "uri": "spotify:artist:53sIBaVjXQhfH89Vu6nEGh", "href": "https://api.spotify.com/v1/artists/53sIBaVjXQhfH89Vu6nEGh"}], "track_number": 3, "available_markets": ["CA", "CR", "MX", "US"], "type": "track", "preview_url": null, "explicit": false, "external_urls": {"spotify": "https://open.spotify.com/track/7FwaX3u4lo5wqF2mdHQlsC"}, "id": "7FwaX3u4lo5wqF2mdHQlsC", "uri": "spotify:track:7FwaX3u4lo5wqF2mdHQlsC", "popularity": 40}, {"album": {"total_tracks": 12, "type": "album", "release_date": "2013-01-01", "href": "https://api.spotify.com/v1/albums/685GvqHcJrflEOVqwYiItH", "artists": [{"type": "artist", "name": "Various Artists", "external_urls": {"spotify": "https://open.spotify.com/artist/0LyfQWJT6nXafLPZqxe9Of"}, "id": "0LyfQWJT6nXafLPZqxe9Of", "uri": "spotify:artist:0LyfQWJT6nXafLPZqxe9Of", "href": "https://api.spotify.com/v1/artists/0LyfQWJT6nXafLPZqxe9Of"}], "images": [{"width": 640, "url": "https://i.scdn.co/image/ab67616d0000b273f390437953a686b4fc8acfc3", "height": 640}, {"width": 300, "url": "https://i.scdn.co/image/ab67616d00001e02f390437953a686b4fc8acfc3", "height": 300}, {"width": 64, "url": "https://i.scdn.co/image/ab67616d00004851f390437953a686b4fc8acfc3", "height": 64}], "available_markets": ["CA", "US"], "album_type": "compilation", "release_date_precision": "day", "name": "Zumba Fitness Dance Party", "external_urls": {"spotify": "https://open.spotify.com/album/685GvqHcJrflEOVqwYiItH"}, "id": "685GvqHcJrflEOVqwYiItH", "uri": "spotify:album:685GvqHcJrflEOVqwYiItH"}, "external_ids": {"isrc": "USUM71105650"}, "name": "Party Rock Anthem - Radio Edit", "duration_ms": 235626, "is_local": false, "disc_number": 1, "href": "https://api.spotify.com/v1/tracks/0OoEAN7MtFPQTVyJdCH1kH", "artists": [{"type": "artist", "name": "LMFAO", "external_urls": {"spotify": "https://open.spotify.com/artist/3sgFRtyBnxXD5ESfmbK4dl"}, "id": "3sgFRtyBnxXD5ESfmbK4dl", "uri": "spotify:artist:3sgFRtyBnxXD5ESfmbK4dl", "href": "https://api.spotify.com/v1/artists/3sgFRtyBnxXD5ESfmbK4dl"}, {"type": "artist", "name": "Lauren Bennett", "external_urls": {"spotify": "https://open.spotify.com/artist/2jLE4BoXHriQ96JagEtiDP"}, "id": "2jLE4BoXHriQ96JagEtiDP", "uri": "spotify:artist:2jLE4BoXHriQ96JagEtiDP", "href": "https://api.spotify.com/v1/artists/2jLE4BoXHriQ96JagEtiDP"}, {"type": "artist", "name": "GoonRock", "external_urls": {"spotify": "https://open.spotify.com/artist/53sIBaVjXQhfH89Vu6nEGh"}, "id": "53sIBaVjXQhfH89Vu6nEGh", "uri": "spotify:artist:53sIBaVjXQhfH89Vu6nEGh", "href": "https://api.spotify.com/v1/artists/53sIBaVjXQhfH89Vu6nEGh"}], "track_number": 5, "available_markets": ["CA", "US"], "type": "track", "preview_url": null, "explicit": false, "external_urls": {"spotify": "https://open.spotify.com/track/0OoEAN7MtFPQTVyJdCH1kH"}, "id": "0OoEAN7MtFPQTVyJdCH1kH", "uri": "spotify:track:0OoEAN7MtFPQTVyJdCH1kH", "popularity": 38}, {"album": {"total_tracks": 10, "type": "album", "release_date": "2011-01-01", "href": "https://api.spotify.com/v1/albums/2G7zec71b5a8P73HznbX0o", "artists": [{"type": "artist", "name": "LMFAO", "external_urls": {"spotify": "https://open.spotify.com/artist/3sgFRtyBnxXD5ESfmbK4dl"}, "id": "3sgFRtyBnxXD5ESfmbK4dl", "uri": "spotify:artist:3sgFRtyBnxXD5ESfmbK4dl", "href": "https://api.spotify.com/v1/artists/3sgFRtyBnxXD5ESfmbK4dl"}], "images": [{"width": 640, "url": "https://i.scdn.co/image/ab67616d0000b273e1ca9e94e170de83e7a3276e", "height": 640}, {"width": 300, "url": "https://i.scdn.co/image/ab67616d00001e02e1ca9e94e170de83e7a3276e", "height": 300}, {"width": 64, "url": "https://i.scdn.co/image/ab67616d00004851e1ca9e94e170de83e7a3276e", "height": 64}], "available_markets": ["CA", "CR", "MX", "US"], "album_type": "album", "release_date_precision": "day", "name": "Sorry For Party Rocking", "external_urls": {"spotify": "https://open.spotify.com/album/2G7zec71b5a8P73HznbX0o"}, "id": "2G7zec71b5a8P73HznbX0o", "uri": "spotify:album:2G7zec71b5a8P73HznbX0o"}, "external_ids": {"isrc": "USUM71100061"}, "name": "Party Rock Anthem", "duration_ms": 262146, "is_local": false, "disc_number": 1, "href": "https://api.spotify.com/v1/tracks/5y1jZxXIpECpclpbA76zVm", "artists": [{"type": "artist", "name": "LMFAO", "external_urls": {"spotify": "https://open.spotify.com/artist/3sgFRtyBnxXD5ESfmbK4dl"}, "id": "3sgFRtyBnxXD5ESfmbK4dl", "uri": "spotify:artist:3sgFRtyBnxXD5ESfmbK4dl", "href": "https://api.spotify.com/v1/artists/3sgFRtyBnxXD5ESfmbK4dl"}, {"type": "artist", "name": "Lauren Bennett", "external_urls": {"spotify": "https://open.spotify.com/artist/2jLE4BoXHriQ96JagEtiDP"}, "id": "2jLE4BoXHriQ96JagEtiDP", "uri": "spotify:artist:2jLE4BoXHriQ96JagEtiDP", "href": "https://api.spotify.com/v1/artists/2jLE4BoXHriQ96JagEtiDP"}, {"type": "artist", "name": "GoonRock", "external_urls": {"spotify": "https://open.spotify.com/artist/53sIBaVjXQhfH89Vu6nEGh"}, "id": "53sIBaVjXQhfH89Vu6nEGh", "uri": "spotify:artist:53sIBaVjXQhfH89Vu6nEGh", "href": "https://api.spotify.com/v1/artists/53sIBaVjXQhfH89Vu6nEGh"}], "track_number": 3, "available_markets": ["CA", "CR", "MX", "US"], "type": "track", "preview_url": null, "explicit": false, "external_urls": {"spotify": "https://open.spotify.com/track/5y1jZxXIpECpclpbA76zVm"}, "id": "5y1jZxXIpECpclpbA76zVm", "uri": "spotify:track:5y1jZxXIpECpclpbA76zVm", "popularity": 33}, {"album": {"total_tracks": 6, "type": "album", "release_date": "2011-01-01", "href": "https://api.spotify.com/v1/albums/3UbzpvURpdh3kCkwVWcVKd", "artists": [{"type": "artist", "name": "LMFAO", "external_urls": {"spotify": "https://open.spotify.com/artist/3sgFRtyBnxXD5ESfmbK4dl"}, "id": "3sgFRtyBnxXD5ESfmbK4dl", "uri": "spotify:artist:3sgFRtyBnxXD5ESfmbK4dl", "href": "https://api.spotify.com/v1/artists/3sgFRtyBnxXD5ESfmbK4dl"}], "images": [{"width": 640, "url": "https://i.scdn.co/image/ab67616d0000b27313a6f464fee63fdbbd929e3b", "height": 640}, {"width": 300, "url": "https://i.scdn.co/image/ab67616d00001e0213a6f464fee63fdbbd929e3b", "height": 300}, {"width": 64, "url": "https://i.scdn.co/image/ab67616d0000485113a6f464fee63fdbbd929e3b", "height": 64}], "available_markets": ["AE", "AR", "AT", "BE", "BG", "BH", "BO", "BR", "CA", "CH", "CL", "CO", "CR", "CY", "CZ", "DE", "DK", "DO", "DZ", "EC", "EE", "EG", "ES", "FI", "FR", "GR", "GT", "HN", "HU", "ID", "IL", "IN", "IS", "IT", "JO", "JP", "KW", "LB", "LT", "LU", "LV", "MA", "MT", "MX", "MY", "NI", "NL", "NO", "OM", "PA", "PE", "PH", "PL", "PT", "PY", "QA", "RO", "SA", "SE", "SG", "SK", "SV", "TN", "TR", "US", "ZA"], "album_type": "single", "release_date_precision": "day", "name": "Party Rock Anthem (Remixes)", "external_urls": {"spotify": "https://open.spotify.com/album/3UbzpvURpdh3kCkwVWcVKd"}, "id": "3UbzpvURpdh3kCkwVWcVKd", "uri": "spotify:album:3UbzpvURpdh3kCkwVWcVKd"}, "external_ids": {"isrc": "USUM71109173"}, "name": "Party Rock Anthem - DJ Enferno Remix", "duration_ms": 290480, "is_local": false, "disc_number": 1, "href": "https://api.spotify.com/v1/tracks/1ns4Mv2zzbhElbSLMaO2QG", "artists": [{"type": "artist", "name": "LMFAO", "external_urls": {"spotify": "https://open.spotify.com/artist/3sgFRtyBnxXD5ESfmbK4dl"}, "id": "3sgFRtyBnxXD5ESfmbK4dl", "uri": "spotify:artist:3sgFRtyBnxXD5ESfmbK4dl", "href": "https://api.spotify.com/v1/artists/3sgFRtyBnxXD5ESfmbK4dl"}, {"type": "artist", "name": "Lauren Bennett", "external_urls": {"spotify": "https://open.spotify.com/artist/2jLE4BoXHriQ96JagEtiDP"}, "id": "2jLE4BoXHriQ96JagEtiDP", "uri": "spotify:artist:2jLE4BoXHriQ96JagEtiDP", "href": "https://api.spotify.com/v1/artists/2jLE4BoXHriQ96JagEtiDP"}, {"type": "artist", "name": "GoonRock", "external_urls": {"spotify": "https://open.spotify.com/artist/53sIBaVjXQhfH89Vu6nEGh"}, "id": "53sIBaVjXQhfH89Vu6nEGh", "uri": "spotify:artist:53sIBaVjXQhfH89Vu6nEGh", "href": "https://api.spotify.com/v1/artists/53sIBaVjXQhfH89Vu6nEGh"}, {"type": "artist", "name": "DJ Enferno", "external_urls": {"spotify": "https://open.spotify.com/artist/2zWCuwPkxEubtioPl7EzGx"}, "id": "2zWCuwPkxEubtioPl7EzGx", "uri": "spotify:artist:2zWCuwPkxEubtioPl7EzGx", "href": "https://api.spotify.com/v1/artists/2zWCuwPkxEubtioPl7EzGx"}], "track_number": 1, "available_markets": ["AE", "AR", "AT", "BE", "BG", "BH", "BO", "BR", "CA", "CH", "CL", "CO", "CR", "CY", "CZ", "DE", "DK", "DO", "DZ", "EC", "EE", "EG", "ES", "FI", "FR", "GR", "GT", "HN", "HU", "ID", "IL", "IN", "IS", "IT", "JO", "JP", "KW", "LB", "LT", "LU", "LV", "MA", "MT", "MX", "MY", "NI", "NL", "NO", "OM", "PA", "PE", "PH", "PL", "PT", "PY", "QA", "RO", "SA", "SE", "SG", "SK", "SV", "TN", "TR", "US", "ZA"], "type": "track", "preview_url": null, "explicit": false, "external_urls": {"spotify": "https://open.spotify.com/track/1ns4Mv2zzbhElbSLMaO2QG"}, "id": "1ns4Mv2zzbhElbSLMaO2QG", "uri": "spotify:track:1ns4Mv2zzbhElbSLMaO2QG", "popularity": 28}], "previous": null, "href": "https://api.spotify.com/v1/search?query=artist%3ALMFAO+track%3AParty+Rock+Anthem&type=track&offset=0&limit=5", "limit": 5, "total": 33, "next": "https://api.spotify.com/v1/search?query=artist%3ALMFAO+track%3AParty+Rock+Anthem&type=track&offset=5&limit=5"}}