{"tracks": {"offset": 0, "items": [{"album": {"total_tracks": 17, "type": "album", "release_date": "2010-06-18", "href": "https://api.spotify.com/v1/albums/47BiFcV59TQi2s9SkBo2pb", "artists": [{"type": "artist", "name": "Eminem", "external_urls": {"spotify": "https://open.spotify.com/artist/7dGJo4pcD2V6oG8kP0tJRR"}, "id": "7dGJo4pcD2V6oG8kP0tJRR", "uri": "spotify:artist:7dGJo4pcD2V6oG8kP0tJRR", "href": "https://api.spotify.com/v1/artists/7dGJo4pcD2V6oG8kP0tJRR"}], "images": [{"width": 640, "url": "https://i.scdn.co/image/65fef75a3eeaf35d94f1d9e7553222c8d0194cb3", "height": 640}, {"width": 300, "url": "https://i.scdn.co/image/caa5fccf92fc878f79d4fd65cdf21e6610f2b13c", "height": 300}, {"width": 64, "url": "https://i.scdn.co/image/1d1c4edff040f2b1ae02d7ae97d7afa3e671f341", "height": 64}], "available_markets": ["AD", "AE", "AR", "AT", "AU", "BE", "BG", "BH", "BO", "BR", "CA", "CH", "CL", "CO", "CR", "CY", "CZ", "DE", "DK", "DO", "DZ", "EC", "EE", "EG", "ES", "FI", "FR", "GB", "GR", "GT", "HK", "HN", "HU", "ID", "IE", "IL", "IN", "IS", "IT", "JO", "JP", "KW", "LB", "LI", "LT", "LU", "LV", "MA", "MC", "MT", "MX", "MY", "NI", "NL", "NO", "NZ", "OM", "PA", "PE", "PH", "PL", "PT", "PY", "QA", "RO", "SA", "SE", "SG", "SK", "SV", "TH", "TN", "TR", "TW", "US", "UY", "VN", "ZA"], "album_type": "album", "release_date_precision": "day", "name": "Recovery", "external_urls": {"spotify": "https://open.spotify.com/album/47BiFcV59TQi2s9SkBo2pb"}, "id": "47BiFcV59TQi2s9SkBo2pb", "uri": "spotify:album:47BiFcV59TQi2s9SkBo2pb"}, "external_ids": {"isrc": "USUM71015397"}, "name": "Love The Way You Lie", "duration_ms": 263373, "is_local": false, "disc_number": 1, "href": "https://api.spotify.com/v1/tracks/15JINEqzVMv3SvJTAXAKED", "artists": [{"type": "artist", "name": "Eminem", "external_urls": {"spotify": "https://open.spotify.com/artist/7dGJo4pcD2V6oG8kP0tJRR"}, "id": "7dGJo4pcD2V6oG8kP0tJRR", "uri": "spotify:artist:7dGJo4pcD2V6oG8kP0tJRR", "href": "https://api.spotify.com/v1/artists/7dGJo4pcD2V6oG8kP0tJRR"}, {"type": "artist", "name": "Rihanna", "external_urls": {"spotify": "https://open.spotify.com/artist/5pKCCKE2ajJHZ9KAiaK11H"}, "id": "5pKCCKE2ajJHZ9KAiaK11H", "uri": "spotify:artist:5pKCCKE2ajJHZ9KAiaK11H", "href": "https://api.spotify.com/v1/artists/5pKCCKE2ajJHZ9KAiaK11H"}], "track_number": 15, "available_markets": ["AD", "AE", "AR", "AT", "AU", "BE", "BG", "BH", "BO", "BR", "CA", "CH", "CL", "CO", "CR", "CY", "CZ", "DE", "DK", "DO", "DZ", "EC", "EE", "EG", "ES", "FI", "FR", "GB", "GR", "GT", "HK", "HN", "HU", "ID", "IE", "IL", "IN", "IS", "IT", "JO", "JP", "KW", "LB", "LI", "LT", "LU", "LV", "MA", "MC", "MT", "MX", "MY", "NI", "NL", "NO", "NZ", "OM", "PA", "PE", "PH", "PL", "PT", "PY", "QA", "RO", "SA", "SE", "SG", "SK", "SV", "TH", "TN", "TR", "TW", "US", "UY", "VN", "ZA"], "type": "track", "preview_url": null, "explicit": true, "external_urls": {"spotify": "https://open.spotify.com/track/15JINEqzVMv3SvJTAXAKED"}, "id": "15JINEqzVMv3SvJTAXAKED", "uri": "spotify:track:15JINEqzVMv3SvJTAXAKED", "popularity": 81}, {"album": {"total_tracks": 17, "type": "album", "release_date": "2010-06-18", "href": "https://api.spotify.com/v1/albums/2bn6QpvG94QJkQTETzjTCs", "artists": [{"type": "artist", "name": "Eminem", "external_urls": {"spotify": "https://open.spotify.com/artist/7dGJo4pcD2V6oG8kP0tJRR"}, "id": "7dGJo4pcD2V6oG8kP0tJRR", "uri": "spotify:artist:7dGJo4pcD2V6oG8kP0tJRR", "href": "https://api.spotify.com/v1/artists/7dGJo4pcD2V6oG8kP0tJRR"}], "images": [{"width": 640, "url": "https://i.scdn.co/image/e4e362fd1e825737b3fa17e9890ed7b41dd225b3", "height": 640}, {"width": 300, "url": "https://i.scdn.co/image/59979c964756f5fc293ba2e4301cd74a5fad1736", "height": 300}, {"width": 64, "url": "https://i.scdn.co/image/41ec1bba2af9c7194414f2fff2ddd93b4492e206", "height": 64}], "available_markets": ["CA", "JP", "US"], "album_type": "album", "release_date_precision": "day", "name": "Recovery", "external_urls": {"spotify": "https://open.spotify.com/album/2bn6QpvG94QJkQTETzjTCs"}, "id": "2bn6QpvG94QJkQTETzjTCs", "uri": "spotify:album:2bn6QpvG94QJkQTETzjTCs"}, "external_ids": {"isrc": "USUM71015443"}, "name": "Love The Way You Lie", "duration_ms": 263373, "is_local": false, "disc_number": 1, "href": "https://api.spotify.com/v1/tracks/4k5Rb51qsUSMFg6oFdVC48", "artists": [{"type": "artist", "name": "Eminem", "external_urls": {"spotify": "https://open.spotify.com/artist/7dGJo4pcD2V6oG8kP0tJRR"}, "id": "7dGJo4pcD2V6oG8kP0tJRR", "uri": "spotify:artist:7dGJo4pcD2V6oG8kP0tJRR", "href": "https://api.spotify.com/v1/artists/7dGJo4pcD2V6oG8kP0tJRR"}, {"type": "artist", "name": "Rihanna", "external_urls": {"spotify": "https://open.spotify.com/artist/5pKCCKE2ajJHZ9KAiaK11H"}, "id": "5pKCCKE2ajJHZ9KAiaK11H", "uri": "spotify:artist:5pKCCKE2ajJHZ9KAiaK11H", "href": "https://api.spotify.com/v1/artists/5pKCCKE2ajJHZ9KAiaK11H"}], "track_number": 15, "available_markets": ["CA", "JP", "US"], "type": "track", "preview_url": null, "explicit": false, "external_urls": {"spotify": "https://open.spotify.com/track/4k5Rb51qsUSMFg6oFdVC48"}, "id": "4k5Rb51qsUSMFg6oFdVC48", "uri": "spotify:track:4k5Rb51qsUSMFg6oFdVC48", "popularity": 42}, {"album": {"total_tracks": 25, "type": "album", "release_date": "2011-03-04", "href": "https://api.spotify.com/v1/albums/3wzyRxMa8QxXDENzxpXZTO", "artists": [{"type": "artist", "name": "Various Artists", "external_urls": {"spotify": "https://open.spotify.com/artist/0LyfQWJT6nXafLPZqxe9Of"}, "id": "0LyfQWJT6nXafLPZqxe9Of", "uri": "spotify:artist:0LyfQWJT6nXafLPZqxe9Of", "href": "https://api.spotify.com/v1/artists/0LyfQWJT6nXafLPZqxe9Of"}], "images": [{"width": 640, "url": "https://i.scdn.co/image/ab67616d0000b273685f3d77751901643aa1f80f", "height": 640}, {"width": 300, "url": "https://i.scdn.co/image/ab67616d00001e02685f3d77751901643aa1f80f", "height": 300}, {"width": 64, "url": "https://i.scdn.co/image/ab67616d00004851685f3d77751901643aa1f80f", "height": 64}], "available_markets": ["AD", "AE", "AR", "AT", "AU", "BE", "BG", "BH", "BO", "BR", "CA", "CH", "CL", "CO", "CR", "CY", "CZ", "DE", "DK", "DO", "DZ", "EC", "EE", "EG", "ES", "FI", "FR", "GB", "GR", "GT", "HK", "HN", "HU", "ID", "IE", "IL", "IN", "IS", "IT", "JO", "JP", "KW", "LB", "LI", "LT", "LU", "LV", "MA", "MC", "MT", "MX", "MY", "NI", "NL", "NO", "NZ", "OM", "PA", "PE", "PH", "PL", "PS", "PT", "PY", "QA", "RO", "SA", "SE", "SG", "SK", "SV", "TH", "TN", "TR", "TW", "US", "UY", "VN", "ZA"], "album_type": "compilation", "release_date_precision": "day", "name": "Ultimate Pop Hits 2010", "external_urls": {"spotify": "https://open.spotify.com/album/3wzyRxMa8QxXDENzxpXZTO"}, "id": "3wzyRxMa8QxXDENzxpXZTO", "uri": "spotify:album:3wzyRxMa8QxXDENzxpXZTO"}, "external_ids": {"isrc": "TCAAW1149319"}, "name": "Love The Way You Lie", "duration_ms": 260964, "is_local": false, "disc_number": 1, "href": "https://api.spotify.com/v1/tracks/7whTetU9uIfLomUMqr6gNC", "artists": [{"type": "artist", "name": "Made Famous By Eminem & Rihanna", "external_urls": {"spotify": "https://open.spotify.com/artist/1kmA3iIroiYXIQ3UY4sBhx"}, "id": "1kmA3iIroiYXIQ3UY4sBhx", "uri": "spotify:artist:1kmA3iIroiYXIQ3UY4sBhx", "href": "https://api.spotify.com/v1/artists/1kmA3iIroiYXIQ3UY4sBhx"}], "track_number": 21, "available_markets": ["AD", "AE", "AR", "AT", "AU", "BE", "BG", "BH", "BO", "BR", "CA", "CH", "CL", "CO", "CR", "CY", "CZ", "DE", "DK", "DO", "DZ", "EC", "EE", "EG", "ES", "FI", "FR", "GB", "GR", "GT", "HK", "HN", "HU", "ID", "IE", "IL", "IN", "IS", "IT", "JO", "JP", "KW", "LB", "LI", "LT", "LU", "LV", "MA", "MC", "MT", "MX", "MY", "NI", "NL", "NO", "NZ", "OM", "PA", "PE", "PH", "PL", "PS", "PT", "PY", "QA", "RO", "SA", "SE", "SG", "SK", "SV", "TH", "TN", "TR", "TW", "US", "UY", "VN", "ZA"], "type": "track", "preview_url": "https://p.scdn.co/mp3-preview/7a10fb23288965b683412c1fad19a9d6705b1702?cid=0c947b9d3f7547e28aee080174c283c9", "explicit": false, "external_urls": {"spotify": "https://open.spotify.com/track/7whTetU9uIfLomUMqr6gNC"}, "id": "7whTetU9uIfLomUMqr6gNC", "uri": "spotify:track:7whTetU9uIfLomUMqr6gNC", "popularity": 19}, {"album": {"total_tracks": 1, "type": "album", "release_date": "2010-09-14", "href": "https://api.spotify.com/v1/albums/5NOXAFZHx2JP9HDDLzjULv", "artists": [{"type": "artist", "name": "Dj Tobe", "external_urls": {"spotify": "https://open.spotify.com/artist/273qBJ8lWIZxIGa45nmGJl"}, "id": "273qBJ8lWIZxIGa45nmGJl", "uri": "spotify:artist:273qBJ8lWIZxIGa45nmGJl", "href": "https://api.spotify.com/v1/artists/273qBJ8lWIZxIGa45nmGJl"}], "images": [{"width": 640, "url": "https://i.scdn.co/image/ab67616d0000b2730ba53af8861a7189fb1a74b9", "height": 640}, {"width": 300, "url": "https://i.scdn.co/image/ab67616d00001e020ba53af8861a7189fb1a74b9", "height": 300}, {"width": 64, "url": "https://i.scdn.co/image/ab67616d000048510ba53af8861a7189fb1a74b9", "height": 64}], "available_markets": ["AD", "AE", "AR", "AT", "AU", "BE", "BG", "BH", "BO", "BR", "CA", "CH", "CL", "CO", "CR", "CY", "CZ", "DE", "DK", "DO", "DZ", "EC", "EE", "EG", "ES", "FI", "FR", "GB", "GR", "GT", "HK", "HN", "HU", "ID", "IE", "IL", "IN", "IS", "IT", "JO", "JP", "KW", "LB", "LI", "LT", "LU", "LV", "MA", "MC", "MT", "MX", "MY", "NI", "NL", "NO", "NZ", "OM", "PA", "PE", "PH", "PL", "PS", "PT", "PY", "QA", "RO", "SA", "SE", "SG", "SK", "SV", "TH", "TN", "TR", "TW", "US", "UY", "VN", "ZA"], "album_type": "single", "release_date_precision": "day", "name": "Love the way you lie", "external_urls": {"spotify": "https://open.spotify.com/album/5NOXAFZHx2JP9HDDLzjULv"}, "id": "5NOXAFZHx2JP9HDDLzjULv", "uri": "spotify:album:5NOXAFZHx2JP9HDDLzjULv"}, "external_ids": {"isrc": "ARG991008021"}, "name": "Love the way you lie", "duration_ms": 290693, "is_local": false, "disc_number": 1, "href": "https://api.spotify.com/v1/tracks/3sfvLk4sRjHLqDYAFGkNl4", "artists": [{"type": "artist", "name": "Made famous by Eminem", "external_urls": {"spotify": "https://open.spotify.com/artist/2mOgJyJzA4bxXT5DIMhCII"}, "id": "2mOgJyJzA4bxXT5DIMhCII", "uri": "spotify:artist:2mOgJyJzA4bxXT5DIMhCII", "href": "https://api.spotify.com/v1/artists/2mOgJyJzA4bxXT5DIMhCII"}], "track_number": 1, "available_markets": ["AD", "AE", "AR", "AT", "AU", "BE", "BG", "BH", "BO", "BR", "CA", "CH", "CL", "CO", "CR", "CY", "CZ", "DE", "DK", "DO", "DZ", "EC", "EE", "EG", "ES", "FI", "FR", "GB", "GR", "GT", "HK", "HN", "HU", "ID", "IE", "IL", "IN", "IS", "IT", "JO", "JP", "KW", "LB", "LI", "LT", "LU", "LV", "MA", "MC", "MT", "MX", "MY", "NI", "NL", "NO", "NZ", "OM", "PA", "PE", "PH", "PL", "PS", "PT", "PY", "QA", "RO", "SA", "SE", "SG", "SK", "SV", "TH", "TN", "TR", "TW", "US", "UY", "VN", "ZA"], "type": "track", "preview_url": "https://p.scdn.co/mp3-preview/34c0282353b437724dab03f8ae07ec9e1c9f68a0?cid=0c947b9d3f7547e28aee080174c283c9", "explicit": false, "external_urls": {"spotify": "https://open.spotify.com/track/3sfvLk4sRjHLqDYAFGkNl4"}, "id": "3sfvLk4sRjHLqDYAFGkNl4", "uri": "spotify:track:3sfvLk4sRjHLqDYAFGkNl4", "popularity": 0}, {"album": {"total_tracks": 14, "type": "album", "release_date": "2010-12-09", "href": "https://api.spotify.com/v1/albums/5T8l755XHDbWkUixRiEkDl", "artists": [{"type": "artist", "name": "Mc Lagrot", "external_urls": {"spotify": "https://open.spotify.com/artist/5qVFYytU9NzfhidwcFDsSm"}, "id": "5qVFYytU9NzfhidwcFDsSm", "uri": "spotify:artist:5qVFYytU9NzfhidwcFDsSm", "href": "https://api.spotify.com/v1/artists/5qVFYytU9NzfhidwcFDsSm"}], "images": [{"width": 640, "url": "https://i.scdn.co/image/ab67616d0000b273e935d3b4ff3d4d24dc7615bd", "height": 640}, {"width": 300, "url": "https://i.scdn.co/image/ab67616d00001e02e935d3b4ff3d4d24dc7615bd", "height": 300}, {"width": 64, "url": "https://i.scdn.co/image/ab67616d00004851e935d3b4ff3d4d24dc7615bd", "height": 64}], "available_markets": ["AD", "AE", "AR", "AT", "AU", "BE", "BG", "BH", "BO", "BR", "CA", "CH", "CL", "CO", "CR", "CY", "CZ", "DE", "DK", "DO", "DZ", "EC", "EE", "EG", "ES", "FI", "FR", "GB", "GR", "GT", "HK", "HN", "HU", "ID", "IE", "IL", "IN", "IS", "IT", "JO", "JP", "KW", "LB", "LI", "LT", "LU", "LV", "MA", "MC", "MT", "MX", "MY", "NI", "NL", "NO", "NZ", "OM", "PA", "PE", "PH", "PL", "PS", "PT", "PY", "QA", "RO", "SA", "SE", "SG", "SK", "SV", "TH", "TN", "TR", "TW", "US", "UY", "VN", "ZA"], "album_type": "album", "release_date_precision": "day", "name": "Hits at now karaoke", "external_urls": {"spotify": "https://open.spotify.com/album/5T8l755XHDbWkUixRiEkDl"}, "id": "5T8l755XHDbWkUixRiEkDl", "uri": "spotify:album:5T8l755XHDbWkUixRiEkDl"}, "external_ids": {"isrc": "ARG991010346"}, "name": "Love the way you lie", "duration_ms": 302040, "is_local": false, "disc_number": 1, "href": "https://api.spotify.com/v1/tracks/6qACF1GaARr8pKszNkIKVb", "artists": [{"type": "artist", "name": "Made famous by Eminem", "external_urls": {"spotify": "https://open.spotify.com/artist/2mOgJyJzA4bxXT5DIMhCII"}, "id": "2mOgJyJzA4bxXT5DIMhCII", "uri": "spotify:artist:2mOgJyJzA4bxXT5DIMhCII", "href": "https://api.spotify.com/v1/artists/2mOgJyJzA4bxXT5DIMhCII"}], "track_number": 1, "available_markets": ["AD", "AE", "AR", "AT", "AU", "BE", "BG", "BH", "BO", "BR", "CA", "CH", "CL", "CO", "CR", "CY", "CZ", "DE", "DK", "DO", "DZ", "EC", "EE", "EG", "ES", "FI", "FR", "GB", "GR", "GT", "HK", "HN", "HU", "ID", "IE", "IL", "IN", "IS", "IT", "JO", "JP", "KW", "LB", "LI", "LT", "LU", "LV", "MA", "MC", "MT", "MX", "MY", "NI", "NL", "NO", "NZ", "OM", "PA", "PE", "PH", "PL", "PS", "PT", "PY", "QA", "RO", "SA", "SE", "SG", "SK", "SV", "TH", "TN", "TR", "TW", "US", "UY", "VN", "ZA"], "type": "track", "preview_url": "https://p.scdn.co/mp3-preview/ff860ab59eb2d7230d6a93b9a9557c21e961ba97?cid=0c947b9d3f7547e28aee080174c283c9", "explicit": false, "external_urls": {"spotify": "https://open.spotify.com/track/6qACF1GaARr8pKszNkIKVb"}, "id": "6qACF1GaARr8pKszNkIKVb", "uri": "spotify:track:6qACF1GaARr8pKszNkIKVb", "popularity": 0}], "previous": null, "href": "https://api.spotify.com/v1/search?query=artist%3AEminem+track%3ALove+The+Way+You+Lie&type=track&offset=0&limit=5", "limit": 5, "total": 6, "next": "https://api.spotify.com/v1/search?query=artist%3AEminem+track%3ALove+The+Way+You+Lie&type=track&offset=5&limit=5"}}