{"tracks": {"offset": 0, "items": [{"album": {"total_tracks": 12, "type": "album", "release_date": "2011-01-01", "href": "https://api.spotify.com/v1/albums/1HjSyGjmLNjRAKgT9t1cna", "artists": [{"type": "artist", "name": "Gotye", "external_urls": {"spotify": "https://open.spotify.com/artist/2AsusXITU8P25dlRNhcAbG"}, "id": "2AsusXITU8P25dlRNhcAbG", "uri": "spotify:artist:2AsusXITU8P25dlRNhcAbG", "href": "https://api.spotify.com/v1/artists/2AsusXITU8P25dlRNhcAbG"}], "images": [{"width": 640, "url": "https://i.scdn.co/image/ab67616d0000b273751061742397a92ff8e9c56a", "height": 640}, {"width": 300, "url": "https://i.scdn.co/image/ab67616d00001e02751061742397a92ff8e9c56a", "height": 300}, {"width": 64, "url": "https://i.scdn.co/image/ab67616d00004851751061742397a92ff8e9c56a", "height": 64}], "available_markets": ["CA", "CR", "MX", "US"], "album_type": "album", "release_date_precision": "day", "name": "Making Mirrors", "external_urls": {"spotify": "https://open.spotify.com/album/1HjSyGjmLNjRAKgT9t1cna"}, "id": "1HjSyGjmLNjRAKgT9t1cna", "uri": "spotify:album:1HjSyGjmLNjRAKgT9t1cna"}, "external_ids": {"isrc": "AUZS21100040"}, "name": "Somebody That I Used To Know", "duration_ms": 244973, "is_local": false, "disc_number": 1, "href": "https://api.spotify.com/v1/tracks/4wCmqSrbyCgxEXROQE6vtV", "artists": [{"type": "artist", "name": "Gotye", "external_urls": {"spotify": "https://open.spotify.com/artist/2AsusXITU8P25dlRNhcAbG"}, "id": "2AsusXITU8P25dlRNhcAbG", "uri": "spotify:artist:2AsusXITU8P25dlRNhcAbG", "href": "https://api.spotify.com/v1/artists/2AsusXITU8P25dlRNhcAbG"}, {"type": "artist", "name": "Kimbra", "external_urls": {"spotify": "https://open.spotify.com/artist/6hk7Yq1DU9QcCCrz9uc0Ti"}, "id": "6hk7Yq1DU9QcCCrz9uc0Ti", "uri": "spotify:artist:6hk7Yq1DU9QcCCrz9uc0Ti", "href": "https://api.spotify.com/v1/artists/6hk7Yq1DU9QcCCrz9uc0Ti"}], "track_number": 3, "available_markets": ["CA", "CR", "MX", "US"], "type": "track", "preview_url": null, "explicit": false, "external_urls": {"spotify": "https://open.spotify.com/track/4wCmqSrbyCgxEXROQE6vtV"}, "id": "4wCmqSrbyCgxEXROQE6vtV", "uri": "spotify:track:4wCmqSrbyCgxEXROQE6vtV", "popularity": 75}, {"album": {"total_tracks": 10, "type": "album", "release_date": "2012-01-01", "href": "https://api.spotify.com/v1/albums/4DeBuxcFGZxupZ9uUBgxp9", "artists": [{"type": "artist", "name": "Gotye", "external_urls": {"spotify": "https://open.spotify.com/artist/2AsusXITU8P25dlRNhcAbG"}, "id": "2AsusXITU8P25dlRNhcAbG", "uri": "spotify:artist:2AsusXITU8P25dlRNhcAbG", "href": "https://api.spotify.com/v1/artists/2AsusXITU8P25dlRNhcAbG"}], "images": [{"width": 640, "url": "https://i.scdn.co/image/ab67616d0000b27317879bb7327b5d1df09d4fff", "height": 640}, {"width": 300, "url": "https://i.scdn.co/image/ab67616d00001e0217879bb7327b5d1df09d4fff", "height": 300}, {"width": 64, "url": "https://i.scdn.co/image/ab67616d0000485117879bb7327b5d1df09d4fff", "height": 64}], "available_markets": ["AE", "AR", "BG", "BH", "BO", "BR", "CA", "CL", "CO", "CR", "CY", "DO", "EC", "EE", "EG", "ES", "FI", "FR", "GB", "GR", "GT", "HN", "HU", "ID", "IE", "IL", "IN", "IS", "JO", "KW", "LB", "LT", "LV", "MT", "MX", "NI", "NO", "OM", "PA", "PE", "PH", "PL", "PT", "PY", "QA", "RO", "SA", "SE", "SG", "SV", "TN", "TR", "US", "ZA"], "album_type": "single", "release_date_precision": "day", "name": "Somebody That I Used To Know (Remixes)", "external_urls": {"spotify": "https://open.spotify.com/album/4DeBuxcFGZxupZ9uUBgxp9"}, "id": "4DeBuxcFGZxupZ9uUBgxp9", "uri": "spotify:album:4DeBuxcFGZxupZ9uUBgxp9"}, "external_ids": {"isrc": "AUZS21200076"}, "name": "Somebody That I Used To Know - 4FRNT Remix", "duration_ms": 318052, "is_local": false, "disc_number": 1, "href": "https://api.spotify.com/v1/tracks/2EDJkuEd5tvxSAPiXCHACe", "artists": [{"type": "artist", "name": "Gotye", "external_urls": {"spotify": "https://open.spotify.com/artist/2AsusXITU8P25dlRNhcAbG"}, "id": "2AsusXITU8P25dlRNhcAbG", "uri": "spotify:artist:2AsusXITU8P25dlRNhcAbG", "href": "https://api.spotify.com/v1/artists/2AsusXITU8P25dlRNhcAbG"}, {"type": "artist", "name": "Kimbra", "external_urls": {"spotify": "https://open.spotify.com/artist/6hk7Yq1DU9QcCCrz9uc0Ti"}, "id": "6hk7Yq1DU9QcCCrz9uc0Ti", "uri": "spotify:artist:6hk7Yq1DU9QcCCrz9uc0Ti", "href": "https://api.spotify.com/v1/artists/6hk7Yq1DU9QcCCrz9uc0Ti"}, {"type": "artist", "name": "4FRNT", "external_urls": {"spotify": "https://open.spotify.com/artist/1S8wMSqZTtMPWdwEnqCci0"}, "id": "1S8wMSqZTtMPWdwEnqCci0", "uri": "spotify:artist:1S8wMSqZTtMPWdwEnqCci0", "href": "https://api.spotify.com/v1/artists/1S8wMSqZTtMPWdwEnqCci0"}], "track_number": 5, "available_markets": ["AE", "AR", "BG", "BH", "BO", "BR", "CA", "CL", "CO", "CR", "CY", "DO", "EC", "EE", "EG", "ES", "FI", "FR", "GB", "GR", "GT", "HN", "HU", "ID", "IE", "IL", "IN", "IS", "JO", "KW", "LB", "LT", "LV", "MT", "MX", "NI", "NO", "OM", "PA", "PE", "PH", "PL", "PT", "PY", "QA", "RO", "SA", "SE", "SG", "SV", "TN", "TR", "US", "ZA"], "type": "track", "preview_url": null, "explicit": false, "external_urls": {"spotify": "https://open.spotify.com/track/2EDJkuEd5tvxSAPiXCHACe"}, "id": "2EDJkuEd5tvxSAPiXCHACe", "uri": "spotify:track:2EDJkuEd5tvxSAPiXCHACe", "popularity": 48}, {"album": {"total_tracks": 1, "type": "album", "release_date": "2012-01-01", "href": "https://api.spotify.com/v1/albums/515vCYHyqghzFEdRRhYWZn", "artists": [{"type": "artist", "name": "Gotye", "external_urls": {"spotify": "https://open.spotify.com/artist/2AsusXITU8P25dlRNhcAbG"}, "id": "2AsusXITU8P25dlRNhcAbG", "uri": "spotify:artist:2AsusXITU8P25dlRNhcAbG", "href": "https://api.spotify.com/v1/artists/2AsusXITU8P25dlRNhcAbG"}], "images": [{"width": 640, "url": "https://i.scdn.co/image/ab67616d0000b2735d2870bb45c17fe589fab3bc", "height": 640}, {"width": 300, "url": "https://i.scdn.co/image/ab67616d00001e025d2870bb45c17fe589fab3bc", "height": 300}, {"width": 64, "url": "https://i.scdn.co/image/ab67616d000048515d2870bb45c17fe589fab3bc", "height": 64}], "available_markets": ["CA", "CR", "US"], "album_type": "single", "release_date_precision": "day", "name": "Somebody That I Used To Know (Ti\u00ebsto Remix)", "external_urls": {"spotify": "https://open.spotify.com/album/515vCYHyqghzFEdRRhYWZn"}, "id": "515vCYHyqghzFEdRRhYWZn", "uri": "spotify:album:515vCYHyqghzFEdRRhYWZn"}, "external_ids": {"isrc": "AUZS21200072"}, "name": "Somebody That I Used To Know - Ti\u00ebsto Remix", "duration_ms": 273493, "is_local": false, "disc_number": 1, "href": "https://api.spotify.com/v1/tracks/0RtMRbaqeadQFvlYxcAczv", "artists": [{"type": "artist", "name": "Gotye", "external_urls": {"spotify": "https://open.spotify.com/artist/2AsusXITU8P25dlRNhcAbG"}, "id": "2AsusXITU8P25dlRNhcAbG", "uri": "spotify:artist:2AsusXITU8P25dlRNhcAbG", "href": "https://api.spotify.com/v1/artists/2AsusXITU8P25dlRNhcAbG"}, {"type": "artist", "name": "Kimbra", "external_urls": {"spotify": "https://open.spotify.com/artist/6hk7Yq1DU9QcCCrz9uc0Ti"}, "id": "6hk7Yq1DU9QcCCrz9uc0Ti", "uri": "spotify:artist:6hk7Yq1DU9QcCCrz9uc0Ti", "href": "https://api.spotify.com/v1/artists/6hk7Yq1DU9QcCCrz9uc0Ti"}, {"type": "artist", "name": "Ti\u00ebsto", "external_urls": {"spotify": "https://open.spotify.com/artist/2o5jDhtHVPhrJdv3cEQ99Z"}, "id": "2o5jDhtHVPhrJdv3cEQ99Z", "uri": "spotify:artist:2o5jDhtHVPhrJdv3cEQ99Z", "href": "https://api.spotify.com/v1/artists/2o5jDhtHVPhrJdv3cEQ99Z"}], "track_number": 1, "available_markets": ["CA", "CR", "US"], "type": "track", "preview_url": null, "explicit": false, "external_urls": {"spotify": "https://open.spotify.com/track/0RtMRbaqeadQFvlYxcAczv"}, "id": "0RtMRbaqeadQFvlYxcAczv", "uri": "spotify:track:0RtMRbaqeadQFvlYxcAczv", "popularity": 36}, {"album": {"total_tracks": 10, "type": "album", "release_date": "2012-01-01", "href": "https://api.spotify.com/v1/albums/4DeBuxcFGZxupZ9uUBgxp9", "artists": [{"type": "artist", "name": "Gotye", "external_urls": {"spotify": "https://open.spotify.com/artist/2AsusXITU8P25dlRNhcAbG"}, "id": "2AsusXITU8P25dlRNhcAbG", "uri": "spotify:artist:2AsusXITU8P25dlRNhcAbG", "href": "https://api.spotify.com/v1/artists/2AsusXITU8P25dlRNhcAbG"}], "images": [{"width": 640, "url": "https://i.scdn.co/image/ab67616d0000b27317879bb7327b5d1df09d4fff", "height": 640}, {"width": 300, "url": "https://i.scdn.co/image/ab67616d00001e0217879bb7327b5d1df09d4fff", "height": 300}, {"width": 64, "url": "https://i.scdn.co/image/ab67616d0000485117879bb7327b5d1df09d4fff", "height": 64}], "available_markets": ["AE", "AR", "BG", "BH", "BO", "BR", "CA", "CL", "CO", "CR", "CY", "DO", "EC", "EE", "EG", "ES", "FI", "FR", "GB", "GR", "GT", "HN", "HU", "ID", "IE", "IL", "IN", "IS", "JO", "KW", "LB", "LT", "LV", "MT", "MX", "NI", "NO", "OM", "PA", "PE", "PH", "PL", "PT", "PY", "QA", "RO", "SA", "SE", "SG", "SV", "TN", "TR", "US", "ZA"], "album_type": "single", "release_date_precision": "day", "name": "Somebody That I Used To Know (Remixes)", "external_urls": {"spotify": "https://open.spotify.com/album/4DeBuxcFGZxupZ9uUBgxp9"}, "id": "4DeBuxcFGZxupZ9uUBgxp9", "uri": "spotify:album:4DeBuxcFGZxupZ9uUBgxp9"}, "external_ids": {"isrc": "AUZS21200074"}, "name": "Somebody That I Used To Know - Miami Nights 1984 Remix", "duration_ms": 327061, "is_local": false, "disc_number": 1, "href": "https://api.spotify.com/v1/tracks/0KnPm2TRs8XIDNouoLKfdX", "artists": [{"type": "artist", "name": "Gotye", "external_urls": {"spotify": "https://open.spotify.com/artist/2AsusXITU8P25dlRNhcAbG"}, "id": "2AsusXITU8P25dlRNhcAbG", "uri": "spotify:artist:2AsusXITU8P25dlRNhcAbG", "href": "https://api.spotify.com/v1/artists/2AsusXITU8P25dlRNhcAbG"}, {"type": "artist", "name": "Kimbra", "external_urls": {"spotify": "https://open.spotify.com/artist/6hk7Yq1DU9QcCCrz9uc0Ti"}, "id": "6hk7Yq1DU9QcCCrz9uc0Ti", "uri": "spotify:artist:6hk7Yq1DU9QcCCrz9uc0Ti", "href": "https://api.spotify.com/v1/artists/6hk7Yq1DU9QcCCrz9uc0Ti"}, {"type": "artist", "name": "Miami Nights 1984", "external_urls": {"spotify": "https://open.spotify.com/artist/18iQQOuyGlHunPVzmoLY20"}, "id": "18iQQOuyGlHunPVzmoLY20", "uri": "spotify:artist:18iQQOuyGlHunPVzmoLY20", "href": "https://api.spotify.com/v1/artists/18iQQOuyGlHunPVzmoLY20"}], "track_number": 9, "available_markets": ["AE", "AR", "BG", "BH", "BO", "BR", "CA", "CL", "CO", "CR", "CY", "DO", "EC", "EE", "EG", "ES", "FI", "FR", "GB", "GR", "GT", "HN", "HU", "ID", "IE", "IL", "IN", "IS", "JO", "KW", "LB", "LT", "LV", "MT", "MX", "NI", "NO", "OM", "PA", "PE", "PH", "PL", "PT", "PY", "QA", "RO", "SA", "SE", "SG", "SV", "TN", "TR", "US", "ZA"], "type": "track", "preview_url": null, "explicit": false, "external_urls": {"spotify": "https://open.spotify.com/track/0KnPm2TRs8XIDNouoLKfdX"}, "id": "0KnPm2TRs8XIDNouoLKfdX", "uri": "spotify:track:0KnPm2TRs8XIDNouoLKfdX", "popularity": 34}, {"album": {"total_tracks": 10, "type": "album", "release_date": "2012-01-01", "href": "https://api.spotify.com/v1/albums/4DeBuxcFGZxupZ9uUBgxp9", "artists": [{"type": "artist", "name": "Gotye", "external_urls": {"spotify": "https://open.spotify.com/artist/2AsusXITU8P25dlRNhcAbG"}, "id": "2AsusXITU8P25dlRNhcAbG", "uri": "spotify:artist:2AsusXITU8P25dlRNhcAbG", "href": "https://api.spotify.com/v1/artists/2AsusXITU8P25dlRNhcAbG"}], "images": [{"width": 640, "url": "https://i.scdn.co/image/ab67616d0000b27317879bb7327b5d1df09d4fff", "height": 640}, {"width": 300, "url": "https://i.scdn.co/image/ab67616d00001e0217879bb7327b5d1df09d4fff", "height": 300}, {"width": 64, "url": "https://i.scdn.co/image/ab67616d0000485117879bb7327b5d1df09d4fff", "height": 64}], "available_markets": ["AE", "AR", "BG", "BH", "BO", "BR", "CA", "CL", "CO", "CR", "CY", "DO", "EC", "EE", "EG", "ES", "FI", "FR", "GB", "GR", "GT", "HN", "HU", "ID", "IE", "IL", "IN", "IS", "JO", "KW", "LB", "LT", "LV", "MT", "MX", "NI", "NO", "OM", "PA", "PE", "PH", "PL", "PT", "PY", "QA", "RO", "SA", "SE", "SG", "SV", "TN", "TR", "US", "ZA"], "album_type": "single", "release_date_precision": "day", "name": "Somebody That I Used To Know (Remixes)", "external_urls": {"spotify": "https://open.spotify.com/album/4DeBuxcFGZxupZ9uUBgxp9"}, "id": "4DeBuxcFGZxupZ9uUBgxp9", "uri": "spotify:album:4DeBuxcFGZxupZ9uUBgxp9"}, "external_ids": {"isrc": "AUZS21200072"}, "name": "Somebody That I Used To Know - Ti\u00ebsto Remix", "duration_ms": 273095, "is_local": false, "disc_number": 1, "href": "https://api.spotify.com/v1/tracks/0pKTw4qlPTgZn0anwytcG6", "artists": [{"type": "artist", "name": "Gotye", "external_urls": {"spotify": "https://open.spotify.com/artist/2AsusXITU8P25dlRNhcAbG"}, "id": "2AsusXITU8P25dlRNhcAbG", "uri": "spotify:artist:2AsusXITU8P25dlRNhcAbG", "href": "https://api.spotify.com/v1/artists/2AsusXITU8P25dlRNhcAbG"}, {"type": "artist", "name": "Kimbra", "external_urls": {"spotify": "https://open.spotify.com/artist/6hk7Yq1DU9QcCCrz9uc0Ti"}, "id": "6hk7Yq1DU9QcCCrz9uc0Ti", "uri": "spotify:artist:6hk7Yq1DU9QcCCrz9uc0Ti", "href": "https://api.spotify.com/v1/artists/6hk7Yq1DU9QcCCrz9uc0Ti"}, {"type": "artist", "name": "Ti\u00ebsto", "external_urls": {"spotify": "https://open.spotify.com/artist/2o5jDhtHVPhrJdv3cEQ99Z"}, "id": "2o5jDhtHVPhrJdv3cEQ99Z", "uri": "spotify:artist:2o5jDhtHVPhrJdv3cEQ99Z", "href": "https://api.spotify.com/v1/artists/2o5jDhtHVPhrJdv3cEQ99Z"}], "track_number": 6, "available_markets": ["AE", "AR", "BG", "BH", "BO", "BR", "CA", "CL", "CO", "CR", "CY", "DO", "EC", "EE", "EG", "ES", "FI", "FR", "GB", "GR", "GT", "HN", "HU", "ID", "IE", "IL", "IN", "IS", "JO", "KW", "LB", "LT", "LV", "MT", "MX", "NI", "NO", "OM", "PA", "PE", "PH", "PL", "PT", "PY", "QA", "RO", "SA", "SE", "SG", "SV", "TN", "TR", "US", "ZA"], "type": "track", "preview_url": null, "explicit": false, "external_urls": {"spotify": "https://open.spotify.com/track/0pKTw4qlPTgZn0anwytcG6"}, "id": "0pKTw4qlPTgZn0anwytcG6", "uri": "spotify:track:0pKTw4qlPTgZn0anwytcG6", "popularity": 41}], "previous": null, "href": "https://api.spotify.com/v1/search?query=artist%3AGotye+track%3ASomebody+That+I+Used+To+Know&type=track&offset=0&limit=5", "limit": 5, "total": 22, "next": "https://api.spotify.com/v1/search?query=artist%3AGotye+track%3ASomebody+That+I+Used+To+Know&type=track&offset=5&limit=5"}}