{"tracks": {"offset": 0, "items": [{"album": {"total_tracks": 15, "type": "album", "release_date": "2014-01-01", "href": "https://api.spotify.com/v1/albums/2bbhW5ifCwOYM8DMkqoYBF", "artists": [{"type": "artist", "name": "OneRepublic", "external_urls": {"spotify": "https://open.spotify.com/artist/5Pwc4xIPtQLFEnJriah9YJ"}, "id": "5Pwc4xIPtQLFEnJriah9YJ", "uri": "spotify:artist:5Pwc4xIPtQLFEnJriah9YJ", "href": "https://api.spotify.com/v1/artists/5Pwc4xIPtQLFEnJriah9YJ"}], "images": [{"width": 640, "url": "https://i.scdn.co/image/0d27c5537e9d4856b2aef8bc7dfbeb3be9dd9520", "height": 640}, {"width": 300, "url": "https://i.scdn.co/image/d3a095928b34e77fc5dbc83b32693585098d3f65", "height": 300}, {"width": 64, "url": "https://i.scdn.co/image/be2d882338bd35a134ee7a8fe5f7bf2c36c02cf8", "height": 64}], "available_markets": ["CA", "MX", "US"], "album_type": "album", "release_date_precision": "day", "name": "Native", "external_urls": {"spotify": "https://open.spotify.com/album/2bbhW5ifCwOYM8DMkqoYBF"}, "id": "2bbhW5ifCwOYM8DMkqoYBF", "uri": "spotify:album:2bbhW5ifCwOYM8DMkqoYBF"}, "external_ids": {"isrc": "USUM71301306"}, "name": "Counting Stars", "duration_ms": 257839, "is_local": false, "disc_number": 1, "href": "https://api.spotify.com/v1/tracks/6sy3LkhNFjJWlaeSMNwQ62", "artists": [{"type": "artist", "name": "OneRepublic", "external_urls": {"spotify": "https://open.spotify.com/artist/5Pwc4xIPtQLFEnJriah9YJ"}, "id": "5Pwc4xIPtQLFEnJriah9YJ", "uri": "spotify:artist:5Pwc4xIPtQLFEnJriah9YJ", "href": "https://api.spotify.com/v1/artists/5Pwc4xIPtQLFEnJriah9YJ"}], "track_number": 1, "available_markets": ["CA", "MX", "US"], "type": "track", "preview_url": null, "explicit": false, "external_urls": {"spotify": "https://open.spotify.com/track/6sy3LkhNFjJWlaeSMNwQ62"}, "id": "6sy3LkhNFjJWlaeSMNwQ62", "uri": "spotify:track:6sy3LkhNFjJWlaeSMNwQ62", "popularity": 74}, {"album": {"total_tracks": 20, "type": "album", "release_date": "2019-02-01", "href": "https://api.spotify.com/v1/albums/2D2q1WWvtcsl7EwVS9DA88", "artists": [{"type": "artist", "name": "Various Artists", "external_urls": {"spotify": "https://open.spotify.com/artist/0LyfQWJT6nXafLPZqxe9Of"}, "id": "0LyfQWJT6nXafLPZqxe9Of", "uri": "spotify:artist:0LyfQWJT6nXafLPZqxe9Of", "href": "https://api.spotify.com/v1/artists/0LyfQWJT6nXafLPZqxe9Of"}], "images": [{"width": 640, "url": "https://i.scdn.co/image/ab67616d0000b2739eda355ac0fd5e73da39bd60", "height": 640}, {"width": 300, "url": "https://i.scdn.co/image/ab67616d00001e029eda355ac0fd5e73da39bd60", "height": 300}, {"width": 64, "url": "https://i.scdn.co/image/ab67616d000048519eda355ac0fd5e73da39bd60", "height": 64}], "available_markets": ["US"], "album_type": "compilation", "release_date_precision": "day", "name": "NOW That's What I Call Music! 20th Anniversary, Vol. 2", "external_urls": {"spotify": "https://open.spotify.com/album/2D2q1WWvtcsl7EwVS9DA88"}, "id": "2D2q1WWvtcsl7EwVS9DA88", "uri": "spotify:album:2D2q1WWvtcsl7EwVS9DA88"}, "external_ids": {"isrc": "USUM71301306"}, "name": "Counting Stars", "duration_ms": 254706, "is_local": false, "disc_number": 1, "href": "https://api.spotify.com/v1/tracks/4wtucWYYRp8Kf0xuJBa3ez", "artists": [{"type": "artist", "name": "OneRepublic", "external_urls": {"spotify": "https://open.spotify.com/artist/5Pwc4xIPtQLFEnJriah9YJ"}, "id": "5Pwc4xIPtQLFEnJriah9YJ", "uri": "spotify:artist:5Pwc4xIPtQLFEnJriah9YJ", "href": "https://api.spotify.com/v1/artists/5Pwc4xIPtQLFEnJriah9YJ"}], "track_number": 19, "available_markets": ["US"], "type": "track", "preview_url": "https://p.scdn.co/mp3-preview/c8192d7d8adbd8228ca90e95c5e90d6800b2e61e?cid=0c947b9d3f7547e28aee080174c283c9", "explicit": false, "external_urls": {"spotify": "https://open.spotify.com/track/4wtucWYYRp8Kf0xuJBa3ez"}, "id": "4wtucWYYRp8Kf0xuJBa3ez", "uri": "spotify:track:4wtucWYYRp8Kf0xuJBa3ez", "popularity": 18}, {"album": {"total_tracks": 30, "type": "album", "release_date": "2019-06-07", "href": "https://api.spotify.com/v1/albums/325PQ2dqUQsoT0YLqBojxy", "artists": [{"type": "artist", "name": "Various Artists", "external_urls": {"spotify": "https://open.spotify.com/artist/0LyfQWJT6nXafLPZqxe9Of"}, "id": "0LyfQWJT6nXafLPZqxe9Of", "uri": "spotify:artist:0LyfQWJT6nXafLPZqxe9Of", "href": "https://api.spotify.com/v1/artists/0LyfQWJT6nXafLPZqxe9Of"}], "images": [{"width": 640, "url": "https://i.scdn.co/image/ab67616d0000b273dab1ea7f6e826e14efaef55b", "height": 640}, {"width": 300, "url": "https://i.scdn.co/image/ab67616d00001e02dab1ea7f6e826e14efaef55b", "height": 300}, {"width": 64, "url": "https://i.scdn.co/image/ab67616d00004851dab1ea7f6e826e14efaef55b", "height": 64}], "available_markets": ["AR", "AT", "AU", "BO", "BR", "CA", "CH", "CL", "CO", "CR", "DE", "DK", "EC", "ES", "FI", "FR", "GB", "GT", "HN", "MX", "NI", "NO", "PA", "PE", "PY", "SE", "SV", "US", "UY"], "album_type": "compilation", "release_date_precision": "day", "name": "30 Top Pop Hits", "external_urls": {"spotify": "https://open.spotify.com/album/325PQ2dqUQsoT0YLqBojxy"}, "id": "325PQ2dqUQsoT0YLqBojxy", "uri": "spotify:album:325PQ2dqUQsoT0YLqBojxy"}, "external_ids": {"isrc": "USUM71301306"}, "name": "Counting Stars", "duration_ms": 257839, "is_local": false, "disc_number": 1, "href": "https://api.spotify.com/v1/tracks/2vcJKlUHQRJc4VNdwWH5pY", "artists": [{"type": "artist", "name": "OneRepublic", "external_urls": {"spotify": "https://open.spotify.com/artist/5Pwc4xIPtQLFEnJriah9YJ"}, "id": "5Pwc4xIPtQLFEnJriah9YJ", "uri": "spotify:artist:5Pwc4xIPtQLFEnJriah9YJ", "href": "https://api.spotify.com/v1/artists/5Pwc4xIPtQLFEnJriah9YJ"}], "track_number": 1, "available_markets": ["AR", "AT", "AU", "BO", "BR", "CA", "CH", "CL", "CO", "CR", "DE", "DK", "EC", "ES", "FI", "FR", "GB", "GT", "HN", "MX", "NI", "NO", "PA", "PE", "PY", "SE", "SV", "US", "UY"], "type": "track", "preview_url": null, "explicit": false, "external_urls": {"spotify": "https://open.spotify.com/track/2vcJKlUHQRJc4VNdwWH5pY"}, "id": "2vcJKlUHQRJc4VNdwWH5pY", "uri": "spotify:track:2vcJKlUHQRJc4VNdwWH5pY", "popularity": 24}, {"album": {"total_tracks": 28, "type": "album", "release_date": "2019-09-20", "href": "https://api.spotify.com/v1/albums/1ohBog7tFDcWNsQdTkD3DN", "artists": [{"type": "artist", "name": "Various Artists", "external_urls": {"spotify": "https://open.spotify.com/artist/0LyfQWJT6nXafLPZqxe9Of"}, "id": "0LyfQWJT6nXafLPZqxe9Of", "uri": "spotify:artist:0LyfQWJT6nXafLPZqxe9Of", "href": "https://api.spotify.com/v1/artists/0LyfQWJT6nXafLPZqxe9Of"}], "images": [{"width": 640, "url": "https://i.scdn.co/image/566c763774cebab6b939a5cbc55d29a88273d5d5", "height": 640}, {"width": 300, "url": "https://i.scdn.co/image/23b05669c40db453eedb8d220b46798c5226fb6c", "height": 300}, {"width": 64, "url": "https://i.scdn.co/image/c78fbe4b8a852a115f802f422ba59c7586cb9cc8", "height": 64}], "available_markets": ["AR", "AT", "AU", "BE", "BG", "BO", "BR", "CA", "CH", "CL", "CO", "CR", "CZ", "DE", "DK", "EC", "ES", "FI", "FR", "GB", "GR", "GT", "HK", "HN", "HU", "ID", "IE", "IN", "IT", "JP", "MX", "MY", "NI", "NL", "NO", "NZ", "PA", "PE", "PH", "PL", "PT", "PY", "RO", "SE", "SG", "SK", "SV", "TH", "TR", "TW", "US", "UY", "ZA"], "album_type": "album", "release_date_precision": "day", "name": "Pop Songs", "external_urls": {"spotify": "https://open.spotify.com/album/1ohBog7tFDcWNsQdTkD3DN"}, "id": "1ohBog7tFDcWNsQdTkD3DN", "uri": "spotify:album:1ohBog7tFDcWNsQdTkD3DN"}, "external_ids": {"isrc": "USUM71301306"}, "name": "Counting Stars", "duration_ms": 257839, "is_local": false, "disc_number": 1, "href": "https://api.spotify.com/v1/tracks/1WYhtwbo2bSX664Yk5UdN8", "artists": [{"type": "artist", "name": "OneRepublic", "external_urls": {"spotify": "https://open.spotify.com/artist/5Pwc4xIPtQLFEnJriah9YJ"}, "id": "5Pwc4xIPtQLFEnJriah9YJ", "uri": "spotify:artist:5Pwc4xIPtQLFEnJriah9YJ", "href": "https://api.spotify.com/v1/artists/5Pwc4xIPtQLFEnJriah9YJ"}], "track_number": 1, "available_markets": ["AR", "AT", "AU", "BE", "BG", "BO", "BR", "CA", "CH", "CL", "CO", "CR", "CZ", "DE", "DK", "EC", "ES", "FI", "FR", "GB", "GR", "GT", "HK", "HN", "HU", "ID", "IE", "IN", "IT", "JP", "MX", "MY", "NI", "NL", "NO", "NZ", "PA", "PE", "PH", "PL", "PT", "PY", "RO", "SE", "SG", "SK", "SV", "TH", "TR", "TW", "US", "UY", "ZA"], "type": "track", "preview_url": null, "explicit": false, "external_urls": {"spotify": "https://open.spotify.com/track/1WYhtwbo2bSX664Yk5UdN8"}, "id": "1WYhtwbo2bSX664Yk5UdN8", "uri": "spotify:track:1WYhtwbo2bSX664Yk5UdN8", "popularity": 30}, {"album": {"total_tracks": 47, "type": "album", "release_date": "2019-06-21", "href": "https://api.spotify.com/v1/albums/4WWpkUUZXjsTDA4jYrj8BH", "artists": [{"type": "artist", "name": "Various Artists", "external_urls": {"spotify": "https://open.spotify.com/artist/0LyfQWJT6nXafLPZqxe9Of"}, "id": "0LyfQWJT6nXafLPZqxe9Of", "uri": "spotify:artist:0LyfQWJT6nXafLPZqxe9Of", "href": "https://api.spotify.com/v1/artists/0LyfQWJT6nXafLPZqxe9Of"}], "images": [{"width": 640, "url": "https://i.scdn.co/image/ab67616d0000b2738e2d6e941c4e4ead5cc4a849", "height": 640}, {"width": 300, "url": "https://i.scdn.co/image/ab67616d00001e028e2d6e941c4e4ead5cc4a849", "height": 300}, {"width": 64, "url": "https://i.scdn.co/image/ab67616d000048518e2d6e941c4e4ead5cc4a849", "height": 64}], "available_markets": ["AR", "AT", "AU", "BE", "BG", "BO", "BR", "CA", "CH", "CL", "CO", "CR", "CZ", "DE", "DK", "EC", "ES", "FI", "FR", "GB", "GR", "GT", "HK", "HN", "HU", "ID", "IE", "IN", "IT", "JP", "MX", "MY", "NI", "NL", "NO", "NZ", "PA", "PE", "PH", "PL", "PT", "PY", "RO", "SE", "SG", "SK", "SV", "TH", "TR", "TW", "US", "UY", "ZA"], "album_type": "compilation", "release_date_precision": "day", "name": "Summer 2019", "external_urls": {"spotify": "https://open.spotify.com/album/4WWpkUUZXjsTDA4jYrj8BH"}, "id": "4WWpkUUZXjsTDA4jYrj8BH", "uri": "spotify:album:4WWpkUUZXjsTDA4jYrj8BH"}, "external_ids": {"isrc": "USUM71301306"}, "name": "Counting Stars", "duration_ms": 257839, "is_local": false, "disc_number": 1, "href": "https://api.spotify.com/v1/tracks/0ebyU3DqIZuYWO0X7wSWZV", "artists": [{"type": "artist", "name": "OneRepublic", "external_urls": {"spotify": "https://open.spotify.com/artist/5Pwc4xIPtQLFEnJriah9YJ"}, "id": "5Pwc4xIPtQLFEnJriah9YJ", "uri": "spotify:artist:5Pwc4xIPtQLFEnJriah9YJ", "href": "https://api.spotify.com/v1/artists/5Pwc4xIPtQLFEnJriah9YJ"}], "track_number": 10, "available_markets": ["AR", "AT", "AU", "BE", "BG", "BO", "BR", "CA", "CH", "CL", "CO", "CR", "CZ", "DE", "DK", "EC", "ES", "FI", "FR", "GB", "GR", "GT", "HK", "HN", "HU", "ID", "IE", "IN", "IT", "JP", "MX", "MY", "NI", "NL", "NO", "NZ", "PA", "PE", "PH", "PL", "PT", "PY", "RO", "SE", "SG", "SK", "SV", "TH", "TR", "TW", "US", "UY", "ZA"], "type": "track", "preview_url": null, "explicit": false, "external_urls": {"spotify": "https://open.spotify.com/track/0ebyU3DqIZuYWO0X7wSWZV"}, "id": "0ebyU3DqIZuYWO0X7wSWZV", "uri": "spotify:track:0ebyU3DqIZuYWO0X7wSWZV", "popularity": 30}], "previous": null, "href": "https://api.spotify.com/v1/search?query=artist%3AOneRepublic+track%3ACounting+Stars&type=track&offset=0&limit=5", "limit": 5, "total": 20, "next": "https://api.spotify.com/v1/search?query=artist%3AOneRepublic+track%3ACounting+Stars&type=track&offset=5&limit=5"}}