{"tracks": {"offset": 0, "items": [{"album": {"total_tracks": 10, "type": "album", "release_date": "2013-01-01", "href": "https://api.spotify.com/v1/albums/0rmhjUgoVa17LZuS8xWQ3v", "artists": [{"type": "artist", "name": "Lorde", "external_urls": {"spotify": "https://open.spotify.com/artist/163tK9Wjr9P9DmM0AVK7lm"}, "id": "163tK9Wjr9P9DmM0AVK7lm", "uri": "spotify:artist:163tK9Wjr9P9DmM0AVK7lm", "href": "https://api.spotify.com/v1/artists/163tK9Wjr9P9DmM0AVK7lm"}], "images": [{"width": 640, "url": "https://i.scdn.co/image/ab67616d0000b27326f3b1353ed43494cdd4ef0e", "height": 640}, {"width": 300, "url": "https://i.scdn.co/image/ab67616d00001e0226f3b1353ed43494cdd4ef0e", "height": 300}, {"width": 64, "url": "https://i.scdn.co/image/ab67616d0000485126f3b1353ed43494cdd4ef0e", "height": 64}], "available_markets": ["AD", "AE", "AR", "AT", "AU", "BE", "BG", "BH", "BO", "BR", "CA", "CH", "CL", "CO", "CR", "CY", "CZ", "DE", "DK", "DO", "DZ", "EC", "EE", "EG", "ES", "FI", "FR", "GB", "GR", "GT", "HK", "HN", "HU", "ID", "IE", "IL", "IN", "IS", "IT", "JO", "KW", "LB", "LI", "LT", "LU", "LV", "MA", "MC", "MT", "MX", "MY", "NI", "NL", "NO", "NZ", "OM", "PA", "PE", "PH", "PL", "PS", "PT", "PY", "QA", "RO", "SA", "SE", "SG", "SK", "SV", "TH", "TN", "TR", "TW", "US", "UY", "VN", "ZA"], "album_type": "album", "release_date_precision": "day", "name": "Pure Heroine", "external_urls": {"spotify": "https://open.spotify.com/album/0rmhjUgoVa17LZuS8xWQ3v"}, "id": "0rmhjUgoVa17LZuS8xWQ3v", "uri": "spotify:album:0rmhjUgoVa17LZuS8xWQ3v"}, "external_ids": {"isrc": "NZUM71200031"}, "name": "Royals", "duration_ms": 190185, "is_local": false, "disc_number": 1, "href": "https://api.spotify.com/v1/tracks/2dLLR6qlu5UJ5gk0dKz0h3", "artists": [{"type": "artist", "name": "Lorde", "external_urls": {"spotify": "https://open.spotify.com/artist/163tK9Wjr9P9DmM0AVK7lm"}, "id": "163tK9Wjr9P9DmM0AVK7lm", "uri": "spotify:artist:163tK9Wjr9P9DmM0AVK7lm", "href": "https://api.spotify.com/v1/artists/163tK9Wjr9P9DmM0AVK7lm"}], "track_number": 3, "available_markets": ["AD", "AE", "AR", "AT", "AU", "BE", "BG", "BH", "BO", "BR", "CA", "CH", "CL", "CO", "CR", "CY", "CZ", "DE", "DK", "DO", "DZ", "EC", "EE", "EG", "ES", "FI", "FR", "GB", "GR", "GT", "HK", "HN", "HU", "ID", "IE", "IL", "IN", "IS", "IT", "JO", "KW", "LB", "LI", "LT", "LU", "LV", "MA", "MC", "MT", "MX", "MY", "NI", "NL", "NO", "NZ", "OM", "PA", "PE", "PH", "PL", "PS", "PT", "PY", "QA", "RO", "SA", "SE", "SG", "SK", "SV", "TH", "TN", "TR", "TW", "US", "UY", "VN", "ZA"], "type": "track", "preview_url": null, "explicit": false, "external_urls": {"spotify": "https://open.spotify.com/track/2dLLR6qlu5UJ5gk0dKz0h3"}, "id": "2dLLR6qlu5UJ5gk0dKz0h3", "uri": "spotify:track:2dLLR6qlu5UJ5gk0dKz0h3", "popularity": 78}, {"album": {"total_tracks": 15, "type": "album", "release_date": "2013-01-01", "href": "https://api.spotify.com/v1/albums/6rnzvZhe3PA57xKcKLRtJ6", "artists": [{"type": "artist", "name": "Lorde", "external_urls": {"spotify": "https://open.spotify.com/artist/163tK9Wjr9P9DmM0AVK7lm"}, "id": "163tK9Wjr9P9DmM0AVK7lm", "uri": "spotify:artist:163tK9Wjr9P9DmM0AVK7lm", "href": "https://api.spotify.com/v1/artists/163tK9Wjr9P9DmM0AVK7lm"}], "images": [{"width": 640, "url": "https://i.scdn.co/image/ab67616d0000b273ba4257f3bd99eba478e75b69", "height": 640}, {"width": 300, "url": "https://i.scdn.co/image/ab67616d00001e02ba4257f3bd99eba478e75b69", "height": 300}, {"width": 64, "url": "https://i.scdn.co/image/ab67616d00004851ba4257f3bd99eba478e75b69", "height": 64}], "available_markets": ["AD", "AE", "AR", "AT", "AU", "BE", "BG", "BH", "BO", "BR", "CA", "CH", "CL", "CO", "CR", "CY", "CZ", "DE", "DK", "DO", "DZ", "EC", "EE", "EG", "ES", "FI", "FR", "GB", "GR", "GT", "HK", "HN", "HU", "ID", "IE", "IL", "IN", "IS", "IT", "JO", "JP", "KW", "LB", "LI", "LT", "LU", "LV", "MA", "MC", "MT", "MX", "MY", "NI", "NL", "NO", "NZ", "OM", "PA", "PE", "PH", "PL", "PS", "PT", "PY", "QA", "RO", "SA", "SE", "SG", "SK", "SV", "TH", "TN", "TR", "TW", "US", "UY", "VN", "ZA"], "album_type": "album", "release_date_precision": "day", "name": "Pure Heroine (Extended)", "external_urls": {"spotify": "https://open.spotify.com/album/6rnzvZhe3PA57xKcKLRtJ6"}, "id": "6rnzvZhe3PA57xKcKLRtJ6", "uri": "spotify:album:6rnzvZhe3PA57xKcKLRtJ6"}, "external_ids": {"isrc": "NZUM71200031"}, "name": "Royals", "duration_ms": 190185, "is_local": false, "disc_number": 1, "href": "https://api.spotify.com/v1/tracks/7BFI9QZPQKgYuR2HhDgwbG", "artists": [{"type": "artist", "name": "Lorde", "external_urls": {"spotify": "https://open.spotify.com/artist/163tK9Wjr9P9DmM0AVK7lm"}, "id": "163tK9Wjr9P9DmM0AVK7lm", "uri": "spotify:artist:163tK9Wjr9P9DmM0AVK7lm", "href": "https://api.spotify.com/v1/artists/163tK9Wjr9P9DmM0AVK7lm"}], "track_number": 3, "available_markets": ["AD", "AE", "AR", "AT", "AU", "BE", "BG", "BH", "BO", "BR", "CA", "CH", "CL", "CO", "CR", "CY", "CZ", "DE", "DK", "DO", "DZ", "EC", "EE", "EG", "ES", "FI", "FR", "GB", "GR", "GT", "HK", "HN", "HU", "ID", "IE", "IL", "IN", "IS", "IT", "JO", "JP", "KW", "LB", "LI", "LT", "LU", "LV", "MA", "MC", "MT", "MX", "MY", "NI", "NL", "NO", "NZ", "OM", "PA", "PE", "PH", "PL", "PS", "PT", "PY", "QA", "RO", "SA", "SE", "SG", "SK", "SV", "TH", "TN", "TR", "TW", "US", "UY", "VN", "ZA"], "type": "track", "preview_url": null, "explicit": false, "external_urls": {"spotify": "https://open.spotify.com/track/7BFI9QZPQKgYuR2HhDgwbG"}, "id": "7BFI9QZPQKgYuR2HhDgwbG", "uri": "spotify:track:7BFI9QZPQKgYuR2HhDgwbG", "popularity": 54}, {"album": {"total_tracks": 4, "type": "album", "release_date": "2013-01-01", "href": "https://api.spotify.com/v1/albums/0CvwwhkzMUiDm8cQqtN6Ys", "artists": [{"type": "artist", "name": "Lorde", "external_urls": {"spotify": "https://open.spotify.com/artist/163tK9Wjr9P9DmM0AVK7lm"}, "id": "163tK9Wjr9P9DmM0AVK7lm", "uri": "spotify:artist:163tK9Wjr9P9DmM0AVK7lm", "href": "https://api.spotify.com/v1/artists/163tK9Wjr9P9DmM0AVK7lm"}], "images": [{"width": 640, "url": "https://i.scdn.co/image/ab67616d0000b273ce7db215d98d24ed4f751df7", "height": 640}, {"width": 300, "url": "https://i.scdn.co/image/ab67616d00001e02ce7db215d98d24ed4f751df7", "height": 300}, {"width": 64, "url": "https://i.scdn.co/image/ab67616d00004851ce7db215d98d24ed4f751df7", "height": 64}], "available_markets": ["AD", "AE", "AR", "AT", "AU", "BE", "BG", "BH", "BO", "BR", "CA", "CH", "CL", "CO", "CR", "CY", "CZ", "DE", "DK", "DO", "DZ", "EC", "EE", "EG", "ES", "FI", "FR", "GB", "GR", "GT", "HK", "HN", "HU", "ID", "IE", "IL", "IN", "IS", "IT", "JO", "JP", "KW", "LB", "LI", "LT", "LU", "LV", "MA", "MC", "MT", "MX", "MY", "NI", "NL", "NO", "NZ", "OM", "PA", "PE", "PH", "PL", "PS", "PT", "PY", "QA", "RO", "SA", "SE", "SG", "SK", "SV", "TH", "TN", "TR", "TW", "US", "UY", "VN", "ZA"], "album_type": "single", "release_date_precision": "day", "name": "Live In Concert", "external_urls": {"spotify": "https://open.spotify.com/album/0CvwwhkzMUiDm8cQqtN6Ys"}, "id": "0CvwwhkzMUiDm8cQqtN6Ys", "uri": "spotify:album:0CvwwhkzMUiDm8cQqtN6Ys"}, "external_ids": {"isrc": "NZUM71300288"}, "name": "Royals - Live In Concert 2013", "duration_ms": 222974, "is_local": false, "disc_number": 1, "href": "https://api.spotify.com/v1/tracks/69lMFbj9GmdjY7cx5JxRlq", "artists": [{"type": "artist", "name": "Lorde", "external_urls": {"spotify": "https://open.spotify.com/artist/163tK9Wjr9P9DmM0AVK7lm"}, "id": "163tK9Wjr9P9DmM0AVK7lm", "uri": "spotify:artist:163tK9Wjr9P9DmM0AVK7lm", "href": "https://api.spotify.com/v1/artists/163tK9Wjr9P9DmM0AVK7lm"}], "track_number": 4, "available_markets": ["AD", "AE", "AR", "AT", "AU", "BE", "BG", "BH", "BO", "BR", "CA", "CH", "CL", "CO", "CR", "CY", "CZ", "DE", "DK", "DO", "DZ", "EC", "EE", "EG", "ES", "FI", "FR", "GB", "GR", "GT", "HK", "HN", "HU", "ID", "IE", "IL", "IN", "IS", "IT", "JO", "JP", "KW", "LB", "LI", "LT", "LU", "LV", "MA", "MC", "MT", "MX", "MY", "NI", "NL", "NO", "NZ", "OM", "PA", "PE", "PH", "PL", "PS", "PT", "PY", "QA", "RO", "SA", "SE", "SG", "SK", "SV", "TH", "TN", "TR", "TW", "US", "UY", "VN", "ZA"], "type": "track", "preview_url": null, "explicit": false, "external_urls": {"spotify": "https://open.spotify.com/track/69lMFbj9GmdjY7cx5JxRlq"}, "id": "69lMFbj9GmdjY7cx5JxRlq", "uri": "spotify:track:69lMFbj9GmdjY7cx5JxRlq", "popularity": 37}, {"album": {"total_tracks": 29, "type": "album", "release_date": "2019-07-26", "href": "https://api.spotify.com/v1/albums/7bMwiyduttMaF6VvxMKws1", "artists": [{"type": "artist", "name": "Various Artists", "external_urls": {"spotify": "https://open.spotify.com/artist/0LyfQWJT6nXafLPZqxe9Of"}, "id": "0LyfQWJT6nXafLPZqxe9Of", "uri": "spotify:artist:0LyfQWJT6nXafLPZqxe9Of", "href": "https://api.spotify.com/v1/artists/0LyfQWJT6nXafLPZqxe9Of"}], "images": [{"width": 640, "url": "https://i.scdn.co/image/ab67616d0000b2734289d2cdc381baf88b7c7f72", "height": 640}, {"width": 300, "url": "https://i.scdn.co/image/ab67616d00001e024289d2cdc381baf88b7c7f72", "height": 300}, {"width": 64, "url": "https://i.scdn.co/image/ab67616d000048514289d2cdc381baf88b7c7f72", "height": 64}], "available_markets": ["AR", "AT", "AU", "BE", "BG", "BO", "BR", "CA", "CH", "CL", "CO", "CR", "CZ", "DE", "DK", "EC", "ES", "FI", "FR", "GB", "GR", "GT", "HK", "HN", "HU", "ID", "IE", "IN", "IT", "JP", "MX", "MY", "NI", "NL", "NO", "NZ", "PA", "PE", "PH", "PL", "PT", "PY", "RO", "SE", "SG", "SK", "SV", "TH", "TR", "TW", "US", "UY", "ZA"], "album_type": "compilation", "release_date_precision": "day", "name": "VSCO Girl", "external_urls": {"spotify": "https://open.spotify.com/album/7bMwiyduttMaF6VvxMKws1"}, "id": "7bMwiyduttMaF6VvxMKws1", "uri": "spotify:album:7bMwiyduttMaF6VvxMKws1"}, "external_ids": {"isrc": "NZUM71200031"}, "name": "Royals", "duration_ms": 190185, "is_local": false, "disc_number": 1, "href": "https://api.spotify.com/v1/tracks/7e8NghldPbGUUxXoBasXTZ", "artists": [{"type": "artist", "name": "Lorde", "external_urls": {"spotify": "https://open.spotify.com/artist/163tK9Wjr9P9DmM0AVK7lm"}, "id": "163tK9Wjr9P9DmM0AVK7lm", "uri": "spotify:artist:163tK9Wjr9P9DmM0AVK7lm", "href": "https://api.spotify.com/v1/artists/163tK9Wjr9P9DmM0AVK7lm"}], "track_number": 3, "available_markets": ["AR", "AT", "AU", "BE", "BG", "BO", "BR", "CA", "CH", "CL", "CO", "CR", "CZ", "DE", "DK", "EC", "ES", "FI", "FR", "GB", "GR", "GT", "HK", "HN", "HU", "ID", "IE", "IN", "IT", "JP", "MX", "MY", "NI", "NL", "NO", "NZ", "PA", "PE", "PH", "PL", "PT", "PY", "RO", "SE", "SG", "SK", "SV", "TH", "TR", "TW", "US", "UY", "ZA"], "type": "track", "preview_url": null, "explicit": false, "external_urls": {"spotify": "https://open.spotify.com/track/7e8NghldPbGUUxXoBasXTZ"}, "id": "7e8NghldPbGUUxXoBasXTZ", "uri": "spotify:track:7e8NghldPbGUUxXoBasXTZ", "popularity": 28}, {"album": {"total_tracks": 28, "type": "album", "release_date": "2019-07-05", "href": "https://api.spotify.com/v1/albums/3DiKQcknXvMRlLYrtSnM3d", "artists": [{"type": "artist", "name": "Various Artists", "external_urls": {"spotify": "https://open.spotify.com/artist/0LyfQWJT6nXafLPZqxe9Of"}, "id": "0LyfQWJT6nXafLPZqxe9Of", "uri": "spotify:artist:0LyfQWJT6nXafLPZqxe9Of", "href": "https://api.spotify.com/v1/artists/0LyfQWJT6nXafLPZqxe9Of"}], "images": [{"width": 640, "url": "https://i.scdn.co/image/ab67616d0000b273ce35a514d29505a28e0f1fc6", "height": 640}, {"width": 300, "url": "https://i.scdn.co/image/ab67616d00001e02ce35a514d29505a28e0f1fc6", "height": 300}, {"width": 64, "url": "https://i.scdn.co/image/ab67616d00004851ce35a514d29505a28e0f1fc6", "height": 64}], "available_markets": ["AR", "AT", "AU", "BE", "BG", "BO", "BR", "CA", "CH", "CL", "CO", "CR", "CZ", "DE", "DK", "EC", "ES", "FI", "FR", "GB", "GR", "GT", "HK", "HN", "HU", "ID", "IE", "IN", "IT", "JP", "MX", "MY", "NI", "NL", "NO", "NZ", "PA", "PE", "PH", "PL", "PT", "PY", "RO", "SE", "SG", "SK", "SV", "TH", "TR", "TW", "US", "UY", "ZA"], "album_type": "compilation", "release_date_precision": "day", "name": "2013 Hits", "external_urls": {"spotify": "https://open.spotify.com/album/3DiKQcknXvMRlLYrtSnM3d"}, "id": "3DiKQcknXvMRlLYrtSnM3d", "uri": "spotify:album:3DiKQcknXvMRlLYrtSnM3d"}, "external_ids": {"isrc": "NZUM71200031"}, "name": "Royals", "duration_ms": 190185, "is_local": false, "disc_number": 1, "href": "https://api.spotify.com/v1/tracks/5qUEYgk7EXfvlKJUIKEtAn", "artists": [{"type": "artist", "name": "Lorde", "external_urls": {"spotify": "https://open.spotify.com/artist/163tK9Wjr9P9DmM0AVK7lm"}, "id": "163tK9Wjr9P9DmM0AVK7lm", "uri": "spotify:artist:163tK9Wjr9P9DmM0AVK7lm", "href": "https://api.spotify.com/v1/artists/163tK9Wjr9P9DmM0AVK7lm"}], "track_number": 1, "available_markets": ["AR", "AT", "AU", "BE", "BG", "BO", "BR", "CA", "CH", "CL", "CO", "CR", "CZ", "DE", "DK", "EC", "ES", "FI", "FR", "GB", "GR", "GT", "HK", "HN", "HU", "ID", "IE", "IN", "IT", "JP", "MX", "MY", "NI", "NL", "NO", "NZ", "PA", "PE", "PH", "PL", "PT", "PY", "RO", "SE", "SG", "SK", "SV", "TH", "TR", "TW", "US", "UY", "ZA"], "type": "track", "preview_url": null, "explicit": false, "external_urls": {"spotify": "https://open.spotify.com/track/5qUEYgk7EXfvlKJUIKEtAn"}, "id": "5qUEYgk7EXfvlKJUIKEtAn", "uri": "spotify:track:5qUEYgk7EXfvlKJUIKEtAn", "popularity": 27}], "previous": null, "href": "https://api.spotify.com/v1/search?query=artist%3ALorde+track%3ARoyals&type=track&offset=0&limit=5", "limit": 5, "total": 23, "next": "https://api.spotify.com/v1/search?query=artist%3ALorde+track%3ARoyals&type=track&offset=5&limit=5"}}