{"tracks": {"offset": 0, "items": [{"album": {"total_tracks": 14, "type": "album", "release_date": "2012-09-18", "href": "https://api.spotify.com/v1/albums/6k3vC8nep1BfqAIJ81L6OL", "artists": [{"type": "artist", "name": "alt-J", "external_urls": {"spotify": "https://open.spotify.com/artist/3XHO7cRUPCLOr6jwp8vsx5"}, "id": "3XHO7cRUPCLOr6jwp8vsx5", "uri": "spotify:artist:3XHO7cRUPCLOr6jwp8vsx5", "href": "https://api.spotify.com/v1/artists/3XHO7cRUPCLOr6jwp8vsx5"}], "images": [{"width": 640, "url": "https://i.scdn.co/image/ab67616d0000b27369592e88bb29d610a35118f8", "height": 640}, {"width": 300, "url": "https://i.scdn.co/image/ab67616d00001e0269592e88bb29d610a35118f8", "height": 300}, {"width": 64, "url": "https://i.scdn.co/image/ab67616d0000485169592e88bb29d610a35118f8", "height": 64}], "available_markets": ["CA", "MX", "US"], "album_type": "album", "release_date_precision": "day", "name": "An Awesome Wave", "external_urls": {"spotify": "https://open.spotify.com/album/6k3vC8nep1BfqAIJ81L6OL"}, "id": "6k3vC8nep1BfqAIJ81L6OL", "uri": "spotify:album:6k3vC8nep1BfqAIJ81L6OL"}, "external_ids": {"isrc": "GBZUZ1200067"}, "name": "Breezeblocks", "duration_ms": 227080, "is_local": false, "disc_number": 1, "href": "https://api.spotify.com/v1/tracks/3n69hLUdIsSa1WlRmjMZlW", "artists": [{"type": "artist", "name": "alt-J", "external_urls": {"spotify": "https://open.spotify.com/artist/3XHO7cRUPCLOr6jwp8vsx5"}, "id": "3XHO7cRUPCLOr6jwp8vsx5", "uri": "spotify:artist:3XHO7cRUPCLOr6jwp8vsx5", "href": "https://api.spotify.com/v1/artists/3XHO7cRUPCLOr6jwp8vsx5"}], "track_number": 4, "available_markets": ["CA", "MX", "US"], "type": "track", "preview_url": "https://p.scdn.co/mp3-preview/ce959086c6a1a2a518365b664f6e2ce9070366eb?cid=0c947b9d3f7547e28aee080174c283c9", "explicit": false, "external_urls": {"spotify": "https://open.spotify.com/track/3n69hLUdIsSa1WlRmjMZlW"}, "id": "3n69hLUdIsSa1WlRmjMZlW", "uri": "spotify:track:3n69hLUdIsSa1WlRmjMZlW", "popularity": 75}, {"album": {"total_tracks": 2, "type": "album", "release_date": "2019-08-20", "href": "https://api.spotify.com/v1/albums/4cyGkmKOzaMyiI4ZMHFOIS", "artists": [{"type": "artist", "name": "Tinlicker", "external_urls": {"spotify": "https://open.spotify.com/artist/5EmEZjq8eHEC6qFnT63Lza"}, "id": "5EmEZjq8eHEC6qFnT63Lza", "uri": "spotify:artist:5EmEZjq8eHEC6qFnT63Lza", "href": "https://api.spotify.com/v1/artists/5EmEZjq8eHEC6qFnT63Lza"}], "images": [{"width": 640, "url": "https://i.scdn.co/image/894ff8a0996cb02f5c7b934fd4f61caefd63ca2d", "height": 640}, {"width": 300, "url": "https://i.scdn.co/image/d835851691b667d4dd34047529570b7350feff3a", "height": 300}, {"width": 64, "url": "https://i.scdn.co/image/68739c5fc73628702662e43e22dae02261337836", "height": 64}], "available_markets": ["AD", "AE", "AR", "AT", "AU", "BE", "BG", "BH", "BO", "BR", "CA", "CH", "CL", "CO", "CR", "CY", "CZ", "DE", "DK", "DO", "DZ", "EC", "EE", "EG", "ES", "FI", "FR", "GB", "GR", "GT", "HK", "HN", "HU", "ID", "IE", "IL", "IN", "IS", "IT", "JO", "JP", "KW", "LB", "LI", "LT", "LU", "LV", "MA", "MC", "MT", "MX", "MY", "NI", "NL", "NO", "NZ", "OM", "PA", "PE", "PH", "PL", "PS", "PT", "PY", "QA", "RO", "SA", "SE", "SG", "SK", "SV", "TH", "TN", "TR", "TW", "US", "UY", "VN", "ZA"], "album_type": "single", "release_date_precision": "day", "name": "Breezeblocks (Tinlicker Remix)", "external_urls": {"spotify": "https://open.spotify.com/album/4cyGkmKOzaMyiI4ZMHFOIS"}, "id": "4cyGkmKOzaMyiI4ZMHFOIS", "uri": "spotify:album:4cyGkmKOzaMyiI4ZMHFOIS"}, "external_ids": {"isrc": "GB5KW1902832"}, "name": "Breezeblocks - Tinlicker Remix", "duration_ms": 272859, "is_local": false, "disc_number": 1, "href": "https://api.spotify.com/v1/tracks/5kUxWpe43DVTzXW7HiXnre", "artists": [{"type": "artist", "name": "alt-J", "external_urls": {"spotify": "https://open.spotify.com/artist/3XHO7cRUPCLOr6jwp8vsx5"}, "id": "3XHO7cRUPCLOr6jwp8vsx5", "uri": "spotify:artist:3XHO7cRUPCLOr6jwp8vsx5", "href": "https://api.spotify.com/v1/artists/3XHO7cRUPCLOr6jwp8vsx5"}, {"type": "artist", "name": "Tinlicker", "external_urls": {"spotify": "https://open.spotify.com/artist/5EmEZjq8eHEC6qFnT63Lza"}, "id": "5EmEZjq8eHEC6qFnT63Lza", "uri": "spotify:artist:5EmEZjq8eHEC6qFnT63Lza", "href": "https://api.spotify.com/v1/artists/5EmEZjq8eHEC6qFnT63Lza"}], "track_number": 1, "available_markets": ["AD", "AE", "AR", "AT", "AU", "BE", "BG", "BH", "BO", "BR", "CA", "CH", "CL", "CO", "CR", "CY", "CZ", "DE", "DK", "DO", "DZ", "EC", "EE", "EG", "ES", "FI", "FR", "GB", "GR", "GT", "HK", "HN", "HU", "ID", "IE", "IL", "IN", "IS", "IT", "JO", "JP", "KW", "LB", "LI", "LT", "LU", "LV", "MA", "MC", "MT", "MX", "MY", "NI", "NL", "NO", "NZ", "OM", "PA", "PE", "PH", "PL", "PS", "PT", "PY", "QA", "RO", "SA", "SE", "SG", "SK", "SV", "TH", "TN", "TR", "TW", "US", "UY", "VN", "ZA"], "type": "track", "preview_url": "https://p.scdn.co/mp3-preview/caf7de0457a01f1e7e98aa646d3e9b69aabdbbf2?cid=0c947b9d3f7547e28aee080174c283c9", "explicit": false, "external_urls": {"spotify": "https://open.spotify.com/track/5kUxWpe43DVTzXW7HiXnre"}, "id": "5kUxWpe43DVTzXW7HiXnre", "uri": "spotify:track:5kUxWpe43DVTzXW7HiXnre", "popularity": 47}, {"album": {"total_tracks": 13, "type": "album", "release_date": "2019-09-27", "href": "https://api.spotify.com/v1/albums/6kWIPxtAyRlXsPHPpJdvbw", "artists": [{"type": "artist", "name": "Tinlicker", "external_urls": {"spotify": "https://open.spotify.com/artist/5EmEZjq8eHEC6qFnT63Lza"}, "id": "5EmEZjq8eHEC6qFnT63Lza", "uri": "spotify:artist:5EmEZjq8eHEC6qFnT63Lza", "href": "https://api.spotify.com/v1/artists/5EmEZjq8eHEC6qFnT63Lza"}], "images": [{"width": 640, "url": "https://i.scdn.co/image/ab67616d0000b273623e5c610c1318cbb4091b95", "height": 640}, {"width": 300, "url": "https://i.scdn.co/image/ab67616d00001e02623e5c610c1318cbb4091b95", "height": 300}, {"width": 64, "url": "https://i.scdn.co/image/ab67616d00004851623e5c610c1318cbb4091b95", "height": 64}], "available_markets": ["AD", "AE", "AR", "AT", "AU", "BE", "BG", "BH", "BO", "BR", "CA", "CH", "CL", "CO", "CR", "CY", "CZ", "DE", "DK", "DO", "DZ", "EC", "EE", "EG", "ES", "FI", "FR", "GB", "GR", "GT", "HK", "HN", "HU", "ID", "IE", "IL", "IN", "IS", "IT", "JO", "JP", "KW", "LB", "LI", "LT", "LU", "LV", "MA", "MC", "MT", "MX", "MY", "NI", "NL", "NO", "NZ", "OM", "PA", "PE", "PH", "PL", "PS", "PT", "PY", "QA", "RO", "SA", "SE", "SG", "SK", "SV", "TH", "TN", "TR", "TW", "US", "UY", "VN", "ZA"], "album_type": "album", "release_date_precision": "day", "name": "This Is Not Our Universe", "external_urls": {"spotify": "https://open.spotify.com/album/6kWIPxtAyRlXsPHPpJdvbw"}, "id": "6kWIPxtAyRlXsPHPpJdvbw", "uri": "spotify:album:6kWIPxtAyRlXsPHPpJdvbw"}, "external_ids": {"isrc": "GB5KW1902832"}, "name": "Breezeblocks - Tinlicker Remix", "duration_ms": 272859, "is_local": false, "disc_number": 1, "href": "https://api.spotify.com/v1/tracks/07KAToiEVIKU7WvXkoTWQR", "artists": [{"type": "artist", "name": "alt-J", "external_urls": {"spotify": "https://open.spotify.com/artist/3XHO7cRUPCLOr6jwp8vsx5"}, "id": "3XHO7cRUPCLOr6jwp8vsx5", "uri": "spotify:artist:3XHO7cRUPCLOr6jwp8vsx5", "href": "https://api.spotify.com/v1/artists/3XHO7cRUPCLOr6jwp8vsx5"}, {"type": "artist", "name": "Tinlicker", "external_urls": {"spotify": "https://open.spotify.com/artist/5EmEZjq8eHEC6qFnT63Lza"}, "id": "5EmEZjq8eHEC6qFnT63Lza", "uri": "spotify:artist:5EmEZjq8eHEC6qFnT63Lza", "href": "https://api.spotify.com/v1/artists/5EmEZjq8eHEC6qFnT63Lza"}], "track_number": 2, "available_markets": ["AD", "AE", "AR", "AT", "AU", "BE", "BG", "BH", "BO", "BR", "CA", "CH", "CL", "CO", "CR", "CY", "CZ", "DE", "DK", "DO", "DZ", "EC", "EE", "EG", "ES", "FI", "FR", "GB", "GR", "GT", "HK", "HN", "HU", "ID", "IE", "IL", "IN", "IS", "IT", "JO", "JP", "KW", "LB", "LI", "LT", "LU", "LV", "MA", "MC", "MT", "MX", "MY", "NI", "NL", "NO", "NZ", "OM", "PA", "PE", "PH", "PL", "PS", "PT", "PY", "QA", "RO", "SA", "SE", "SG", "SK", "SV", "TH", "TN", "TR", "TW", "US", "UY", "VN", "ZA"], "type": "track", "preview_url": "https://p.scdn.co/mp3-preview/caf7de0457a01f1e7e98aa646d3e9b69aabdbbf2?cid=0c947b9d3f7547e28aee080174c283c9", "explicit": false, "external_urls": {"spotify": "https://open.spotify.com/track/07KAToiEVIKU7WvXkoTWQR"}, "id": "07KAToiEVIKU7WvXkoTWQR", "uri": "spotify:track:07KAToiEVIKU7WvXkoTWQR", "popularity": 43}, {"album": {"total_tracks": 23, "type": "album", "release_date": "2019-09-08", "href": "https://api.spotify.com/v1/albums/1fFzerNiwGM1lzRsP9eSpC", "artists": [{"type": "artist", "name": "Above & Beyond Group Therapy", "external_urls": {"spotify": "https://open.spotify.com/artist/7HXnQUEKHiWvUqSIR9ydOC"}, "id": "7HXnQUEKHiWvUqSIR9ydOC", "uri": "spotify:artist:7HXnQUEKHiWvUqSIR9ydOC", "href": "https://api.spotify.com/v1/artists/7HXnQUEKHiWvUqSIR9ydOC"}, {"type": "artist", "name": "Anjunabeats", "external_urls": {"spotify": "https://open.spotify.com/artist/7aqysYAN8bVjQuJSo9PyqR"}, "id": "7aqysYAN8bVjQuJSo9PyqR", "uri": "spotify:artist:7aqysYAN8bVjQuJSo9PyqR", "href": "https://api.spotify.com/v1/artists/7aqysYAN8bVjQuJSo9PyqR"}], "images": [{"width": 640, "url": "https://i.scdn.co/image/b745db068a761571c733df938accc5a3e7be5482", "height": 640}, {"width": 300, "url": "https://i.scdn.co/image/9613800e4ff140022c667ee6a93a26614151551d", "height": 300}, {"width": 64, "url": "https://i.scdn.co/image/56eb499850f091c3e1cbbf6e11d394f06a3163c5", "height": 64}], "available_markets": ["AD", "AE", "AR", "AT", "AU", "BE", "BG", "BH", "BO", "BR", "CA", "CH", "CL", "CO", "CR", "CY", "CZ", "DE", "DK", "DO", "DZ", "EC", "EE", "EG", "ES", "FI", "FR", "GB", "GR", "GT", "HK", "HN", "HU", "ID", "IE", "IL", "IN", "IS", "IT", "JO", "JP", "KW", "LB", "LI", "LT", "LU", "LV", "MA", "MC", "MT", "MX", "MY", "NI", "NL", "NO", "NZ", "OM", "PA", "PE", "PH", "PL", "PS", "PT", "PY", "QA", "RO", "SA", "SE", "SG", "SK", "SV", "TH", "TN", "TR", "TW", "US", "UY", "VN", "ZA"], "album_type": "album", "release_date_precision": "day", "name": "Group Therapy 346", "external_urls": {"spotify": "https://open.spotify.com/album/1fFzerNiwGM1lzRsP9eSpC"}, "id": "1fFzerNiwGM1lzRsP9eSpC", "uri": "spotify:album:1fFzerNiwGM1lzRsP9eSpC"}, "external_ids": {"isrc": "GBEWA1903129"}, "name": "Breezeblocks (ABGT346) - Tinlicker Remix", "duration_ms": 280975, "is_local": false, "disc_number": 1, "href": "https://api.spotify.com/v1/tracks/65ScIx5BwiOKUYrYROFv3u", "artists": [{"type": "artist", "name": "alt-J", "external_urls": {"spotify": "https://open.spotify.com/artist/3XHO7cRUPCLOr6jwp8vsx5"}, "id": "3XHO7cRUPCLOr6jwp8vsx5", "uri": "spotify:artist:3XHO7cRUPCLOr6jwp8vsx5", "href": "https://api.spotify.com/v1/artists/3XHO7cRUPCLOr6jwp8vsx5"}, {"type": "artist", "name": "Tinlicker", "external_urls": {"spotify": "https://open.spotify.com/artist/5EmEZjq8eHEC6qFnT63Lza"}, "id": "5EmEZjq8eHEC6qFnT63Lza", "uri": "spotify:artist:5EmEZjq8eHEC6qFnT63Lza", "href": "https://api.spotify.com/v1/artists/5EmEZjq8eHEC6qFnT63Lza"}], "track_number": 10, "available_markets": ["AD", "AE", "AR", "AT", "AU", "BE", "BG", "BH", "BO", "BR", "CA", "CH", "CL", "CO", "CR", "CY", "CZ", "DE", "DK", "DO", "DZ", "EC", "EE", "EG", "ES", "FI", "FR", "GB", "GR", "GT", "HK", "HN", "HU", "ID", "IE", "IL", "IN", "IS", "IT", "JO", "JP", "KW", "LB", "LI", "LT", "LU", "LV", "MA", "MC", "MT", "MX", "MY", "NI", "NL", "NO", "NZ", "OM", "PA", "PE", "PH", "PL", "PS", "PT", "PY", "QA", "RO", "SA", "SE", "SG", "SK", "SV", "TH", "TN", "TR", "TW", "US", "UY", "VN", "ZA"], "type": "track", "preview_url": "https://p.scdn.co/mp3-preview/bbd60fe7cf344cf321461d9464983768cd851455?cid=0c947b9d3f7547e28aee080174c283c9", "explicit": false, "external_urls": {"spotify": "https://open.spotify.com/track/65ScIx5BwiOKUYrYROFv3u"}, "id": "65ScIx5BwiOKUYrYROFv3u", "uri": "spotify:track:65ScIx5BwiOKUYrYROFv3u", "popularity": 36}, {"album": {"total_tracks": 2, "type": "album", "release_date": "2019-08-20", "href": "https://api.spotify.com/v1/albums/4cyGkmKOzaMyiI4ZMHFOIS", "artists": [{"type": "artist", "name": "Tinlicker", "external_urls": {"spotify": "https://open.spotify.com/artist/5EmEZjq8eHEC6qFnT63Lza"}, "id": "5EmEZjq8eHEC6qFnT63Lza", "uri": "spotify:artist:5EmEZjq8eHEC6qFnT63Lza", "href": "https://api.spotify.com/v1/artists/5EmEZjq8eHEC6qFnT63Lza"}], "images": [{"width": 640, "url": "https://i.scdn.co/image/894ff8a0996cb02f5c7b934fd4f61caefd63ca2d", "height": 640}, {"width": 300, "url": "https://i.scdn.co/image/d835851691b667d4dd34047529570b7350feff3a", "height": 300}, {"width": 64, "url": "https://i.scdn.co/image/68739c5fc73628702662e43e22dae02261337836", "height": 64}], "available_markets": ["AD", "AE", "AR", "AT", "AU", "BE", "BG", "BH", "BO", "BR", "CA", "CH", "CL", "CO", "CR", "CY", "CZ", "DE", "DK", "DO", "DZ", "EC", "EE", "EG", "ES", "FI", "FR", "GB", "GR", "GT", "HK", "HN", "HU", "ID", "IE", "IL", "IN", "IS", "IT", "JO", "JP", "KW", "LB", "LI", "LT", "LU", "LV", "MA", "MC", "MT", "MX", "MY", "NI", "NL", "NO", "NZ", "OM", "PA", "PE", "PH", "PL", "PS", "PT", "PY", "QA", "RO", "SA", "SE", "SG", "SK", "SV", "TH", "TN", "TR", "TW", "US", "UY", "VN", "ZA"], "album_type": "single", "release_date_precision": "day", "name": "Breezeblocks (Tinlicker Remix)", "external_urls": {"spotify": "https://open.spotify.com/album/4cyGkmKOzaMyiI4ZMHFOIS"}, "id": "4cyGkmKOzaMyiI4ZMHFOIS", "uri": "spotify:album:4cyGkmKOzaMyiI4ZMHFOIS"}, "external_ids": {"isrc": "GB5KW1902833"}, "name": "Breezeblocks - Tinlicker Extended Mix", "duration_ms": 411172, "is_local": false, "disc_number": 1, "href": "https://api.spotify.com/v1/tracks/72DJYvdItwcnDUzbViU1Kl", "artists": [{"type": "artist", "name": "alt-J", "external_urls": {"spotify": "https://open.spotify.com/artist/3XHO7cRUPCLOr6jwp8vsx5"}, "id": "3XHO7cRUPCLOr6jwp8vsx5", "uri": "spotify:artist:3XHO7cRUPCLOr6jwp8vsx5", "href": "https://api.spotify.com/v1/artists/3XHO7cRUPCLOr6jwp8vsx5"}, {"type": "artist", "name": "Tinlicker", "external_urls": {"spotify": "https://open.spotify.com/artist/5EmEZjq8eHEC6qFnT63Lza"}, "id": "5EmEZjq8eHEC6qFnT63Lza", "uri": "spotify:artist:5EmEZjq8eHEC6qFnT63Lza", "href": "https://api.spotify.com/v1/artists/5EmEZjq8eHEC6qFnT63Lza"}], "track_number": 2, "available_markets": ["AD", "AE", "AR", "AT", "AU", "BE", "BG", "BH", "BO", "BR", "CA", "CH", "CL", "CO", "CR", "CY", "CZ", "DE", "DK", "DO", "DZ", "EC", "EE", "EG", "ES", "FI", "FR", "GB", "GR", "GT", "HK", "HN", "HU", "ID", "IE", "IL", "IN", "IS", "IT", "JO", "JP", "KW", "LB", "LI", "LT", "LU", "LV", "MA", "MC", "MT", "MX", "MY", "NI", "NL", "NO", "NZ", "OM", "PA", "PE", "PH", "PL", "PS", "PT", "PY", "QA", "RO", "SA", "SE", "SG", "SK", "SV", "TH", "TN", "TR", "TW", "US", "UY", "VN", "ZA"], "type": "track", "preview_url": "https://p.scdn.co/mp3-preview/9b698b058d3de173adfdb14cc420611590679a48?cid=0c947b9d3f7547e28aee080174c283c9", "explicit": false, "external_urls": {"spotify": "https://open.spotify.com/track/72DJYvdItwcnDUzbViU1Kl"}, "id": "72DJYvdItwcnDUzbViU1Kl", "uri": "spotify:track:72DJYvdItwcnDUzbViU1Kl", "popularity": 34}], "previous": null, "href": "https://api.spotify.com/v1/search?query=artist%3Aalt-J+track%3ABreezeblocks&type=track&offset=0&limit=5", "limit": 5, "total": 9, "next": "https://api.spotify.com/v1/search?query=artist%3Aalt-J+track%3ABreezeblocks&type=track&offset=5&limit=5"}}