{"tracks": {"offset": 0, "items": [{"album": {"total_tracks": 10, "type": "album", "release_date": "2009-05-25", "href": "https://api.spotify.com/v1/albums/0IQbQC6V4UuHLcgO9Yt3uu", "artists": [{"type": "artist", "name": "Phoenix", "external_urls": {"spotify": "https://open.spotify.com/artist/1xU878Z1QtBldR7ru9owdU"}, "id": "1xU878Z1QtBldR7ru9owdU", "uri": "spotify:artist:1xU878Z1QtBldR7ru9owdU", "href": "https://api.spotify.com/v1/artists/1xU878Z1QtBldR7ru9owdU"}], "images": [{"width": 640, "url": "https://i.scdn.co/image/ab67616d0000b273738f2371ae0c10a381aa5052", "height": 640}, {"width": 300, "url": "https://i.scdn.co/image/ab67616d00001e02738f2371ae0c10a381aa5052", "height": 300}, {"width": 64, "url": "https://i.scdn.co/image/ab67616d00004851738f2371ae0c10a381aa5052", "height": 64}], "available_markets": ["CA", "US"], "album_type": "album", "release_date_precision": "day", "name": "Wolfgang Amadeus Phoenix", "external_urls": {"spotify": "https://open.spotify.com/album/0IQbQC6V4UuHLcgO9Yt3uu"}, "id": "0IQbQC6V4UuHLcgO9Yt3uu", "uri": "spotify:album:0IQbQC6V4UuHLcgO9Yt3uu"}, "external_ids": {"isrc": "FR31Q0900001"}, "name": "Lisztomania", "duration_ms": 241640, "is_local": false, "disc_number": 1, "href": "https://api.spotify.com/v1/tracks/7hwcojGiRqYm100tSmpZE3", "artists": [{"type": "artist", "name": "Phoenix", "external_urls": {"spotify": "https://open.spotify.com/artist/1xU878Z1QtBldR7ru9owdU"}, "id": "1xU878Z1QtBldR7ru9owdU", "uri": "spotify:artist:1xU878Z1QtBldR7ru9owdU", "href": "https://api.spotify.com/v1/artists/1xU878Z1QtBldR7ru9owdU"}], "track_number": 1, "available_markets": ["CA", "US"], "type": "track", "preview_url": "https://p.scdn.co/mp3-preview/0029b7635f0aa9e3a92868a58cb916fb43338c92?cid=0c947b9d3f7547e28aee080174c283c9", "explicit": false, "external_urls": {"spotify": "https://open.spotify.com/track/7hwcojGiRqYm100tSmpZE3"}, "id": "7hwcojGiRqYm100tSmpZE3", "uri": "spotify:track:7hwcojGiRqYm100tSmpZE3", "popularity": 64}, {"album": {"total_tracks": 3, "type": "album", "release_date": "2009-06-15", "href": "https://api.spotify.com/v1/albums/1nSxkq2wInNszSPz0gyKEE", "artists": [{"type": "artist", "name": "Phoenix", "external_urls": {"spotify": "https://open.spotify.com/artist/1xU878Z1QtBldR7ru9owdU"}, "id": "1xU878Z1QtBldR7ru9owdU", "uri": "spotify:artist:1xU878Z1QtBldR7ru9owdU", "href": "https://api.spotify.com/v1/artists/1xU878Z1QtBldR7ru9owdU"}], "images": [{"width": 640, "url": "https://i.scdn.co/image/ab67616d0000b273e9f4ed96c3b7f5b831e73d39", "height": 640}, {"width": 300, "url": "https://i.scdn.co/image/ab67616d00001e02e9f4ed96c3b7f5b831e73d39", "height": 300}, {"width": 64, "url": "https://i.scdn.co/image/ab67616d00004851e9f4ed96c3b7f5b831e73d39", "height": 64}], "available_markets": ["AD", "AE", "AR", "AT", "AU", "BE", "BG", "BH", "BO", "BR", "CA", "CH", "CL", "CO", "CR", "CY", "CZ", "DE", "DK", "DO", "DZ", "EC", "EE", "EG", "ES", "FI", "FR", "GB", "GR", "GT", "HK", "HN", "HU", "ID", "IE", "IL", "IN", "IS", "IT", "JO", "JP", "KW", "LB", "LI", "LT", "LU", "LV", "MA", "MC", "MT", "MX", "MY", "NI", "NL", "NO", "NZ", "OM", "PA", "PE", "PH", "PL", "PS", "PT", "PY", "QA", "RO", "SA", "SE", "SG", "SK", "SV", "TH", "TN", "TR", "TW", "US", "UY", "VN", "ZA"], "album_type": "single", "release_date_precision": "day", "name": "Kitsun\u00e9: Lisztomania Remixes - EP", "external_urls": {"spotify": "https://open.spotify.com/album/1nSxkq2wInNszSPz0gyKEE"}, "id": "1nSxkq2wInNszSPz0gyKEE", "uri": "spotify:album:1nSxkq2wInNszSPz0gyKEE"}, "external_ids": {"isrc": "FR31Q0900013"}, "name": "Lisztomania - Classixx Version", "duration_ms": 304413, "is_local": false, "disc_number": 1, "href": "https://api.spotify.com/v1/tracks/5rv4eHaluaLvw9yUSQP9sR", "artists": [{"type": "artist", "name": "Phoenix", "external_urls": {"spotify": "https://open.spotify.com/artist/1xU878Z1QtBldR7ru9owdU"}, "id": "1xU878Z1QtBldR7ru9owdU", "uri": "spotify:artist:1xU878Z1QtBldR7ru9owdU", "href": "https://api.spotify.com/v1/artists/1xU878Z1QtBldR7ru9owdU"}, {"type": "artist", "name": "Classixx", "external_urls": {"spotify": "https://open.spotify.com/artist/0vUTfcBDZZo2OUQJci5UNZ"}, "id": "0vUTfcBDZZo2OUQJci5UNZ", "uri": "spotify:artist:0vUTfcBDZZo2OUQJci5UNZ", "href": "https://api.spotify.com/v1/artists/0vUTfcBDZZo2OUQJci5UNZ"}], "track_number": 2, "available_markets": ["AD", "AE", "AR", "AT", "AU", "BE", "BG", "BH", "BO", "BR", "CA", "CH", "CL", "CO", "CR", "CY", "CZ", "DE", "DK", "DO", "DZ", "EC", "EE", "EG", "ES", "FI", "FR", "GB", "GR", "GT", "HK", "HN", "HU", "ID", "IE", "IL", "IN", "IS", "IT", "JO", "JP", "KW", "LB", "LI", "LT", "LU", "LV", "MA", "MC", "MT", "MX", "MY", "NI", "NL", "NO", "NZ", "OM", "PA", "PE", "PH", "PL", "PS", "PT", "PY", "QA", "RO", "SA", "SE", "SG", "SK", "SV", "TH", "TN", "TR", "TW", "US", "UY", "VN", "ZA"], "type": "track", "preview_url": "https://p.scdn.co/mp3-preview/c6af6fcd7933affbb405ef1931fc2b8a0d7e54cd?cid=0c947b9d3f7547e28aee080174c283c9", "explicit": false, "external_urls": {"spotify": "https://open.spotify.com/track/5rv4eHaluaLvw9yUSQP9sR"}, "id": "5rv4eHaluaLvw9yUSQP9sR", "uri": "spotify:track:5rv4eHaluaLvw9yUSQP9sR", "popularity": 38}, {"album": {"total_tracks": 15, "type": "album", "release_date": "2009-10-20", "href": "https://api.spotify.com/v1/albums/0DMW8W3NICQCWsBB2yYUTO", "artists": [{"type": "artist", "name": "Phoenix", "external_urls": {"spotify": "https://open.spotify.com/artist/1xU878Z1QtBldR7ru9owdU"}, "id": "1xU878Z1QtBldR7ru9owdU", "uri": "spotify:artist:1xU878Z1QtBldR7ru9owdU", "href": "https://api.spotify.com/v1/artists/1xU878Z1QtBldR7ru9owdU"}], "images": [{"width": 640, "url": "https://i.scdn.co/image/ab67616d0000b27343462d2257aaecb5f9ce4626", "height": 640}, {"width": 300, "url": "https://i.scdn.co/image/ab67616d00001e0243462d2257aaecb5f9ce4626", "height": 300}, {"width": 64, "url": "https://i.scdn.co/image/ab67616d0000485143462d2257aaecb5f9ce4626", "height": 64}], "available_markets": ["CA", "US"], "album_type": "album", "release_date_precision": "day", "name": "Wolfgang Amadeus Phoenix (Remix Collection)", "external_urls": {"spotify": "https://open.spotify.com/album/0DMW8W3NICQCWsBB2yYUTO"}, "id": "0DMW8W3NICQCWsBB2yYUTO", "uri": "spotify:album:0DMW8W3NICQCWsBB2yYUTO"}, "external_ids": {"isrc": "GBUM70903809"}, "name": "Lisztomania - Alex Metric Remix", "duration_ms": 308453, "is_local": false, "disc_number": 1, "href": "https://api.spotify.com/v1/tracks/5AYNoX8mueqiClxumfzm3a", "artists": [{"type": "artist", "name": "Phoenix", "external_urls": {"spotify": "https://open.spotify.com/artist/1xU878Z1QtBldR7ru9owdU"}, "id": "1xU878Z1QtBldR7ru9owdU", "uri": "spotify:artist:1xU878Z1QtBldR7ru9owdU", "href": "https://api.spotify.com/v1/artists/1xU878Z1QtBldR7ru9owdU"}], "track_number": 1, "available_markets": ["CA", "US"], "type": "track", "preview_url": "https://p.scdn.co/mp3-preview/c42251391de4e53c47bfeaabd4ca4a5ba3ebc4d9?cid=0c947b9d3f7547e28aee080174c283c9", "explicit": false, "external_urls": {"spotify": "https://open.spotify.com/track/5AYNoX8mueqiClxumfzm3a"}, "id": "5AYNoX8mueqiClxumfzm3a", "uri": "spotify:track:5AYNoX8mueqiClxumfzm3a", "popularity": 31}, {"album": {"total_tracks": 15, "type": "album", "release_date": "2009-10-20", "href": "https://api.spotify.com/v1/albums/0DMW8W3NICQCWsBB2yYUTO", "artists": [{"type": "artist", "name": "Phoenix", "external_urls": {"spotify": "https://open.spotify.com/artist/1xU878Z1QtBldR7ru9owdU"}, "id": "1xU878Z1QtBldR7ru9owdU", "uri": "spotify:artist:1xU878Z1QtBldR7ru9owdU", "href": "https://api.spotify.com/v1/artists/1xU878Z1QtBldR7ru9owdU"}], "images": [{"width": 640, "url": "https://i.scdn.co/image/ab67616d0000b27343462d2257aaecb5f9ce4626", "height": 640}, {"width": 300, "url": "https://i.scdn.co/image/ab67616d00001e0243462d2257aaecb5f9ce4626", "height": 300}, {"width": 64, "url": "https://i.scdn.co/image/ab67616d0000485143462d2257aaecb5f9ce4626", "height": 64}], "available_markets": ["CA", "US"], "album_type": "album", "release_date_precision": "day", "name": "Wolfgang Amadeus Phoenix (Remix Collection)", "external_urls": {"spotify": "https://open.spotify.com/album/0DMW8W3NICQCWsBB2yYUTO"}, "id": "0DMW8W3NICQCWsBB2yYUTO", "uri": "spotify:album:0DMW8W3NICQCWsBB2yYUTO"}, "external_ids": {"isrc": "GBUM70903813"}, "name": "Lisztomania - 25hrs a Day Remix", "duration_ms": 336933, "is_local": false, "disc_number": 1, "href": "https://api.spotify.com/v1/tracks/69o6JhcppTN2tDs1fr87J3", "artists": [{"type": "artist", "name": "Phoenix", "external_urls": {"spotify": "https://open.spotify.com/artist/1xU878Z1QtBldR7ru9owdU"}, "id": "1xU878Z1QtBldR7ru9owdU", "uri": "spotify:artist:1xU878Z1QtBldR7ru9owdU", "href": "https://api.spotify.com/v1/artists/1xU878Z1QtBldR7ru9owdU"}], "track_number": 9, "available_markets": ["CA", "US"], "type": "track", "preview_url": "https://p.scdn.co/mp3-preview/ccbc46d6a3668713fe755a14df05e71d4d68cc77?cid=0c947b9d3f7547e28aee080174c283c9", "explicit": false, "external_urls": {"spotify": "https://open.spotify.com/track/69o6JhcppTN2tDs1fr87J3"}, "id": "69o6JhcppTN2tDs1fr87J3", "uri": "spotify:track:69o6JhcppTN2tDs1fr87J3", "popularity": 17}, {"album": {"total_tracks": 14, "type": "album", "release_date": "2015-05-12", "href": "https://api.spotify.com/v1/albums/0zK73fmMcZFbAPlyA0lMd6", "artists": [{"type": "artist", "name": "Holy Ghost!", "external_urls": {"spotify": "https://open.spotify.com/artist/2Vhc7Y0Kc6HzMC6glKM4h6"}, "id": "2Vhc7Y0Kc6HzMC6glKM4h6", "uri": "spotify:artist:2Vhc7Y0Kc6HzMC6glKM4h6", "href": "https://api.spotify.com/v1/artists/2Vhc7Y0Kc6HzMC6glKM4h6"}], "images": [{"width": 640, "url": "https://i.scdn.co/image/ab67616d0000b2731c90326293ae8c16c5d476df", "height": 640}, {"width": 300, "url": "https://i.scdn.co/image/ab67616d00001e021c90326293ae8c16c5d476df", "height": 300}, {"width": 64, "url": "https://i.scdn.co/image/ab67616d000048511c90326293ae8c16c5d476df", "height": 64}], "available_markets": ["AD", "AE", "AR", "AT", "AU", "BE", "BG", "BH", "BO", "BR", "CA", "CH", "CL", "CO", "CR", "CY", "CZ", "DE", "DK", "DO", "DZ", "EC", "EE", "EG", "ES", "FI", "FR", "GB", "GR", "GT", "HK", "HN", "HU", "ID", "IE", "IL", "IN", "IS", "IT", "JO", "JP", "KW", "LB", "LI", "LT", "LU", "LV", "MA", "MC", "MT", "MX", "MY", "NI", "NL", "NO", "NZ", "OM", "PA", "PE", "PH", "PL", "PT", "PY", "QA", "RO", "SA", "SE", "SG", "SK", "SV", "TH", "TN", "TR", "TW", "US", "UY", "VN", "ZA"], "album_type": "album", "release_date_precision": "day", "name": "Work for Hire (Remixes)", "external_urls": {"spotify": "https://open.spotify.com/album/0zK73fmMcZFbAPlyA0lMd6"}, "id": "0zK73fmMcZFbAPlyA0lMd6", "uri": "spotify:album:0zK73fmMcZFbAPlyA0lMd6"}, "external_ids": {"isrc": "GBKPL1560327"}, "name": "Lisztomania - Holy Ghost! Remix", "duration_ms": 358480, "is_local": false, "disc_number": 1, "href": "https://api.spotify.com/v1/tracks/1wR8f00cLwwwANkHTuEbQk", "artists": [{"type": "artist", "name": "Phoenix", "external_urls": {"spotify": "https://open.spotify.com/artist/1xU878Z1QtBldR7ru9owdU"}, "id": "1xU878Z1QtBldR7ru9owdU", "uri": "spotify:artist:1xU878Z1QtBldR7ru9owdU", "href": "https://api.spotify.com/v1/artists/1xU878Z1QtBldR7ru9owdU"}], "track_number": 4, "available_markets": ["AD", "AE", "AR", "AT", "AU", "BE", "BG", "BH", "BO", "BR", "CA", "CH", "CL", "CO", "CR", "CY", "CZ", "DE", "DK", "DO", "DZ", "EC", "EE", "EG", "ES", "FI", "FR", "GB", "GR", "GT", "HK", "HN", "HU", "ID", "IE", "IL", "IN", "IS", "IT", "JO", "JP", "KW", "LB", "LI", "LT", "LU", "LV", "MA", "MC", "MT", "MX", "MY", "NI", "NL", "NO", "NZ", "OM", "PA", "PE", "PH", "PL", "PT", "PY", "QA", "RO", "SA", "SE", "SG", "SK", "SV", "TH", "TN", "TR", "TW", "US", "UY", "VN", "ZA"], "type": "track", "preview_url": "https://p.scdn.co/mp3-preview/1487ae58aae9871c4e7a7ef410a9375879c3408f?cid=0c947b9d3f7547e28aee080174c283c9", "explicit": false, "external_urls": {"spotify": "https://open.spotify.com/track/1wR8f00cLwwwANkHTuEbQk"}, "id": "1wR8f00cLwwwANkHTuEbQk", "uri": "spotify:track:1wR8f00cLwwwANkHTuEbQk", "popularity": 25}], "previous": null, "href": "https://api.spotify.com/v1/search?query=artist%3APhoenix+track%3ALisztomania&type=track&offset=0&limit=5", "limit": 5, "total": 13, "next": "https://api.spotify.com/v1/search?query=artist%3APhoenix+track%3ALisztomania&type=track&offset=5&limit=5"}}