{"tracks": {"offset": 0, "items": [{"album": {"total_tracks": 10, "type": "album", "release_date": "2011-05-23", "href": "https://api.spotify.com/v1/albums/7Kmmw7Z5D2UD5MVwdm10sT", "artists": [{"type": "artist", "name": "Foster The People", "external_urls": {"spotify": "https://open.spotify.com/artist/7gP3bB2nilZXLfPHJhMdvc"}, "id": "7gP3bB2nilZXLfPHJhMdvc", "uri": "spotify:artist:7gP3bB2nilZXLfPHJhMdvc", "href": "https://api.spotify.com/v1/artists/7gP3bB2nilZXLfPHJhMdvc"}], "images": [{"width": 640, "url": "https://i.scdn.co/image/ab67616d0000b273c03f8ef4160b2a3b72dd407d", "height": 640}, {"width": 300, "url": "https://i.scdn.co/image/ab67616d00001e02c03f8ef4160b2a3b72dd407d", "height": 300}, {"width": 64, "url": "https://i.scdn.co/image/ab67616d00004851c03f8ef4160b2a3b72dd407d", "height": 64}], "available_markets": ["AD", "AE", "AR", "AT", "AU", "BE", "BG", "BH", "BO", "BR", "CA", "CH", "CL", "CO", "CR", "CY", "CZ", "DE", "DK", "DO", "DZ", "EC", "EE", "EG", "ES", "FI", "FR", "GB", "GR", "GT", "HK", "HN", "HU", "ID", "IE", "IL", "IN", "IS", "IT", "JO", "JP", "KW", "LB", "LI", "LT", "LU", "LV", "MA", "MC", "MT", "MX", "MY", "NI", "NL", "NO", "NZ", "OM", "PA", "PE", "PH", "PL", "PS", "PT", "PY", "QA", "RO", "SA", "SE", "SG", "SK", "SV", "TH", "TN", "TR", "TW", "US", "UY", "VN", "ZA"], "album_type": "album", "release_date_precision": "day", "name": "Torches", "external_urls": {"spotify": "https://open.spotify.com/album/7Kmmw7Z5D2UD5MVwdm10sT"}, "id": "7Kmmw7Z5D2UD5MVwdm10sT", "uri": "spotify:album:7Kmmw7Z5D2UD5MVwdm10sT"}, "external_ids": {"isrc": "USSM11002931"}, "name": "Pumped Up Kicks", "duration_ms": 239600, "is_local": false, "disc_number": 1, "href": "https://api.spotify.com/v1/tracks/7w87IxuO7BDcJ3YUqCyMTT", "artists": [{"type": "artist", "name": "Foster The People", "external_urls": {"spotify": "https://open.spotify.com/artist/7gP3bB2nilZXLfPHJhMdvc"}, "id": "7gP3bB2nilZXLfPHJhMdvc", "uri": "spotify:artist:7gP3bB2nilZXLfPHJhMdvc", "href": "https://api.spotify.com/v1/artists/7gP3bB2nilZXLfPHJhMdvc"}], "track_number": 2, "available_markets": ["AD", "AE", "AR", "AT", "AU", "BE", "BG", "BH", "BO", "BR", "CA", "CH", "CL", "CO", "CR", "CY", "CZ", "DE", "DK", "DO", "DZ", "EC", "EE", "EG", "ES", "FI", "FR", "GB", "GR", "GT", "HK", "HN", "HU", "ID", "IE", "IL", "IN", "IS", "IT", "JO", "JP", "KW", "LB", "LI", "LT", "LU", "LV", "MA", "MC", "MT", "MX", "MY", "NI", "NL", "NO", "NZ", "OM", "PA", "PE", "PH", "PL", "PS", "PT", "PY", "QA", "RO", "SA", "SE", "SG", "SK", "SV", "TH", "TN", "TR", "TW", "US", "UY", "VN", "ZA"], "type": "track", "preview_url": "https://p.scdn.co/mp3-preview/db83e69f4ef8a49f5b77e367f7031cc3bcc41b1a?cid=0c947b9d3f7547e28aee080174c283c9", "explicit": false, "external_urls": {"spotify": "https://open.spotify.com/track/7w87IxuO7BDcJ3YUqCyMTT"}, "id": "7w87IxuO7BDcJ3YUqCyMTT", "uri": "spotify:track:7w87IxuO7BDcJ3YUqCyMTT", "popularity": 84}, {"album": {"total_tracks": 30, "type": "album", "release_date": "2018-12-07", "href": "https://api.spotify.com/v1/albums/6iE4f7SmNoKRqm5yQBwyPl", "artists": [{"type": "artist", "name": "Various Artists", "external_urls": {"spotify": "https://open.spotify.com/artist/0LyfQWJT6nXafLPZqxe9Of"}, "id": "0LyfQWJT6nXafLPZqxe9Of", "uri": "spotify:artist:0LyfQWJT6nXafLPZqxe9Of", "href": "https://api.spotify.com/v1/artists/0LyfQWJT6nXafLPZqxe9Of"}], "images": [{"width": 640, "url": "https://i.scdn.co/image/ab67616d0000b273173f7e6c53b0ec670d75eec9", "height": 640}, {"width": 300, "url": "https://i.scdn.co/image/ab67616d00001e02173f7e6c53b0ec670d75eec9", "height": 300}, {"width": 64, "url": "https://i.scdn.co/image/ab67616d00004851173f7e6c53b0ec670d75eec9", "height": 64}], "available_markets": ["AD", "AE", "AR", "AT", "AU", "BE", "BG", "BH", "BO", "BR", "CA", "CH", "CL", "CO", "CR", "CY", "CZ", "DE", "DK", "DO", "DZ", "EC", "EE", "EG", "ES", "FI", "FR", "GB", "GR", "GT", "HK", "HN", "HU", "ID", "IE", "IL", "IN", "IS", "IT", "JO", "JP", "KW", "LB", "LI", "LT", "LU", "LV", "MA", "MC", "MT", "MX", "MY", "NI", "NL", "NO", "NZ", "OM", "PA", "PE", "PH", "PL", "PS", "PT", "PY", "QA", "RO", "SA", "SE", "SG", "SK", "SV", "TH", "TN", "TR", "TW", "US", "UY", "VN", "ZA"], "album_type": "compilation", "release_date_precision": "day", "name": "New Year's Eve - NYE 2018/2019", "external_urls": {"spotify": "https://open.spotify.com/album/6iE4f7SmNoKRqm5yQBwyPl"}, "id": "6iE4f7SmNoKRqm5yQBwyPl", "uri": "spotify:album:6iE4f7SmNoKRqm5yQBwyPl"}, "external_ids": {"isrc": "USSM11002931"}, "name": "Pumped Up Kicks", "duration_ms": 239600, "is_local": false, "disc_number": 1, "href": "https://api.spotify.com/v1/tracks/2ED8sc40RVFvgqao2r3Qqn", "artists": [{"type": "artist", "name": "Foster The People", "external_urls": {"spotify": "https://open.spotify.com/artist/7gP3bB2nilZXLfPHJhMdvc"}, "id": "7gP3bB2nilZXLfPHJhMdvc", "uri": "spotify:artist:7gP3bB2nilZXLfPHJhMdvc", "href": "https://api.spotify.com/v1/artists/7gP3bB2nilZXLfPHJhMdvc"}], "track_number": 24, "available_markets": ["AD", "AE", "AR", "AT", "AU", "BE", "BG", "BH", "BO", "BR", "CA", "CH", "CL", "CO", "CR", "CY", "CZ", "DE", "DK", "DO", "DZ", "EC", "EE", "EG", "ES", "FI", "FR", "GB", "GR", "GT", "HK", "HN", "HU", "ID", "IE", "IL", "IN", "IS", "IT", "JO", "JP", "KW", "LB", "LI", "LT", "LU", "LV", "MA", "MC", "MT", "MX", "MY", "NI", "NL", "NO", "NZ", "OM", "PA", "PE", "PH", "PL", "PS", "PT", "PY", "QA", "RO", "SA", "SE", "SG", "SK", "SV", "TH", "TN", "TR", "TW", "US", "UY", "VN", "ZA"], "type": "track", "preview_url": "https://p.scdn.co/mp3-preview/db83e69f4ef8a49f5b77e367f7031cc3bcc41b1a?cid=0c947b9d3f7547e28aee080174c283c9", "explicit": false, "external_urls": {"spotify": "https://open.spotify.com/track/2ED8sc40RVFvgqao2r3Qqn"}, "id": "2ED8sc40RVFvgqao2r3Qqn", "uri": "spotify:track:2ED8sc40RVFvgqao2r3Qqn", "popularity": 53}, {"album": {"total_tracks": 31, "type": "album", "release_date": "2019-04-11", "href": "https://api.spotify.com/v1/albums/5jdzXYmv7zWMdoJzcXrFQ9", "artists": [{"type": "artist", "name": "Various Artists", "external_urls": {"spotify": "https://open.spotify.com/artist/0LyfQWJT6nXafLPZqxe9Of"}, "id": "0LyfQWJT6nXafLPZqxe9Of", "uri": "spotify:artist:0LyfQWJT6nXafLPZqxe9Of", "href": "https://api.spotify.com/v1/artists/0LyfQWJT6nXafLPZqxe9Of"}], "images": [{"width": 640, "url": "https://i.scdn.co/image/ab67616d0000b2738634df56f01887c06c8218f2", "height": 640}, {"width": 300, "url": "https://i.scdn.co/image/ab67616d00001e028634df56f01887c06c8218f2", "height": 300}, {"width": 64, "url": "https://i.scdn.co/image/ab67616d000048518634df56f01887c06c8218f2", "height": 64}], "available_markets": ["AD", "AE", "AR", "AT", "AU", "BE", "BG", "BH", "BO", "BR", "CA", "CH", "CL", "CO", "CR", "CY", "CZ", "DE", "DK", "DO", "DZ", "EC", "EE", "EG", "ES", "FI", "FR", "GB", "GR", "GT", "HK", "HN", "HU", "ID", "IE", "IL", "IN", "IS", "IT", "JO", "JP", "KW", "LB", "LI", "LT", "LU", "LV", "MA", "MC", "MT", "MX", "MY", "NI", "NL", "NO", "NZ", "OM", "PA", "PE", "PH", "PL", "PS", "PT", "PY", "QA", "RO", "SA", "SE", "SG", "SK", "SV", "TH", "TN", "TR", "TW", "US", "UY", "VN", "ZA"], "album_type": "compilation", "release_date_precision": "day", "name": "2010s Hits", "external_urls": {"spotify": "https://open.spotify.com/album/5jdzXYmv7zWMdoJzcXrFQ9"}, "id": "5jdzXYmv7zWMdoJzcXrFQ9", "uri": "spotify:album:5jdzXYmv7zWMdoJzcXrFQ9"}, "external_ids": {"isrc": "USSM11002931"}, "name": "Pumped Up Kicks", "duration_ms": 238046, "is_local": false, "disc_number": 1, "href": "https://api.spotify.com/v1/tracks/5Y5eLTDsnq1xTUpgh4uRno", "artists": [{"type": "artist", "name": "Foster The People", "external_urls": {"spotify": "https://open.spotify.com/artist/7gP3bB2nilZXLfPHJhMdvc"}, "id": "7gP3bB2nilZXLfPHJhMdvc", "uri": "spotify:artist:7gP3bB2nilZXLfPHJhMdvc", "href": "https://api.spotify.com/v1/artists/7gP3bB2nilZXLfPHJhMdvc"}], "track_number": 3, "available_markets": ["AD", "AE", "AR", "AT", "AU", "BE", "BG", "BH", "BO", "BR", "CA", "CH", "CL", "CO", "CR", "CY", "CZ", "DE", "DK", "DO", "DZ", "EC", "EE", "EG", "ES", "FI", "FR", "GB", "GR", "GT", "HK", "HN", "HU", "ID", "IE", "IL", "IN", "IS", "IT", "JO", "JP", "KW", "LB", "LI", "LT", "LU", "LV", "MA", "MC", "MT", "MX", "MY", "NI", "NL", "NO", "NZ", "OM", "PA", "PE", "PH", "PL", "PS", "PT", "PY", "QA", "RO", "SA", "SE", "SG", "SK", "SV", "TH", "TN", "TR", "TW", "US", "UY", "VN", "ZA"], "type": "track", "preview_url": "https://p.scdn.co/mp3-preview/6d494a4ce2e46b66494d989e8f8430bbbe69cea7?cid=0c947b9d3f7547e28aee080174c283c9", "explicit": false, "external_urls": {"spotify": "https://open.spotify.com/track/5Y5eLTDsnq1xTUpgh4uRno"}, "id": "5Y5eLTDsnq1xTUpgh4uRno", "uri": "spotify:track:5Y5eLTDsnq1xTUpgh4uRno", "popularity": 37}, {"album": {"total_tracks": 50, "type": "album", "release_date": "2014-06-10", "href": "https://api.spotify.com/v1/albums/2NpjldKWg9XuoPU8gxBYds", "artists": [{"type": "artist", "name": "Various Artists", "external_urls": {"spotify": "https://open.spotify.com/artist/0LyfQWJT6nXafLPZqxe9Of"}, "id": "0LyfQWJT6nXafLPZqxe9Of", "uri": "spotify:artist:0LyfQWJT6nXafLPZqxe9Of", "href": "https://api.spotify.com/v1/artists/0LyfQWJT6nXafLPZqxe9Of"}], "images": [{"width": 640, "url": "https://i.scdn.co/image/ab67616d0000b2734c2aa888b8c54c42462bf761", "height": 640}, {"width": 300, "url": "https://i.scdn.co/image/ab67616d00001e024c2aa888b8c54c42462bf761", "height": 300}, {"width": 64, "url": "https://i.scdn.co/image/ab67616d000048514c2aa888b8c54c42462bf761", "height": 64}], "available_markets": ["US"], "album_type": "compilation", "release_date_precision": "day", "name": "50 Pop Sensations", "external_urls": {"spotify": "https://open.spotify.com/album/2NpjldKWg9XuoPU8gxBYds"}, "id": "2NpjldKWg9XuoPU8gxBYds", "uri": "spotify:album:2NpjldKWg9XuoPU8gxBYds"}, "external_ids": {"isrc": "USSM11002931"}, "name": "Pumped Up Kicks", "duration_ms": 239600, "is_local": false, "disc_number": 1, "href": "https://api.spotify.com/v1/tracks/6xyWmzLDVSJcYBWidQ38Fi", "artists": [{"type": "artist", "name": "Foster The People", "external_urls": {"spotify": "https://open.spotify.com/artist/7gP3bB2nilZXLfPHJhMdvc"}, "id": "7gP3bB2nilZXLfPHJhMdvc", "uri": "spotify:artist:7gP3bB2nilZXLfPHJhMdvc", "href": "https://api.spotify.com/v1/artists/7gP3bB2nilZXLfPHJhMdvc"}], "track_number": 15, "available_markets": ["US"], "type": "track", "preview_url": "https://p.scdn.co/mp3-preview/db83e69f4ef8a49f5b77e367f7031cc3bcc41b1a?cid=0c947b9d3f7547e28aee080174c283c9", "explicit": false, "external_urls": {"spotify": "https://open.spotify.com/track/6xyWmzLDVSJcYBWidQ38Fi"}, "id": "6xyWmzLDVSJcYBWidQ38Fi", "uri": "spotify:track:6xyWmzLDVSJcYBWidQ38Fi", "popularity": 23}, {"album": {"total_tracks": 50, "type": "album", "release_date": "2018-04-10", "href": "https://api.spotify.com/v1/albums/2kcUXoH9BvKlt1eEsQkRR6", "artists": [{"type": "artist", "name": "Various Artists", "external_urls": {"spotify": "https://open.spotify.com/artist/0LyfQWJT6nXafLPZqxe9Of"}, "id": "0LyfQWJT6nXafLPZqxe9Of", "uri": "spotify:artist:0LyfQWJT6nXafLPZqxe9Of", "href": "https://api.spotify.com/v1/artists/0LyfQWJT6nXafLPZqxe9Of"}], "images": [{"width": 640, "url": "https://i.scdn.co/image/ab67616d0000b273179f847e4980d1b8374e1664", "height": 640}, {"width": 300, "url": "https://i.scdn.co/image/ab67616d00001e02179f847e4980d1b8374e1664", "height": 300}, {"width": 64, "url": "https://i.scdn.co/image/ab67616d00004851179f847e4980d1b8374e1664", "height": 64}], "available_markets": ["AD", "AE", "AR", "AT", "AU", "BE", "BG", "BH", "BO", "BR", "CA", "CH", "CL", "CO", "CR", "CY", "CZ", "DE", "DK", "DO", "DZ", "EC", "EE", "EG", "ES", "FI", "FR", "GB", "GR", "GT", "HK", "HN", "HU", "ID", "IE", "IL", "IN", "IS", "IT", "JO", "JP", "KW", "LB", "LI", "LT", "LU", "LV", "MA", "MC", "MT", "MX", "MY", "NI", "NL", "NO", "NZ", "OM", "PA", "PE", "PH", "PL", "PS", "PT", "PY", "QA", "RO", "SA", "SE", "SG", "SK", "SV", "TH", "TN", "TR", "TW", "US", "UY", "VN", "ZA"], "album_type": "compilation", "release_date_precision": "day", "name": "Coffeehouse Classics Vol. 1", "external_urls": {"spotify": "https://open.spotify.com/album/2kcUXoH9BvKlt1eEsQkRR6"}, "id": "2kcUXoH9BvKlt1eEsQkRR6", "uri": "spotify:album:2kcUXoH9BvKlt1eEsQkRR6"}, "external_ids": {"isrc": "USSM11002931"}, "name": "Pumped Up Kicks", "duration_ms": 238146, "is_local": false, "disc_number": 1, "href": "https://api.spotify.com/v1/tracks/0qcVzQKAVn7kYWJKRtXedl", "artists": [{"type": "artist", "name": "Foster The People", "external_urls": {"spotify": "https://open.spotify.com/artist/7gP3bB2nilZXLfPHJhMdvc"}, "id": "7gP3bB2nilZXLfPHJhMdvc", "uri": "spotify:artist:7gP3bB2nilZXLfPHJhMdvc", "href": "https://api.spotify.com/v1/artists/7gP3bB2nilZXLfPHJhMdvc"}], "track_number": 28, "available_markets": ["AD", "AE", "AR", "AT", "AU", "BE", "BG", "BH", "BO", "BR", "CA", "CH", "CL", "CO", "CR", "CY", "CZ", "DE", "DK", "DO", "DZ", "EC", "EE", "EG", "ES", "FI", "FR", "GB", "GR", "GT", "HK", "HN", "HU", "ID", "IE", "IL", "IN", "IS", "IT", "JO", "JP", "KW", "LB", "LI", "LT", "LU", "LV", "MA", "MC", "MT", "MX", "MY", "NI", "NL", "NO", "NZ", "OM", "PA", "PE", "PH", "PL", "PS", "PT", "PY", "QA", "RO", "SA", "SE", "SG", "SK", "SV", "TH", "TN", "TR", "TW", "US", "UY", "VN", "ZA"], "type": "track", "preview_url": "https://p.scdn.co/mp3-preview/92ceb73d05272a453a15e23f3fdef44f550c6ce7?cid=0c947b9d3f7547e28aee080174c283c9", "explicit": false, "external_urls": {"spotify": "https://open.spotify.com/track/0qcVzQKAVn7kYWJKRtXedl"}, "id": "0qcVzQKAVn7kYWJKRtXedl", "uri": "spotify:track:0qcVzQKAVn7kYWJKRtXedl", "popularity": 28}], "previous": null, "href": "https://api.spotify.com/v1/search?query=artist%3AFoster+The+People+track%3APumped+up+Kicks&type=track&offset=0&limit=5", "limit": 5, "total": 9, "next": "https://api.spotify.com/v1/search?query=artist%3AFoster+The+People+track%3APumped+up+Kicks&type=track&offset=5&limit=5"}}