{"tracks": {"offset": 0, "items": [{"album": {"total_tracks": 10, "type": "album", "release_date": "2012-12-07", "href": "https://api.spotify.com/v1/albums/58ufpQsJ1DS5kq4hhzQDiI", "artists": [{"type": "artist", "name": "Bruno Mars", "external_urls": {"spotify": "https://open.spotify.com/artist/0du5cEVh5yTK9QJze8zA0C"}, "id": "0du5cEVh5yTK9QJze8zA0C", "uri": "spotify:artist:0du5cEVh5yTK9QJze8zA0C", "href": "https://api.spotify.com/v1/artists/0du5cEVh5yTK9QJze8zA0C"}], "images": [{"width": 640, "url": "https://i.scdn.co/image/ab67616d0000b273926f43e7cce571e62720fd46", "height": 640}, {"width": 300, "url": "https://i.scdn.co/image/ab67616d00001e02926f43e7cce571e62720fd46", "height": 300}, {"width": 64, "url": "https://i.scdn.co/image/ab67616d00004851926f43e7cce571e62720fd46", "height": 64}], "available_markets": ["AE", "AR", "AT", "AU", "BE", "BG", "BH", "BO", "BR", "CA", "CH", "CL", "CO", "CR", "CY", "CZ", "DE", "DK", "DO", "DZ", "EC", "EE", "EG", "ES", "FI", "FR", "GB", "GR", "GT", "HK", "HN", "HU", "ID", "IE", "IL", "IS", "IT", "JO", "JP", "KW", "LB", "LT", "LU", "LV", "MA", "MT", "MX", "MY", "NI", "NL", "NO", "NZ", "OM", "PA", "PE", "PH", "PL", "PT", "PY", "QA", "RO", "SA", "SG", "SK", "SV", "TH", "TN", "TR", "TW", "US", "UY", "VN", "ZA"], "album_type": "album", "release_date_precision": "day", "name": "Unorthodox Jukebox", "external_urls": {"spotify": "https://open.spotify.com/album/58ufpQsJ1DS5kq4hhzQDiI"}, "id": "58ufpQsJ1DS5kq4hhzQDiI", "uri": "spotify:album:58ufpQsJ1DS5kq4hhzQDiI"}, "external_ids": {"isrc": "USAT21203287"}, "name": "Locked Out of Heaven", "duration_ms": 233478, "is_local": false, "disc_number": 1, "href": "https://api.spotify.com/v1/tracks/3w3y8KPTfNeOKPiqUTakBh", "artists": [{"type": "artist", "name": "Bruno Mars", "external_urls": {"spotify": "https://open.spotify.com/artist/0du5cEVh5yTK9QJze8zA0C"}, "id": "0du5cEVh5yTK9QJze8zA0C", "uri": "spotify:artist:0du5cEVh5yTK9QJze8zA0C", "href": "https://api.spotify.com/v1/artists/0du5cEVh5yTK9QJze8zA0C"}], "track_number": 2, "available_markets": ["AE", "AR", "AT", "AU", "BE", "BG", "BH", "BO", "BR", "CA", "CH", "CL", "CO", "CR", "CY", "CZ", "DE", "DK", "DO", "DZ", "EC", "EE", "EG", "ES", "FI", "FR", "GB", "GR", "GT", "HK", "HN", "HU", "ID", "IE", "IL", "IS", "IT", "JO", "JP", "KW", "LB", "LT", "LU", "LV", "MA", "MT", "MX", "MY", "NI", "NL", "NO", "NZ", "OM", "PA", "PE", "PH", "PL", "PT", "PY", "QA", "RO", "SA", "SG", "SK", "SV", "TH", "TN", "TR", "TW", "US", "UY", "VN", "ZA"], "type": "track", "preview_url": "https://p.scdn.co/mp3-preview/c647489f28d840b545b90e10067012f504dc7b68?cid=0c947b9d3f7547e28aee080174c283c9", "explicit": false, "external_urls": {"spotify": "https://open.spotify.com/track/3w3y8KPTfNeOKPiqUTakBh"}, "id": "3w3y8KPTfNeOKPiqUTakBh", "uri": "spotify:track:3w3y8KPTfNeOKPiqUTakBh", "popularity": 78}, {"album": {"total_tracks": 10, "type": "album", "release_date": "2012-12-10", "href": "https://api.spotify.com/v1/albums/7KBjLhk3IM27k3ry4vBk3i", "artists": [{"type": "artist", "name": "Bruno Mars", "external_urls": {"spotify": "https://open.spotify.com/artist/0du5cEVh5yTK9QJze8zA0C"}, "id": "0du5cEVh5yTK9QJze8zA0C", "uri": "spotify:artist:0du5cEVh5yTK9QJze8zA0C", "href": "https://api.spotify.com/v1/artists/0du5cEVh5yTK9QJze8zA0C"}], "images": [{"width": 640, "url": "https://i.scdn.co/image/ab67616d0000b2734afbeec18f65c3707207b7c9", "height": 640}, {"width": 300, "url": "https://i.scdn.co/image/ab67616d00001e024afbeec18f65c3707207b7c9", "height": 300}, {"width": 64, "url": "https://i.scdn.co/image/ab67616d000048514afbeec18f65c3707207b7c9", "height": 64}], "available_markets": ["CA", "GB", "ID", "IE", "NZ", "US", "ZA"], "album_type": "album", "release_date_precision": "day", "name": "Unorthodox Jukebox", "external_urls": {"spotify": "https://open.spotify.com/album/7KBjLhk3IM27k3ry4vBk3i"}, "id": "7KBjLhk3IM27k3ry4vBk3i", "uri": "spotify:album:7KBjLhk3IM27k3ry4vBk3i"}, "external_ids": {"isrc": "USAT21203287"}, "name": "Locked out of Heaven", "duration_ms": 233478, "is_local": false, "disc_number": 1, "href": "https://api.spotify.com/v1/tracks/1qCdYQdkWvm4cYXAuOlbyc", "artists": [{"type": "artist", "name": "Bruno Mars", "external_urls": {"spotify": "https://open.spotify.com/artist/0du5cEVh5yTK9QJze8zA0C"}, "id": "0du5cEVh5yTK9QJze8zA0C", "uri": "spotify:artist:0du5cEVh5yTK9QJze8zA0C", "href": "https://api.spotify.com/v1/artists/0du5cEVh5yTK9QJze8zA0C"}], "track_number": 2, "available_markets": ["CA", "GB", "ID", "IE", "NZ", "US", "ZA"], "type": "track", "preview_url": "https://p.scdn.co/mp3-preview/c647489f28d840b545b90e10067012f504dc7b68?cid=0c947b9d3f7547e28aee080174c283c9", "explicit": false, "external_urls": {"spotify": "https://open.spotify.com/track/1qCdYQdkWvm4cYXAuOlbyc"}, "id": "1qCdYQdkWvm4cYXAuOlbyc", "uri": "spotify:track:1qCdYQdkWvm4cYXAuOlbyc", "popularity": 47}, {"album": {"total_tracks": 4, "type": "album", "release_date": "2013-01-21", "href": "https://api.spotify.com/v1/albums/2vf1K6KumbRZnRHa1JeKyD", "artists": [{"type": "artist", "name": "Bruno Mars", "external_urls": {"spotify": "https://open.spotify.com/artist/0du5cEVh5yTK9QJze8zA0C"}, "id": "0du5cEVh5yTK9QJze8zA0C", "uri": "spotify:artist:0du5cEVh5yTK9QJze8zA0C", "href": "https://api.spotify.com/v1/artists/0du5cEVh5yTK9QJze8zA0C"}], "images": [{"width": 640, "url": "https://i.scdn.co/image/ab67616d0000b273374ea1730985555f1b1f6328", "height": 640}, {"width": 300, "url": "https://i.scdn.co/image/ab67616d00001e02374ea1730985555f1b1f6328", "height": 300}, {"width": 64, "url": "https://i.scdn.co/image/ab67616d00004851374ea1730985555f1b1f6328", "height": 64}], "available_markets": ["AD", "AE", "AR", "AT", "AU", "BE", "BH", "BO", "BR", "CA", "CH", "CL", "CO", "CR", "CY", "DE", "DK", "DO", "DZ", "EC", "EG", "ES", "FI", "FR", "GB", "GR", "GT", "HK", "HN", "ID", "IE", "IL", "IS", "IT", "JO", "JP", "KW", "LB", "LI", "LU", "MA", "MC", "MT", "MX", "MY", "NI", "NL", "NO", "NZ", "OM", "PA", "PE", "PH", "PT", "PY", "QA", "SA", "SE", "SG", "SV", "TH", "TN", "TR", "TW", "US", "UY", "VN", "ZA"], "album_type": "single", "release_date_precision": "day", "name": "Locked Out Of Heaven (Remixes)", "external_urls": {"spotify": "https://open.spotify.com/album/2vf1K6KumbRZnRHa1JeKyD"}, "id": "2vf1K6KumbRZnRHa1JeKyD", "uri": "spotify:album:2vf1K6KumbRZnRHa1JeKyD"}, "external_ids": {"isrc": "USAT21207624"}, "name": "Locked Out of Heaven - The M Machine Remix", "duration_ms": 242823, "is_local": false, "disc_number": 1, "href": "https://api.spotify.com/v1/tracks/5WlVx0a6VedSJ60JFYpRBp", "artists": [{"type": "artist", "name": "Bruno Mars", "external_urls": {"spotify": "https://open.spotify.com/artist/0du5cEVh5yTK9QJze8zA0C"}, "id": "0du5cEVh5yTK9QJze8zA0C", "uri": "spotify:artist:0du5cEVh5yTK9QJze8zA0C", "href": "https://api.spotify.com/v1/artists/0du5cEVh5yTK9QJze8zA0C"}], "track_number": 3, "available_markets": ["AD", "AE", "AR", "AT", "AU", "BE", "BH", "BO", "BR", "CA", "CH", "CL", "CO", "CR", "CY", "DE", "DK", "DO", "DZ", "EC", "EG", "ES", "FI", "FR", "GB", "GR", "GT", "HK", "HN", "ID", "IE", "IL", "IS", "IT", "JO", "JP", "KW", "LB", "LI", "LU", "MA", "MC", "MT", "MX", "MY", "NI", "NL", "NO", "NZ", "OM", "PA", "PE", "PH", "PT", "PY", "QA", "SA", "SE", "SG", "SV", "TH", "TN", "TR", "TW", "US", "UY", "VN", "ZA"], "type": "track", "preview_url": "https://p.scdn.co/mp3-preview/ccf4d3865dba9ebb6cef08ccfa0b64b77b2f1a54?cid=0c947b9d3f7547e28aee080174c283c9", "explicit": false, "external_urls": {"spotify": "https://open.spotify.com/track/5WlVx0a6VedSJ60JFYpRBp"}, "id": "5WlVx0a6VedSJ60JFYpRBp", "uri": "spotify:track:5WlVx0a6VedSJ60JFYpRBp", "popularity": 56}, {"album": {"total_tracks": 4, "type": "album", "release_date": "2013-01-21", "href": "https://api.spotify.com/v1/albums/2vf1K6KumbRZnRHa1JeKyD", "artists": [{"type": "artist", "name": "Bruno Mars", "external_urls": {"spotify": "https://open.spotify.com/artist/0du5cEVh5yTK9QJze8zA0C"}, "id": "0du5cEVh5yTK9QJze8zA0C", "uri": "spotify:artist:0du5cEVh5yTK9QJze8zA0C", "href": "https://api.spotify.com/v1/artists/0du5cEVh5yTK9QJze8zA0C"}], "images": [{"width": 640, "url": "https://i.scdn.co/image/ab67616d0000b273374ea1730985555f1b1f6328", "height": 640}, {"width": 300, "url": "https://i.scdn.co/image/ab67616d00001e02374ea1730985555f1b1f6328", "height": 300}, {"width": 64, "url": "https://i.scdn.co/image/ab67616d00004851374ea1730985555f1b1f6328", "height": 64}], "available_markets": ["AD", "AE", "AR", "AT", "AU", "BE", "BH", "BO", "BR", "CA", "CH", "CL", "CO", "CR", "CY", "DE", "DK", "DO", "DZ", "EC", "EG", "ES", "FI", "FR", "GB", "GR", "GT", "HK", "HN", "ID", "IE", "IL", "IS", "IT", "JO", "JP", "KW", "LB", "LI", "LU", "MA", "MC", "MT", "MX", "MY", "NI", "NL", "NO", "NZ", "OM", "PA", "PE", "PH", "PT", "PY", "QA", "SA", "SE", "SG", "SV", "TH", "TN", "TR", "TW", "US", "UY", "VN", "ZA"], "album_type": "single", "release_date_precision": "day", "name": "Locked Out Of Heaven (Remixes)", "external_urls": {"spotify": "https://open.spotify.com/album/2vf1K6KumbRZnRHa1JeKyD"}, "id": "2vf1K6KumbRZnRHa1JeKyD", "uri": "spotify:album:2vf1K6KumbRZnRHa1JeKyD"}, "external_ids": {"isrc": "USAT21207623"}, "name": "Locked Out of Heaven - Sultan + Shepard Remix", "duration_ms": 410859, "is_local": false, "disc_number": 1, "href": "https://api.spotify.com/v1/tracks/6AIxmLiDNHFQgZstB4lzDB", "artists": [{"type": "artist", "name": "Bruno Mars", "external_urls": {"spotify": "https://open.spotify.com/artist/0du5cEVh5yTK9QJze8zA0C"}, "id": "0du5cEVh5yTK9QJze8zA0C", "uri": "spotify:artist:0du5cEVh5yTK9QJze8zA0C", "href": "https://api.spotify.com/v1/artists/0du5cEVh5yTK9QJze8zA0C"}, {"type": "artist", "name": "Shepard", "external_urls": {"spotify": "https://open.spotify.com/artist/4xuvJJeREN4HxIBKvYHgZF"}, "id": "4xuvJJeREN4HxIBKvYHgZF", "uri": "spotify:artist:4xuvJJeREN4HxIBKvYHgZF", "href": "https://api.spotify.com/v1/artists/4xuvJJeREN4HxIBKvYHgZF"}, {"type": "artist", "name": "Sultan", "external_urls": {"spotify": "https://open.spotify.com/artist/14OWrFlSp0Wj5RBuk4hC3b"}, "id": "14OWrFlSp0Wj5RBuk4hC3b", "uri": "spotify:artist:14OWrFlSp0Wj5RBuk4hC3b", "href": "https://api.spotify.com/v1/artists/14OWrFlSp0Wj5RBuk4hC3b"}], "track_number": 2, "available_markets": ["AD", "AE", "AR", "AT", "AU", "BE", "BH", "BO", "BR", "CA", "CH", "CL", "CO", "CR", "CY", "DE", "DK", "DO", "DZ", "EC", "EG", "ES", "FI", "FR", "GB", "GR", "GT", "HK", "HN", "ID", "IE", "IL", "IS", "IT", "JO", "JP", "KW", "LB", "LI", "LU", "MA", "MC", "MT", "MX", "MY", "NI", "NL", "NO", "NZ", "OM", "PA", "PE", "PH", "PT", "PY", "QA", "SA", "SE", "SG", "SV", "TH", "TN", "TR", "TW", "US", "UY", "VN", "ZA"], "type": "track", "preview_url": "https://p.scdn.co/mp3-preview/2b65194f25ef63c153e062879bddd1956d132ef6?cid=0c947b9d3f7547e28aee080174c283c9", "explicit": false, "external_urls": {"spotify": "https://open.spotify.com/track/6AIxmLiDNHFQgZstB4lzDB"}, "id": "6AIxmLiDNHFQgZstB4lzDB", "uri": "spotify:track:6AIxmLiDNHFQgZstB4lzDB", "popularity": 49}, {"album": {"total_tracks": 4, "type": "album", "release_date": "2013-01-21", "href": "https://api.spotify.com/v1/albums/2vf1K6KumbRZnRHa1JeKyD", "artists": [{"type": "artist", "name": "Bruno Mars", "external_urls": {"spotify": "https://open.spotify.com/artist/0du5cEVh5yTK9QJze8zA0C"}, "id": "0du5cEVh5yTK9QJze8zA0C", "uri": "spotify:artist:0du5cEVh5yTK9QJze8zA0C", "href": "https://api.spotify.com/v1/artists/0du5cEVh5yTK9QJze8zA0C"}], "images": [{"width": 640, "url": "https://i.scdn.co/image/ab67616d0000b273374ea1730985555f1b1f6328", "height": 640}, {"width": 300, "url": "https://i.scdn.co/image/ab67616d00001e02374ea1730985555f1b1f6328", "height": 300}, {"width": 64, "url": "https://i.scdn.co/image/ab67616d00004851374ea1730985555f1b1f6328", "height": 64}], "available_markets": ["AD", "AE", "AR", "AT", "AU", "BE", "BH", "BO", "BR", "CA", "CH", "CL", "CO", "CR", "CY", "DE", "DK", "DO", "DZ", "EC", "EG", "ES", "FI", "FR", "GB", "GR", "GT", "HK", "HN", "ID", "IE", "IL", "IS", "IT", "JO", "JP", "KW", "LB", "LI", "LU", "MA", "MC", "MT", "MX", "MY", "NI", "NL", "NO", "NZ", "OM", "PA", "PE", "PH", "PT", "PY", "QA", "SA", "SE", "SG", "SV", "TH", "TN", "TR", "TW", "US", "UY", "VN", "ZA"], "album_type": "single", "release_date_precision": "day", "name": "Locked Out Of Heaven (Remixes)", "external_urls": {"spotify": "https://open.spotify.com/album/2vf1K6KumbRZnRHa1JeKyD"}, "id": "2vf1K6KumbRZnRHa1JeKyD", "uri": "spotify:album:2vf1K6KumbRZnRHa1JeKyD"}, "external_ids": {"isrc": "USAT21207625"}, "name": "Locked Out of Heaven - Paul Oakenfold Remix", "duration_ms": 317538, "is_local": false, "disc_number": 1, "href": "https://api.spotify.com/v1/tracks/03BpMAiFJ0b9c47Ntt8MRf", "artists": [{"type": "artist", "name": "Bruno Mars", "external_urls": {"spotify": "https://open.spotify.com/artist/0du5cEVh5yTK9QJze8zA0C"}, "id": "0du5cEVh5yTK9QJze8zA0C", "uri": "spotify:artist:0du5cEVh5yTK9QJze8zA0C", "href": "https://api.spotify.com/v1/artists/0du5cEVh5yTK9QJze8zA0C"}, {"type": "artist", "name": "Paul Oakenfold", "external_urls": {"spotify": "https://open.spotify.com/artist/5MO2kbaGGA2a8kL4c9qqHq"}, "id": "5MO2kbaGGA2a8kL4c9qqHq", "uri": "spotify:artist:5MO2kbaGGA2a8kL4c9qqHq", "href": "https://api.spotify.com/v1/artists/5MO2kbaGGA2a8kL4c9qqHq"}], "track_number": 4, "available_markets": ["AD", "AE", "AR", "AT", "AU", "BE", "BH", "BO", "BR", "CA", "CH", "CL", "CO", "CR", "CY", "DE", "DK", "DO", "DZ", "EC", "EG", "ES", "FI", "FR", "GB", "GR", "GT", "HK", "HN", "ID", "IE", "IL", "IS", "IT", "JO", "JP", "KW", "LB", "LI", "LU", "MA", "MC", "MT", "MX", "MY", "NI", "NL", "NO", "NZ", "OM", "PA", "PE", "PH", "PT", "PY", "QA", "SA", "SE", "SG", "SV", "TH", "TN", "TR", "TW", "US", "UY", "VN", "ZA"], "type": "track", "preview_url": "https://p.scdn.co/mp3-preview/a804ea83abac81e1237ff084820e736e387e09c5?cid=0c947b9d3f7547e28aee080174c283c9", "explicit": false, "external_urls": {"spotify": "https://open.spotify.com/track/03BpMAiFJ0b9c47Ntt8MRf"}, "id": "03BpMAiFJ0b9c47Ntt8MRf", "uri": "spotify:track:03BpMAiFJ0b9c47Ntt8MRf", "popularity": 33}], "previous": null, "href": "https://api.spotify.com/v1/search?query=artist%3ABruno+Mars+track%3ALocked+Out+Of+Heaven&type=track&offset=0&limit=5", "limit": 5, "total": 6, "next": "https://api.spotify.com/v1/search?query=artist%3ABruno+Mars+track%3ALocked+Out+Of+Heaven&type=track&offset=5&limit=5"}}