{"tracks": {"offset": 0, "items": [{"album": {"total_tracks": 15, "type": "album", "release_date": "1994-02-01", "href": "https://api.spotify.com/v1/albums/4uG8q3GPuWHQlRbswMIRS6", "artists": [{"type": "artist", "name": "Green Day", "external_urls": {"spotify": "https://open.spotify.com/artist/7oPftvlwr6VrsViSDV7fJY"}, "id": "7oPftvlwr6VrsViSDV7fJY", "uri": "spotify:artist:7oPftvlwr6VrsViSDV7fJY", "href": "https://api.spotify.com/v1/artists/7oPftvlwr6VrsViSDV7fJY"}], "images": [{"width": 640, "url": "https://i.scdn.co/image/ab67616d0000b273db89b08034de626ebee6823d", "height": 640}, {"width": 300, "url": "https://i.scdn.co/image/ab67616d00001e02db89b08034de626ebee6823d", "height": 300}, {"width": 64, "url": "https://i.scdn.co/image/ab67616d00004851db89b08034de626ebee6823d", "height": 64}], "available_markets": ["AD", "AE", "AR", "AT", "AU", "BE", "BG", "BH", "BO", "BR", "CA", "CH", "CL", "CO", "CR", "CY", "CZ", "DE", "DK", "DO", "DZ", "EC", "EE", "EG", "ES", "FI", "FR", "GB", "GR", "GT", "HK", "HN", "HU", "ID", "IE", "IL", "IS", "IT", "JO", "JP", "KW", "LB", "LI", "LT", "LU", "LV", "MA", "MC", "MT", "MX", "MY", "NI", "NL", "NO", "NZ", "OM", "PA", "PE", "PH", "PL", "PT", "PY", "QA", "RO", "SA", "SE", "SG", "SK", "SV", "TH", "TN", "TR", "TW", "US", "UY", "VN", "ZA"], "album_type": "album", "release_date_precision": "day", "name": "Dookie", "external_urls": {"spotify": "https://open.spotify.com/album/4uG8q3GPuWHQlRbswMIRS6"}, "id": "4uG8q3GPuWHQlRbswMIRS6", "uri": "spotify:album:4uG8q3GPuWHQlRbswMIRS6"}, "external_ids": {"isrc": "USRE19900151"}, "name": "Basket Case", "duration_ms": 181533, "is_local": false, "disc_number": 1, "href": "https://api.spotify.com/v1/tracks/6L89mwZXSOwYl76YXfX13s", "artists": [{"type": "artist", "name": "Green Day", "external_urls": {"spotify": "https://open.spotify.com/artist/7oPftvlwr6VrsViSDV7fJY"}, "id": "7oPftvlwr6VrsViSDV7fJY", "uri": "spotify:artist:7oPftvlwr6VrsViSDV7fJY", "href": "https://api.spotify.com/v1/artists/7oPftvlwr6VrsViSDV7fJY"}], "track_number": 7, "available_markets": ["AD", "AE", "AR", "AT", "AU", "BE", "BG", "BH", "BO", "BR", "CA", "CH", "CL", "CO", "CR", "CY", "CZ", "DE", "DK", "DO", "DZ", "EC", "EE", "EG", "ES", "FI", "FR", "GB", "GR", "GT", "HK", "HN", "HU", "ID", "IE", "IL", "IS", "IT", "JO", "JP", "KW", "LB", "LI", "LT", "LU", "LV", "MA", "MC", "MT", "MX", "MY", "NI", "NL", "NO", "NZ", "OM", "PA", "PE", "PH", "PL", "PT", "PY", "QA", "RO", "SA", "SE", "SG", "SK", "SV", "TH", "TN", "TR", "TW", "US", "UY", "VN", "ZA"], "type": "track", "preview_url": "https://p.scdn.co/mp3-preview/a66864fcfd8923c6084fc2000e3086e4e1e0a657?cid=0c947b9d3f7547e28aee080174c283c9", "explicit": false, "external_urls": {"spotify": "https://open.spotify.com/track/6L89mwZXSOwYl76YXfX13s"}, "id": "6L89mwZXSOwYl76YXfX13s", "uri": "spotify:track:6L89mwZXSOwYl76YXfX13s", "popularity": 80}, {"album": {"total_tracks": 22, "type": "album", "release_date": "2017-11-17", "href": "https://api.spotify.com/v1/albums/3id4t9IqRoB1f1smOERtrY", "artists": [{"type": "artist", "name": "Green Day", "external_urls": {"spotify": "https://open.spotify.com/artist/7oPftvlwr6VrsViSDV7fJY"}, "id": "7oPftvlwr6VrsViSDV7fJY", "uri": "spotify:artist:7oPftvlwr6VrsViSDV7fJY", "href": "https://api.spotify.com/v1/artists/7oPftvlwr6VrsViSDV7fJY"}], "images": [{"width": 640, "url": "https://i.scdn.co/image/ab67616d0000b2737f213369d5265a60af5f7e82", "height": 640}, {"width": 300, "url": "https://i.scdn.co/image/ab67616d00001e027f213369d5265a60af5f7e82", "height": 300}, {"width": 64, "url": "https://i.scdn.co/image/ab67616d000048517f213369d5265a60af5f7e82", "height": 64}], "available_markets": ["AD", "AR", "AT", "AU", "BE", "BG", "BO", "BR", "CA", "CH", "CL", "CO", "CR", "CY", "CZ", "DE", "DK", "DO", "DZ", "EC", "EE", "ES", "FI", "FR", "GB", "GR", "GT", "HK", "HN", "HU", "ID", "IE", "IL", "IS", "IT", "JP", "KW", "LI", "LT", "LU", "LV", "MA", "MC", "MT", "MX", "MY", "NI", "NL", "NO", "NZ", "PA", "PE", "PH", "PL", "PS", "PT", "PY", "RO", "SE", "SG", "SK", "SV", "TH", "TR", "TW", "US", "UY", "VN", "ZA"], "album_type": "compilation", "release_date_precision": "day", "name": "Greatest Hits: God's Favorite Band", "external_urls": {"spotify": "https://open.spotify.com/album/3id4t9IqRoB1f1smOERtrY"}, "id": "3id4t9IqRoB1f1smOERtrY", "uri": "spotify:album:3id4t9IqRoB1f1smOERtrY"}, "external_ids": {"isrc": "USRE19900151"}, "name": "Basket Case", "duration_ms": 181533, "is_local": false, "disc_number": 1, "href": "https://api.spotify.com/v1/tracks/2WtF8X3W7iHPF2KaJGUCuO", "artists": [{"type": "artist", "name": "Green Day", "external_urls": {"spotify": "https://open.spotify.com/artist/7oPftvlwr6VrsViSDV7fJY"}, "id": "7oPftvlwr6VrsViSDV7fJY", "uri": "spotify:artist:7oPftvlwr6VrsViSDV7fJY", "href": "https://api.spotify.com/v1/artists/7oPftvlwr6VrsViSDV7fJY"}], "track_number": 4, "available_markets": ["AD", "AR", "AT", "AU", "BE", "BG", "BO", "BR", "CA", "CH", "CL", "CO", "CR", "CY", "CZ", "DE", "DK", "DO", "DZ", "EC", "EE", "ES", "FI", "FR", "GB", "GR", "GT", "HK", "HN", "HU", "ID", "IE", "IL", "IS", "IT", "JP", "KW", "LI", "LT", "LU", "LV", "MA", "MC", "MT", "MX", "MY", "NI", "NL", "NO", "NZ", "PA", "PE", "PH", "PL", "PS", "PT", "PY", "RO", "SE", "SG", "SK", "SV", "TH", "TR", "TW", "US", "UY", "VN", "ZA"], "type": "track", "preview_url": "https://p.scdn.co/mp3-preview/a66864fcfd8923c6084fc2000e3086e4e1e0a657?cid=0c947b9d3f7547e28aee080174c283c9", "explicit": false, "external_urls": {"spotify": "https://open.spotify.com/track/2WtF8X3W7iHPF2KaJGUCuO"}, "id": "2WtF8X3W7iHPF2KaJGUCuO", "uri": "spotify:track:2WtF8X3W7iHPF2KaJGUCuO", "popularity": 46}, {"album": {"total_tracks": 21, "type": "album", "release_date": "2001-11-13", "href": "https://api.spotify.com/v1/albums/6HUIbDhzmqcwxrxUfTuHdW", "artists": [{"type": "artist", "name": "Green Day", "external_urls": {"spotify": "https://open.spotify.com/artist/7oPftvlwr6VrsViSDV7fJY"}, "id": "7oPftvlwr6VrsViSDV7fJY", "uri": "spotify:artist:7oPftvlwr6VrsViSDV7fJY", "href": "https://api.spotify.com/v1/artists/7oPftvlwr6VrsViSDV7fJY"}], "images": [{"width": 640, "url": "https://i.scdn.co/image/ab67616d0000b273f7bcced5cc8ee6e45f8f3330", "height": 640}, {"width": 300, "url": "https://i.scdn.co/image/ab67616d00001e02f7bcced5cc8ee6e45f8f3330", "height": 300}, {"width": 64, "url": "https://i.scdn.co/image/ab67616d00004851f7bcced5cc8ee6e45f8f3330", "height": 64}], "available_markets": ["AD", "AE", "AR", "AT", "AU", "BE", "BG", "BH", "BO", "BR", "CA", "CH", "CL", "CO", "CR", "CY", "CZ", "DE", "DK", "DO", "DZ", "EC", "EE", "EG", "ES", "FI", "FR", "GB", "GR", "GT", "HK", "HN", "HU", "ID", "IE", "IL", "IS", "IT", "JO", "JP", "KW", "LB", "LI", "LT", "LU", "LV", "MA", "MC", "MT", "MX", "MY", "NI", "NL", "NO", "NZ", "OM", "PA", "PE", "PH", "PL", "PS", "PT", "PY", "QA", "RO", "SA", "SE", "SG", "SK", "SV", "TH", "TN", "TR", "TW", "US", "UY", "VN", "ZA"], "album_type": "compilation", "release_date_precision": "day", "name": "International Superhits!", "external_urls": {"spotify": "https://open.spotify.com/album/6HUIbDhzmqcwxrxUfTuHdW"}, "id": "6HUIbDhzmqcwxrxUfTuHdW", "uri": "spotify:album:6HUIbDhzmqcwxrxUfTuHdW"}, "external_ids": {"isrc": "USRE19900151"}, "name": "Basket Case", "duration_ms": 181533, "is_local": false, "disc_number": 1, "href": "https://api.spotify.com/v1/tracks/3wr2d7pc6n1uKXOXZCX8LT", "artists": [{"type": "artist", "name": "Green Day", "external_urls": {"spotify": "https://open.spotify.com/artist/7oPftvlwr6VrsViSDV7fJY"}, "id": "7oPftvlwr6VrsViSDV7fJY", "uri": "spotify:artist:7oPftvlwr6VrsViSDV7fJY", "href": "https://api.spotify.com/v1/artists/7oPftvlwr6VrsViSDV7fJY"}], "track_number": 5, "available_markets": ["AD", "AE", "AR", "AT", "AU", "BE", "BG", "BH", "BO", "BR", "CA", "CH", "CL", "CO", "CR", "CY", "CZ", "DE", "DK", "DO", "DZ", "EC", "EE", "EG", "ES", "FI", "FR", "GB", "GR", "GT", "HK", "HN", "HU", "ID", "IE", "IL", "IS", "IT", "JO", "JP", "KW", "LB", "LI", "LT", "LU", "LV", "MA", "MC", "MT", "MX", "MY", "NI", "NL", "NO", "NZ", "OM", "PA", "PE", "PH", "PL", "PS", "PT", "PY", "QA", "RO", "SA", "SE", "SG", "SK", "SV", "TH", "TN", "TR", "TW", "US", "UY", "VN", "ZA"], "type": "track", "preview_url": "https://p.scdn.co/mp3-preview/a66864fcfd8923c6084fc2000e3086e4e1e0a657?cid=0c947b9d3f7547e28aee080174c283c9", "explicit": false, "external_urls": {"spotify": "https://open.spotify.com/track/3wr2d7pc6n1uKXOXZCX8LT"}, "id": "3wr2d7pc6n1uKXOXZCX8LT", "uri": "spotify:track:3wr2d7pc6n1uKXOXZCX8LT", "popularity": 43}, {"album": {"total_tracks": 14, "type": "album", "release_date": "2005-11-15", "href": "https://api.spotify.com/v1/albums/2lybymL3xuzBGH9vsUnhai", "artists": [{"type": "artist", "name": "Green Day", "external_urls": {"spotify": "https://open.spotify.com/artist/7oPftvlwr6VrsViSDV7fJY"}, "id": "7oPftvlwr6VrsViSDV7fJY", "uri": "spotify:artist:7oPftvlwr6VrsViSDV7fJY", "href": "https://api.spotify.com/v1/artists/7oPftvlwr6VrsViSDV7fJY"}], "images": [{"width": 640, "url": "https://i.scdn.co/image/ab67616d0000b2733daba7200668b6c8f1819f44", "height": 640}, {"width": 300, "url": "https://i.scdn.co/image/ab67616d00001e023daba7200668b6c8f1819f44", "height": 300}, {"width": 64, "url": "https://i.scdn.co/image/ab67616d000048513daba7200668b6c8f1819f44", "height": 64}], "available_markets": ["AD", "AE", "AR", "AT", "AU", "BE", "BG", "BH", "BO", "BR", "CA", "CH", "CL", "CO", "CR", "CY", "CZ", "DE", "DK", "DO", "DZ", "EC", "EE", "EG", "ES", "FI", "FR", "GB", "GR", "GT", "HK", "HN", "HU", "ID", "IE", "IL", "IS", "IT", "JO", "JP", "KW", "LB", "LI", "LT", "LU", "LV", "MA", "MC", "MT", "MX", "MY", "NI", "NL", "NO", "NZ", "OM", "PA", "PE", "PH", "PL", "PS", "PT", "PY", "QA", "RO", "SA", "SE", "SG", "SK", "SV", "TH", "TN", "TR", "TW", "US", "UY", "VN", "ZA"], "album_type": "compilation", "release_date_precision": "day", "name": "Bullet in a Bible", "external_urls": {"spotify": "https://open.spotify.com/album/2lybymL3xuzBGH9vsUnhai"}, "id": "2lybymL3xuzBGH9vsUnhai", "uri": "spotify:album:2lybymL3xuzBGH9vsUnhai"}, "external_ids": {"isrc": "USRE10501346"}, "name": "Basket Case - Live at Milton Keynes National Bowl, Milton Keynes, England, 6/18/05", "duration_ms": 178106, "is_local": false, "disc_number": 1, "href": "https://api.spotify.com/v1/tracks/4unD2O56RtWAMLuZLWTWbr", "artists": [{"type": "artist", "name": "Green Day", "external_urls": {"spotify": "https://open.spotify.com/artist/7oPftvlwr6VrsViSDV7fJY"}, "id": "7oPftvlwr6VrsViSDV7fJY", "uri": "spotify:artist:7oPftvlwr6VrsViSDV7fJY", "href": "https://api.spotify.com/v1/artists/7oPftvlwr6VrsViSDV7fJY"}], "track_number": 9, "available_markets": ["AD", "AE", "AR", "AT", "AU", "BE", "BG", "BH", "BO", "BR", "CA", "CH", "CL", "CO", "CR", "CY", "CZ", "DE", "DK", "DO", "DZ", "EC", "EE", "EG", "ES", "FI", "FR", "GB", "GR", "GT", "HK", "HN", "HU", "ID", "IE", "IL", "IS", "IT", "JO", "JP", "KW", "LB", "LI", "LT", "LU", "LV", "MA", "MC", "MT", "MX", "MY", "NI", "NL", "NO", "NZ", "OM", "PA", "PE", "PH", "PL", "PS", "PT", "PY", "QA", "RO", "SA", "SE", "SG", "SK", "SV", "TH", "TN", "TR", "TW", "US", "UY", "VN", "ZA"], "type": "track", "preview_url": "https://p.scdn.co/mp3-preview/2e1cdef436f667f09f052c825bafb7283b41ed8d?cid=0c947b9d3f7547e28aee080174c283c9", "explicit": false, "external_urls": {"spotify": "https://open.spotify.com/track/4unD2O56RtWAMLuZLWTWbr"}, "id": "4unD2O56RtWAMLuZLWTWbr", "uri": "spotify:track:4unD2O56RtWAMLuZLWTWbr", "popularity": 41}, {"album": {"total_tracks": 6, "type": "album", "release_date": "2009-05-15", "href": "https://api.spotify.com/v1/albums/7hWgWwJOlSsevg9SwQ3OjG", "artists": [{"type": "artist", "name": "Green Day", "external_urls": {"spotify": "https://open.spotify.com/artist/7oPftvlwr6VrsViSDV7fJY"}, "id": "7oPftvlwr6VrsViSDV7fJY", "uri": "spotify:artist:7oPftvlwr6VrsViSDV7fJY", "href": "https://api.spotify.com/v1/artists/7oPftvlwr6VrsViSDV7fJY"}], "images": [{"width": 640, "url": "https://i.scdn.co/image/ab67616d0000b273d3b578c7c6ef141bb439cb0d", "height": 640}, {"width": 300, "url": "https://i.scdn.co/image/ab67616d00001e02d3b578c7c6ef141bb439cb0d", "height": 300}, {"width": 64, "url": "https://i.scdn.co/image/ab67616d00004851d3b578c7c6ef141bb439cb0d", "height": 64}], "available_markets": ["US"], "album_type": "single", "release_date_precision": "day", "name": "Last Night on Earth (Live in Tokyo)", "external_urls": {"spotify": "https://open.spotify.com/album/7hWgWwJOlSsevg9SwQ3OjG"}, "id": "7hWgWwJOlSsevg9SwQ3OjG", "uri": "spotify:album:7hWgWwJOlSsevg9SwQ3OjG"}, "external_ids": {"isrc": "USRE10901463"}, "name": "Basket Case - Live at Akasaka Blitz, Tokyo, Japan, 5/28/09", "duration_ms": 183773, "is_local": false, "disc_number": 1, "href": "https://api.spotify.com/v1/tracks/2OrD2OFvbDOhs6G8B5MiIg", "artists": [{"type": "artist", "name": "Green Day", "external_urls": {"spotify": "https://open.spotify.com/artist/7oPftvlwr6VrsViSDV7fJY"}, "id": "7oPftvlwr6VrsViSDV7fJY", "uri": "spotify:artist:7oPftvlwr6VrsViSDV7fJY", "href": "https://api.spotify.com/v1/artists/7oPftvlwr6VrsViSDV7fJY"}], "track_number": 5, "available_markets": ["US"], "type": "track", "preview_url": "https://p.scdn.co/mp3-preview/87bfd912b9d67426d5dcc8e80d12a4b88db9a0d4?cid=0c947b9d3f7547e28aee080174c283c9", "explicit": false, "external_urls": {"spotify": "https://open.spotify.com/track/2OrD2OFvbDOhs6G8B5MiIg"}, "id": "2OrD2OFvbDOhs6G8B5MiIg", "uri": "spotify:track:2OrD2OFvbDOhs6G8B5MiIg", "popularity": 19}], "previous": null, "href": "https://api.spotify.com/v1/search?query=artist%3AGreen+Day+track%3ABasket+Case&type=track&offset=0&limit=5", "limit": 5, "total": 9, "next": "https://api.spotify.com/v1/search?query=artist%3AGreen+Day+track%3ABasket+Case&type=track&offset=5&limit=5"}}