{"tracks": {"offset": 0, "items": [{"album": {"total_tracks": 14, "type": "album", "release_date": "2013-01-01", "href": "https://api.spotify.com/v1/albums/1eHyfkrIOVLGVnt5E4MD2j", "artists": [{"type": "artist", "name": "Robin Thicke", "external_urls": {"spotify": "https://open.spotify.com/artist/0ZrpamOxcZybMHGg1AYtHP"}, "id": "0ZrpamOxcZybMHGg1AYtHP", "uri": "spotify:artist:0ZrpamOxcZybMHGg1AYtHP", "href": "https://api.spotify.com/v1/artists/0ZrpamOxcZybMHGg1AYtHP"}], "images": [{"width": 640, "url": "https://i.scdn.co/image/ec00c4255027752209bcf57e1762ef001df1d692", "height": 640}, {"width": 300, "url": "https://i.scdn.co/image/b85de6a12fd5988a02ac77bbc56ccba0fce559d1", "height": 300}, {"width": 64, "url": "https://i.scdn.co/image/9e09acf3c9fb3e69a39f4a2a97b496e33e7c9981", "height": 64}], "available_markets": ["AD", "AE", "AR", "AT", "AU", "BE", "BG", "BH", "BO", "BR", "CA", "CH", "CL", "CO", "CR", "CY", "CZ", "DE", "DK", "DO", "DZ", "EC", "EE", "EG", "ES", "FI", "FR", "GB", "GR", "GT", "HK", "HN", "HU", "ID", "IE", "IL", "IN", "IS", "IT", "JO", "KW", "LB", "LI", "LT", "LU", "LV", "MA", "MC", "MT", "MX", "MY", "NI", "NL", "NO", "NZ", "OM", "PA", "PE", "PH", "PL", "PS", "PT", "PY", "QA", "RO", "SA", "SE", "SG", "SK", "SV", "TH", "TN", "TR", "TW", "US", "UY", "VN", "ZA"], "album_type": "album", "release_date_precision": "day", "name": "Blurred Lines (Deluxe)", "external_urls": {"spotify": "https://open.spotify.com/album/1eHyfkrIOVLGVnt5E4MD2j"}, "id": "1eHyfkrIOVLGVnt5E4MD2j", "uri": "spotify:album:1eHyfkrIOVLGVnt5E4MD2j"}, "external_ids": {"isrc": "USUM71307668"}, "name": "Blurred Lines", "duration_ms": 263826, "is_local": false, "disc_number": 1, "href": "https://api.spotify.com/v1/tracks/0n4bITAu0Y0nigrz3MFJMb", "artists": [{"type": "artist", "name": "Robin Thicke", "external_urls": {"spotify": "https://open.spotify.com/artist/0ZrpamOxcZybMHGg1AYtHP"}, "id": "0ZrpamOxcZybMHGg1AYtHP", "uri": "spotify:artist:0ZrpamOxcZybMHGg1AYtHP", "href": "https://api.spotify.com/v1/artists/0ZrpamOxcZybMHGg1AYtHP"}, {"type": "artist", "name": "T.I.", "external_urls": {"spotify": "https://open.spotify.com/artist/4OBJLual30L7gRl5UkeRcT"}, "id": "4OBJLual30L7gRl5UkeRcT", "uri": "spotify:artist:4OBJLual30L7gRl5UkeRcT", "href": "https://api.spotify.com/v1/artists/4OBJLual30L7gRl5UkeRcT"}, {"type": "artist", "name": "Pharrell Williams", "external_urls": {"spotify": "https://open.spotify.com/artist/2RdwBSPQiwcmiDo9kixcl8"}, "id": "2RdwBSPQiwcmiDo9kixcl8", "uri": "spotify:artist:2RdwBSPQiwcmiDo9kixcl8", "href": "https://api.spotify.com/v1/artists/2RdwBSPQiwcmiDo9kixcl8"}], "track_number": 1, "available_markets": ["AD", "AE", "AR", "AT", "AU", "BE", "BG", "BH", "BO", "BR", "CA", "CH", "CL", "CO", "CR", "CY", "CZ", "DE", "DK", "DO", "DZ", "EC", "EE", "EG", "ES", "FI", "FR", "GB", "GR", "GT", "HK", "HN", "HU", "ID", "IE", "IL", "IN", "IS", "IT", "JO", "KW", "LB", "LI", "LT", "LU", "LV", "MA", "MC", "MT", "MX", "MY", "NI", "NL", "NO", "NZ", "OM", "PA", "PE", "PH", "PL", "PS", "PT", "PY", "QA", "RO", "SA", "SE", "SG", "SK", "SV", "TH", "TN", "TR", "TW", "US", "UY", "VN", "ZA"], "type": "track", "preview_url": null, "explicit": false, "external_urls": {"spotify": "https://open.spotify.com/track/0n4bITAu0Y0nigrz3MFJMb"}, "id": "0n4bITAu0Y0nigrz3MFJMb", "uri": "spotify:track:0n4bITAu0Y0nigrz3MFJMb", "popularity": 75}, {"album": {"total_tracks": 1, "type": "album", "release_date": "2013-01-01", "href": "https://api.spotify.com/v1/albums/2qVN3yVtkrPT9YL7djTNwt", "artists": [{"type": "artist", "name": "Robin Thicke", "external_urls": {"spotify": "https://open.spotify.com/artist/0ZrpamOxcZybMHGg1AYtHP"}, "id": "0ZrpamOxcZybMHGg1AYtHP", "uri": "spotify:artist:0ZrpamOxcZybMHGg1AYtHP", "href": "https://api.spotify.com/v1/artists/0ZrpamOxcZybMHGg1AYtHP"}], "images": [{"width": 640, "url": "https://i.scdn.co/image/ab67616d0000b273a586575f406551b55dd78969", "height": 640}, {"width": 300, "url": "https://i.scdn.co/image/ab67616d00001e02a586575f406551b55dd78969", "height": 300}, {"width": 64, "url": "https://i.scdn.co/image/ab67616d00004851a586575f406551b55dd78969", "height": 64}], "available_markets": ["AD", "AE", "AR", "AT", "AU", "BE", "BG", "BH", "BO", "BR", "CA", "CH", "CL", "CO", "CR", "CY", "CZ", "DE", "DK", "DO", "DZ", "EC", "EE", "EG", "ES", "FI", "FR", "GB", "GR", "GT", "HK", "HN", "HU", "ID", "IE", "IL", "IN", "IS", "IT", "JO", "JP", "KW", "LB", "LI", "LT", "LU", "LV", "MC", "MT", "MX", "MY", "NI", "NL", "NO", "NZ", "OM", "PA", "PE", "PH", "PL", "PT", "PY", "QA", "RO", "SA", "SG", "SK", "SV", "TH", "TN", "TR", "TW", "US", "UY", "VN", "ZA"], "album_type": "single", "release_date_precision": "day", "name": "Blurred Lines", "external_urls": {"spotify": "https://open.spotify.com/album/2qVN3yVtkrPT9YL7djTNwt"}, "id": "2qVN3yVtkrPT9YL7djTNwt", "uri": "spotify:album:2qVN3yVtkrPT9YL7djTNwt"}, "external_ids": {"isrc": "USUM71302150"}, "name": "Blurred Lines", "duration_ms": 263053, "is_local": false, "disc_number": 1, "href": "https://api.spotify.com/v1/tracks/5PUvinSo4MNqW7vmomGRS7", "artists": [{"type": "artist", "name": "Robin Thicke", "external_urls": {"spotify": "https://open.spotify.com/artist/0ZrpamOxcZybMHGg1AYtHP"}, "id": "0ZrpamOxcZybMHGg1AYtHP", "uri": "spotify:artist:0ZrpamOxcZybMHGg1AYtHP", "href": "https://api.spotify.com/v1/artists/0ZrpamOxcZybMHGg1AYtHP"}, {"type": "artist", "name": "T.I.", "external_urls": {"spotify": "https://open.spotify.com/artist/4OBJLual30L7gRl5UkeRcT"}, "id": "4OBJLual30L7gRl5UkeRcT", "uri": "spotify:artist:4OBJLual30L7gRl5UkeRcT", "href": "https://api.spotify.com/v1/artists/4OBJLual30L7gRl5UkeRcT"}, {"type": "artist", "name": "Pharrell Williams", "external_urls": {"spotify": "https://open.spotify.com/artist/2RdwBSPQiwcmiDo9kixcl8"}, "id": "2RdwBSPQiwcmiDo9kixcl8", "uri": "spotify:artist:2RdwBSPQiwcmiDo9kixcl8", "href": "https://api.spotify.com/v1/artists/2RdwBSPQiwcmiDo9kixcl8"}], "track_number": 1, "available_markets": ["AD", "AE", "AR", "AT", "AU", "BE", "BG", "BH", "BO", "BR", "CA", "CH", "CL", "CO", "CR", "CY", "CZ", "DE", "DK", "DO", "DZ", "EC", "EE", "EG", "ES", "FI", "FR", "GB", "GR", "GT", "HK", "HN", "HU", "ID", "IE", "IL", "IN", "IS", "IT", "JO", "JP", "KW", "LB", "LI", "LT", "LU", "LV", "MC", "MT", "MX", "MY", "NI", "NL", "NO", "NZ", "OM", "PA", "PE", "PH", "PL", "PT", "PY", "QA", "RO", "SA", "SG", "SK", "SV", "TH", "TN", "TR", "TW", "US", "UY", "VN", "ZA"], "type": "track", "preview_url": null, "explicit": false, "external_urls": {"spotify": "https://open.spotify.com/track/5PUvinSo4MNqW7vmomGRS7"}, "id": "5PUvinSo4MNqW7vmomGRS7", "uri": "spotify:track:5PUvinSo4MNqW7vmomGRS7", "popularity": 54}, {"album": {"total_tracks": 16, "type": "album", "release_date": "2014-12-15", "href": "https://api.spotify.com/v1/albums/49f2200sk24R9SycVavjBb", "artists": [{"type": "artist", "name": "Robin Thicke", "external_urls": {"spotify": "https://open.spotify.com/artist/0ZrpamOxcZybMHGg1AYtHP"}, "id": "0ZrpamOxcZybMHGg1AYtHP", "uri": "spotify:artist:0ZrpamOxcZybMHGg1AYtHP", "href": "https://api.spotify.com/v1/artists/0ZrpamOxcZybMHGg1AYtHP"}], "images": [{"width": 640, "url": "https://i.scdn.co/image/ab67616d0000b2733a989746fcd2b81624b52df8", "height": 640}, {"width": 300, "url": "https://i.scdn.co/image/ab67616d00001e023a989746fcd2b81624b52df8", "height": 300}, {"width": 64, "url": "https://i.scdn.co/image/ab67616d000048513a989746fcd2b81624b52df8", "height": 64}], "available_markets": ["CA", "MX", "US"], "album_type": "album", "release_date_precision": "day", "name": "Blurred Lines (Deluxe Bonus Track Version)", "external_urls": {"spotify": "https://open.spotify.com/album/49f2200sk24R9SycVavjBb"}, "id": "49f2200sk24R9SycVavjBb", "uri": "spotify:album:49f2200sk24R9SycVavjBb"}, "external_ids": {"isrc": "USUM71307668"}, "name": "Blurred Lines", "duration_ms": 263826, "is_local": false, "disc_number": 1, "href": "https://api.spotify.com/v1/tracks/6Yqwz5ZgwWDE4znrcDwJWO", "artists": [{"type": "artist", "name": "Robin Thicke", "external_urls": {"spotify": "https://open.spotify.com/artist/0ZrpamOxcZybMHGg1AYtHP"}, "id": "0ZrpamOxcZybMHGg1AYtHP", "uri": "spotify:artist:0ZrpamOxcZybMHGg1AYtHP", "href": "https://api.spotify.com/v1/artists/0ZrpamOxcZybMHGg1AYtHP"}, {"type": "artist", "name": "T.I.", "external_urls": {"spotify": "https://open.spotify.com/artist/4OBJLual30L7gRl5UkeRcT"}, "id": "4OBJLual30L7gRl5UkeRcT", "uri": "spotify:artist:4OBJLual30L7gRl5UkeRcT", "href": "https://api.spotify.com/v1/artists/4OBJLual30L7gRl5UkeRcT"}, {"type": "artist", "name": "Pharrell Williams", "external_urls": {"spotify": "https://open.spotify.com/artist/2RdwBSPQiwcmiDo9kixcl8"}, "id": "2RdwBSPQiwcmiDo9kixcl8", "uri": "spotify:artist:2RdwBSPQiwcmiDo9kixcl8", "href": "https://api.spotify.com/v1/artists/2RdwBSPQiwcmiDo9kixcl8"}], "track_number": 1, "available_markets": ["CA", "MX", "US"], "type": "track", "preview_url": null, "explicit": false, "external_urls": {"spotify": "https://open.spotify.com/track/6Yqwz5ZgwWDE4znrcDwJWO"}, "id": "6Yqwz5ZgwWDE4znrcDwJWO", "uri": "spotify:track:6Yqwz5ZgwWDE4znrcDwJWO", "popularity": 31}, {"album": {"total_tracks": 3, "type": "album", "release_date": "2013-01-01", "href": "https://api.spotify.com/v1/albums/4x9aPfYNkf5r3PhFTOYJuq", "artists": [{"type": "artist", "name": "Robin Thicke", "external_urls": {"spotify": "https://open.spotify.com/artist/0ZrpamOxcZybMHGg1AYtHP"}, "id": "0ZrpamOxcZybMHGg1AYtHP", "uri": "spotify:artist:0ZrpamOxcZybMHGg1AYtHP", "href": "https://api.spotify.com/v1/artists/0ZrpamOxcZybMHGg1AYtHP"}], "images": [{"width": 640, "url": "https://i.scdn.co/image/ab67616d0000b2736346a99501e4ecda790a1326", "height": 640}, {"width": 300, "url": "https://i.scdn.co/image/ab67616d00001e026346a99501e4ecda790a1326", "height": 300}, {"width": 64, "url": "https://i.scdn.co/image/ab67616d000048516346a99501e4ecda790a1326", "height": 64}], "available_markets": ["AD", "AE", "AR", "AT", "AU", "BE", "BG", "BH", "BO", "BR", "CA", "CH", "CL", "CO", "CR", "CY", "CZ", "DK", "DO", "DZ", "EC", "EE", "EG", "ES", "FI", "FR", "GR", "GT", "HK", "HN", "HU", "ID", "IL", "IN", "IS", "IT", "JO", "JP", "KW", "LB", "LI", "LT", "LU", "LV", "MA", "MC", "MT", "MX", "MY", "NI", "NL", "NO", "NZ", "OM", "PA", "PE", "PH", "PL", "PS", "PT", "PY", "QA", "RO", "SA", "SE", "SG", "SK", "SV", "TH", "TN", "TR", "TW", "US", "UY", "VN", "ZA"], "album_type": "single", "release_date_precision": "day", "name": "Blurred Lines (The Remixes)", "external_urls": {"spotify": "https://open.spotify.com/album/4x9aPfYNkf5r3PhFTOYJuq"}, "id": "4x9aPfYNkf5r3PhFTOYJuq", "uri": "spotify:album:4x9aPfYNkf5r3PhFTOYJuq"}, "external_ids": {"isrc": "USUM71308937"}, "name": "Blurred Lines - Will Sparks Remix", "duration_ms": 308146, "is_local": false, "disc_number": 1, "href": "https://api.spotify.com/v1/tracks/7dZ1wGmF44ga4fMiS1iyBR", "artists": [{"type": "artist", "name": "Robin Thicke", "external_urls": {"spotify": "https://open.spotify.com/artist/0ZrpamOxcZybMHGg1AYtHP"}, "id": "0ZrpamOxcZybMHGg1AYtHP", "uri": "spotify:artist:0ZrpamOxcZybMHGg1AYtHP", "href": "https://api.spotify.com/v1/artists/0ZrpamOxcZybMHGg1AYtHP"}, {"type": "artist", "name": "T.I.", "external_urls": {"spotify": "https://open.spotify.com/artist/4OBJLual30L7gRl5UkeRcT"}, "id": "4OBJLual30L7gRl5UkeRcT", "uri": "spotify:artist:4OBJLual30L7gRl5UkeRcT", "href": "https://api.spotify.com/v1/artists/4OBJLual30L7gRl5UkeRcT"}, {"type": "artist", "name": "Pharrell Williams", "external_urls": {"spotify": "https://open.spotify.com/artist/2RdwBSPQiwcmiDo9kixcl8"}, "id": "2RdwBSPQiwcmiDo9kixcl8", "uri": "spotify:artist:2RdwBSPQiwcmiDo9kixcl8", "href": "https://api.spotify.com/v1/artists/2RdwBSPQiwcmiDo9kixcl8"}, {"type": "artist", "name": "Cave Kings", "external_urls": {"spotify": "https://open.spotify.com/artist/66kj3Mn6SIR3TyB3KTrCr6"}, "id": "66kj3Mn6SIR3TyB3KTrCr6", "uri": "spotify:artist:66kj3Mn6SIR3TyB3KTrCr6", "href": "https://api.spotify.com/v1/artists/66kj3Mn6SIR3TyB3KTrCr6"}], "track_number": 2, "available_markets": ["AD", "AE", "AR", "AT", "AU", "BE", "BG", "BH", "BO", "BR", "CA", "CH", "CL", "CO", "CR", "CY", "CZ", "DK", "DO", "DZ", "EC", "EE", "EG", "ES", "FI", "FR", "GR", "GT", "HK", "HN", "HU", "ID", "IL", "IN", "IS", "IT", "JO", "JP", "KW", "LB", "LI", "LT", "LU", "LV", "MA", "MC", "MT", "MX", "MY", "NI", "NL", "NO", "NZ", "OM", "PA", "PE", "PH", "PL", "PS", "PT", "PY", "QA", "RO", "SA", "SE", "SG", "SK", "SV", "TH", "TN", "TR", "TW", "US", "UY", "VN", "ZA"], "type": "track", "preview_url": null, "explicit": false, "external_urls": {"spotify": "https://open.spotify.com/track/7dZ1wGmF44ga4fMiS1iyBR"}, "id": "7dZ1wGmF44ga4fMiS1iyBR", "uri": "spotify:track:7dZ1wGmF44ga4fMiS1iyBR", "popularity": 36}, {"album": {"total_tracks": 11, "type": "album", "release_date": "2013-01-01", "href": "https://api.spotify.com/v1/albums/0WKF7NjAEpcpWogySeqXyD", "artists": [{"type": "artist", "name": "Robin Thicke", "external_urls": {"spotify": "https://open.spotify.com/artist/0ZrpamOxcZybMHGg1AYtHP"}, "id": "0ZrpamOxcZybMHGg1AYtHP", "uri": "spotify:artist:0ZrpamOxcZybMHGg1AYtHP", "href": "https://api.spotify.com/v1/artists/0ZrpamOxcZybMHGg1AYtHP"}], "images": [{"width": 640, "url": "https://i.scdn.co/image/ab67616d0000b273661ec4be80dca96db4e02c59", "height": 640}, {"width": 300, "url": "https://i.scdn.co/image/ab67616d00001e02661ec4be80dca96db4e02c59", "height": 300}, {"width": 64, "url": "https://i.scdn.co/image/ab67616d00004851661ec4be80dca96db4e02c59", "height": 64}], "available_markets": ["AE", "BE", "BH", "CA", "DZ", "EG", "HK", "HU", "ID", "JO", "JP", "KW", "LB", "LU", "MA", "MY", "OM", "PH", "PL", "QA", "SA", "SG", "TH", "TN", "TW", "US", "VN"], "album_type": "album", "release_date_precision": "day", "name": "Blurred Lines", "external_urls": {"spotify": "https://open.spotify.com/album/0WKF7NjAEpcpWogySeqXyD"}, "id": "0WKF7NjAEpcpWogySeqXyD", "uri": "spotify:album:0WKF7NjAEpcpWogySeqXyD"}, "external_ids": {"isrc": "USUM71307668"}, "name": "Blurred Lines", "duration_ms": 263826, "is_local": false, "disc_number": 1, "href": "https://api.spotify.com/v1/tracks/1jdY24jJZWYVhLTQSVWQ8z", "artists": [{"type": "artist", "name": "Robin Thicke", "external_urls": {"spotify": "https://open.spotify.com/artist/0ZrpamOxcZybMHGg1AYtHP"}, "id": "0ZrpamOxcZybMHGg1AYtHP", "uri": "spotify:artist:0ZrpamOxcZybMHGg1AYtHP", "href": "https://api.spotify.com/v1/artists/0ZrpamOxcZybMHGg1AYtHP"}, {"type": "artist", "name": "T.I.", "external_urls": {"spotify": "https://open.spotify.com/artist/4OBJLual30L7gRl5UkeRcT"}, "id": "4OBJLual30L7gRl5UkeRcT", "uri": "spotify:artist:4OBJLual30L7gRl5UkeRcT", "href": "https://api.spotify.com/v1/artists/4OBJLual30L7gRl5UkeRcT"}, {"type": "artist", "name": "Pharrell Williams", "external_urls": {"spotify": "https://open.spotify.com/artist/2RdwBSPQiwcmiDo9kixcl8"}, "id": "2RdwBSPQiwcmiDo9kixcl8", "uri": "spotify:artist:2RdwBSPQiwcmiDo9kixcl8", "href": "https://api.spotify.com/v1/artists/2RdwBSPQiwcmiDo9kixcl8"}], "track_number": 1, "available_markets": ["AE", "BE", "BH", "CA", "DZ", "EG", "HK", "HU", "ID", "JO", "JP", "KW", "LB", "LU", "MA", "MY", "OM", "PH", "PL", "QA", "SA", "SG", "TH", "TN", "TW", "US", "VN"], "type": "track", "preview_url": null, "explicit": false, "external_urls": {"spotify": "https://open.spotify.com/track/1jdY24jJZWYVhLTQSVWQ8z"}, "id": "1jdY24jJZWYVhLTQSVWQ8z", "uri": "spotify:track:1jdY24jJZWYVhLTQSVWQ8z", "popularity": 27}], "previous": null, "href": "https://api.spotify.com/v1/search?query=artist%3ARobin+Thicke+track%3ABlurred+Lines&type=track&offset=0&limit=5", "limit": 5, "total": 35, "next": "https://api.spotify.com/v1/search?query=artist%3ARobin+Thicke+track%3ABlurred+Lines&type=track&offset=5&limit=5"}}