{"tracks": {"offset": 0, "items": [{"album": {"total_tracks": 16, "type": "album", "release_date": "2014-01-01", "href": "https://api.spotify.com/v1/albums/1lM5IfaqcIsXd6UCV3aDSs", "artists": [{"type": "artist", "name": "Disclosure", "external_urls": {"spotify": "https://open.spotify.com/artist/6nS5roXSAGhTGr34W6n7Et"}, "id": "6nS5roXSAGhTGr34W6n7Et", "uri": "spotify:artist:6nS5roXSAGhTGr34W6n7Et", "href": "https://api.spotify.com/v1/artists/6nS5roXSAGhTGr34W6n7Et"}], "images": [{"width": 640, "url": "https://i.scdn.co/image/ab67616d0000b2734e3eb28cde0a0dfd50fd9d28", "height": 640}, {"width": 300, "url": "https://i.scdn.co/image/ab67616d00001e024e3eb28cde0a0dfd50fd9d28", "height": 300}, {"width": 64, "url": "https://i.scdn.co/image/ab67616d000048514e3eb28cde0a0dfd50fd9d28", "height": 64}], "available_markets": ["CA", "MX", "US"], "album_type": "album", "release_date_precision": "day", "name": "Settle (Deluxe)", "external_urls": {"spotify": "https://open.spotify.com/album/1lM5IfaqcIsXd6UCV3aDSs"}, "id": "1lM5IfaqcIsXd6UCV3aDSs", "uri": "spotify:album:1lM5IfaqcIsXd6UCV3aDSs"}, "external_ids": {"isrc": "GBUM71302810"}, "name": "Latch", "duration_ms": 255866, "is_local": false, "disc_number": 1, "href": "https://api.spotify.com/v1/tracks/1DunhgeZSEgWiIYbHqXl0c", "artists": [{"type": "artist", "name": "Disclosure", "external_urls": {"spotify": "https://open.spotify.com/artist/6nS5roXSAGhTGr34W6n7Et"}, "id": "6nS5roXSAGhTGr34W6n7Et", "uri": "spotify:artist:6nS5roXSAGhTGr34W6n7Et", "href": "https://api.spotify.com/v1/artists/6nS5roXSAGhTGr34W6n7Et"}, {"type": "artist", "name": "Sam Smith", "external_urls": {"spotify": "https://open.spotify.com/artist/2wY79sveU1sp5g7SokKOiI"}, "id": "2wY79sveU1sp5g7SokKOiI", "uri": "spotify:artist:2wY79sveU1sp5g7SokKOiI", "href": "https://api.spotify.com/v1/artists/2wY79sveU1sp5g7SokKOiI"}], "track_number": 3, "available_markets": ["CA", "MX", "US"], "type": "track", "preview_url": null, "explicit": false, "external_urls": {"spotify": "https://open.spotify.com/track/1DunhgeZSEgWiIYbHqXl0c"}, "id": "1DunhgeZSEgWiIYbHqXl0c", "uri": "spotify:track:1DunhgeZSEgWiIYbHqXl0c", "popularity": 70}, {"album": {"total_tracks": 1, "type": "album", "release_date": "2012-01-01", "href": "https://api.spotify.com/v1/albums/3jnxKxoDyXMHT05JZR1fxB", "artists": [{"type": "artist", "name": "Disclosure", "external_urls": {"spotify": "https://open.spotify.com/artist/6nS5roXSAGhTGr34W6n7Et"}, "id": "6nS5roXSAGhTGr34W6n7Et", "uri": "spotify:artist:6nS5roXSAGhTGr34W6n7Et", "href": "https://api.spotify.com/v1/artists/6nS5roXSAGhTGr34W6n7Et"}], "images": [{"width": 640, "url": "https://i.scdn.co/image/24545009da120753012c5b6a631a5121862ad185", "height": 640}, {"width": 300, "url": "https://i.scdn.co/image/354d4ffaf2ae9e9ef1e0ad274ec998464a40db03", "height": 300}, {"width": 64, "url": "https://i.scdn.co/image/b5ea8ca3c818e87e775dc622f91432822ad836fa", "height": 64}], "available_markets": ["MX", "US"], "album_type": "single", "release_date_precision": "day", "name": "Latch", "external_urls": {"spotify": "https://open.spotify.com/album/3jnxKxoDyXMHT05JZR1fxB"}, "id": "3jnxKxoDyXMHT05JZR1fxB", "uri": "spotify:album:3jnxKxoDyXMHT05JZR1fxB"}, "external_ids": {"isrc": "GBUM71206524"}, "name": "Latch", "duration_ms": 256940, "is_local": false, "disc_number": 1, "href": "https://api.spotify.com/v1/tracks/3pgC6hv9bbZSAzEOl6K5nG", "artists": [{"type": "artist", "name": "Disclosure", "external_urls": {"spotify": "https://open.spotify.com/artist/6nS5roXSAGhTGr34W6n7Et"}, "id": "6nS5roXSAGhTGr34W6n7Et", "uri": "spotify:artist:6nS5roXSAGhTGr34W6n7Et", "href": "https://api.spotify.com/v1/artists/6nS5roXSAGhTGr34W6n7Et"}, {"type": "artist", "name": "Sam Smith", "external_urls": {"spotify": "https://open.spotify.com/artist/2wY79sveU1sp5g7SokKOiI"}, "id": "2wY79sveU1sp5g7SokKOiI", "uri": "spotify:artist:2wY79sveU1sp5g7SokKOiI", "href": "https://api.spotify.com/v1/artists/2wY79sveU1sp5g7SokKOiI"}], "track_number": 1, "available_markets": ["MX", "US"], "type": "track", "preview_url": null, "explicit": false, "external_urls": {"spotify": "https://open.spotify.com/track/3pgC6hv9bbZSAzEOl6K5nG"}, "id": "3pgC6hv9bbZSAzEOl6K5nG", "uri": "spotify:track:3pgC6hv9bbZSAzEOl6K5nG", "popularity": 46}, {"album": {"total_tracks": 15, "type": "album", "release_date": "2013-06-11", "href": "https://api.spotify.com/v1/albums/0QFMqnSP2kBMTrbfNkj3SB", "artists": [{"type": "artist", "name": "Disclosure", "external_urls": {"spotify": "https://open.spotify.com/artist/6nS5roXSAGhTGr34W6n7Et"}, "id": "6nS5roXSAGhTGr34W6n7Et", "uri": "spotify:artist:6nS5roXSAGhTGr34W6n7Et", "href": "https://api.spotify.com/v1/artists/6nS5roXSAGhTGr34W6n7Et"}], "images": [{"width": 640, "url": "https://i.scdn.co/image/30ea82bcf4b8237e931b991d8d5009f401edc712", "height": 640}, {"width": 300, "url": "https://i.scdn.co/image/2e07cf03e247f5215401cdad2b1cd12b965e018b", "height": 300}, {"width": 64, "url": "https://i.scdn.co/image/ce15486215991b130f9e41af01ad05f1a7af8403", "height": 64}], "available_markets": ["CA", "MX", "US"], "album_type": "album", "release_date_precision": "day", "name": "Settle (The Remixes)", "external_urls": {"spotify": "https://open.spotify.com/album/0QFMqnSP2kBMTrbfNkj3SB"}, "id": "0QFMqnSP2kBMTrbfNkj3SB", "uri": "spotify:album:0QFMqnSP2kBMTrbfNkj3SB"}, "external_ids": {"isrc": "GBUM71207308"}, "name": "Latch - T. Williams Club Remix", "duration_ms": 247098, "is_local": false, "disc_number": 1, "href": "https://api.spotify.com/v1/tracks/5qaA0xeTcMUY3e9AIIzOtQ", "artists": [{"type": "artist", "name": "Disclosure", "external_urls": {"spotify": "https://open.spotify.com/artist/6nS5roXSAGhTGr34W6n7Et"}, "id": "6nS5roXSAGhTGr34W6n7Et", "uri": "spotify:artist:6nS5roXSAGhTGr34W6n7Et", "href": "https://api.spotify.com/v1/artists/6nS5roXSAGhTGr34W6n7Et"}, {"type": "artist", "name": "Sam Smith", "external_urls": {"spotify": "https://open.spotify.com/artist/2wY79sveU1sp5g7SokKOiI"}, "id": "2wY79sveU1sp5g7SokKOiI", "uri": "spotify:artist:2wY79sveU1sp5g7SokKOiI", "href": "https://api.spotify.com/v1/artists/2wY79sveU1sp5g7SokKOiI"}, {"type": "artist", "name": "T.Williams", "external_urls": {"spotify": "https://open.spotify.com/artist/4XYh8yz79ILkPPbUSi9S20"}, "id": "4XYh8yz79ILkPPbUSi9S20", "uri": "spotify:artist:4XYh8yz79ILkPPbUSi9S20", "href": "https://api.spotify.com/v1/artists/4XYh8yz79ILkPPbUSi9S20"}], "track_number": 4, "available_markets": ["CA", "MX", "US"], "type": "track", "preview_url": null, "explicit": false, "external_urls": {"spotify": "https://open.spotify.com/track/5qaA0xeTcMUY3e9AIIzOtQ"}, "id": "5qaA0xeTcMUY3e9AIIzOtQ", "uri": "spotify:track:5qaA0xeTcMUY3e9AIIzOtQ", "popularity": 37}, {"album": {"total_tracks": 15, "type": "album", "release_date": "2013-06-11", "href": "https://api.spotify.com/v1/albums/0QFMqnSP2kBMTrbfNkj3SB", "artists": [{"type": "artist", "name": "Disclosure", "external_urls": {"spotify": "https://open.spotify.com/artist/6nS5roXSAGhTGr34W6n7Et"}, "id": "6nS5roXSAGhTGr34W6n7Et", "uri": "spotify:artist:6nS5roXSAGhTGr34W6n7Et", "href": "https://api.spotify.com/v1/artists/6nS5roXSAGhTGr34W6n7Et"}], "images": [{"width": 640, "url": "https://i.scdn.co/image/30ea82bcf4b8237e931b991d8d5009f401edc712", "height": 640}, {"width": 300, "url": "https://i.scdn.co/image/2e07cf03e247f5215401cdad2b1cd12b965e018b", "height": 300}, {"width": 64, "url": "https://i.scdn.co/image/ce15486215991b130f9e41af01ad05f1a7af8403", "height": 64}], "available_markets": ["CA", "MX", "US"], "album_type": "album", "release_date_precision": "day", "name": "Settle (The Remixes)", "external_urls": {"spotify": "https://open.spotify.com/album/0QFMqnSP2kBMTrbfNkj3SB"}, "id": "0QFMqnSP2kBMTrbfNkj3SB", "uri": "spotify:album:0QFMqnSP2kBMTrbfNkj3SB"}, "external_ids": {"isrc": "GBUM71308628"}, "name": "Latch - DJ Premier Remix", "duration_ms": 206608, "is_local": false, "disc_number": 1, "href": "https://api.spotify.com/v1/tracks/32JL9HbzCsPsQh4hyJEBzE", "artists": [{"type": "artist", "name": "Disclosure", "external_urls": {"spotify": "https://open.spotify.com/artist/6nS5roXSAGhTGr34W6n7Et"}, "id": "6nS5roXSAGhTGr34W6n7Et", "uri": "spotify:artist:6nS5roXSAGhTGr34W6n7Et", "href": "https://api.spotify.com/v1/artists/6nS5roXSAGhTGr34W6n7Et"}, {"type": "artist", "name": "Sam Smith", "external_urls": {"spotify": "https://open.spotify.com/artist/2wY79sveU1sp5g7SokKOiI"}, "id": "2wY79sveU1sp5g7SokKOiI", "uri": "spotify:artist:2wY79sveU1sp5g7SokKOiI", "href": "https://api.spotify.com/v1/artists/2wY79sveU1sp5g7SokKOiI"}, {"type": "artist", "name": "DJ Premier", "external_urls": {"spotify": "https://open.spotify.com/artist/6GEykX11lQqp92UVOQQCC7"}, "id": "6GEykX11lQqp92UVOQQCC7", "uri": "spotify:artist:6GEykX11lQqp92UVOQQCC7", "href": "https://api.spotify.com/v1/artists/6GEykX11lQqp92UVOQQCC7"}], "track_number": 3, "available_markets": ["CA", "MX", "US"], "type": "track", "preview_url": null, "explicit": false, "external_urls": {"spotify": "https://open.spotify.com/track/32JL9HbzCsPsQh4hyJEBzE"}, "id": "32JL9HbzCsPsQh4hyJEBzE", "uri": "spotify:track:32JL9HbzCsPsQh4hyJEBzE", "popularity": 33}, {"album": {"total_tracks": 5, "type": "album", "release_date": "2013-01-01", "href": "https://api.spotify.com/v1/albums/3v5nN5TDafIxtOtwWlyO2Z", "artists": [{"type": "artist", "name": "Disclosure", "external_urls": {"spotify": "https://open.spotify.com/artist/6nS5roXSAGhTGr34W6n7Et"}, "id": "6nS5roXSAGhTGr34W6n7Et", "uri": "spotify:artist:6nS5roXSAGhTGr34W6n7Et", "href": "https://api.spotify.com/v1/artists/6nS5roXSAGhTGr34W6n7Et"}], "images": [{"width": 640, "url": "https://i.scdn.co/image/ab67616d0000b273d29690c1deb8d9dbb7de233b", "height": 640}, {"width": 300, "url": "https://i.scdn.co/image/ab67616d00001e02d29690c1deb8d9dbb7de233b", "height": 300}, {"width": 64, "url": "https://i.scdn.co/image/ab67616d00004851d29690c1deb8d9dbb7de233b", "height": 64}], "available_markets": ["AD", "AE", "AR", "AT", "AU", "BG", "BH", "BO", "BR", "CA", "CH", "CL", "CO", "CR", "CZ", "DE", "DK", "DO", "DZ", "EC", "EE", "EG", "ES", "FI", "FR", "GB", "GT", "HN", "IE", "IN", "IS", "JO", "JP", "KW", "LB", "LI", "LT", "LV", "MA", "MC", "MT", "MX", "NI", "NL", "NO", "NZ", "OM", "PA", "PE", "PS", "PT", "PY", "QA", "RO", "SA", "SE", "SG", "SK", "SV", "TN", "TR", "US", "UY"], "album_type": "single", "release_date_precision": "day", "name": "Spotify Sessions (Live from Bonnaroo 2014)", "external_urls": {"spotify": "https://open.spotify.com/album/3v5nN5TDafIxtOtwWlyO2Z"}, "id": "3v5nN5TDafIxtOtwWlyO2Z", "uri": "spotify:album:3v5nN5TDafIxtOtwWlyO2Z"}, "external_ids": {"isrc": "GBUM71306441"}, "name": "Latch - Live From Bonnaroo 2014", "duration_ms": 411613, "is_local": false, "disc_number": 1, "href": "https://api.spotify.com/v1/tracks/7MlYRJOFuk7ge8Ruo6rqSn", "artists": [{"type": "artist", "name": "Disclosure", "external_urls": {"spotify": "https://open.spotify.com/artist/6nS5roXSAGhTGr34W6n7Et"}, "id": "6nS5roXSAGhTGr34W6n7Et", "uri": "spotify:artist:6nS5roXSAGhTGr34W6n7Et", "href": "https://api.spotify.com/v1/artists/6nS5roXSAGhTGr34W6n7Et"}, {"type": "artist", "name": "Sam Smith", "external_urls": {"spotify": "https://open.spotify.com/artist/2wY79sveU1sp5g7SokKOiI"}, "id": "2wY79sveU1sp5g7SokKOiI", "uri": "spotify:artist:2wY79sveU1sp5g7SokKOiI", "href": "https://api.spotify.com/v1/artists/2wY79sveU1sp5g7SokKOiI"}], "track_number": 5, "available_markets": ["AD", "AR", "AT", "AU", "BG", "BO", "BR", "CA", "CH", "CL", "CO", "CR", "CZ", "DE", "DK", "DO", "EC", "EE", "ES", "FI", "FR", "GB", "GT", "HN", "IE", "IN", "IS", "JP", "LI", "LT", "LV", "MC", "MT", "MX", "NI", "NL", "NO", "NZ", "PA", "PE", "PT", "PY", "RO", "SE", "SG", "SK", "SV", "TR", "US", "UY"], "type": "track", "preview_url": null, "explicit": false, "external_urls": {"spotify": "https://open.spotify.com/track/7MlYRJOFuk7ge8Ruo6rqSn"}, "id": "7MlYRJOFuk7ge8Ruo6rqSn", "uri": "spotify:track:7MlYRJOFuk7ge8Ruo6rqSn", "popularity": 41}], "previous": null, "href": "https://api.spotify.com/v1/search?query=artist%3ADisclosure+track%3ALatch&type=track&offset=0&limit=5", "limit": 5, "total": 21, "next": "https://api.spotify.com/v1/search?query=artist%3ADisclosure+track%3ALatch&type=track&offset=5&limit=5"}}