{"tracks": {"offset": 0, "items": [{"album": {"total_tracks": 15, "type": "album", "release_date": "2012-01-01", "href": "https://api.spotify.com/v1/albums/29blfJv8AddJrjuG3DpE13", "artists": [{"type": "artist", "name": "Carly Rae Jepsen", "external_urls": {"spotify": "https://open.spotify.com/artist/6sFIWsNpZYqfjUpaCgueju"}, "id": "6sFIWsNpZYqfjUpaCgueju", "uri": "spotify:artist:6sFIWsNpZYqfjUpaCgueju", "href": "https://api.spotify.com/v1/artists/6sFIWsNpZYqfjUpaCgueju"}], "images": [{"width": 640, "url": "https://i.scdn.co/image/ab67616d0000b2732378d011918957217b3b812c", "height": 640}, {"width": 300, "url": "https://i.scdn.co/image/ab67616d00001e022378d011918957217b3b812c", "height": 300}, {"width": 64, "url": "https://i.scdn.co/image/ab67616d000048512378d011918957217b3b812c", "height": 64}], "available_markets": ["CR", "MX", "US"], "album_type": "album", "release_date_precision": "day", "name": "Kiss (Deluxe)", "external_urls": {"spotify": "https://open.spotify.com/album/29blfJv8AddJrjuG3DpE13"}, "id": "29blfJv8AddJrjuG3DpE13", "uri": "spotify:album:29blfJv8AddJrjuG3DpE13"}, "external_ids": {"isrc": "CAB391100615"}, "name": "Call Me Maybe", "duration_ms": 193400, "is_local": false, "disc_number": 1, "href": "https://api.spotify.com/v1/tracks/3TGRqZ0a2l1LRblBkJoaDx", "artists": [{"type": "artist", "name": "Carly Rae Jepsen", "external_urls": {"spotify": "https://open.spotify.com/artist/6sFIWsNpZYqfjUpaCgueju"}, "id": "6sFIWsNpZYqfjUpaCgueju", "uri": "spotify:artist:6sFIWsNpZYqfjUpaCgueju", "href": "https://api.spotify.com/v1/artists/6sFIWsNpZYqfjUpaCgueju"}], "track_number": 3, "available_markets": ["CR", "MX", "US"], "type": "track", "preview_url": null, "explicit": false, "external_urls": {"spotify": "https://open.spotify.com/track/3TGRqZ0a2l1LRblBkJoaDx"}, "id": "3TGRqZ0a2l1LRblBkJoaDx", "uri": "spotify:track:3TGRqZ0a2l1LRblBkJoaDx", "popularity": 69}, {"album": {"total_tracks": 1, "type": "album", "release_date": "2012-01-01", "href": "https://api.spotify.com/v1/albums/3eHEUyFhVdkoXEJzXC0EKT", "artists": [{"type": "artist", "name": "Carly Rae Jepsen", "external_urls": {"spotify": "https://open.spotify.com/artist/6sFIWsNpZYqfjUpaCgueju"}, "id": "6sFIWsNpZYqfjUpaCgueju", "uri": "spotify:artist:6sFIWsNpZYqfjUpaCgueju", "href": "https://api.spotify.com/v1/artists/6sFIWsNpZYqfjUpaCgueju"}], "images": [{"width": 640, "url": "https://i.scdn.co/image/ab67616d0000b27320a45edf1e7234daf1bc0bf1", "height": 640}, {"width": 300, "url": "https://i.scdn.co/image/ab67616d00001e0220a45edf1e7234daf1bc0bf1", "height": 300}, {"width": 64, "url": "https://i.scdn.co/image/ab67616d0000485120a45edf1e7234daf1bc0bf1", "height": 64}], "available_markets": ["MX", "US"], "album_type": "single", "release_date_precision": "day", "name": "Call Me Maybe", "external_urls": {"spotify": "https://open.spotify.com/album/3eHEUyFhVdkoXEJzXC0EKT"}, "id": "3eHEUyFhVdkoXEJzXC0EKT", "uri": "spotify:album:3eHEUyFhVdkoXEJzXC0EKT"}, "external_ids": {"isrc": "CAB391100615"}, "name": "Call Me Maybe", "duration_ms": 193466, "is_local": false, "disc_number": 1, "href": "https://api.spotify.com/v1/tracks/6ol4ZSifr7r3Lb2a9L5ZAB", "artists": [{"type": "artist", "name": "Carly Rae Jepsen", "external_urls": {"spotify": "https://open.spotify.com/artist/6sFIWsNpZYqfjUpaCgueju"}, "id": "6sFIWsNpZYqfjUpaCgueju", "uri": "spotify:artist:6sFIWsNpZYqfjUpaCgueju", "href": "https://api.spotify.com/v1/artists/6sFIWsNpZYqfjUpaCgueju"}], "track_number": 1, "available_markets": ["MX", "US"], "type": "track", "preview_url": null, "explicit": false, "external_urls": {"spotify": "https://open.spotify.com/track/6ol4ZSifr7r3Lb2a9L5ZAB"}, "id": "6ol4ZSifr7r3Lb2a9L5ZAB", "uri": "spotify:track:6ol4ZSifr7r3Lb2a9L5ZAB", "popularity": 56}, {"album": {"total_tracks": 4, "type": "album", "release_date": "2012-01-01", "href": "https://api.spotify.com/v1/albums/2MzhUZbCFZeU1ynEEH279P", "artists": [{"type": "artist", "name": "Carly Rae Jepsen", "external_urls": {"spotify": "https://open.spotify.com/artist/6sFIWsNpZYqfjUpaCgueju"}, "id": "6sFIWsNpZYqfjUpaCgueju", "uri": "spotify:artist:6sFIWsNpZYqfjUpaCgueju", "href": "https://api.spotify.com/v1/artists/6sFIWsNpZYqfjUpaCgueju"}], "images": [{"width": 640, "url": "https://i.scdn.co/image/ab67616d0000b2738775a811475780232650db2a", "height": 640}, {"width": 300, "url": "https://i.scdn.co/image/ab67616d00001e028775a811475780232650db2a", "height": 300}, {"width": 64, "url": "https://i.scdn.co/image/ab67616d000048518775a811475780232650db2a", "height": 64}], "available_markets": ["AE", "AR", "AT", "AU", "BE", "BG", "BH", "BO", "BR", "CH", "CL", "CO", "CR", "CY", "CZ", "DE", "DK", "DO", "EC", "EE", "EG", "ES", "FI", "FR", "GB", "GR", "GT", "HK", "HN", "HU", "ID", "IE", "IL", "IN", "IS", "IT", "JO", "JP", "KW", "LB", "LT", "LU", "LV", "MT", "MX", "MY", "NI", "NL", "NO", "NZ", "OM", "PA", "PE", "PH", "PL", "PT", "PY", "QA", "RO", "SA", "SE", "SG", "SK", "SV", "TH", "TN", "TR", "TW", "US", "VN", "ZA"], "album_type": "single", "release_date_precision": "day", "name": "Call Me Maybe (Remixes)", "external_urls": {"spotify": "https://open.spotify.com/album/2MzhUZbCFZeU1ynEEH279P"}, "id": "2MzhUZbCFZeU1ynEEH279P", "uri": "spotify:album:2MzhUZbCFZeU1ynEEH279P"}, "external_ids": {"isrc": "USUM71204811"}, "name": "Call Me Maybe - Manhattan Clique Remix", "duration_ms": 356826, "is_local": false, "disc_number": 1, "href": "https://api.spotify.com/v1/tracks/35L7QOIRqFQ0IbOspwQcq5", "artists": [{"type": "artist", "name": "Carly Rae Jepsen", "external_urls": {"spotify": "https://open.spotify.com/artist/6sFIWsNpZYqfjUpaCgueju"}, "id": "6sFIWsNpZYqfjUpaCgueju", "uri": "spotify:artist:6sFIWsNpZYqfjUpaCgueju", "href": "https://api.spotify.com/v1/artists/6sFIWsNpZYqfjUpaCgueju"}, {"type": "artist", "name": "Big Dog Media", "external_urls": {"spotify": "https://open.spotify.com/artist/0ofiCB9SdSlf2AUfrDEVJc"}, "id": "0ofiCB9SdSlf2AUfrDEVJc", "uri": "spotify:artist:0ofiCB9SdSlf2AUfrDEVJc", "href": "https://api.spotify.com/v1/artists/0ofiCB9SdSlf2AUfrDEVJc"}], "track_number": 1, "available_markets": ["AE", "AR", "AT", "AU", "BE", "BG", "BH", "BO", "BR", "CH", "CL", "CO", "CR", "CY", "CZ", "DE", "DK", "DO", "EC", "EE", "EG", "ES", "FI", "FR", "GB", "GR", "GT", "HK", "HN", "HU", "ID", "IE", "IL", "IN", "IS", "IT", "JO", "JP", "KW", "LB", "LT", "LU", "LV", "MT", "MX", "MY", "NI", "NL", "NO", "NZ", "OM", "PA", "PE", "PH", "PL", "PT", "PY", "QA", "RO", "SA", "SE", "SG", "SK", "SV", "TH", "TN", "TR", "TW", "US", "VN", "ZA"], "type": "track", "preview_url": null, "explicit": false, "external_urls": {"spotify": "https://open.spotify.com/track/35L7QOIRqFQ0IbOspwQcq5"}, "id": "35L7QOIRqFQ0IbOspwQcq5", "uri": "spotify:track:35L7QOIRqFQ0IbOspwQcq5", "popularity": 32}, {"album": {"total_tracks": 12, "type": "album", "release_date": "2013-01-01", "href": "https://api.spotify.com/v1/albums/685GvqHcJrflEOVqwYiItH", "artists": [{"type": "artist", "name": "Various Artists", "external_urls": {"spotify": "https://open.spotify.com/artist/0LyfQWJT6nXafLPZqxe9Of"}, "id": "0LyfQWJT6nXafLPZqxe9Of", "uri": "spotify:artist:0LyfQWJT6nXafLPZqxe9Of", "href": "https://api.spotify.com/v1/artists/0LyfQWJT6nXafLPZqxe9Of"}], "images": [{"width": 640, "url": "https://i.scdn.co/image/ab67616d0000b273f390437953a686b4fc8acfc3", "height": 640}, {"width": 300, "url": "https://i.scdn.co/image/ab67616d00001e02f390437953a686b4fc8acfc3", "height": 300}, {"width": 64, "url": "https://i.scdn.co/image/ab67616d00004851f390437953a686b4fc8acfc3", "height": 64}], "available_markets": ["CA", "US"], "album_type": "compilation", "release_date_precision": "day", "name": "Zumba Fitness Dance Party", "external_urls": {"spotify": "https://open.spotify.com/album/685GvqHcJrflEOVqwYiItH"}, "id": "685GvqHcJrflEOVqwYiItH", "uri": "spotify:album:685GvqHcJrflEOVqwYiItH"}, "external_ids": {"isrc": "CAB391100615"}, "name": "Call Me Maybe", "duration_ms": 194466, "is_local": false, "disc_number": 1, "href": "https://api.spotify.com/v1/tracks/2YoaiMSCOKSsW2H6swpbDf", "artists": [{"type": "artist", "name": "Carly Rae Jepsen", "external_urls": {"spotify": "https://open.spotify.com/artist/6sFIWsNpZYqfjUpaCgueju"}, "id": "6sFIWsNpZYqfjUpaCgueju", "uri": "spotify:artist:6sFIWsNpZYqfjUpaCgueju", "href": "https://api.spotify.com/v1/artists/6sFIWsNpZYqfjUpaCgueju"}], "track_number": 1, "available_markets": ["CA", "US"], "type": "track", "preview_url": null, "explicit": false, "external_urls": {"spotify": "https://open.spotify.com/track/2YoaiMSCOKSsW2H6swpbDf"}, "id": "2YoaiMSCOKSsW2H6swpbDf", "uri": "spotify:track:2YoaiMSCOKSsW2H6swpbDf", "popularity": 22}, {"album": {"total_tracks": 12, "type": "album", "release_date": "2012-01-01", "href": "https://api.spotify.com/v1/albums/3tFK16bCiCvBp2h8Btfjpv", "artists": [{"type": "artist", "name": "Carly Rae Jepsen", "external_urls": {"spotify": "https://open.spotify.com/artist/6sFIWsNpZYqfjUpaCgueju"}, "id": "6sFIWsNpZYqfjUpaCgueju", "uri": "spotify:artist:6sFIWsNpZYqfjUpaCgueju", "href": "https://api.spotify.com/v1/artists/6sFIWsNpZYqfjUpaCgueju"}], "images": [{"width": 640, "url": "https://i.scdn.co/image/ab67616d0000b2733cafa69ef4ed35f01f5098a0", "height": 640}, {"width": 300, "url": "https://i.scdn.co/image/ab67616d00001e023cafa69ef4ed35f01f5098a0", "height": 300}, {"width": 64, "url": "https://i.scdn.co/image/ab67616d000048513cafa69ef4ed35f01f5098a0", "height": 64}], "available_markets": ["CR", "MX", "US"], "album_type": "album", "release_date_precision": "day", "name": "Kiss", "external_urls": {"spotify": "https://open.spotify.com/album/3tFK16bCiCvBp2h8Btfjpv"}, "id": "3tFK16bCiCvBp2h8Btfjpv", "uri": "spotify:album:3tFK16bCiCvBp2h8Btfjpv"}, "external_ids": {"isrc": "CAB391100615"}, "name": "Call Me Maybe", "duration_ms": 193400, "is_local": false, "disc_number": 1, "href": "https://api.spotify.com/v1/tracks/0FA3iTc2K2jIP3WpjOiGsR", "artists": [{"type": "artist", "name": "Carly Rae Jepsen", "external_urls": {"spotify": "https://open.spotify.com/artist/6sFIWsNpZYqfjUpaCgueju"}, "id": "6sFIWsNpZYqfjUpaCgueju", "uri": "spotify:artist:6sFIWsNpZYqfjUpaCgueju", "href": "https://api.spotify.com/v1/artists/6sFIWsNpZYqfjUpaCgueju"}], "track_number": 3, "available_markets": ["CR", "MX", "US"], "type": "track", "preview_url": null, "explicit": false, "external_urls": {"spotify": "https://open.spotify.com/track/0FA3iTc2K2jIP3WpjOiGsR"}, "id": "0FA3iTc2K2jIP3WpjOiGsR", "uri": "spotify:track:0FA3iTc2K2jIP3WpjOiGsR", "popularity": 20}], "previous": null, "href": "https://api.spotify.com/v1/search?query=artist%3ACarly+Rae+Jepsen+track%3ACall+Me+Maybe&type=track&offset=0&limit=5", "limit": 5, "total": 12, "next": "https://api.spotify.com/v1/search?query=artist%3ACarly+Rae+Jepsen+track%3ACall+Me+Maybe&type=track&offset=5&limit=5"}}