{"tracks": {"offset": 0, "items": [{"album": {"total_tracks": 19, "type": "album", "release_date": "1991-09-24", "href": "https://api.spotify.com/v1/albums/30Perjew8HyGkdSmqguYyg", "artists": [{"type": "artist", "name": "Red Hot Chili Peppers", "external_urls": {"spotify": "https://open.spotify.com/artist/0L8ExT028jH3ddEcZwqJJ5"}, "id": "0L8ExT028jH3ddEcZwqJJ5", "uri": "spotify:artist:0L8ExT028jH3ddEcZwqJJ5", "href": "https://api.spotify.com/v1/artists/0L8ExT028jH3ddEcZwqJJ5"}], "images": [{"width": 640, "url": "https://i.scdn.co/image/ab67616d0000b273153d79816d853f2694b2cc70", "height": 640}, {"width": 300, "url": "https://i.scdn.co/image/ab67616d00001e02153d79816d853f2694b2cc70", "height": 300}, {"width": 64, "url": "https://i.scdn.co/image/ab67616d00004851153d79816d853f2694b2cc70", "height": 64}], "available_markets": ["AD", "AE", "AR", "AT", "AU", "BE", "BG", "BH", "BO", "BR", "CA", "CH", "CL", "CO", "CR", "CY", "CZ", "DE", "DK", "DO", "DZ", "EC", "EE", "EG", "ES", "FI", "FR", "GB", "GR", "GT", "HK", "HN", "HU", "ID", "IE", "IL", "IS", "IT", "JO", "JP", "KW", "LB", "LT", "LU", "LV", "MA", "MC", "MT", "MX", "MY", "NI", "NL", "NO", "NZ", "OM", "PA", "PE", "PH", "PL", "PT", "PY", "QA", "RO", "SA", "SE", "SG", "SK", "SV", "TH", "TN", "TR", "TW", "US", "UY", "VN", "ZA"], "album_type": "album", "release_date_precision": "day", "name": "Blood Sugar Sex Magik (Deluxe Edition)", "external_urls": {"spotify": "https://open.spotify.com/album/30Perjew8HyGkdSmqguYyg"}, "id": "30Perjew8HyGkdSmqguYyg", "uri": "spotify:album:30Perjew8HyGkdSmqguYyg"}, "external_ids": {"isrc": "USWB19901576"}, "name": "Under the Bridge", "duration_ms": 264306, "is_local": false, "disc_number": 1, "href": "https://api.spotify.com/v1/tracks/3d9DChrdc6BOeFsbrZ3Is0", "artists": [{"type": "artist", "name": "Red Hot Chili Peppers", "external_urls": {"spotify": "https://open.spotify.com/artist/0L8ExT028jH3ddEcZwqJJ5"}, "id": "0L8ExT028jH3ddEcZwqJJ5", "uri": "spotify:artist:0L8ExT028jH3ddEcZwqJJ5", "href": "https://api.spotify.com/v1/artists/0L8ExT028jH3ddEcZwqJJ5"}], "track_number": 11, "available_markets": ["AD", "AE", "AR", "AT", "AU", "BE", "BG", "BH", "BO", "BR", "CA", "CH", "CL", "CO", "CR", "CY", "CZ", "DE", "DK", "DO", "DZ", "EC", "EE", "EG", "ES", "FI", "FR", "GB", "GR", "GT", "HK", "HN", "HU", "ID", "IE", "IL", "IS", "IT", "JO", "JP", "KW", "LB", "LT", "LU", "LV", "MA", "MC", "MT", "MX", "MY", "NI", "NL", "NO", "NZ", "OM", "PA", "PE", "PH", "PL", "PT", "PY", "QA", "RO", "SA", "SE", "SG", "SK", "SV", "TH", "TN", "TR", "TW", "US", "UY", "VN", "ZA"], "type": "track", "preview_url": "https://p.scdn.co/mp3-preview/90e41778392f27b6f7dd82db4c90916b3727aa6a?cid=0c947b9d3f7547e28aee080174c283c9", "explicit": false, "external_urls": {"spotify": "https://open.spotify.com/track/3d9DChrdc6BOeFsbrZ3Is0"}, "id": "3d9DChrdc6BOeFsbrZ3Is0", "uri": "spotify:track:3d9DChrdc6BOeFsbrZ3Is0", "popularity": 82}, {"album": {"total_tracks": 16, "type": "album", "release_date": "2003-11-18", "href": "https://api.spotify.com/v1/albums/53tvjWbVNZKd3CvpENkzOC", "artists": [{"type": "artist", "name": "Red Hot Chili Peppers", "external_urls": {"spotify": "https://open.spotify.com/artist/0L8ExT028jH3ddEcZwqJJ5"}, "id": "0L8ExT028jH3ddEcZwqJJ5", "uri": "spotify:artist:0L8ExT028jH3ddEcZwqJJ5", "href": "https://api.spotify.com/v1/artists/0L8ExT028jH3ddEcZwqJJ5"}], "images": [{"width": 640, "url": "https://i.scdn.co/image/ab67616d0000b2735590b4ee88187cb06a5b102d", "height": 640}, {"width": 300, "url": "https://i.scdn.co/image/ab67616d00001e025590b4ee88187cb06a5b102d", "height": 300}, {"width": 64, "url": "https://i.scdn.co/image/ab67616d000048515590b4ee88187cb06a5b102d", "height": 64}], "available_markets": ["AR", "AT", "AU", "BE", "BG", "BO", "BR", "CA", "CH", "CL", "CO", "CR", "CY", "CZ", "DE", "DK", "DO", "EC", "EE", "ES", "FI", "FR", "GB", "GR", "GT", "HK", "HN", "HU", "ID", "IE", "IL", "IT", "JP", "LT", "LU", "LV", "MT", "MX", "MY", "NI", "NL", "NO", "NZ", "PA", "PE", "PH", "PL", "PT", "PY", "RO", "SE", "SG", "SK", "SV", "TH", "TR", "TW", "US", "UY", "VN", "ZA"], "album_type": "compilation", "release_date_precision": "day", "name": "Greatest Hits", "external_urls": {"spotify": "https://open.spotify.com/album/53tvjWbVNZKd3CvpENkzOC"}, "id": "53tvjWbVNZKd3CvpENkzOC", "uri": "spotify:album:53tvjWbVNZKd3CvpENkzOC"}, "external_ids": {"isrc": "USWB19901576"}, "name": "Under the Bridge", "duration_ms": 265506, "is_local": false, "disc_number": 1, "href": "https://api.spotify.com/v1/tracks/23NPGXlSaIqWzvxIRhM2oG", "artists": [{"type": "artist", "name": "Red Hot Chili Peppers", "external_urls": {"spotify": "https://open.spotify.com/artist/0L8ExT028jH3ddEcZwqJJ5"}, "id": "0L8ExT028jH3ddEcZwqJJ5", "uri": "spotify:artist:0L8ExT028jH3ddEcZwqJJ5", "href": "https://api.spotify.com/v1/artists/0L8ExT028jH3ddEcZwqJJ5"}], "track_number": 1, "available_markets": ["AR", "AT", "AU", "BE", "BG", "BO", "BR", "CA", "CH", "CL", "CO", "CR", "CY", "CZ", "DE", "DK", "DO", "EC", "EE", "ES", "FI", "FR", "GB", "GR", "GT", "HK", "HN", "HU", "ID", "IE", "IL", "IT", "JP", "LT", "LU", "LV", "MT", "MX", "MY", "NI", "NL", "NO", "NZ", "PA", "PE", "PH", "PL", "PT", "PY", "RO", "SE", "SG", "SK", "SV", "TH", "TR", "TW", "US", "UY", "VN", "ZA"], "type": "track", "preview_url": "https://p.scdn.co/mp3-preview/5c052c976f9ad6610a1e8daf79e467e1e3943632?cid=0c947b9d3f7547e28aee080174c283c9", "explicit": false, "external_urls": {"spotify": "https://open.spotify.com/track/23NPGXlSaIqWzvxIRhM2oG"}, "id": "23NPGXlSaIqWzvxIRhM2oG", "uri": "spotify:track:23NPGXlSaIqWzvxIRhM2oG", "popularity": 65}, {"album": {"total_tracks": 17, "type": "album", "release_date": "1991-09-24", "href": "https://api.spotify.com/v1/albums/1DCI2yWmV4UI7Aga71yx9B", "artists": [{"type": "artist", "name": "Red Hot Chili Peppers", "external_urls": {"spotify": "https://open.spotify.com/artist/0L8ExT028jH3ddEcZwqJJ5"}, "id": "0L8ExT028jH3ddEcZwqJJ5", "uri": "spotify:artist:0L8ExT028jH3ddEcZwqJJ5", "href": "https://api.spotify.com/v1/artists/0L8ExT028jH3ddEcZwqJJ5"}], "images": [{"width": 640, "url": "https://i.scdn.co/image/ab67616d0000b273e7957730bc48a85ee53657fd", "height": 640}, {"width": 300, "url": "https://i.scdn.co/image/ab67616d00001e02e7957730bc48a85ee53657fd", "height": 300}, {"width": 64, "url": "https://i.scdn.co/image/ab67616d00004851e7957730bc48a85ee53657fd", "height": 64}], "available_markets": ["US"], "album_type": "album", "release_date_precision": "day", "name": "Blood Sugar Sex Magik", "external_urls": {"spotify": "https://open.spotify.com/album/1DCI2yWmV4UI7Aga71yx9B"}, "id": "1DCI2yWmV4UI7Aga71yx9B", "uri": "spotify:album:1DCI2yWmV4UI7Aga71yx9B"}, "external_ids": {"isrc": "USWB19901576"}, "name": "Under the Bridge", "duration_ms": 264306, "is_local": false, "disc_number": 1, "href": "https://api.spotify.com/v1/tracks/5PclxRY6shIQzSKxxbdZso", "artists": [{"type": "artist", "name": "Red Hot Chili Peppers", "external_urls": {"spotify": "https://open.spotify.com/artist/0L8ExT028jH3ddEcZwqJJ5"}, "id": "0L8ExT028jH3ddEcZwqJJ5", "uri": "spotify:artist:0L8ExT028jH3ddEcZwqJJ5", "href": "https://api.spotify.com/v1/artists/0L8ExT028jH3ddEcZwqJJ5"}], "track_number": 11, "available_markets": ["US"], "type": "track", "preview_url": "https://p.scdn.co/mp3-preview/90e41778392f27b6f7dd82db4c90916b3727aa6a?cid=0c947b9d3f7547e28aee080174c283c9", "explicit": false, "external_urls": {"spotify": "https://open.spotify.com/track/5PclxRY6shIQzSKxxbdZso"}, "id": "5PclxRY6shIQzSKxxbdZso", "uri": "spotify:track:5PclxRY6shIQzSKxxbdZso", "popularity": 45}, {"album": {"total_tracks": 16, "type": "album", "release_date": "2003-11-18", "href": "https://api.spotify.com/v1/albums/6kLm0YrEESYq7yszohzkA1", "artists": [{"type": "artist", "name": "Red Hot Chili Peppers", "external_urls": {"spotify": "https://open.spotify.com/artist/0L8ExT028jH3ddEcZwqJJ5"}, "id": "0L8ExT028jH3ddEcZwqJJ5", "uri": "spotify:artist:0L8ExT028jH3ddEcZwqJJ5", "href": "https://api.spotify.com/v1/artists/0L8ExT028jH3ddEcZwqJJ5"}], "images": [{"width": 640, "url": "https://i.scdn.co/image/ab67616d0000b273d7c5d13d9e92bd1704de0a6f", "height": 640}, {"width": 300, "url": "https://i.scdn.co/image/ab67616d00001e02d7c5d13d9e92bd1704de0a6f", "height": 300}, {"width": 64, "url": "https://i.scdn.co/image/ab67616d00004851d7c5d13d9e92bd1704de0a6f", "height": 64}], "available_markets": ["AD", "AE", "AR", "AT", "AU", "BE", "BG", "BH", "BO", "BR", "CA", "CH", "CL", "CO", "CR", "CY", "CZ", "DE", "DK", "DO", "DZ", "EC", "EE", "EG", "ES", "FI", "FR", "GB", "GR", "GT", "HK", "HN", "HU", "ID", "IE", "IL", "IS", "IT", "JO", "JP", "KW", "LB", "LT", "LU", "LV", "MA", "MC", "MT", "MX", "MY", "NI", "NL", "NO", "NZ", "OM", "PA", "PE", "PH", "PL", "PT", "PY", "QA", "RO", "SA", "SE", "SG", "SK", "SV", "TH", "TN", "TR", "TW", "US", "UY", "VN", "ZA"], "album_type": "compilation", "release_date_precision": "day", "name": "Greatest Hits", "external_urls": {"spotify": "https://open.spotify.com/album/6kLm0YrEESYq7yszohzkA1"}, "id": "6kLm0YrEESYq7yszohzkA1", "uri": "spotify:album:6kLm0YrEESYq7yszohzkA1"}, "external_ids": {"isrc": "USWB19901576"}, "name": "Under the Bridge", "duration_ms": 265506, "is_local": false, "disc_number": 1, "href": "https://api.spotify.com/v1/tracks/4zkzkEQGjfzmq0tVzpsMdM", "artists": [{"type": "artist", "name": "Red Hot Chili Peppers", "external_urls": {"spotify": "https://open.spotify.com/artist/0L8ExT028jH3ddEcZwqJJ5"}, "id": "0L8ExT028jH3ddEcZwqJJ5", "uri": "spotify:artist:0L8ExT028jH3ddEcZwqJJ5", "href": "https://api.spotify.com/v1/artists/0L8ExT028jH3ddEcZwqJJ5"}], "track_number": 1, "available_markets": ["AD", "AE", "AR", "AT", "AU", "BE", "BG", "BH", "BO", "BR", "CA", "CH", "CL", "CO", "CR", "CY", "CZ", "DE", "DK", "DO", "DZ", "EC", "EE", "EG", "ES", "FI", "FR", "GB", "GR", "GT", "HK", "HN", "HU", "ID", "IE", "IL", "IS", "IT", "JO", "JP", "KW", "LB", "LT", "LU", "LV", "MA", "MC", "MT", "MX", "MY", "NI", "NL", "NO", "NZ", "OM", "PA", "PE", "PH", "PL", "PT", "PY", "QA", "RO", "SA", "SE", "SG", "SK", "SV", "TH", "TN", "TR", "TW", "US", "UY", "VN", "ZA"], "type": "track", "preview_url": "https://p.scdn.co/mp3-preview/5c052c976f9ad6610a1e8daf79e467e1e3943632?cid=0c947b9d3f7547e28aee080174c283c9", "explicit": false, "external_urls": {"spotify": "https://open.spotify.com/track/4zkzkEQGjfzmq0tVzpsMdM"}, "id": "4zkzkEQGjfzmq0tVzpsMdM", "uri": "spotify:track:4zkzkEQGjfzmq0tVzpsMdM", "popularity": 39}, {"album": {"total_tracks": 103, "type": "album", "release_date": "2014-12-12", "href": "https://api.spotify.com/v1/albums/7aOFj1yM42sm2gzmlPidPP", "artists": [{"type": "artist", "name": "Red Hot Chili Peppers", "external_urls": {"spotify": "https://open.spotify.com/artist/0L8ExT028jH3ddEcZwqJJ5"}, "id": "0L8ExT028jH3ddEcZwqJJ5", "uri": "spotify:artist:0L8ExT028jH3ddEcZwqJJ5", "href": "https://api.spotify.com/v1/artists/0L8ExT028jH3ddEcZwqJJ5"}], "images": [{"width": 640, "url": "https://i.scdn.co/image/ab67616d0000b273f3686323bf737cb7ba3de792", "height": 640}, {"width": 300, "url": "https://i.scdn.co/image/ab67616d00001e02f3686323bf737cb7ba3de792", "height": 300}, {"width": 64, "url": "https://i.scdn.co/image/ab67616d00004851f3686323bf737cb7ba3de792", "height": 64}], "available_markets": ["AD", "AE", "AR", "AT", "AU", "BE", "BG", "BH", "BO", "BR", "CA", "CH", "CL", "CO", "CR", "CY", "CZ", "DE", "DK", "DO", "DZ", "EC", "EE", "EG", "ES", "FI", "FR", "GB", "GR", "GT", "HK", "HN", "HU", "ID", "IE", "IL", "IS", "IT", "JO", "JP", "KW", "LB", "LT", "LU", "LV", "MA", "MC", "MT", "MX", "MY", "NI", "NL", "NO", "NZ", "OM", "PA", "PE", "PH", "PL", "PT", "PY", "QA", "RO", "SA", "SE", "SG", "SK", "SV", "TH", "TN", "TR", "TW", "US", "UY", "VN", "ZA"], "album_type": "compilation", "release_date_precision": "day", "name": "The Studio Album Collection 1991 - 2011", "external_urls": {"spotify": "https://open.spotify.com/album/7aOFj1yM42sm2gzmlPidPP"}, "id": "7aOFj1yM42sm2gzmlPidPP", "uri": "spotify:album:7aOFj1yM42sm2gzmlPidPP"}, "external_ids": {"isrc": "USWB19901576"}, "name": "Under the Bridge", "duration_ms": 265506, "is_local": false, "disc_number": 1, "href": "https://api.spotify.com/v1/tracks/1MMlmA1APa0MevW3Bm2PpE", "artists": [{"type": "artist", "name": "Red Hot Chili Peppers", "external_urls": {"spotify": "https://open.spotify.com/artist/0L8ExT028jH3ddEcZwqJJ5"}, "id": "0L8ExT028jH3ddEcZwqJJ5", "uri": "spotify:artist:0L8ExT028jH3ddEcZwqJJ5", "href": "https://api.spotify.com/v1/artists/0L8ExT028jH3ddEcZwqJJ5"}], "track_number": 11, "available_markets": ["AD", "AE", "AR", "AT", "AU", "BE", "BG", "BH", "BO", "BR", "CA", "CH", "CL", "CO", "CR", "CY", "CZ", "DE", "DK", "DO", "DZ", "EC", "EE", "EG", "ES", "FI", "FR", "GB", "GR", "GT", "HK", "HN", "HU", "ID", "IE", "IL", "IS", "IT", "JO", "JP", "KW", "LB", "LT", "LU", "LV", "MA", "MC", "MT", "MX", "MY", "NI", "NL", "NO", "NZ", "OM", "PA", "PE", "PH", "PL", "PT", "PY", "QA", "RO", "SA", "SE", "SG", "SK", "SV", "TH", "TN", "TR", "TW", "US", "UY", "VN", "ZA"], "type": "track", "preview_url": "https://p.scdn.co/mp3-preview/5c052c976f9ad6610a1e8daf79e467e1e3943632?cid=0c947b9d3f7547e28aee080174c283c9", "explicit": false, "external_urls": {"spotify": "https://open.spotify.com/track/1MMlmA1APa0MevW3Bm2PpE"}, "id": "1MMlmA1APa0MevW3Bm2PpE", "uri": "spotify:track:1MMlmA1APa0MevW3Bm2PpE", "popularity": 35}], "previous": null, "href": "https://api.spotify.com/v1/search?query=artist%3ARed+Hot+Chili+Peppers+track%3AUnder+The+Bridge&type=track&offset=0&limit=5", "limit": 5, "total": 8, "next": "https://api.spotify.com/v1/search?query=artist%3ARed+Hot+Chili+Peppers+track%3AUnder+The+Bridge&type=track&offset=5&limit=5"}}