{"tracks": {"offset": 0, "items": [{"album": {"total_tracks": 21, "type": "album", "release_date": "2013-01-01", "href": "https://api.spotify.com/v1/albums/3KVeczHxWg5YFKb0gS62f2", "artists": [{"type": "artist", "name": "Ellie Goulding", "external_urls": {"spotify": "https://open.spotify.com/artist/0X2BH1fck6amBIoJhDVmmJ"}, "id": "0X2BH1fck6amBIoJhDVmmJ", "uri": "spotify:artist:0X2BH1fck6amBIoJhDVmmJ", "href": "https://api.spotify.com/v1/artists/0X2BH1fck6amBIoJhDVmmJ"}], "images": [{"width": 640, "url": "https://i.scdn.co/image/4845d610e4a85a532aeb159cd31bfe160b322764", "height": 640}, {"width": 300, "url": "https://i.scdn.co/image/53757cf5d4f20c74966b81bf05d63ae6ca4962b2", "height": 300}, {"width": 64, "url": "https://i.scdn.co/image/8e757079e733777cd4fcd2d6a2b7ba39f4946954", "height": 64}], "available_markets": ["CA", "MX", "US"], "album_type": "album", "release_date_precision": "day", "name": "Halcyon Days", "external_urls": {"spotify": "https://open.spotify.com/album/3KVeczHxWg5YFKb0gS62f2"}, "id": "3KVeczHxWg5YFKb0gS62f2", "uri": "spotify:album:3KVeczHxWg5YFKb0gS62f2"}, "external_ids": {"isrc": "GBUM71303482"}, "name": "Burn", "duration_ms": 231211, "is_local": false, "disc_number": 1, "href": "https://api.spotify.com/v1/tracks/0xMd5bcWTbyXS7wPrBtZA6", "artists": [{"type": "artist", "name": "Ellie Goulding", "external_urls": {"spotify": "https://open.spotify.com/artist/0X2BH1fck6amBIoJhDVmmJ"}, "id": "0X2BH1fck6amBIoJhDVmmJ", "uri": "spotify:artist:0X2BH1fck6amBIoJhDVmmJ", "href": "https://api.spotify.com/v1/artists/0X2BH1fck6amBIoJhDVmmJ"}], "track_number": 14, "available_markets": ["CA", "MX", "US"], "type": "track", "preview_url": null, "explicit": false, "external_urls": {"spotify": "https://open.spotify.com/track/0xMd5bcWTbyXS7wPrBtZA6"}, "id": "0xMd5bcWTbyXS7wPrBtZA6", "uri": "spotify:track:0xMd5bcWTbyXS7wPrBtZA6", "popularity": 67}, {"album": {"total_tracks": 6, "type": "album", "release_date": "2013-01-01", "href": "https://api.spotify.com/v1/albums/3JjFTvqrd6LVS3BF1dE3qj", "artists": [{"type": "artist", "name": "Ellie Goulding", "external_urls": {"spotify": "https://open.spotify.com/artist/0X2BH1fck6amBIoJhDVmmJ"}, "id": "0X2BH1fck6amBIoJhDVmmJ", "uri": "spotify:artist:0X2BH1fck6amBIoJhDVmmJ", "href": "https://api.spotify.com/v1/artists/0X2BH1fck6amBIoJhDVmmJ"}], "images": [{"width": 640, "url": "https://i.scdn.co/image/d97d0e4ecd8059cbc957b4f4cb366d2d00072559", "height": 640}, {"width": 300, "url": "https://i.scdn.co/image/4325a098c7ff266dac181ea0315e7ef678efa0c0", "height": 300}, {"width": 64, "url": "https://i.scdn.co/image/f6663ae01d5d15020ad8aef1f1323db20c3347ba", "height": 64}], "available_markets": ["CA", "CR", "MX", "SE", "US"], "album_type": "single", "release_date_precision": "day", "name": "Burn (Remixes)", "external_urls": {"spotify": "https://open.spotify.com/album/3JjFTvqrd6LVS3BF1dE3qj"}, "id": "3JjFTvqrd6LVS3BF1dE3qj", "uri": "spotify:album:3JjFTvqrd6LVS3BF1dE3qj"}, "external_ids": {"isrc": "GBUM71305248"}, "name": "Burn - Remix", "duration_ms": 318906, "is_local": false, "disc_number": 1, "href": "https://api.spotify.com/v1/tracks/3BCHalsHVhqiOxLH7ZXIrs", "artists": [{"type": "artist", "name": "Ellie Goulding", "external_urls": {"spotify": "https://open.spotify.com/artist/0X2BH1fck6amBIoJhDVmmJ"}, "id": "0X2BH1fck6amBIoJhDVmmJ", "uri": "spotify:artist:0X2BH1fck6amBIoJhDVmmJ", "href": "https://api.spotify.com/v1/artists/0X2BH1fck6amBIoJhDVmmJ"}, {"type": "artist", "name": "Ti\u00ebsto", "external_urls": {"spotify": "https://open.spotify.com/artist/2o5jDhtHVPhrJdv3cEQ99Z"}, "id": "2o5jDhtHVPhrJdv3cEQ99Z", "uri": "spotify:artist:2o5jDhtHVPhrJdv3cEQ99Z", "href": "https://api.spotify.com/v1/artists/2o5jDhtHVPhrJdv3cEQ99Z"}], "track_number": 1, "available_markets": ["CA", "CR", "MX", "SE", "US"], "type": "track", "preview_url": null, "explicit": false, "external_urls": {"spotify": "https://open.spotify.com/track/3BCHalsHVhqiOxLH7ZXIrs"}, "id": "3BCHalsHVhqiOxLH7ZXIrs", "uri": "spotify:track:3BCHalsHVhqiOxLH7ZXIrs", "popularity": 35}, {"album": {"total_tracks": 6, "type": "album", "release_date": "2013-01-01", "href": "https://api.spotify.com/v1/albums/3JjFTvqrd6LVS3BF1dE3qj", "artists": [{"type": "artist", "name": "Ellie Goulding", "external_urls": {"spotify": "https://open.spotify.com/artist/0X2BH1fck6amBIoJhDVmmJ"}, "id": "0X2BH1fck6amBIoJhDVmmJ", "uri": "spotify:artist:0X2BH1fck6amBIoJhDVmmJ", "href": "https://api.spotify.com/v1/artists/0X2BH1fck6amBIoJhDVmmJ"}], "images": [{"width": 640, "url": "https://i.scdn.co/image/d97d0e4ecd8059cbc957b4f4cb366d2d00072559", "height": 640}, {"width": 300, "url": "https://i.scdn.co/image/4325a098c7ff266dac181ea0315e7ef678efa0c0", "height": 300}, {"width": 64, "url": "https://i.scdn.co/image/f6663ae01d5d15020ad8aef1f1323db20c3347ba", "height": 64}], "available_markets": ["CA", "CR", "MX", "SE", "US"], "album_type": "single", "release_date_precision": "day", "name": "Burn (Remixes)", "external_urls": {"spotify": "https://open.spotify.com/album/3JjFTvqrd6LVS3BF1dE3qj"}, "id": "3JjFTvqrd6LVS3BF1dE3qj", "uri": "spotify:album:3JjFTvqrd6LVS3BF1dE3qj"}, "external_ids": {"isrc": "GBUM71305250"}, "name": "Burn - Mat Zo Remix", "duration_ms": 402400, "is_local": false, "disc_number": 1, "href": "https://api.spotify.com/v1/tracks/7aLjwlocvNz2xB3jOFNi0M", "artists": [{"type": "artist", "name": "Ellie Goulding", "external_urls": {"spotify": "https://open.spotify.com/artist/0X2BH1fck6amBIoJhDVmmJ"}, "id": "0X2BH1fck6amBIoJhDVmmJ", "uri": "spotify:artist:0X2BH1fck6amBIoJhDVmmJ", "href": "https://api.spotify.com/v1/artists/0X2BH1fck6amBIoJhDVmmJ"}, {"type": "artist", "name": "Mat Zo", "external_urls": {"spotify": "https://open.spotify.com/artist/2n7USVO8fO8FF8zq4kG2N1"}, "id": "2n7USVO8fO8FF8zq4kG2N1", "uri": "spotify:artist:2n7USVO8fO8FF8zq4kG2N1", "href": "https://api.spotify.com/v1/artists/2n7USVO8fO8FF8zq4kG2N1"}], "track_number": 4, "available_markets": ["CA", "CR", "MX", "SE", "US"], "type": "track", "preview_url": null, "explicit": false, "external_urls": {"spotify": "https://open.spotify.com/track/7aLjwlocvNz2xB3jOFNi0M"}, "id": "7aLjwlocvNz2xB3jOFNi0M", "uri": "spotify:track:7aLjwlocvNz2xB3jOFNi0M", "popularity": 25}, {"album": {"total_tracks": 6, "type": "album", "release_date": "2013-01-01", "href": "https://api.spotify.com/v1/albums/3JjFTvqrd6LVS3BF1dE3qj", "artists": [{"type": "artist", "name": "Ellie Goulding", "external_urls": {"spotify": "https://open.spotify.com/artist/0X2BH1fck6amBIoJhDVmmJ"}, "id": "0X2BH1fck6amBIoJhDVmmJ", "uri": "spotify:artist:0X2BH1fck6amBIoJhDVmmJ", "href": "https://api.spotify.com/v1/artists/0X2BH1fck6amBIoJhDVmmJ"}], "images": [{"width": 640, "url": "https://i.scdn.co/image/d97d0e4ecd8059cbc957b4f4cb366d2d00072559", "height": 640}, {"width": 300, "url": "https://i.scdn.co/image/4325a098c7ff266dac181ea0315e7ef678efa0c0", "height": 300}, {"width": 64, "url": "https://i.scdn.co/image/f6663ae01d5d15020ad8aef1f1323db20c3347ba", "height": 64}], "available_markets": ["CA", "CR", "MX", "SE", "US"], "album_type": "single", "release_date_precision": "day", "name": "Burn (Remixes)", "external_urls": {"spotify": "https://open.spotify.com/album/3JjFTvqrd6LVS3BF1dE3qj"}, "id": "3JjFTvqrd6LVS3BF1dE3qj", "uri": "spotify:album:3JjFTvqrd6LVS3BF1dE3qj"}, "external_ids": {"isrc": "GBUM71305251"}, "name": "Burn - Maths Time Joy Remix", "duration_ms": 250080, "is_local": false, "disc_number": 1, "href": "https://api.spotify.com/v1/tracks/6fMJx5H7djTts58ob3W2QC", "artists": [{"type": "artist", "name": "Ellie Goulding", "external_urls": {"spotify": "https://open.spotify.com/artist/0X2BH1fck6amBIoJhDVmmJ"}, "id": "0X2BH1fck6amBIoJhDVmmJ", "uri": "spotify:artist:0X2BH1fck6amBIoJhDVmmJ", "href": "https://api.spotify.com/v1/artists/0X2BH1fck6amBIoJhDVmmJ"}, {"type": "artist", "name": "Maths Time Joy", "external_urls": {"spotify": "https://open.spotify.com/artist/3w18CP1k8zFZb1GfRlPHyK"}, "id": "3w18CP1k8zFZb1GfRlPHyK", "uri": "spotify:artist:3w18CP1k8zFZb1GfRlPHyK", "href": "https://api.spotify.com/v1/artists/3w18CP1k8zFZb1GfRlPHyK"}], "track_number": 2, "available_markets": ["CA", "CR", "MX", "SE", "US"], "type": "track", "preview_url": null, "explicit": false, "external_urls": {"spotify": "https://open.spotify.com/track/6fMJx5H7djTts58ob3W2QC"}, "id": "6fMJx5H7djTts58ob3W2QC", "uri": "spotify:track:6fMJx5H7djTts58ob3W2QC", "popularity": 25}, {"album": {"total_tracks": 6, "type": "album", "release_date": "2013-01-01", "href": "https://api.spotify.com/v1/albums/3JjFTvqrd6LVS3BF1dE3qj", "artists": [{"type": "artist", "name": "Ellie Goulding", "external_urls": {"spotify": "https://open.spotify.com/artist/0X2BH1fck6amBIoJhDVmmJ"}, "id": "0X2BH1fck6amBIoJhDVmmJ", "uri": "spotify:artist:0X2BH1fck6amBIoJhDVmmJ", "href": "https://api.spotify.com/v1/artists/0X2BH1fck6amBIoJhDVmmJ"}], "images": [{"width": 640, "url": "https://i.scdn.co/image/d97d0e4ecd8059cbc957b4f4cb366d2d00072559", "height": 640}, {"width": 300, "url": "https://i.scdn.co/image/4325a098c7ff266dac181ea0315e7ef678efa0c0", "height": 300}, {"width": 64, "url": "https://i.scdn.co/image/f6663ae01d5d15020ad8aef1f1323db20c3347ba", "height": 64}], "available_markets": ["CA", "CR", "MX", "SE", "US"], "album_type": "single", "release_date_precision": "day", "name": "Burn (Remixes)", "external_urls": {"spotify": "https://open.spotify.com/album/3JjFTvqrd6LVS3BF1dE3qj"}, "id": "3JjFTvqrd6LVS3BF1dE3qj", "uri": "spotify:album:3JjFTvqrd6LVS3BF1dE3qj"}, "external_ids": {"isrc": "GBUM71305765"}, "name": "Burn - Lovelife Remix", "duration_ms": 245600, "is_local": false, "disc_number": 1, "href": "https://api.spotify.com/v1/tracks/7dRgg0zBPyOU2otpjQ937z", "artists": [{"type": "artist", "name": "Ellie Goulding", "external_urls": {"spotify": "https://open.spotify.com/artist/0X2BH1fck6amBIoJhDVmmJ"}, "id": "0X2BH1fck6amBIoJhDVmmJ", "uri": "spotify:artist:0X2BH1fck6amBIoJhDVmmJ", "href": "https://api.spotify.com/v1/artists/0X2BH1fck6amBIoJhDVmmJ"}, {"type": "artist", "name": "Lovelife", "external_urls": {"spotify": "https://open.spotify.com/artist/0XdmdxjK0TXuC90HNcBKRz"}, "id": "0XdmdxjK0TXuC90HNcBKRz", "uri": "spotify:artist:0XdmdxjK0TXuC90HNcBKRz", "href": "https://api.spotify.com/v1/artists/0XdmdxjK0TXuC90HNcBKRz"}], "track_number": 3, "available_markets": ["CA", "CR", "MX", "SE", "US"], "type": "track", "preview_url": null, "explicit": false, "external_urls": {"spotify": "https://open.spotify.com/track/7dRgg0zBPyOU2otpjQ937z"}, "id": "7dRgg0zBPyOU2otpjQ937z", "uri": "spotify:track:7dRgg0zBPyOU2otpjQ937z", "popularity": 22}], "previous": null, "href": "https://api.spotify.com/v1/search?query=artist%3AEllie+Goulding+track%3ABurn&type=track&offset=0&limit=5", "limit": 5, "total": 19, "next": "https://api.spotify.com/v1/search?query=artist%3AEllie+Goulding+track%3ABurn&type=track&offset=5&limit=5"}}