{"tracks": {"offset": 0, "items": [{"album": {"total_tracks": 15, "type": "album", "release_date": "2014-09-09", "href": "https://api.spotify.com/v1/albums/5S9b8euumqMhQbMk0zzQdH", "artists": [{"type": "artist", "name": "Vance Joy", "external_urls": {"spotify": "https://open.spotify.com/artist/10exVja0key0uqUkk6LJRT"}, "id": "10exVja0key0uqUkk6LJRT", "uri": "spotify:artist:10exVja0key0uqUkk6LJRT", "href": "https://api.spotify.com/v1/artists/10exVja0key0uqUkk6LJRT"}], "images": [{"width": 640, "url": "https://i.scdn.co/image/ab67616d0000b273a9929deb093a6617d2493b03", "height": 640}, {"width": 300, "url": "https://i.scdn.co/image/ab67616d00001e02a9929deb093a6617d2493b03", "height": 300}, {"width": 64, "url": "https://i.scdn.co/image/ab67616d00004851a9929deb093a6617d2493b03", "height": 64}], "available_markets": ["AD", "AE", "AR", "AT", "BE", "BG", "BH", "BO", "BR", "CA", "CH", "CL", "CO", "CR", "CY", "CZ", "DE", "DK", "DO", "DZ", "EC", "EE", "EG", "ES", "FI", "FR", "GB", "GR", "GT", "HK", "HN", "HU", "ID", "IE", "IL", "IS", "IT", "JO", "JP", "KW", "LB", "LI", "LT", "LU", "LV", "MA", "MC", "MT", "MX", "MY", "NI", "NL", "NO", "OM", "PA", "PE", "PH", "PL", "PS", "PT", "PY", "QA", "RO", "SA", "SE", "SG", "SK", "SV", "TH", "TN", "TR", "TW", "US", "UY", "VN", "ZA"], "album_type": "album", "release_date_precision": "day", "name": "Dream Your Life Away (Special Edition)", "external_urls": {"spotify": "https://open.spotify.com/album/5S9b8euumqMhQbMk0zzQdH"}, "id": "5S9b8euumqMhQbMk0zzQdH", "uri": "spotify:album:5S9b8euumqMhQbMk0zzQdH"}, "external_ids": {"isrc": "AULI01385760"}, "name": "Riptide", "duration_ms": 204280, "is_local": false, "disc_number": 1, "href": "https://api.spotify.com/v1/tracks/3JvrhDOgAt6p7K8mDyZwRd", "artists": [{"type": "artist", "name": "Vance Joy", "external_urls": {"spotify": "https://open.spotify.com/artist/10exVja0key0uqUkk6LJRT"}, "id": "10exVja0key0uqUkk6LJRT", "uri": "spotify:artist:10exVja0key0uqUkk6LJRT", "href": "https://api.spotify.com/v1/artists/10exVja0key0uqUkk6LJRT"}], "track_number": 4, "available_markets": ["AD", "AE", "AR", "AT", "BE", "BG", "BH", "BO", "BR", "CA", "CH", "CL", "CO", "CR", "CY", "CZ", "DE", "DK", "DO", "DZ", "EC", "EE", "EG", "ES", "FI", "FR", "GB", "GR", "GT", "HK", "HN", "HU", "ID", "IE", "IL", "IS", "IT", "JO", "JP", "KW", "LB", "LI", "LT", "LU", "LV", "MA", "MC", "MT", "MX", "MY", "NI", "NL", "NO", "OM", "PA", "PE", "PH", "PL", "PS", "PT", "PY", "QA", "RO", "SA", "SE", "SG", "SK", "SV", "TH", "TN", "TR", "TW", "US", "UY", "VN", "ZA"], "type": "track", "preview_url": "https://p.scdn.co/mp3-preview/0dd45171d094ca8d374219054879662fe7982462?cid=0c947b9d3f7547e28aee080174c283c9", "explicit": false, "external_urls": {"spotify": "https://open.spotify.com/track/3JvrhDOgAt6p7K8mDyZwRd"}, "id": "3JvrhDOgAt6p7K8mDyZwRd", "uri": "spotify:track:3JvrhDOgAt6p7K8mDyZwRd", "popularity": 79}, {"album": {"total_tracks": 2, "type": "album", "release_date": "2014-11-04", "href": "https://api.spotify.com/v1/albums/7qFH1sf9b1H2voaOgOHn3a", "artists": [{"type": "artist", "name": "Vance Joy", "external_urls": {"spotify": "https://open.spotify.com/artist/10exVja0key0uqUkk6LJRT"}, "id": "10exVja0key0uqUkk6LJRT", "uri": "spotify:artist:10exVja0key0uqUkk6LJRT", "href": "https://api.spotify.com/v1/artists/10exVja0key0uqUkk6LJRT"}], "images": [{"width": 640, "url": "https://i.scdn.co/image/ab67616d0000b27374f5012dd4c7951eabbaee65", "height": 640}, {"width": 300, "url": "https://i.scdn.co/image/ab67616d00001e0274f5012dd4c7951eabbaee65", "height": 300}, {"width": 64, "url": "https://i.scdn.co/image/ab67616d0000485174f5012dd4c7951eabbaee65", "height": 64}], "available_markets": ["AR", "BO", "BR", "CA", "CL", "CO", "CR", "DO", "EC", "GT", "HK", "HN", "ID", "MX", "MY", "NI", "PA", "PE", "PH", "PY", "SG", "SV", "TH", "TW", "US", "UY", "VN"], "album_type": "single", "release_date_precision": "day", "name": "Riptide (Remixes)", "external_urls": {"spotify": "https://open.spotify.com/album/7qFH1sf9b1H2voaOgOHn3a"}, "id": "7qFH1sf9b1H2voaOgOHn3a", "uri": "spotify:album:7qFH1sf9b1H2voaOgOHn3a"}, "external_ids": {"isrc": "USAT21404583"}, "name": "Riptide - FlicFlac Remix", "duration_ms": 339310, "is_local": false, "disc_number": 1, "href": "https://api.spotify.com/v1/tracks/5K9AcgSi8DK4lZKM2LpFu8", "artists": [{"type": "artist", "name": "Vance Joy", "external_urls": {"spotify": "https://open.spotify.com/artist/10exVja0key0uqUkk6LJRT"}, "id": "10exVja0key0uqUkk6LJRT", "uri": "spotify:artist:10exVja0key0uqUkk6LJRT", "href": "https://api.spotify.com/v1/artists/10exVja0key0uqUkk6LJRT"}], "track_number": 1, "available_markets": ["AR", "BO", "BR", "CA", "CL", "CO", "CR", "DO", "EC", "GT", "HK", "HN", "ID", "MX", "MY", "NI", "PA", "PE", "PH", "PY", "SG", "SV", "TH", "TW", "US", "UY", "VN"], "type": "track", "preview_url": "https://p.scdn.co/mp3-preview/f106e84b53b4db3f7907a887b5ad46554cfe57e1?cid=0c947b9d3f7547e28aee080174c283c9", "explicit": false, "external_urls": {"spotify": "https://open.spotify.com/track/5K9AcgSi8DK4lZKM2LpFu8"}, "id": "5K9AcgSi8DK4lZKM2LpFu8", "uri": "spotify:track:5K9AcgSi8DK4lZKM2LpFu8", "popularity": 52}, {"album": {"total_tracks": 5, "type": "album", "release_date": "2013-09-03", "href": "https://api.spotify.com/v1/albums/4i9ynTHhVP8XNoV85smGvE", "artists": [{"type": "artist", "name": "Vance Joy", "external_urls": {"spotify": "https://open.spotify.com/artist/10exVja0key0uqUkk6LJRT"}, "id": "10exVja0key0uqUkk6LJRT", "uri": "spotify:artist:10exVja0key0uqUkk6LJRT", "href": "https://api.spotify.com/v1/artists/10exVja0key0uqUkk6LJRT"}], "images": [{"width": 640, "url": "https://i.scdn.co/image/ab67616d0000b2731fe447a143ca4c8823dd18f5", "height": 640}, {"width": 300, "url": "https://i.scdn.co/image/ab67616d00001e021fe447a143ca4c8823dd18f5", "height": 300}, {"width": 64, "url": "https://i.scdn.co/image/ab67616d000048511fe447a143ca4c8823dd18f5", "height": 64}], "available_markets": ["AD", "AE", "AR", "AT", "BE", "BG", "BH", "BO", "BR", "CA", "CH", "CL", "CO", "CR", "CY", "CZ", "DE", "DK", "DO", "DZ", "EC", "EE", "EG", "ES", "FI", "FR", "GB", "GR", "GT", "HK", "HN", "HU", "ID", "IE", "IL", "IS", "IT", "JO", "JP", "KW", "LB", "LI", "LT", "LU", "LV", "MA", "MC", "MT", "MX", "MY", "NI", "NL", "NO", "OM", "PA", "PE", "PH", "PL", "PS", "PT", "PY", "QA", "RO", "SA", "SE", "SG", "SK", "SV", "TH", "TN", "TR", "TW", "US", "UY", "VN", "ZA"], "album_type": "single", "release_date_precision": "day", "name": "God Loves You When You're Dancing", "external_urls": {"spotify": "https://open.spotify.com/album/4i9ynTHhVP8XNoV85smGvE"}, "id": "4i9ynTHhVP8XNoV85smGvE", "uri": "spotify:album:4i9ynTHhVP8XNoV85smGvE"}, "external_ids": {"isrc": "AULI01385760"}, "name": "Riptide", "duration_ms": 204280, "is_local": false, "disc_number": 1, "href": "https://api.spotify.com/v1/tracks/423RKXolCbgBbkF8WanOwA", "artists": [{"type": "artist", "name": "Vance Joy", "external_urls": {"spotify": "https://open.spotify.com/artist/10exVja0key0uqUkk6LJRT"}, "id": "10exVja0key0uqUkk6LJRT", "uri": "spotify:artist:10exVja0key0uqUkk6LJRT", "href": "https://api.spotify.com/v1/artists/10exVja0key0uqUkk6LJRT"}], "track_number": 2, "available_markets": ["AD", "AE", "AR", "AT", "BE", "BG", "BH", "BO", "BR", "CA", "CH", "CL", "CO", "CR", "CY", "CZ", "DE", "DK", "DO", "DZ", "EC", "EE", "EG", "ES", "FI", "FR", "GB", "GR", "GT", "HK", "HN", "HU", "ID", "IE", "IL", "IS", "IT", "JO", "JP", "KW", "LB", "LI", "LT", "LU", "LV", "MA", "MC", "MT", "MX", "MY", "NI", "NL", "NO", "OM", "PA", "PE", "PH", "PL", "PS", "PT", "PY", "QA", "RO", "SA", "SE", "SG", "SK", "SV", "TH", "TN", "TR", "TW", "US", "UY", "VN", "ZA"], "type": "track", "preview_url": "https://p.scdn.co/mp3-preview/0dd45171d094ca8d374219054879662fe7982462?cid=0c947b9d3f7547e28aee080174c283c9", "explicit": false, "external_urls": {"spotify": "https://open.spotify.com/track/423RKXolCbgBbkF8WanOwA"}, "id": "423RKXolCbgBbkF8WanOwA", "uri": "spotify:track:423RKXolCbgBbkF8WanOwA", "popularity": 50}, {"album": {"total_tracks": 7, "type": "album", "release_date": "2014-11-10", "href": "https://api.spotify.com/v1/albums/4VEuxNvtEzSIIdcbBFPhyR", "artists": [{"type": "artist", "name": "Vance Joy", "external_urls": {"spotify": "https://open.spotify.com/artist/10exVja0key0uqUkk6LJRT"}, "id": "10exVja0key0uqUkk6LJRT", "uri": "spotify:artist:10exVja0key0uqUkk6LJRT", "href": "https://api.spotify.com/v1/artists/10exVja0key0uqUkk6LJRT"}], "images": [{"width": 640, "url": "https://i.scdn.co/image/ab67616d0000b2735e84bab2e8532abcd248a0d8", "height": 640}, {"width": 300, "url": "https://i.scdn.co/image/ab67616d00001e025e84bab2e8532abcd248a0d8", "height": 300}, {"width": 64, "url": "https://i.scdn.co/image/ab67616d000048515e84bab2e8532abcd248a0d8", "height": 64}], "available_markets": ["CA", "US"], "album_type": "album", "release_date_precision": "day", "name": "Spotify Sessions", "external_urls": {"spotify": "https://open.spotify.com/album/4VEuxNvtEzSIIdcbBFPhyR"}, "id": "4VEuxNvtEzSIIdcbBFPhyR", "uri": "spotify:album:4VEuxNvtEzSIIdcbBFPhyR"}, "external_ids": {"isrc": "USAT21404495"}, "name": "Riptide - Live from Spotify London", "duration_ms": 189892, "is_local": false, "disc_number": 1, "href": "https://api.spotify.com/v1/tracks/5UcDFuZnsgtXTuN7GO79Wf", "artists": [{"type": "artist", "name": "Vance Joy", "external_urls": {"spotify": "https://open.spotify.com/artist/10exVja0key0uqUkk6LJRT"}, "id": "10exVja0key0uqUkk6LJRT", "uri": "spotify:artist:10exVja0key0uqUkk6LJRT", "href": "https://api.spotify.com/v1/artists/10exVja0key0uqUkk6LJRT"}], "track_number": 1, "available_markets": ["CA", "US"], "type": "track", "preview_url": "https://p.scdn.co/mp3-preview/50205d4dfcd308e43a4deb073750f4af4d6e0e3d?cid=0c947b9d3f7547e28aee080174c283c9", "explicit": false, "external_urls": {"spotify": "https://open.spotify.com/track/5UcDFuZnsgtXTuN7GO79Wf"}, "id": "5UcDFuZnsgtXTuN7GO79Wf", "uri": "spotify:track:5UcDFuZnsgtXTuN7GO79Wf", "popularity": 33}, {"album": {"total_tracks": 17, "type": "album", "release_date": "2018-11-16", "href": "https://api.spotify.com/v1/albums/1MwjyglVEuJgJdYd0nHUKH", "artists": [{"type": "artist", "name": "Vance Joy", "external_urls": {"spotify": "https://open.spotify.com/artist/10exVja0key0uqUkk6LJRT"}, "id": "10exVja0key0uqUkk6LJRT", "uri": "spotify:artist:10exVja0key0uqUkk6LJRT", "href": "https://api.spotify.com/v1/artists/10exVja0key0uqUkk6LJRT"}], "images": [{"width": 640, "url": "https://i.scdn.co/image/ab67616d0000b2730f5afd1bb0a077a29c29cdbf", "height": 640}, {"width": 300, "url": "https://i.scdn.co/image/ab67616d00001e020f5afd1bb0a077a29c29cdbf", "height": 300}, {"width": 64, "url": "https://i.scdn.co/image/ab67616d000048510f5afd1bb0a077a29c29cdbf", "height": 64}], "available_markets": ["AD", "AE", "AR", "AT", "BE", "BG", "BH", "BO", "BR", "CA", "CH", "CL", "CO", "CR", "CY", "CZ", "DE", "DK", "DO", "DZ", "EC", "EE", "EG", "ES", "FI", "FR", "GB", "GR", "GT", "HK", "HN", "HU", "ID", "IE", "IL", "IS", "IT", "JO", "JP", "KW", "LB", "LI", "LT", "LU", "LV", "MA", "MC", "MT", "MX", "MY", "NI", "NL", "NO", "OM", "PA", "PE", "PH", "PL", "PS", "PT", "PY", "QA", "RO", "SA", "SE", "SG", "SK", "SV", "TH", "TN", "TR", "TW", "US", "UY", "VN", "ZA"], "album_type": "album", "release_date_precision": "day", "name": "Live at Red Rocks Amphitheatre", "external_urls": {"spotify": "https://open.spotify.com/album/1MwjyglVEuJgJdYd0nHUKH"}, "id": "1MwjyglVEuJgJdYd0nHUKH", "uri": "spotify:album:1MwjyglVEuJgJdYd0nHUKH"}, "external_ids": {"isrc": "USAT21811641"}, "name": "Riptide - Live at Red Rocks Amphitheatre", "duration_ms": 223022, "is_local": false, "disc_number": 1, "href": "https://api.spotify.com/v1/tracks/75mNJr7vaB4KuZv7K9cRrT", "artists": [{"type": "artist", "name": "Vance Joy", "external_urls": {"spotify": "https://open.spotify.com/artist/10exVja0key0uqUkk6LJRT"}, "id": "10exVja0key0uqUkk6LJRT", "uri": "spotify:artist:10exVja0key0uqUkk6LJRT", "href": "https://api.spotify.com/v1/artists/10exVja0key0uqUkk6LJRT"}], "track_number": 15, "available_markets": ["AD", "AE", "AR", "AT", "BE", "BG", "BH", "BO", "BR", "CA", "CH", "CL", "CO", "CR", "CY", "CZ", "DE", "DK", "DO", "DZ", "EC", "EE", "EG", "ES", "FI", "FR", "GB", "GR", "GT", "HK", "HN", "HU", "ID", "IE", "IL", "IS", "IT", "JO", "JP", "KW", "LB", "LI", "LT", "LU", "LV", "MA", "MC", "MT", "MX", "MY", "NI", "NL", "NO", "OM", "PA", "PE", "PH", "PL", "PS", "PT", "PY", "QA", "RO", "SA", "SE", "SG", "SK", "SV", "TH", "TN", "TR", "TW", "US", "UY", "VN", "ZA"], "type": "track", "preview_url": "https://p.scdn.co/mp3-preview/ba0924c6e1892542bc6bf0a7cb8470806128e22d?cid=0c947b9d3f7547e28aee080174c283c9", "explicit": false, "external_urls": {"spotify": "https://open.spotify.com/track/75mNJr7vaB4KuZv7K9cRrT"}, "id": "75mNJr7vaB4KuZv7K9cRrT", "uri": "spotify:track:75mNJr7vaB4KuZv7K9cRrT", "popularity": 34}], "previous": null, "href": "https://api.spotify.com/v1/search?query=artist%3AVance+Joy+track%3ARiptide&type=track&offset=0&limit=5", "limit": 5, "total": 18, "next": "https://api.spotify.com/v1/search?query=artist%3AVance+Joy+track%3ARiptide&type=track&offset=5&limit=5"}}