{"tracks": {"offset": 0, "items": [{"album": {"total_tracks": 13, "type": "album", "release_date": "2010", "href": "https://api.spotify.com/v1/albums/5ImvJCAX33Pt2XGMaYaMia", "artists": [{"type": "artist", "name": "The Naked And Famous", "external_urls": {"spotify": "https://open.spotify.com/artist/0oeUpvxWsC8bWS6SnpU8b9"}, "id": "0oeUpvxWsC8bWS6SnpU8b9", "uri": "spotify:artist:0oeUpvxWsC8bWS6SnpU8b9", "href": "https://api.spotify.com/v1/artists/0oeUpvxWsC8bWS6SnpU8b9"}], "images": [{"width": 640, "url": "https://i.scdn.co/image/ab67616d0000b27333194333e408c225566920d0", "height": 640}, {"width": 300, "url": "https://i.scdn.co/image/ab67616d00001e0233194333e408c225566920d0", "height": 300}, {"width": 64, "url": "https://i.scdn.co/image/ab67616d0000485133194333e408c225566920d0", "height": 64}], "available_markets": ["AR", "AT", "BE", "BG", "BR", "CA", "CH", "CR", "DE", "DK", "EE", "ES", "FI", "FR", "GB", "HK", "HU", "ID", "IE", "IL", "IN", "IS", "JP", "LT", "LU", "LV", "MX", "MY", "NL", "NO", "PL", "PT", "SA", "SE", "SG", "TR", "TW", "US", "ZA"], "album_type": "album", "release_date_precision": "year", "name": "Passive Me, Aggressive You", "external_urls": {"spotify": "https://open.spotify.com/album/5ImvJCAX33Pt2XGMaYaMia"}, "id": "5ImvJCAX33Pt2XGMaYaMia", "uri": "spotify:album:5ImvJCAX33Pt2XGMaYaMia"}, "external_ids": {"isrc": "NZNK11000001"}, "name": "Young Blood", "duration_ms": 246600, "is_local": false, "disc_number": 1, "href": "https://api.spotify.com/v1/tracks/25nzKGDiua1lE9Qo5V19GL", "artists": [{"type": "artist", "name": "The Naked And Famous", "external_urls": {"spotify": "https://open.spotify.com/artist/0oeUpvxWsC8bWS6SnpU8b9"}, "id": "0oeUpvxWsC8bWS6SnpU8b9", "uri": "spotify:artist:0oeUpvxWsC8bWS6SnpU8b9", "href": "https://api.spotify.com/v1/artists/0oeUpvxWsC8bWS6SnpU8b9"}], "track_number": 7, "available_markets": ["AR", "AT", "BE", "BG", "BR", "CA", "CH", "CR", "DE", "DK", "EE", "ES", "FI", "FR", "GB", "HK", "HU", "ID", "IE", "IL", "IN", "IS", "JP", "LT", "LU", "LV", "MX", "MY", "NL", "NO", "PL", "PT", "SA", "SE", "SG", "TR", "TW", "US", "ZA"], "type": "track", "preview_url": null, "explicit": false, "external_urls": {"spotify": "https://open.spotify.com/track/25nzKGDiua1lE9Qo5V19GL"}, "id": "25nzKGDiua1lE9Qo5V19GL", "uri": "spotify:track:25nzKGDiua1lE9Qo5V19GL", "popularity": 66}, {"album": {"total_tracks": 2, "type": "album", "release_date": "2016-11-30", "href": "https://api.spotify.com/v1/albums/2ospU0wa9ux7r054JMFbEL", "artists": [{"type": "artist", "name": "The Naked And Famous", "external_urls": {"spotify": "https://open.spotify.com/artist/0oeUpvxWsC8bWS6SnpU8b9"}, "id": "0oeUpvxWsC8bWS6SnpU8b9", "uri": "spotify:artist:0oeUpvxWsC8bWS6SnpU8b9", "href": "https://api.spotify.com/v1/artists/0oeUpvxWsC8bWS6SnpU8b9"}], "images": [{"width": 640, "url": "https://i.scdn.co/image/ab67616d0000b273afec5e6df8dc8f6471aee47e", "height": 640}, {"width": 300, "url": "https://i.scdn.co/image/ab67616d00001e02afec5e6df8dc8f6471aee47e", "height": 300}, {"width": 64, "url": "https://i.scdn.co/image/ab67616d00004851afec5e6df8dc8f6471aee47e", "height": 64}], "available_markets": ["AD", "AE", "AR", "AT", "BE", "BG", "BH", "BO", "BR", "CA", "CH", "CL", "CO", "CR", "CY", "CZ", "DE", "DK", "DO", "DZ", "EC", "EE", "EG", "ES", "FI", "FR", "GB", "GR", "GT", "HK", "HN", "HU", "ID", "IE", "IL", "IN", "IS", "IT", "JO", "KW", "LB", "LI", "LT", "LU", "LV", "MA", "MC", "MT", "MX", "MY", "NI", "NL", "NO", "OM", "PA", "PE", "PH", "PL", "PT", "PY", "QA", "RO", "SA", "SE", "SG", "SK", "SV", "TH", "TN", "TR", "TW", "US", "UY", "VN", "ZA"], "album_type": "single", "release_date_precision": "day", "name": "Spotify Singles", "external_urls": {"spotify": "https://open.spotify.com/album/2ospU0wa9ux7r054JMFbEL"}, "id": "2ospU0wa9ux7r054JMFbEL", "uri": "spotify:album:2ospU0wa9ux7r054JMFbEL"}, "external_ids": {"isrc": "NZNK11600012"}, "name": "Young Blood - Recorded at Spotify Studios NYC", "duration_ms": 214439, "is_local": false, "disc_number": 1, "href": "https://api.spotify.com/v1/tracks/11hhXAaasvVYZPz0TtNmeQ", "artists": [{"type": "artist", "name": "The Naked And Famous", "external_urls": {"spotify": "https://open.spotify.com/artist/0oeUpvxWsC8bWS6SnpU8b9"}, "id": "0oeUpvxWsC8bWS6SnpU8b9", "uri": "spotify:artist:0oeUpvxWsC8bWS6SnpU8b9", "href": "https://api.spotify.com/v1/artists/0oeUpvxWsC8bWS6SnpU8b9"}], "track_number": 2, "available_markets": ["AD", "AE", "AR", "AT", "BE", "BG", "BH", "BO", "BR", "CA", "CH", "CL", "CO", "CR", "CY", "CZ", "DE", "DK", "DO", "DZ", "EC", "EE", "EG", "ES", "FI", "FR", "GB", "GR", "GT", "HK", "HN", "HU", "ID", "IE", "IL", "IN", "IS", "IT", "JO", "KW", "LB", "LI", "LT", "LU", "LV", "MA", "MC", "MT", "MX", "MY", "NI", "NL", "NO", "OM", "PA", "PE", "PH", "PL", "PT", "PY", "QA", "RO", "SA", "SE", "SG", "SK", "SV", "TH", "TN", "TR", "TW", "US", "UY", "VN", "ZA"], "type": "track", "preview_url": "https://p.scdn.co/mp3-preview/a4da48665ef663e29e4cc7976b7f77012951165e?cid=0c947b9d3f7547e28aee080174c283c9", "explicit": false, "external_urls": {"spotify": "https://open.spotify.com/track/11hhXAaasvVYZPz0TtNmeQ"}, "id": "11hhXAaasvVYZPz0TtNmeQ", "uri": "spotify:track:11hhXAaasvVYZPz0TtNmeQ", "popularity": 40}, {"album": {"total_tracks": 10, "type": "album", "release_date": "2018-03-09", "href": "https://api.spotify.com/v1/albums/0iYLVsbY87N1qrOgnyK2Rs", "artists": [{"type": "artist", "name": "The Naked And Famous", "external_urls": {"spotify": "https://open.spotify.com/artist/0oeUpvxWsC8bWS6SnpU8b9"}, "id": "0oeUpvxWsC8bWS6SnpU8b9", "uri": "spotify:artist:0oeUpvxWsC8bWS6SnpU8b9", "href": "https://api.spotify.com/v1/artists/0oeUpvxWsC8bWS6SnpU8b9"}], "images": [{"width": 640, "url": "https://i.scdn.co/image/ab67616d0000b2736593c229d3acbb483608fe8b", "height": 640}, {"width": 300, "url": "https://i.scdn.co/image/ab67616d00001e026593c229d3acbb483608fe8b", "height": 300}, {"width": 64, "url": "https://i.scdn.co/image/ab67616d000048516593c229d3acbb483608fe8b", "height": 64}], "available_markets": ["AD", "AE", "AR", "AT", "BE", "BG", "BH", "BO", "BR", "CA", "CH", "CL", "CO", "CR", "CY", "CZ", "DE", "DK", "DO", "DZ", "EC", "EE", "EG", "ES", "FI", "FR", "GB", "GR", "GT", "HK", "HN", "HU", "ID", "IE", "IL", "IN", "IS", "IT", "JO", "KW", "LB", "LI", "LT", "LU", "LV", "MA", "MC", "MT", "MX", "MY", "NI", "NL", "NO", "OM", "PA", "PE", "PH", "PL", "PT", "PY", "QA", "RO", "SA", "SE", "SG", "SK", "SV", "TH", "TN", "TR", "TW", "US", "UY", "VN", "ZA"], "album_type": "album", "release_date_precision": "day", "name": "A Still Heart", "external_urls": {"spotify": "https://open.spotify.com/album/0iYLVsbY87N1qrOgnyK2Rs"}, "id": "0iYLVsbY87N1qrOgnyK2Rs", "uri": "spotify:album:0iYLVsbY87N1qrOgnyK2Rs"}, "external_ids": {"isrc": "NZNK11800002"}, "name": "Young Blood - Stripped", "duration_ms": 229546, "is_local": false, "disc_number": 1, "href": "https://api.spotify.com/v1/tracks/32lK20RKjtlaX5zsouOI0Q", "artists": [{"type": "artist", "name": "The Naked And Famous", "external_urls": {"spotify": "https://open.spotify.com/artist/0oeUpvxWsC8bWS6SnpU8b9"}, "id": "0oeUpvxWsC8bWS6SnpU8b9", "uri": "spotify:artist:0oeUpvxWsC8bWS6SnpU8b9", "href": "https://api.spotify.com/v1/artists/0oeUpvxWsC8bWS6SnpU8b9"}], "track_number": 10, "available_markets": ["AD", "AE", "AR", "AT", "BE", "BG", "BH", "BO", "BR", "CA", "CH", "CL", "CO", "CR", "CY", "CZ", "DE", "DK", "DO", "DZ", "EC", "EE", "EG", "ES", "FI", "FR", "GB", "GR", "GT", "HK", "HN", "HU", "ID", "IE", "IL", "IN", "IS", "IT", "JO", "KW", "LB", "LI", "LT", "LU", "LV", "MA", "MC", "MT", "MX", "MY", "NI", "NL", "NO", "OM", "PA", "PE", "PH", "PL", "PT", "PY", "QA", "RO", "SA", "SE", "SG", "SK", "SV", "TH", "TN", "TR", "TW", "US", "UY", "VN", "ZA"], "type": "track", "preview_url": "https://p.scdn.co/mp3-preview/43f5c35ffd0754b1492afdf1318d63ffeab4d614?cid=0c947b9d3f7547e28aee080174c283c9", "explicit": false, "external_urls": {"spotify": "https://open.spotify.com/track/32lK20RKjtlaX5zsouOI0Q"}, "id": "32lK20RKjtlaX5zsouOI0Q", "uri": "spotify:track:32lK20RKjtlaX5zsouOI0Q", "popularity": 34}, {"album": {"total_tracks": 22, "type": "album", "release_date": "2013-01-01", "href": "https://api.spotify.com/v1/albums/7vK6JGV1mYYoWEYF5UqZT1", "artists": [{"type": "artist", "name": "The Naked And Famous", "external_urls": {"spotify": "https://open.spotify.com/artist/0oeUpvxWsC8bWS6SnpU8b9"}, "id": "0oeUpvxWsC8bWS6SnpU8b9", "uri": "spotify:artist:0oeUpvxWsC8bWS6SnpU8b9", "href": "https://api.spotify.com/v1/artists/0oeUpvxWsC8bWS6SnpU8b9"}], "images": [{"width": 640, "url": "https://i.scdn.co/image/ab67616d0000b273e34e70adbc07e18649d63fa0", "height": 640}, {"width": 300, "url": "https://i.scdn.co/image/ab67616d00001e02e34e70adbc07e18649d63fa0", "height": 300}, {"width": 64, "url": "https://i.scdn.co/image/ab67616d00004851e34e70adbc07e18649d63fa0", "height": 64}], "available_markets": ["AD", "AE", "AR", "AT", "BE", "BG", "BH", "BO", "BR", "CA", "CH", "CL", "CO", "CR", "CY", "CZ", "DE", "DK", "DO", "DZ", "EC", "EE", "EG", "ES", "FI", "FR", "GB", "GR", "GT", "HK", "HN", "HU", "ID", "IE", "IL", "IN", "IS", "IT", "JO", "KW", "LB", "LI", "LT", "LU", "LV", "MC", "MT", "MY", "NI", "NL", "NO", "OM", "PA", "PE", "PH", "PL", "PT", "PY", "QA", "RO", "SA", "SE", "SG", "SK", "SV", "TH", "TN", "TR", "TW", "US", "UY", "VN", "ZA"], "album_type": "album", "release_date_precision": "day", "name": "Passive Me, Aggressive You (Remixes & B-Sides)", "external_urls": {"spotify": "https://open.spotify.com/album/7vK6JGV1mYYoWEYF5UqZT1"}, "id": "7vK6JGV1mYYoWEYF5UqZT1", "uri": "spotify:album:7vK6JGV1mYYoWEYF5UqZT1"}, "external_ids": {"isrc": "GBUM71301665"}, "name": "Young Blood - Renhold\u00ebr Remix", "duration_ms": 254846, "is_local": false, "disc_number": 2, "href": "https://api.spotify.com/v1/tracks/4VtaG7uiY7IhVxTZFl0I9k", "artists": [{"type": "artist", "name": "The Naked And Famous", "external_urls": {"spotify": "https://open.spotify.com/artist/0oeUpvxWsC8bWS6SnpU8b9"}, "id": "0oeUpvxWsC8bWS6SnpU8b9", "uri": "spotify:artist:0oeUpvxWsC8bWS6SnpU8b9", "href": "https://api.spotify.com/v1/artists/0oeUpvxWsC8bWS6SnpU8b9"}, {"type": "artist", "name": "Renholder", "external_urls": {"spotify": "https://open.spotify.com/artist/2ucMXO2A8HnCba0fGxBcEx"}, "id": "2ucMXO2A8HnCba0fGxBcEx", "uri": "spotify:artist:2ucMXO2A8HnCba0fGxBcEx", "href": "https://api.spotify.com/v1/artists/2ucMXO2A8HnCba0fGxBcEx"}], "track_number": 11, "available_markets": ["AD", "AE", "AR", "AT", "BE", "BG", "BH", "BO", "BR", "CA", "CH", "CL", "CO", "CR", "CY", "CZ", "DE", "DK", "DO", "DZ", "EC", "EE", "EG", "ES", "FI", "FR", "GB", "GR", "GT", "HK", "HN", "HU", "ID", "IE", "IL", "IN", "IS", "IT", "JO", "KW", "LB", "LI", "LT", "LU", "LV", "MC", "MT", "MY", "NI", "NL", "NO", "OM", "PA", "PE", "PH", "PL", "PT", "PY", "QA", "RO", "SA", "SE", "SG", "SK", "SV", "TH", "TN", "TR", "TW", "US", "UY", "VN", "ZA"], "type": "track", "preview_url": null, "explicit": false, "external_urls": {"spotify": "https://open.spotify.com/track/4VtaG7uiY7IhVxTZFl0I9k"}, "id": "4VtaG7uiY7IhVxTZFl0I9k", "uri": "spotify:track:4VtaG7uiY7IhVxTZFl0I9k", "popularity": 34}, {"album": {"total_tracks": 17, "type": "album", "release_date": "2012-01-17", "href": "https://api.spotify.com/v1/albums/2hfaqbY4mY9JL2i0zfialy", "artists": [{"type": "artist", "name": "Various Artists", "external_urls": {"spotify": "https://open.spotify.com/artist/0LyfQWJT6nXafLPZqxe9Of"}, "id": "0LyfQWJT6nXafLPZqxe9Of", "uri": "spotify:artist:0LyfQWJT6nXafLPZqxe9Of", "href": "https://api.spotify.com/v1/artists/0LyfQWJT6nXafLPZqxe9Of"}], "images": [{"width": 640, "url": "https://i.scdn.co/image/ab67616d0000b27337f6c9e33821fe5965f58dca", "height": 640}, {"width": 300, "url": "https://i.scdn.co/image/ab67616d00001e0237f6c9e33821fe5965f58dca", "height": 300}, {"width": 64, "url": "https://i.scdn.co/image/ab67616d0000485137f6c9e33821fe5965f58dca", "height": 64}], "available_markets": ["CA", "US"], "album_type": "compilation", "release_date_precision": "day", "name": "Underworld Awakening (Original Motion Picture Soundtrack)", "external_urls": {"spotify": "https://open.spotify.com/album/2hfaqbY4mY9JL2i0zfialy"}, "id": "2hfaqbY4mY9JL2i0zfialy", "uri": "spotify:album:2hfaqbY4mY9JL2i0zfialy"}, "external_ids": {"isrc": "USLS51125008"}, "name": "Young Blood - Renhold\u00ebr Remix", "duration_ms": 247026, "is_local": false, "disc_number": 1, "href": "https://api.spotify.com/v1/tracks/5mwBymayMdnBa73LV71HGi", "artists": [{"type": "artist", "name": "The Naked And Famous", "external_urls": {"spotify": "https://open.spotify.com/artist/0oeUpvxWsC8bWS6SnpU8b9"}, "id": "0oeUpvxWsC8bWS6SnpU8b9", "uri": "spotify:artist:0oeUpvxWsC8bWS6SnpU8b9", "href": "https://api.spotify.com/v1/artists/0oeUpvxWsC8bWS6SnpU8b9"}, {"type": "artist", "name": "Renhold\u00ebr", "external_urls": {"spotify": "https://open.spotify.com/artist/7nPKXL3VRokWPSYHtsDD5i"}, "id": "7nPKXL3VRokWPSYHtsDD5i", "uri": "spotify:artist:7nPKXL3VRokWPSYHtsDD5i", "href": "https://api.spotify.com/v1/artists/7nPKXL3VRokWPSYHtsDD5i"}], "track_number": 8, "available_markets": ["CA", "US"], "type": "track", "preview_url": "https://p.scdn.co/mp3-preview/3e478425f3a19800e63d641ac0ed86d75efe925f?cid=0c947b9d3f7547e28aee080174c283c9", "explicit": false, "external_urls": {"spotify": "https://open.spotify.com/track/5mwBymayMdnBa73LV71HGi"}, "id": "5mwBymayMdnBa73LV71HGi", "uri": "spotify:track:5mwBymayMdnBa73LV71HGi", "popularity": 22}], "previous": null, "href": "https://api.spotify.com/v1/search?query=artist%3AThe+Naked+And+Famous+track%3AYoung+Blood&type=track&offset=0&limit=5", "limit": 5, "total": 16, "next": "https://api.spotify.com/v1/search?query=artist%3AThe+Naked+And+Famous+track%3AYoung+Blood&type=track&offset=5&limit=5"}}