{"tracks": {"offset": 0, "items": [{"album": {"total_tracks": 14, "type": "album", "release_date": "1997-05-20", "href": "https://api.spotify.com/v1/albums/30ly6F6Xl0TKmyBCU50Khv", "artists": [{"type": "artist", "name": "Foo Fighters", "external_urls": {"spotify": "https://open.spotify.com/artist/7jy3rLJdDQY21OgRLCZ9sD"}, "id": "7jy3rLJdDQY21OgRLCZ9sD", "uri": "spotify:artist:7jy3rLJdDQY21OgRLCZ9sD", "href": "https://api.spotify.com/v1/artists/7jy3rLJdDQY21OgRLCZ9sD"}], "images": [{"width": 640, "url": "https://i.scdn.co/image/ab67616d0000b2730389027010b78a5e7dce426b", "height": 640}, {"width": 300, "url": "https://i.scdn.co/image/ab67616d00001e020389027010b78a5e7dce426b", "height": 300}, {"width": 64, "url": "https://i.scdn.co/image/ab67616d000048510389027010b78a5e7dce426b", "height": 64}], "available_markets": ["AD", "AE", "AR", "AT", "AU", "BE", "BG", "BH", "BO", "BR", "CA", "CH", "CL", "CO", "CR", "CY", "CZ", "DE", "DK", "DO", "DZ", "EC", "EE", "EG", "ES", "FI", "FR", "GB", "GR", "GT", "HK", "HN", "HU", "ID", "IE", "IL", "IN", "IS", "IT", "JO", "JP", "KW", "LB", "LI", "LT", "LU", "LV", "MA", "MC", "MT", "MX", "MY", "NI", "NL", "NO", "NZ", "OM", "PA", "PE", "PH", "PL", "PS", "PT", "PY", "QA", "RO", "SA", "SE", "SG", "SK", "SV", "TH", "TN", "TR", "TW", "US", "UY", "VN", "ZA"], "album_type": "album", "release_date_precision": "day", "name": "The Colour And The Shape", "external_urls": {"spotify": "https://open.spotify.com/album/30ly6F6Xl0TKmyBCU50Khv"}, "id": "30ly6F6Xl0TKmyBCU50Khv", "uri": "spotify:album:30ly6F6Xl0TKmyBCU50Khv"}, "external_ids": {"isrc": "USRW29600011"}, "name": "Everlong", "duration_ms": 250546, "is_local": false, "disc_number": 1, "href": "https://api.spotify.com/v1/tracks/5UWwZ5lm5PKu6eKsHAGxOk", "artists": [{"type": "artist", "name": "Foo Fighters", "external_urls": {"spotify": "https://open.spotify.com/artist/7jy3rLJdDQY21OgRLCZ9sD"}, "id": "7jy3rLJdDQY21OgRLCZ9sD", "uri": "spotify:artist:7jy3rLJdDQY21OgRLCZ9sD", "href": "https://api.spotify.com/v1/artists/7jy3rLJdDQY21OgRLCZ9sD"}], "track_number": 11, "available_markets": ["AD", "AE", "AR", "AT", "AU", "BE", "BG", "BH", "BO", "BR", "CA", "CH", "CL", "CO", "CR", "CY", "CZ", "DE", "DK", "DO", "DZ", "EC", "EE", "EG", "ES", "FI", "FR", "GB", "GR", "GT", "HK", "HN", "HU", "ID", "IE", "IL", "IN", "IS", "IT", "JO", "JP", "KW", "LB", "LI", "LT", "LU", "LV", "MA", "MC", "MT", "MX", "MY", "NI", "NL", "NO", "NZ", "OM", "PA", "PE", "PH", "PL", "PS", "PT", "PY", "QA", "RO", "SA", "SE", "SG", "SK", "SV", "TH", "TN", "TR", "TW", "US", "UY", "VN", "ZA"], "type": "track", "preview_url": "https://p.scdn.co/mp3-preview/4a2dc307a71393a695d69b16407cd73e1e234941?cid=0c947b9d3f7547e28aee080174c283c9", "explicit": false, "external_urls": {"spotify": "https://open.spotify.com/track/5UWwZ5lm5PKu6eKsHAGxOk"}, "id": "5UWwZ5lm5PKu6eKsHAGxOk", "uri": "spotify:track:5UWwZ5lm5PKu6eKsHAGxOk", "popularity": 78}, {"album": {"total_tracks": 16, "type": "album", "release_date": "2009-11-03", "href": "https://api.spotify.com/v1/albums/1zCNrbPpz5OLSr6mSpPdKm", "artists": [{"type": "artist", "name": "Foo Fighters", "external_urls": {"spotify": "https://open.spotify.com/artist/7jy3rLJdDQY21OgRLCZ9sD"}, "id": "7jy3rLJdDQY21OgRLCZ9sD", "uri": "spotify:artist:7jy3rLJdDQY21OgRLCZ9sD", "href": "https://api.spotify.com/v1/artists/7jy3rLJdDQY21OgRLCZ9sD"}], "images": [{"width": 640, "url": "https://i.scdn.co/image/3b505559c2bce1f6205eeb0b19d65e3a2c8f5617", "height": 640}, {"width": 300, "url": "https://i.scdn.co/image/690932c4cdc34270a6421079af4c2afc3f48234a", "height": 300}, {"width": 64, "url": "https://i.scdn.co/image/88e091688667eff1085cebeec92cba9d6726c000", "height": 64}], "available_markets": ["AD", "AE", "AR", "AT", "AU", "BE", "BG", "BH", "BO", "BR", "CA", "CH", "CL", "CO", "CR", "CY", "CZ", "DE", "DK", "DO", "DZ", "EC", "EE", "EG", "ES", "FI", "FR", "GB", "GR", "GT", "HK", "HN", "HU", "ID", "IE", "IL", "IN", "IS", "IT", "JO", "JP", "KW", "LB", "LI", "LT", "LU", "LV", "MA", "MC", "MT", "MX", "MY", "NI", "NL", "NO", "NZ", "OM", "PA", "PE", "PH", "PL", "PS", "PT", "PY", "QA", "RO", "SA", "SE", "SG", "SK", "SV", "TH", "TN", "TR", "TW", "US", "UY", "VN", "ZA"], "album_type": "compilation", "release_date_precision": "day", "name": "Greatest Hits", "external_urls": {"spotify": "https://open.spotify.com/album/1zCNrbPpz5OLSr6mSpPdKm"}, "id": "1zCNrbPpz5OLSr6mSpPdKm", "uri": "spotify:album:1zCNrbPpz5OLSr6mSpPdKm"}, "external_ids": {"isrc": "USRW30900002"}, "name": "Everlong - Acoustic Version", "duration_ms": 250906, "is_local": false, "disc_number": 1, "href": "https://api.spotify.com/v1/tracks/3QmesrvdbPjwf7i40nht1D", "artists": [{"type": "artist", "name": "Foo Fighters", "external_urls": {"spotify": "https://open.spotify.com/artist/7jy3rLJdDQY21OgRLCZ9sD"}, "id": "7jy3rLJdDQY21OgRLCZ9sD", "uri": "spotify:artist:7jy3rLJdDQY21OgRLCZ9sD", "href": "https://api.spotify.com/v1/artists/7jy3rLJdDQY21OgRLCZ9sD"}], "track_number": 16, "available_markets": ["AD", "AE", "AR", "AT", "AU", "BE", "BG", "BH", "BO", "BR", "CA", "CH", "CL", "CO", "CR", "CY", "CZ", "DE", "DK", "DO", "DZ", "EC", "EE", "EG", "ES", "FI", "FR", "GB", "GR", "GT", "HK", "HN", "HU", "ID", "IE", "IL", "IN", "IS", "IT", "JO", "JP", "KW", "LB", "LI", "LT", "LU", "LV", "MA", "MC", "MT", "MX", "MY", "NI", "NL", "NO", "NZ", "OM", "PA", "PE", "PH", "PL", "PS", "PT", "PY", "QA", "RO", "SA", "SE", "SG", "SK", "SV", "TH", "TN", "TR", "TW", "US", "UY", "VN", "ZA"], "type": "track", "preview_url": "https://p.scdn.co/mp3-preview/1c0b55249a31c0b33fe4689c7308169a4f99604c?cid=0c947b9d3f7547e28aee080174c283c9", "explicit": false, "external_urls": {"spotify": "https://open.spotify.com/track/3QmesrvdbPjwf7i40nht1D"}, "id": "3QmesrvdbPjwf7i40nht1D", "uri": "spotify:track:3QmesrvdbPjwf7i40nht1D", "popularity": 71}, {"album": {"total_tracks": 16, "type": "album", "release_date": "2009-11-03", "href": "https://api.spotify.com/v1/albums/1zCNrbPpz5OLSr6mSpPdKm", "artists": [{"type": "artist", "name": "Foo Fighters", "external_urls": {"spotify": "https://open.spotify.com/artist/7jy3rLJdDQY21OgRLCZ9sD"}, "id": "7jy3rLJdDQY21OgRLCZ9sD", "uri": "spotify:artist:7jy3rLJdDQY21OgRLCZ9sD", "href": "https://api.spotify.com/v1/artists/7jy3rLJdDQY21OgRLCZ9sD"}], "images": [{"width": 640, "url": "https://i.scdn.co/image/3b505559c2bce1f6205eeb0b19d65e3a2c8f5617", "height": 640}, {"width": 300, "url": "https://i.scdn.co/image/690932c4cdc34270a6421079af4c2afc3f48234a", "height": 300}, {"width": 64, "url": "https://i.scdn.co/image/88e091688667eff1085cebeec92cba9d6726c000", "height": 64}], "available_markets": ["AD", "AE", "AR", "AT", "AU", "BE", "BG", "BH", "BO", "BR", "CA", "CH", "CL", "CO", "CR", "CY", "CZ", "DE", "DK", "DO", "DZ", "EC", "EE", "EG", "ES", "FI", "FR", "GB", "GR", "GT", "HK", "HN", "HU", "ID", "IE", "IL", "IN", "IS", "IT", "JO", "JP", "KW", "LB", "LI", "LT", "LU", "LV", "MA", "MC", "MT", "MX", "MY", "NI", "NL", "NO", "NZ", "OM", "PA", "PE", "PH", "PL", "PS", "PT", "PY", "QA", "RO", "SA", "SE", "SG", "SK", "SV", "TH", "TN", "TR", "TW", "US", "UY", "VN", "ZA"], "album_type": "compilation", "release_date_precision": "day", "name": "Greatest Hits", "external_urls": {"spotify": "https://open.spotify.com/album/1zCNrbPpz5OLSr6mSpPdKm"}, "id": "1zCNrbPpz5OLSr6mSpPdKm", "uri": "spotify:album:1zCNrbPpz5OLSr6mSpPdKm"}, "external_ids": {"isrc": "USRW29600011"}, "name": "Everlong", "duration_ms": 249986, "is_local": false, "disc_number": 1, "href": "https://api.spotify.com/v1/tracks/07q6QTQXyPRCf7GbLakRPr", "artists": [{"type": "artist", "name": "Foo Fighters", "external_urls": {"spotify": "https://open.spotify.com/artist/7jy3rLJdDQY21OgRLCZ9sD"}, "id": "7jy3rLJdDQY21OgRLCZ9sD", "uri": "spotify:artist:7jy3rLJdDQY21OgRLCZ9sD", "href": "https://api.spotify.com/v1/artists/7jy3rLJdDQY21OgRLCZ9sD"}], "track_number": 3, "available_markets": ["AD", "AE", "AR", "AT", "AU", "BE", "BG", "BH", "BO", "BR", "CA", "CH", "CL", "CO", "CR", "CY", "CZ", "DE", "DK", "DO", "DZ", "EC", "EE", "EG", "ES", "FI", "FR", "GB", "GR", "GT", "HK", "HN", "HU", "ID", "IE", "IL", "IN", "IS", "IT", "JO", "JP", "KW", "LB", "LI", "LT", "LU", "LV", "MA", "MC", "MT", "MX", "MY", "NI", "NL", "NO", "NZ", "OM", "PA", "PE", "PH", "PL", "PS", "PT", "PY", "QA", "RO", "SA", "SE", "SG", "SK", "SV", "TH", "TN", "TR", "TW", "US", "UY", "VN", "ZA"], "type": "track", "preview_url": "https://p.scdn.co/mp3-preview/26f7feca8e14f27659465e336117c03fb8ee29d4?cid=0c947b9d3f7547e28aee080174c283c9", "explicit": false, "external_urls": {"spotify": "https://open.spotify.com/track/07q6QTQXyPRCf7GbLakRPr"}, "id": "07q6QTQXyPRCf7GbLakRPr", "uri": "spotify:track:07q6QTQXyPRCf7GbLakRPr", "popularity": 61}, {"album": {"total_tracks": 90, "type": "album", "release_date": "2014-06-10", "href": "https://api.spotify.com/v1/albums/71WupOKqXgSrgg0CivZDHS", "artists": [{"type": "artist", "name": "Various Artists", "external_urls": {"spotify": "https://open.spotify.com/artist/0LyfQWJT6nXafLPZqxe9Of"}, "id": "0LyfQWJT6nXafLPZqxe9Of", "uri": "spotify:artist:0LyfQWJT6nXafLPZqxe9Of", "href": "https://api.spotify.com/v1/artists/0LyfQWJT6nXafLPZqxe9Of"}], "images": [{"width": 640, "url": "https://i.scdn.co/image/ab67616d0000b273f010bf246e94ea6c9452c758", "height": 640}, {"width": 300, "url": "https://i.scdn.co/image/ab67616d00001e02f010bf246e94ea6c9452c758", "height": 300}, {"width": 64, "url": "https://i.scdn.co/image/ab67616d00004851f010bf246e94ea6c9452c758", "height": 64}], "available_markets": ["US"], "album_type": "compilation", "release_date_precision": "day", "name": "90 Sweet 90s Hits!", "external_urls": {"spotify": "https://open.spotify.com/album/71WupOKqXgSrgg0CivZDHS"}, "id": "71WupOKqXgSrgg0CivZDHS", "uri": "spotify:album:71WupOKqXgSrgg0CivZDHS"}, "external_ids": {"isrc": "USRW29600011"}, "name": "Everlong", "duration_ms": 250546, "is_local": false, "disc_number": 1, "href": "https://api.spotify.com/v1/tracks/0KaVIPAbA2FaPq6vl7Nkq8", "artists": [{"type": "artist", "name": "Foo Fighters", "external_urls": {"spotify": "https://open.spotify.com/artist/7jy3rLJdDQY21OgRLCZ9sD"}, "id": "7jy3rLJdDQY21OgRLCZ9sD", "uri": "spotify:artist:7jy3rLJdDQY21OgRLCZ9sD", "href": "https://api.spotify.com/v1/artists/7jy3rLJdDQY21OgRLCZ9sD"}], "track_number": 2, "available_markets": ["US"], "type": "track", "preview_url": "https://p.scdn.co/mp3-preview/4a2dc307a71393a695d69b16407cd73e1e234941?cid=0c947b9d3f7547e28aee080174c283c9", "explicit": false, "external_urls": {"spotify": "https://open.spotify.com/track/0KaVIPAbA2FaPq6vl7Nkq8"}, "id": "0KaVIPAbA2FaPq6vl7Nkq8", "uri": "spotify:track:0KaVIPAbA2FaPq6vl7Nkq8", "popularity": 35}, {"album": {"total_tracks": 15, "type": "album", "release_date": "2006-11-07", "href": "https://api.spotify.com/v1/albums/4IBQvwIbtDluogvDe2qpaB", "artists": [{"type": "artist", "name": "Foo Fighters", "external_urls": {"spotify": "https://open.spotify.com/artist/7jy3rLJdDQY21OgRLCZ9sD"}, "id": "7jy3rLJdDQY21OgRLCZ9sD", "uri": "spotify:artist:7jy3rLJdDQY21OgRLCZ9sD", "href": "https://api.spotify.com/v1/artists/7jy3rLJdDQY21OgRLCZ9sD"}], "images": [{"width": 640, "url": "https://i.scdn.co/image/ab67616d0000b2731261a8fa94b247ba71d20542", "height": 640}, {"width": 300, "url": "https://i.scdn.co/image/ab67616d00001e021261a8fa94b247ba71d20542", "height": 300}, {"width": 64, "url": "https://i.scdn.co/image/ab67616d000048511261a8fa94b247ba71d20542", "height": 64}], "available_markets": ["AD", "AE", "AR", "AT", "AU", "BE", "BG", "BH", "BO", "BR", "CA", "CH", "CL", "CO", "CR", "CY", "CZ", "DE", "DK", "DO", "DZ", "EC", "EE", "EG", "ES", "FI", "FR", "GB", "GR", "GT", "HK", "HN", "HU", "ID", "IE", "IL", "IN", "IS", "IT", "JO", "JP", "KW", "LB", "LI", "LT", "LU", "LV", "MA", "MC", "MT", "MX", "MY", "NI", "NL", "NO", "NZ", "OM", "PA", "PE", "PH", "PL", "PS", "PT", "PY", "QA", "RO", "SA", "SE", "SG", "SK", "SV", "TH", "TN", "TR", "TW", "US", "UY", "VN", "ZA"], "album_type": "album", "release_date_precision": "day", "name": "Skin And Bones (Live)", "external_urls": {"spotify": "https://open.spotify.com/album/4IBQvwIbtDluogvDe2qpaB"}, "id": "4IBQvwIbtDluogvDe2qpaB", "uri": "spotify:album:4IBQvwIbtDluogvDe2qpaB"}, "external_ids": {"isrc": "USRW30600049"}, "name": "Everlong - Live at the Pantages Theatre, Los Angeles, CA - August 2006", "duration_ms": 397186, "is_local": false, "disc_number": 1, "href": "https://api.spotify.com/v1/tracks/35OjTv3e5arNbGoCgfJ73Z", "artists": [{"type": "artist", "name": "Foo Fighters", "external_urls": {"spotify": "https://open.spotify.com/artist/7jy3rLJdDQY21OgRLCZ9sD"}, "id": "7jy3rLJdDQY21OgRLCZ9sD", "uri": "spotify:artist:7jy3rLJdDQY21OgRLCZ9sD", "href": "https://api.spotify.com/v1/artists/7jy3rLJdDQY21OgRLCZ9sD"}], "track_number": 15, "available_markets": ["AD", "AE", "AR", "AT", "AU", "BE", "BG", "BH", "BO", "BR", "CA", "CH", "CL", "CO", "CR", "CY", "CZ", "DE", "DK", "DO", "DZ", "EC", "EE", "EG", "ES", "FI", "FR", "GB", "GR", "GT", "HK", "HN", "HU", "ID", "IE", "IL", "IN", "IS", "IT", "JO", "JP", "KW", "LB", "LI", "LT", "LU", "LV", "MA", "MC", "MT", "MX", "MY", "NI", "NL", "NO", "NZ", "OM", "PA", "PE", "PH", "PL", "PS", "PT", "PY", "QA", "RO", "SA", "SE", "SG", "SK", "SV", "TH", "TN", "TR", "TW", "US", "UY", "VN", "ZA"], "type": "track", "preview_url": "https://p.scdn.co/mp3-preview/c2955a254ad00d6b2082efcf3202040778e4536c?cid=0c947b9d3f7547e28aee080174c283c9", "explicit": false, "external_urls": {"spotify": "https://open.spotify.com/track/35OjTv3e5arNbGoCgfJ73Z"}, "id": "35OjTv3e5arNbGoCgfJ73Z", "uri": "spotify:track:35OjTv3e5arNbGoCgfJ73Z", "popularity": 45}], "previous": null, "href": "https://api.spotify.com/v1/search?query=artist%3AFoo+Fighters+track%3AEverlong&type=track&offset=0&limit=5", "limit": 5, "total": 7, "next": "https://api.spotify.com/v1/search?query=artist%3AFoo+Fighters+track%3AEverlong&type=track&offset=5&limit=5"}}