{"tracks": {"offset": 0, "items": [{"album": {"total_tracks": 12, "type": "album", "release_date": "1992-04-21", "href": "https://api.spotify.com/v1/albums/3x1CmNdXWU0DzpTZXFFRZu", "artists": [{"type": "artist", "name": "The Cure", "external_urls": {"spotify": "https://open.spotify.com/artist/7bu3H8JO7d0UbMoVzbo70s"}, "id": "7bu3H8JO7d0UbMoVzbo70s", "uri": "spotify:artist:7bu3H8JO7d0UbMoVzbo70s", "href": "https://api.spotify.com/v1/artists/7bu3H8JO7d0UbMoVzbo70s"}], "images": [{"width": 640, "url": "https://i.scdn.co/image/ab67616d0000b273e410fa31e3dfcc7521cde86d", "height": 640}, {"width": 300, "url": "https://i.scdn.co/image/ab67616d00001e02e410fa31e3dfcc7521cde86d", "height": 300}, {"width": 64, "url": "https://i.scdn.co/image/ab67616d00004851e410fa31e3dfcc7521cde86d", "height": 64}], "available_markets": ["CA", "US"], "album_type": "album", "release_date_precision": "day", "name": "Wish", "external_urls": {"spotify": "https://open.spotify.com/album/3x1CmNdXWU0DzpTZXFFRZu"}, "id": "3x1CmNdXWU0DzpTZXFFRZu", "uri": "spotify:album:3x1CmNdXWU0DzpTZXFFRZu"}, "external_ids": {"isrc": "USEE10180267"}, "name": "Friday I'm in Love", "duration_ms": 214400, "is_local": false, "disc_number": 1, "href": "https://api.spotify.com/v1/tracks/263aNAQCeFSWipk896byo6", "artists": [{"type": "artist", "name": "The Cure", "external_urls": {"spotify": "https://open.spotify.com/artist/7bu3H8JO7d0UbMoVzbo70s"}, "id": "7bu3H8JO7d0UbMoVzbo70s", "uri": "spotify:artist:7bu3H8JO7d0UbMoVzbo70s", "href": "https://api.spotify.com/v1/artists/7bu3H8JO7d0UbMoVzbo70s"}], "track_number": 7, "available_markets": ["CA", "US"], "type": "track", "preview_url": "https://p.scdn.co/mp3-preview/00b147aa44994cf24c63165fecfcd5c0ff441459?cid=0c947b9d3f7547e28aee080174c283c9", "explicit": false, "external_urls": {"spotify": "https://open.spotify.com/track/263aNAQCeFSWipk896byo6"}, "id": "263aNAQCeFSWipk896byo6", "uri": "spotify:track:263aNAQCeFSWipk896byo6", "popularity": 68}, {"album": {"total_tracks": 18, "type": "album", "release_date": "2001-11-13", "href": "https://api.spotify.com/v1/albums/34ozkv3AkFksZD8srOmOrX", "artists": [{"type": "artist", "name": "The Cure", "external_urls": {"spotify": "https://open.spotify.com/artist/7bu3H8JO7d0UbMoVzbo70s"}, "id": "7bu3H8JO7d0UbMoVzbo70s", "uri": "spotify:artist:7bu3H8JO7d0UbMoVzbo70s", "href": "https://api.spotify.com/v1/artists/7bu3H8JO7d0UbMoVzbo70s"}], "images": [{"width": 640, "url": "https://i.scdn.co/image/ab67616d0000b2739a37f12c9315b369588840cc", "height": 640}, {"width": 300, "url": "https://i.scdn.co/image/ab67616d00001e029a37f12c9315b369588840cc", "height": 300}, {"width": 64, "url": "https://i.scdn.co/image/ab67616d000048519a37f12c9315b369588840cc", "height": 64}], "available_markets": ["CA", "US"], "album_type": "compilation", "release_date_precision": "day", "name": "Greatest Hits", "external_urls": {"spotify": "https://open.spotify.com/album/34ozkv3AkFksZD8srOmOrX"}, "id": "34ozkv3AkFksZD8srOmOrX", "uri": "spotify:album:34ozkv3AkFksZD8srOmOrX"}, "external_ids": {"isrc": "GBALB9200002"}, "name": "Friday I'm in Love", "duration_ms": 215293, "is_local": false, "disc_number": 1, "href": "https://api.spotify.com/v1/tracks/5BdhMvgZ7maJX94HCbpYL3", "artists": [{"type": "artist", "name": "The Cure", "external_urls": {"spotify": "https://open.spotify.com/artist/7bu3H8JO7d0UbMoVzbo70s"}, "id": "7bu3H8JO7d0UbMoVzbo70s", "uri": "spotify:artist:7bu3H8JO7d0UbMoVzbo70s", "href": "https://api.spotify.com/v1/artists/7bu3H8JO7d0UbMoVzbo70s"}], "track_number": 14, "available_markets": ["CA", "US"], "type": "track", "preview_url": "https://p.scdn.co/mp3-preview/3d1156ec5b261e906f6401cce749badc76e79b38?cid=0c947b9d3f7547e28aee080174c283c9", "explicit": false, "external_urls": {"spotify": "https://open.spotify.com/track/5BdhMvgZ7maJX94HCbpYL3"}, "id": "5BdhMvgZ7maJX94HCbpYL3", "uri": "spotify:track:5BdhMvgZ7maJX94HCbpYL3", "popularity": 31}, {"album": {"total_tracks": 16, "type": "album", "release_date": "2013-01-01", "href": "https://api.spotify.com/v1/albums/0jzSVXaQln8X9e4m8e2V0y", "artists": [{"type": "artist", "name": "Various Artists", "external_urls": {"spotify": "https://open.spotify.com/artist/0LyfQWJT6nXafLPZqxe9Of"}, "id": "0LyfQWJT6nXafLPZqxe9Of", "uri": "spotify:artist:0LyfQWJT6nXafLPZqxe9Of", "href": "https://api.spotify.com/v1/artists/0LyfQWJT6nXafLPZqxe9Of"}], "images": [{"width": 640, "url": "https://i.scdn.co/image/917a62635e330756a7f68595c0ec5af5e06048b5", "height": 640}, {"width": 300, "url": "https://i.scdn.co/image/f1d14994f230d8434bbf99224fa36596af51fa09", "height": 300}, {"width": 64, "url": "https://i.scdn.co/image/9a369ae9084b23d123ad3338483adebc1d5ff243", "height": 64}], "available_markets": ["CA", "US"], "album_type": "compilation", "release_date_precision": "day", "name": "About Time", "external_urls": {"spotify": "https://open.spotify.com/album/0jzSVXaQln8X9e4m8e2V0y"}, "id": "0jzSVXaQln8X9e4m8e2V0y", "uri": "spotify:album:0jzSVXaQln8X9e4m8e2V0y"}, "external_ids": {"isrc": "GBALB9200002"}, "name": "Friday I'm In Love", "duration_ms": 214773, "is_local": false, "disc_number": 1, "href": "https://api.spotify.com/v1/tracks/2BnFbc1hnqURAitUPMMu3q", "artists": [{"type": "artist", "name": "The Cure", "external_urls": {"spotify": "https://open.spotify.com/artist/7bu3H8JO7d0UbMoVzbo70s"}, "id": "7bu3H8JO7d0UbMoVzbo70s", "uri": "spotify:artist:7bu3H8JO7d0UbMoVzbo70s", "href": "https://api.spotify.com/v1/artists/7bu3H8JO7d0UbMoVzbo70s"}], "track_number": 5, "available_markets": ["CA", "US"], "type": "track", "preview_url": null, "explicit": false, "external_urls": {"spotify": "https://open.spotify.com/track/2BnFbc1hnqURAitUPMMu3q"}, "id": "2BnFbc1hnqURAitUPMMu3q", "uri": "spotify:track:2BnFbc1hnqURAitUPMMu3q", "popularity": 30}, {"album": {"total_tracks": 1, "type": "album", "release_date": "2019-08-23", "href": "https://api.spotify.com/v1/albums/2dInCD9qOoykhOn1FW46rA", "artists": [{"type": "artist", "name": "The Cure", "external_urls": {"spotify": "https://open.spotify.com/artist/7bu3H8JO7d0UbMoVzbo70s"}, "id": "7bu3H8JO7d0UbMoVzbo70s", "uri": "spotify:artist:7bu3H8JO7d0UbMoVzbo70s", "href": "https://api.spotify.com/v1/artists/7bu3H8JO7d0UbMoVzbo70s"}], "images": [{"width": 640, "url": "https://i.scdn.co/image/ab67616d0000b273e27ff0b004648159d24ed609", "height": 640}, {"width": 300, "url": "https://i.scdn.co/image/ab67616d00001e02e27ff0b004648159d24ed609", "height": 300}, {"width": 64, "url": "https://i.scdn.co/image/ab67616d00004851e27ff0b004648159d24ed609", "height": 64}], "available_markets": ["AD", "AE", "AR", "AT", "AU", "BE", "BG", "BH", "BO", "BR", "CA", "CH", "CL", "CO", "CR", "CY", "CZ", "DE", "DK", "DO", "DZ", "EC", "EE", "EG", "ES", "FI", "FR", "GB", "GR", "GT", "HK", "HN", "HU", "ID", "IE", "IL", "IN", "IS", "IT", "JO", "JP", "KW", "LB", "LI", "LT", "LU", "LV", "MA", "MC", "MT", "MX", "MY", "NI", "NL", "NO", "NZ", "OM", "PA", "PE", "PH", "PL", "PS", "PT", "PY", "QA", "RO", "SA", "SE", "SG", "SK", "SV", "TH", "TN", "TR", "TW", "US", "UY", "VN", "ZA"], "album_type": "single", "release_date_precision": "day", "name": "Friday I'm In Love (Live)", "external_urls": {"spotify": "https://open.spotify.com/album/2dInCD9qOoykhOn1FW46rA"}, "id": "2dInCD9qOoykhOn1FW46rA", "uri": "spotify:album:2dInCD9qOoykhOn1FW46rA"}, "external_ids": {"isrc": "GBCBR1900134"}, "name": "Friday I'm In Love - Live", "duration_ms": 226213, "is_local": false, "disc_number": 1, "href": "https://api.spotify.com/v1/tracks/3i4k8LPzYnnEh64AGHxfQz", "artists": [{"type": "artist", "name": "The Cure", "external_urls": {"spotify": "https://open.spotify.com/artist/7bu3H8JO7d0UbMoVzbo70s"}, "id": "7bu3H8JO7d0UbMoVzbo70s", "uri": "spotify:artist:7bu3H8JO7d0UbMoVzbo70s", "href": "https://api.spotify.com/v1/artists/7bu3H8JO7d0UbMoVzbo70s"}], "track_number": 1, "available_markets": ["AD", "AE", "AR", "AT", "AU", "BE", "BG", "BH", "BO", "BR", "CA", "CH", "CL", "CO", "CR", "CY", "CZ", "DE", "DK", "DO", "DZ", "EC", "EE", "EG", "ES", "FI", "FR", "GB", "GR", "GT", "HK", "HN", "HU", "ID", "IE", "IL", "IN", "IS", "IT", "JO", "JP", "KW", "LB", "LI", "LT", "LU", "LV", "MA", "MC", "MT", "MX", "MY", "NI", "NL", "NO", "NZ", "OM", "PA", "PE", "PH", "PL", "PS", "PT", "PY", "QA", "RO", "SA", "SE", "SG", "SK", "SV", "TH", "TN", "TR", "TW", "US", "UY", "VN", "ZA"], "type": "track", "preview_url": null, "explicit": false, "external_urls": {"spotify": "https://open.spotify.com/track/3i4k8LPzYnnEh64AGHxfQz"}, "id": "3i4k8LPzYnnEh64AGHxfQz", "uri": "spotify:track:3i4k8LPzYnnEh64AGHxfQz", "popularity": 41}, {"album": {"total_tracks": 18, "type": "album", "release_date": "1997-10-17", "href": "https://api.spotify.com/v1/albums/0BRThmbAV1p2CxAuxgpHRj", "artists": [{"type": "artist", "name": "The Cure", "external_urls": {"spotify": "https://open.spotify.com/artist/7bu3H8JO7d0UbMoVzbo70s"}, "id": "7bu3H8JO7d0UbMoVzbo70s", "uri": "spotify:artist:7bu3H8JO7d0UbMoVzbo70s", "href": "https://api.spotify.com/v1/artists/7bu3H8JO7d0UbMoVzbo70s"}], "images": [{"width": 640, "url": "https://i.scdn.co/image/ab67616d0000b2732780880a9583a363c28c60d5", "height": 640}, {"width": 300, "url": "https://i.scdn.co/image/ab67616d00001e022780880a9583a363c28c60d5", "height": 300}, {"width": 64, "url": "https://i.scdn.co/image/ab67616d000048512780880a9583a363c28c60d5", "height": 64}], "available_markets": ["CA", "US"], "album_type": "compilation", "release_date_precision": "day", "name": "Galore", "external_urls": {"spotify": "https://open.spotify.com/album/0BRThmbAV1p2CxAuxgpHRj"}, "id": "0BRThmbAV1p2CxAuxgpHRj", "uri": "spotify:album:0BRThmbAV1p2CxAuxgpHRj"}, "external_ids": {"isrc": "USEE19200008"}, "name": "Friday I'm in Love - Remastered Galore Version", "duration_ms": 216333, "is_local": false, "disc_number": 1, "href": "https://api.spotify.com/v1/tracks/3D6bMT9PXrFTZZ0VT18frm", "artists": [{"type": "artist", "name": "The Cure", "external_urls": {"spotify": "https://open.spotify.com/artist/7bu3H8JO7d0UbMoVzbo70s"}, "id": "7bu3H8JO7d0UbMoVzbo70s", "uri": "spotify:artist:7bu3H8JO7d0UbMoVzbo70s", "href": "https://api.spotify.com/v1/artists/7bu3H8JO7d0UbMoVzbo70s"}], "track_number": 12, "available_markets": ["CA", "US"], "type": "track", "preview_url": "https://p.scdn.co/mp3-preview/a25b63f1c505c4b848d946c3c677daf874c92d15?cid=0c947b9d3f7547e28aee080174c283c9", "explicit": false, "external_urls": {"spotify": "https://open.spotify.com/track/3D6bMT9PXrFTZZ0VT18frm"}, "id": "3D6bMT9PXrFTZZ0VT18frm", "uri": "spotify:track:3D6bMT9PXrFTZZ0VT18frm", "popularity": 25}], "previous": null, "href": "https://api.spotify.com/v1/search?query=artist%3AThe+Cure+track%3AFriday+I%27m+In+Love&type=track&offset=0&limit=5", "limit": 5, "total": 29, "next": "https://api.spotify.com/v1/search?query=artist%3AThe+Cure+track%3AFriday+I%27m+In+Love&type=track&offset=5&limit=5"}}