{"tracks": {"offset": 0, "items": [{"album": {"total_tracks": 16, "type": "album", "release_date": "2013-01-01", "href": "https://api.spotify.com/v1/albums/5MQBzs5YlZlE28mD9yUItn", "artists": [{"type": "artist", "name": "Katy Perry", "external_urls": {"spotify": "https://open.spotify.com/artist/6jJ0s89eD6GaHleKKya26X"}, "id": "6jJ0s89eD6GaHleKKya26X", "uri": "spotify:artist:6jJ0s89eD6GaHleKKya26X", "href": "https://api.spotify.com/v1/artists/6jJ0s89eD6GaHleKKya26X"}], "images": [{"width": 640, "url": "https://i.scdn.co/image/cefa154b3f01758fac6744465dbfd9d799c8a031", "height": 640}, {"width": 300, "url": "https://i.scdn.co/image/515eba57dd44b07e330390a5e9d4d45b0e353377", "height": 300}, {"width": 64, "url": "https://i.scdn.co/image/f8728c265c05e2c5ca65a4e568aae3c77c6f0209", "height": 64}], "available_markets": ["AD", "AE", "AR", "AT", "AU", "BE", "BG", "BH", "BO", "BR", "CA", "CH", "CL", "CO", "CR", "CY", "CZ", "DE", "DK", "DO", "DZ", "EC", "EE", "EG", "ES", "FI", "FR", "GB", "GR", "GT", "HK", "HN", "HU", "ID", "IE", "IL", "IN", "IS", "IT", "JO", "JP", "KW", "LB", "LI", "LT", "LU", "LV", "MA", "MC", "MT", "MX", "MY", "NI", "NL", "NO", "NZ", "OM", "PA", "PE", "PH", "PL", "PS", "PT", "PY", "QA", "RO", "SA", "SE", "SG", "SK", "SV", "TH", "TN", "TR", "TW", "US", "UY", "VN", "ZA"], "album_type": "album", "release_date_precision": "day", "name": "PRISM (Deluxe)", "external_urls": {"spotify": "https://open.spotify.com/album/5MQBzs5YlZlE28mD9yUItn"}, "id": "5MQBzs5YlZlE28mD9yUItn", "uri": "spotify:album:5MQBzs5YlZlE28mD9yUItn"}, "external_ids": {"isrc": "USUM71308669"}, "name": "Roar", "duration_ms": 223546, "is_local": false, "disc_number": 1, "href": "https://api.spotify.com/v1/tracks/6F5c58TMEs1byxUstkzVeM", "artists": [{"type": "artist", "name": "Katy Perry", "external_urls": {"spotify": "https://open.spotify.com/artist/6jJ0s89eD6GaHleKKya26X"}, "id": "6jJ0s89eD6GaHleKKya26X", "uri": "spotify:artist:6jJ0s89eD6GaHleKKya26X", "href": "https://api.spotify.com/v1/artists/6jJ0s89eD6GaHleKKya26X"}], "track_number": 1, "available_markets": ["AD", "AE", "AR", "AT", "AU", "BE", "BG", "BH", "BO", "BR", "CA", "CH", "CL", "CO", "CR", "CY", "CZ", "DE", "DK", "DO", "DZ", "EC", "EE", "EG", "ES", "FI", "FR", "GB", "GR", "GT", "HK", "HN", "HU", "ID", "IE", "IL", "IN", "IS", "IT", "JO", "JP", "KW", "LB", "LI", "LT", "LU", "LV", "MA", "MC", "MT", "MX", "MY", "NI", "NL", "NO", "NZ", "OM", "PA", "PE", "PH", "PL", "PS", "PT", "PY", "QA", "RO", "SA", "SE", "SG", "SK", "SV", "TH", "TN", "TR", "TW", "US", "UY", "VN", "ZA"], "type": "track", "preview_url": null, "explicit": false, "external_urls": {"spotify": "https://open.spotify.com/track/6F5c58TMEs1byxUstkzVeM"}, "id": "6F5c58TMEs1byxUstkzVeM", "uri": "spotify:track:6F5c58TMEs1byxUstkzVeM", "popularity": 78}, {"album": {"total_tracks": 13, "type": "album", "release_date": "2013-01-01", "href": "https://api.spotify.com/v1/albums/3jB9yFDwRe3KhtGnHXJntk", "artists": [{"type": "artist", "name": "Katy Perry", "external_urls": {"spotify": "https://open.spotify.com/artist/6jJ0s89eD6GaHleKKya26X"}, "id": "6jJ0s89eD6GaHleKKya26X", "uri": "spotify:artist:6jJ0s89eD6GaHleKKya26X", "href": "https://api.spotify.com/v1/artists/6jJ0s89eD6GaHleKKya26X"}], "images": [{"width": 640, "url": "https://i.scdn.co/image/cefa154b3f01758fac6744465dbfd9d799c8a031", "height": 640}, {"width": 300, "url": "https://i.scdn.co/image/515eba57dd44b07e330390a5e9d4d45b0e353377", "height": 300}, {"width": 64, "url": "https://i.scdn.co/image/f8728c265c05e2c5ca65a4e568aae3c77c6f0209", "height": 64}], "available_markets": ["AD", "AE", "AR", "AT", "AU", "BE", "BG", "BH", "BO", "BR", "CA", "CH", "CL", "CO", "CR", "CY", "CZ", "DE", "DK", "DO", "DZ", "EC", "EE", "EG", "ES", "FI", "FR", "GB", "GR", "GT", "HK", "HN", "HU", "ID", "IE", "IL", "IN", "IS", "IT", "JO", "JP", "KW", "LB", "LI", "LT", "LU", "LV", "MA", "MC", "MT", "MX", "MY", "NI", "NL", "NO", "NZ", "OM", "PA", "PE", "PH", "PL", "PS", "PT", "PY", "QA", "RO", "SA", "SG", "SK", "SV", "TH", "TN", "TR", "TW", "US", "UY", "VN", "ZA"], "album_type": "album", "release_date_precision": "day", "name": "PRISM", "external_urls": {"spotify": "https://open.spotify.com/album/3jB9yFDwRe3KhtGnHXJntk"}, "id": "3jB9yFDwRe3KhtGnHXJntk", "uri": "spotify:album:3jB9yFDwRe3KhtGnHXJntk"}, "external_ids": {"isrc": "USUM71308669"}, "name": "Roar", "duration_ms": 223546, "is_local": false, "disc_number": 1, "href": "https://api.spotify.com/v1/tracks/27tNWlhdAryQY04Gb2ZhUI", "artists": [{"type": "artist", "name": "Katy Perry", "external_urls": {"spotify": "https://open.spotify.com/artist/6jJ0s89eD6GaHleKKya26X"}, "id": "6jJ0s89eD6GaHleKKya26X", "uri": "spotify:artist:6jJ0s89eD6GaHleKKya26X", "href": "https://api.spotify.com/v1/artists/6jJ0s89eD6GaHleKKya26X"}], "track_number": 1, "available_markets": ["AD", "AE", "AR", "AT", "AU", "BE", "BG", "BH", "BO", "BR", "CA", "CH", "CL", "CO", "CR", "CY", "CZ", "DE", "DK", "DO", "DZ", "EC", "EE", "EG", "ES", "FI", "FR", "GB", "GR", "GT", "HK", "HN", "HU", "ID", "IE", "IL", "IN", "IS", "IT", "JO", "JP", "KW", "LB", "LI", "LT", "LU", "LV", "MA", "MC", "MT", "MX", "MY", "NI", "NL", "NO", "NZ", "OM", "PA", "PE", "PH", "PL", "PS", "PT", "PY", "QA", "RO", "SA", "SG", "SK", "SV", "TH", "TN", "TR", "TW", "US", "UY", "VN", "ZA"], "type": "track", "preview_url": null, "explicit": false, "external_urls": {"spotify": "https://open.spotify.com/track/27tNWlhdAryQY04Gb2ZhUI"}, "id": "27tNWlhdAryQY04Gb2ZhUI", "uri": "spotify:track:27tNWlhdAryQY04Gb2ZhUI", "popularity": 50}, {"album": {"total_tracks": 1, "type": "album", "release_date": "2013-01-01", "href": "https://api.spotify.com/v1/albums/7tl8VkZBE0bSMaMcqscnCk", "artists": [{"type": "artist", "name": "Katy Perry", "external_urls": {"spotify": "https://open.spotify.com/artist/6jJ0s89eD6GaHleKKya26X"}, "id": "6jJ0s89eD6GaHleKKya26X", "uri": "spotify:artist:6jJ0s89eD6GaHleKKya26X", "href": "https://api.spotify.com/v1/artists/6jJ0s89eD6GaHleKKya26X"}], "images": [{"width": 640, "url": "https://i.scdn.co/image/ebc35568ddbea94bf229dcfbb89a6aefc6f563c1", "height": 640}, {"width": 300, "url": "https://i.scdn.co/image/872414b47a33394f0d71521d92dc339f9de64ac3", "height": 300}, {"width": 64, "url": "https://i.scdn.co/image/00f30b9c0a9ae0cdc5c22f3a9412e61c94560292", "height": 64}], "available_markets": ["AD", "AE", "AR", "AT", "AU", "BE", "BG", "BH", "BO", "BR", "CA", "CH", "CL", "CO", "CR", "CY", "CZ", "DE", "DK", "DO", "DZ", "EC", "EE", "EG", "ES", "FI", "FR", "GR", "GT", "HK", "HN", "HU", "ID", "IE", "IL", "IN", "IS", "IT", "JO", "JP", "KW", "LB", "LI", "LT", "LU", "LV", "MA", "MC", "MT", "MX", "MY", "NI", "NL", "NZ", "OM", "PA", "PE", "PH", "PL", "PS", "PT", "PY", "QA", "RO", "SA", "SG", "SK", "SV", "TH", "TN", "TR", "TW", "US", "UY", "VN", "ZA"], "album_type": "single", "release_date_precision": "day", "name": "Roar", "external_urls": {"spotify": "https://open.spotify.com/album/7tl8VkZBE0bSMaMcqscnCk"}, "id": "7tl8VkZBE0bSMaMcqscnCk", "uri": "spotify:album:7tl8VkZBE0bSMaMcqscnCk"}, "external_ids": {"isrc": "USUM71308669"}, "name": "Roar", "duration_ms": 222666, "is_local": false, "disc_number": 1, "href": "https://api.spotify.com/v1/tracks/3sAIY2jtHpUHKfwDSSVgMM", "artists": [{"type": "artist", "name": "Katy Perry", "external_urls": {"spotify": "https://open.spotify.com/artist/6jJ0s89eD6GaHleKKya26X"}, "id": "6jJ0s89eD6GaHleKKya26X", "uri": "spotify:artist:6jJ0s89eD6GaHleKKya26X", "href": "https://api.spotify.com/v1/artists/6jJ0s89eD6GaHleKKya26X"}], "track_number": 1, "available_markets": ["AD", "AE", "AR", "AT", "AU", "BE", "BG", "BH", "BO", "BR", "CA", "CH", "CL", "CO", "CR", "CY", "CZ", "DE", "DK", "DO", "DZ", "EC", "EE", "EG", "ES", "FI", "FR", "GR", "GT", "HK", "HN", "HU", "ID", "IE", "IL", "IN", "IS", "IT", "JO", "JP", "KW", "LB", "LI", "LT", "LU", "LV", "MA", "MC", "MT", "MX", "MY", "NI", "NL", "NZ", "OM", "PA", "PE", "PH", "PL", "PS", "PT", "PY", "QA", "RO", "SA", "SG", "SK", "SV", "TH", "TN", "TR", "TW", "US", "UY", "VN", "ZA"], "type": "track", "preview_url": null, "explicit": false, "external_urls": {"spotify": "https://open.spotify.com/track/3sAIY2jtHpUHKfwDSSVgMM"}, "id": "3sAIY2jtHpUHKfwDSSVgMM", "uri": "spotify:track:3sAIY2jtHpUHKfwDSSVgMM", "popularity": 34}, {"album": {"total_tracks": 22, "type": "album", "release_date": "2017-10-06", "href": "https://api.spotify.com/v1/albums/1UdaChmrXTl4pzDe14XvQC", "artists": [{"type": "artist", "name": "Various Artists", "external_urls": {"spotify": "https://open.spotify.com/artist/0LyfQWJT6nXafLPZqxe9Of"}, "id": "0LyfQWJT6nXafLPZqxe9Of", "uri": "spotify:artist:0LyfQWJT6nXafLPZqxe9Of", "href": "https://api.spotify.com/v1/artists/0LyfQWJT6nXafLPZqxe9Of"}], "images": [{"width": 640, "url": "https://i.scdn.co/image/ab67616d0000b2737d732cf91412f92ca22ef66b", "height": 640}, {"width": 300, "url": "https://i.scdn.co/image/ab67616d00001e027d732cf91412f92ca22ef66b", "height": 300}, {"width": 64, "url": "https://i.scdn.co/image/ab67616d000048517d732cf91412f92ca22ef66b", "height": 64}], "available_markets": ["AD", "AE", "AR", "AT", "AU", "BE", "BG", "BH", "BO", "BR", "CA", "CH", "CL", "CO", "CR", "CY", "CZ", "DE", "DK", "DO", "DZ", "EC", "EE", "EG", "ES", "FI", "FR", "GB", "GR", "GT", "HK", "HN", "HU", "ID", "IE", "IL", "IN", "IS", "IT", "JO", "JP", "KW", "LB", "LI", "LT", "LU", "LV", "MA", "MC", "MT", "MX", "MY", "NI", "NL", "NO", "NZ", "OM", "PA", "PE", "PH", "PL", "PS", "PT", "PY", "QA", "RO", "SA", "SE", "SG", "SK", "SV", "TH", "TN", "TR", "TW", "US", "UY", "VN", "ZA"], "album_type": "compilation", "release_date_precision": "day", "name": "Hear Us Roar", "external_urls": {"spotify": "https://open.spotify.com/album/1UdaChmrXTl4pzDe14XvQC"}, "id": "1UdaChmrXTl4pzDe14XvQC", "uri": "spotify:album:1UdaChmrXTl4pzDe14XvQC"}, "external_ids": {"isrc": "USUM71308669"}, "name": "Roar", "duration_ms": 223224, "is_local": false, "disc_number": 1, "href": "https://api.spotify.com/v1/tracks/7kUFUz2YvS2emhBsck9uPX", "artists": [{"type": "artist", "name": "Katy Perry", "external_urls": {"spotify": "https://open.spotify.com/artist/6jJ0s89eD6GaHleKKya26X"}, "id": "6jJ0s89eD6GaHleKKya26X", "uri": "spotify:artist:6jJ0s89eD6GaHleKKya26X", "href": "https://api.spotify.com/v1/artists/6jJ0s89eD6GaHleKKya26X"}], "track_number": 3, "available_markets": ["AD", "AE", "AR", "AT", "AU", "BE", "BG", "BH", "BO", "BR", "CA", "CH", "CL", "CO", "CR", "CY", "CZ", "DE", "DK", "DO", "DZ", "EC", "EE", "EG", "ES", "FI", "FR", "GB", "GR", "GT", "HK", "HN", "HU", "ID", "IE", "IL", "IN", "IS", "IT", "JO", "JP", "KW", "LB", "LI", "LT", "LU", "LV", "MA", "MC", "MT", "MX", "MY", "NI", "NL", "NO", "NZ", "OM", "PA", "PE", "PH", "PL", "PS", "PT", "PY", "QA", "RO", "SA", "SE", "SG", "SK", "SV", "TH", "TN", "TR", "TW", "US", "UY", "VN", "ZA"], "type": "track", "preview_url": null, "explicit": false, "external_urls": {"spotify": "https://open.spotify.com/track/7kUFUz2YvS2emhBsck9uPX"}, "id": "7kUFUz2YvS2emhBsck9uPX", "uri": "spotify:track:7kUFUz2YvS2emhBsck9uPX", "popularity": 21}, {"album": {"total_tracks": 20, "type": "album", "release_date": "2019-02-01", "href": "https://api.spotify.com/v1/albums/2D2q1WWvtcsl7EwVS9DA88", "artists": [{"type": "artist", "name": "Various Artists", "external_urls": {"spotify": "https://open.spotify.com/artist/0LyfQWJT6nXafLPZqxe9Of"}, "id": "0LyfQWJT6nXafLPZqxe9Of", "uri": "spotify:artist:0LyfQWJT6nXafLPZqxe9Of", "href": "https://api.spotify.com/v1/artists/0LyfQWJT6nXafLPZqxe9Of"}], "images": [{"width": 640, "url": "https://i.scdn.co/image/ab67616d0000b2739eda355ac0fd5e73da39bd60", "height": 640}, {"width": 300, "url": "https://i.scdn.co/image/ab67616d00001e029eda355ac0fd5e73da39bd60", "height": 300}, {"width": 64, "url": "https://i.scdn.co/image/ab67616d000048519eda355ac0fd5e73da39bd60", "height": 64}], "available_markets": ["US"], "album_type": "compilation", "release_date_precision": "day", "name": "NOW That's What I Call Music! 20th Anniversary, Vol. 2", "external_urls": {"spotify": "https://open.spotify.com/album/2D2q1WWvtcsl7EwVS9DA88"}, "id": "2D2q1WWvtcsl7EwVS9DA88", "uri": "spotify:album:2D2q1WWvtcsl7EwVS9DA88"}, "external_ids": {"isrc": "USUM71308669"}, "name": "Roar", "duration_ms": 222373, "is_local": false, "disc_number": 1, "href": "https://api.spotify.com/v1/tracks/0gg44OiTgFq3darGFJwhy4", "artists": [{"type": "artist", "name": "Katy Perry", "external_urls": {"spotify": "https://open.spotify.com/artist/6jJ0s89eD6GaHleKKya26X"}, "id": "6jJ0s89eD6GaHleKKya26X", "uri": "spotify:artist:6jJ0s89eD6GaHleKKya26X", "href": "https://api.spotify.com/v1/artists/6jJ0s89eD6GaHleKKya26X"}], "track_number": 13, "available_markets": ["US"], "type": "track", "preview_url": "https://p.scdn.co/mp3-preview/a719fcfdd5f67cb19aea2ae063d525d70144c684?cid=0c947b9d3f7547e28aee080174c283c9", "explicit": false, "external_urls": {"spotify": "https://open.spotify.com/track/0gg44OiTgFq3darGFJwhy4"}, "id": "0gg44OiTgFq3darGFJwhy4", "uri": "spotify:track:0gg44OiTgFq3darGFJwhy4", "popularity": 18}], "previous": null, "href": "https://api.spotify.com/v1/search?query=artist%3AKaty+Perry+track%3ARoar&type=track&offset=0&limit=5", "limit": 5, "total": 10, "next": "https://api.spotify.com/v1/search?query=artist%3AKaty+Perry+track%3ARoar&type=track&offset=5&limit=5"}}