{"tracks": {"offset": 0, "items": [{"album": {"total_tracks": 11, "type": "album", "release_date": "2014-06-25", "href": "https://api.spotify.com/v1/albums/0RZ4Ct4vegYBmL9g88TBNi", "artists": [{"type": "artist", "name": "MAGIC!", "external_urls": {"spotify": "https://open.spotify.com/artist/0DxeaLnv6SyYk2DOqkLO8c"}, "id": "0DxeaLnv6SyYk2DOqkLO8c", "uri": "spotify:artist:0DxeaLnv6SyYk2DOqkLO8c", "href": "https://api.spotify.com/v1/artists/0DxeaLnv6SyYk2DOqkLO8c"}], "images": [{"width": 640, "url": "https://i.scdn.co/image/ab67616d0000b273604f8ac39f15d287e251f193", "height": 640}, {"width": 300, "url": "https://i.scdn.co/image/ab67616d00001e02604f8ac39f15d287e251f193", "height": 300}, {"width": 64, "url": "https://i.scdn.co/image/ab67616d00004851604f8ac39f15d287e251f193", "height": 64}], "available_markets": ["AD", "AE", "AR", "AT", "AU", "BE", "BG", "BH", "BO", "BR", "CA", "CH", "CL", "CO", "CR", "CY", "CZ", "DE", "DK", "DO", "DZ", "EC", "EE", "EG", "ES", "FI", "FR", "GR", "GT", "HK", "HN", "HU", "ID", "IE", "IL", "IN", "IS", "IT", "JO", "JP", "KW", "LB", "LI", "LT", "LU", "LV", "MA", "MC", "MT", "MX", "MY", "NI", "NL", "NO", "NZ", "OM", "PA", "PE", "PH", "PL", "PS", "PT", "PY", "QA", "RO", "SA", "SE", "SG", "SK", "SV", "TH", "TN", "TR", "TW", "US", "UY", "VN", "ZA"], "album_type": "album", "release_date_precision": "day", "name": "Don't Kill the Magic", "external_urls": {"spotify": "https://open.spotify.com/album/0RZ4Ct4vegYBmL9g88TBNi"}, "id": "0RZ4Ct4vegYBmL9g88TBNi", "uri": "spotify:album:0RZ4Ct4vegYBmL9g88TBNi"}, "external_ids": {"isrc": "CAV161300016"}, "name": "Rude", "duration_ms": 224840, "is_local": false, "disc_number": 1, "href": "https://api.spotify.com/v1/tracks/6RtPijgfPKROxEzTHNRiDp", "artists": [{"type": "artist", "name": "MAGIC!", "external_urls": {"spotify": "https://open.spotify.com/artist/0DxeaLnv6SyYk2DOqkLO8c"}, "id": "0DxeaLnv6SyYk2DOqkLO8c", "uri": "spotify:artist:0DxeaLnv6SyYk2DOqkLO8c", "href": "https://api.spotify.com/v1/artists/0DxeaLnv6SyYk2DOqkLO8c"}], "track_number": 1, "available_markets": ["AD", "AE", "AR", "AT", "AU", "BE", "BG", "BH", "BO", "BR", "CA", "CH", "CL", "CO", "CR", "CY", "CZ", "DE", "DK", "DO", "DZ", "EC", "EE", "EG", "ES", "FI", "FR", "GR", "GT", "HK", "HN", "HU", "ID", "IE", "IL", "IN", "IS", "IT", "JO", "JP", "KW", "LB", "LI", "LT", "LU", "LV", "MA", "MC", "MT", "MX", "MY", "NI", "NL", "NO", "NZ", "OM", "PA", "PE", "PH", "PL", "PS", "PT", "PY", "QA", "RO", "SA", "SE", "SG", "SK", "SV", "TH", "TN", "TR", "TW", "US", "UY", "VN", "ZA"], "type": "track", "preview_url": "https://p.scdn.co/mp3-preview/c72b1ced01765ebb7cdc26c679a346bea13121d3?cid=0c947b9d3f7547e28aee080174c283c9", "explicit": false, "external_urls": {"spotify": "https://open.spotify.com/track/6RtPijgfPKROxEzTHNRiDp"}, "id": "6RtPijgfPKROxEzTHNRiDp", "uri": "spotify:track:6RtPijgfPKROxEzTHNRiDp", "popularity": 78}, {"album": {"total_tracks": 1, "type": "album", "release_date": "2013-10-11", "href": "https://api.spotify.com/v1/albums/2Qm9AzJHWLG9vbJCeXRaAW", "artists": [{"type": "artist", "name": "MAGIC!", "external_urls": {"spotify": "https://open.spotify.com/artist/0DxeaLnv6SyYk2DOqkLO8c"}, "id": "0DxeaLnv6SyYk2DOqkLO8c", "uri": "spotify:artist:0DxeaLnv6SyYk2DOqkLO8c", "href": "https://api.spotify.com/v1/artists/0DxeaLnv6SyYk2DOqkLO8c"}], "images": [{"width": 640, "url": "https://i.scdn.co/image/ab67616d0000b2730ee3a8b1f9762f0a1e69385d", "height": 640}, {"width": 300, "url": "https://i.scdn.co/image/ab67616d00001e020ee3a8b1f9762f0a1e69385d", "height": 300}, {"width": 64, "url": "https://i.scdn.co/image/ab67616d000048510ee3a8b1f9762f0a1e69385d", "height": 64}], "available_markets": ["AE", "AR", "AT", "AU", "BE", "BG", "BH", "BO", "CA", "CH", "CL", "CO", "CR", "CY", "CZ", "DE", "DO", "EC", "EG", "ES", "GB", "GR", "GT", "HK", "HN", "HU", "ID", "IE", "IL", "IN", "IT", "JO", "JP", "KW", "LB", "LI", "LU", "MT", "MX", "MY", "NI", "NL", "NO", "NZ", "OM", "PA", "PE", "PH", "PL", "PS", "PY", "QA", "RO", "SA", "SG", "SK", "SV", "TH", "TR", "TW", "US", "UY", "VN", "ZA"], "album_type": "single", "release_date_precision": "day", "name": "Rude", "external_urls": {"spotify": "https://open.spotify.com/album/2Qm9AzJHWLG9vbJCeXRaAW"}, "id": "2Qm9AzJHWLG9vbJCeXRaAW", "uri": "spotify:album:2Qm9AzJHWLG9vbJCeXRaAW"}, "external_ids": {"isrc": "CAV161300016"}, "name": "Rude", "duration_ms": 224773, "is_local": false, "disc_number": 1, "href": "https://api.spotify.com/v1/tracks/3tCwjWLicbjsMCvXhN0WOE", "artists": [{"type": "artist", "name": "MAGIC!", "external_urls": {"spotify": "https://open.spotify.com/artist/0DxeaLnv6SyYk2DOqkLO8c"}, "id": "0DxeaLnv6SyYk2DOqkLO8c", "uri": "spotify:artist:0DxeaLnv6SyYk2DOqkLO8c", "href": "https://api.spotify.com/v1/artists/0DxeaLnv6SyYk2DOqkLO8c"}], "track_number": 1, "available_markets": ["AE", "AR", "AT", "AU", "BE", "BG", "BH", "BO", "CA", "CH", "CL", "CO", "CR", "CY", "CZ", "DE", "DO", "EC", "EG", "ES", "GB", "GR", "GT", "HK", "HN", "HU", "ID", "IE", "IL", "IN", "IT", "JO", "JP", "KW", "LB", "LI", "LU", "MT", "MX", "MY", "NI", "NL", "NO", "NZ", "OM", "PA", "PE", "PH", "PL", "PS", "PY", "QA", "RO", "SA", "SG", "SK", "SV", "TH", "TR", "TW", "US", "UY", "VN", "ZA"], "type": "track", "preview_url": "https://p.scdn.co/mp3-preview/9b3bd39a3460c7678e2ec2db2f05fe986797d137?cid=0c947b9d3f7547e28aee080174c283c9", "explicit": false, "external_urls": {"spotify": "https://open.spotify.com/track/3tCwjWLicbjsMCvXhN0WOE"}, "id": "3tCwjWLicbjsMCvXhN0WOE", "uri": "spotify:track:3tCwjWLicbjsMCvXhN0WOE", "popularity": 70}, {"album": {"total_tracks": 1, "type": "album", "release_date": "2014-07-14", "href": "https://api.spotify.com/v1/albums/6mSh4sedBU4vvHLYPd2Seb", "artists": [{"type": "artist", "name": "MAGIC!", "external_urls": {"spotify": "https://open.spotify.com/artist/0DxeaLnv6SyYk2DOqkLO8c"}, "id": "0DxeaLnv6SyYk2DOqkLO8c", "uri": "spotify:artist:0DxeaLnv6SyYk2DOqkLO8c", "href": "https://api.spotify.com/v1/artists/0DxeaLnv6SyYk2DOqkLO8c"}], "images": [{"width": 640, "url": "https://i.scdn.co/image/ab67616d0000b273c598ed06db025cc90eb45c79", "height": 640}, {"width": 300, "url": "https://i.scdn.co/image/ab67616d00001e02c598ed06db025cc90eb45c79", "height": 300}, {"width": 64, "url": "https://i.scdn.co/image/ab67616d00004851c598ed06db025cc90eb45c79", "height": 64}], "available_markets": ["AD", "AE", "AR", "AT", "AU", "BE", "BG", "BH", "BO", "BR", "CA", "CH", "CL", "CO", "CR", "CY", "CZ", "DE", "DK", "DO", "DZ", "EC", "EE", "EG", "ES", "FI", "FR", "GR", "GT", "HK", "HN", "HU", "ID", "IE", "IL", "IN", "IS", "IT", "JO", "JP", "KW", "LB", "LI", "LT", "LU", "LV", "MA", "MC", "MT", "MX", "MY", "NI", "NL", "NO", "NZ", "OM", "PA", "PE", "PH", "PL", "PS", "PT", "PY", "QA", "RO", "SA", "SG", "SK", "SV", "TH", "TN", "TR", "TW", "US", "UY", "VN", "ZA"], "album_type": "single", "release_date_precision": "day", "name": "Rude (Acoustic)", "external_urls": {"spotify": "https://open.spotify.com/album/6mSh4sedBU4vvHLYPd2Seb"}, "id": "6mSh4sedBU4vvHLYPd2Seb", "uri": "spotify:album:6mSh4sedBU4vvHLYPd2Seb"}, "external_ids": {"isrc": "CAV161400029"}, "name": "Rude (Acoustic)", "duration_ms": 223854, "is_local": false, "disc_number": 1, "href": "https://api.spotify.com/v1/tracks/7IQ7Tk8D6fFAgl6aL7u5ia", "artists": [{"type": "artist", "name": "MAGIC!", "external_urls": {"spotify": "https://open.spotify.com/artist/0DxeaLnv6SyYk2DOqkLO8c"}, "id": "0DxeaLnv6SyYk2DOqkLO8c", "uri": "spotify:artist:0DxeaLnv6SyYk2DOqkLO8c", "href": "https://api.spotify.com/v1/artists/0DxeaLnv6SyYk2DOqkLO8c"}], "track_number": 1, "available_markets": ["AD", "AE", "AR", "AT", "AU", "BE", "BG", "BH", "BO", "BR", "CA", "CH", "CL", "CO", "CR", "CY", "CZ", "DE", "DK", "DO", "DZ", "EC", "EE", "EG", "ES", "FI", "FR", "GR", "GT", "HK", "HN", "HU", "ID", "IE", "IL", "IN", "IS", "IT", "JO", "JP", "KW", "LB", "LI", "LT", "LU", "LV", "MA", "MC", "MT", "MX", "MY", "NI", "NL", "NO", "NZ", "OM", "PA", "PE", "PH", "PL", "PS", "PT", "PY", "QA", "RO", "SA", "SG", "SK", "SV", "TH", "TN", "TR", "TW", "US", "UY", "VN", "ZA"], "type": "track", "preview_url": "https://p.scdn.co/mp3-preview/445dba982a0c73334ab598f1a23a4dea70c67c47?cid=0c947b9d3f7547e28aee080174c283c9", "explicit": false, "external_urls": {"spotify": "https://open.spotify.com/track/7IQ7Tk8D6fFAgl6aL7u5ia"}, "id": "7IQ7Tk8D6fFAgl6aL7u5ia", "uri": "spotify:track:7IQ7Tk8D6fFAgl6aL7u5ia", "popularity": 69}, {"album": {"total_tracks": 1, "type": "album", "release_date": "2014-09-02", "href": "https://api.spotify.com/v1/albums/4QLBuRlKOxUPE9BqIdHQyf", "artists": [{"type": "artist", "name": "MAGIC!", "external_urls": {"spotify": "https://open.spotify.com/artist/0DxeaLnv6SyYk2DOqkLO8c"}, "id": "0DxeaLnv6SyYk2DOqkLO8c", "uri": "spotify:artist:0DxeaLnv6SyYk2DOqkLO8c", "href": "https://api.spotify.com/v1/artists/0DxeaLnv6SyYk2DOqkLO8c"}], "images": [{"width": 640, "url": "https://i.scdn.co/image/ab67616d0000b27363421db5c43c2515271ea2b6", "height": 640}, {"width": 300, "url": "https://i.scdn.co/image/ab67616d00001e0263421db5c43c2515271ea2b6", "height": 300}, {"width": 64, "url": "https://i.scdn.co/image/ab67616d0000485163421db5c43c2515271ea2b6", "height": 64}], "available_markets": ["AD", "AE", "AR", "AT", "AU", "BE", "BG", "BH", "BO", "BR", "CA", "CH", "CL", "CO", "CR", "CY", "CZ", "DE", "DK", "DO", "DZ", "EC", "EE", "EG", "ES", "FI", "FR", "GB", "GR", "GT", "HK", "HN", "HU", "ID", "IE", "IL", "IN", "IS", "IT", "JO", "JP", "KW", "LB", "LI", "LT", "LU", "LV", "MA", "MC", "MT", "MX", "MY", "NI", "NL", "NO", "NZ", "OM", "PA", "PE", "PH", "PL", "PS", "PT", "PY", "QA", "RO", "SA", "SE", "SG", "SK", "SV", "TH", "TN", "TR", "TW", "US", "UY", "VN", "ZA"], "album_type": "single", "release_date_precision": "day", "name": "Rude (Zedd Remix)", "external_urls": {"spotify": "https://open.spotify.com/album/4QLBuRlKOxUPE9BqIdHQyf"}, "id": "4QLBuRlKOxUPE9BqIdHQyf", "uri": "spotify:album:4QLBuRlKOxUPE9BqIdHQyf"}, "external_ids": {"isrc": "CAV161400034"}, "name": "Rude - Zedd Remix", "duration_ms": 273230, "is_local": false, "disc_number": 1, "href": "https://api.spotify.com/v1/tracks/6rmtT7Y8cH7NpvovoPiV6k", "artists": [{"type": "artist", "name": "MAGIC!", "external_urls": {"spotify": "https://open.spotify.com/artist/0DxeaLnv6SyYk2DOqkLO8c"}, "id": "0DxeaLnv6SyYk2DOqkLO8c", "uri": "spotify:artist:0DxeaLnv6SyYk2DOqkLO8c", "href": "https://api.spotify.com/v1/artists/0DxeaLnv6SyYk2DOqkLO8c"}, {"type": "artist", "name": "Zedd", "external_urls": {"spotify": "https://open.spotify.com/artist/2qxJFvFYMEDqd7ui6kSAcq"}, "id": "2qxJFvFYMEDqd7ui6kSAcq", "uri": "spotify:artist:2qxJFvFYMEDqd7ui6kSAcq", "href": "https://api.spotify.com/v1/artists/2qxJFvFYMEDqd7ui6kSAcq"}], "track_number": 1, "available_markets": ["AD", "AE", "AR", "AT", "AU", "BE", "BG", "BH", "BO", "BR", "CA", "CH", "CL", "CO", "CR", "CY", "CZ", "DE", "DK", "DO", "DZ", "EC", "EE", "EG", "ES", "FI", "FR", "GB", "GR", "GT", "HK", "HN", "HU", "ID", "IE", "IL", "IN", "IS", "IT", "JO", "JP", "KW", "LB", "LI", "LT", "LU", "LV", "MA", "MC", "MT", "MX", "MY", "NI", "NL", "NO", "NZ", "OM", "PA", "PE", "PH", "PL", "PS", "PT", "PY", "QA", "RO", "SA", "SE", "SG", "SK", "SV", "TH", "TN", "TR", "TW", "US", "UY", "VN", "ZA"], "type": "track", "preview_url": "https://p.scdn.co/mp3-preview/4bd11aafbfbb2d68ca4f4b8d34ffbbac2ed09f81?cid=0c947b9d3f7547e28aee080174c283c9", "explicit": false, "external_urls": {"spotify": "https://open.spotify.com/track/6rmtT7Y8cH7NpvovoPiV6k"}, "id": "6rmtT7Y8cH7NpvovoPiV6k", "uri": "spotify:track:6rmtT7Y8cH7NpvovoPiV6k", "popularity": 56}, {"album": {"total_tracks": 31, "type": "album", "release_date": "2019-04-11", "href": "https://api.spotify.com/v1/albums/5jdzXYmv7zWMdoJzcXrFQ9", "artists": [{"type": "artist", "name": "Various Artists", "external_urls": {"spotify": "https://open.spotify.com/artist/0LyfQWJT6nXafLPZqxe9Of"}, "id": "0LyfQWJT6nXafLPZqxe9Of", "uri": "spotify:artist:0LyfQWJT6nXafLPZqxe9Of", "href": "https://api.spotify.com/v1/artists/0LyfQWJT6nXafLPZqxe9Of"}], "images": [{"width": 640, "url": "https://i.scdn.co/image/ab67616d0000b2738634df56f01887c06c8218f2", "height": 640}, {"width": 300, "url": "https://i.scdn.co/image/ab67616d00001e028634df56f01887c06c8218f2", "height": 300}, {"width": 64, "url": "https://i.scdn.co/image/ab67616d000048518634df56f01887c06c8218f2", "height": 64}], "available_markets": ["AD", "AE", "AR", "AT", "AU", "BE", "BG", "BH", "BO", "BR", "CA", "CH", "CL", "CO", "CR", "CY", "CZ", "DE", "DK", "DO", "DZ", "EC", "EE", "EG", "ES", "FI", "FR", "GB", "GR", "GT", "HK", "HN", "HU", "ID", "IE", "IL", "IN", "IS", "IT", "JO", "JP", "KW", "LB", "LI", "LT", "LU", "LV", "MA", "MC", "MT", "MX", "MY", "NI", "NL", "NO", "NZ", "OM", "PA", "PE", "PH", "PL", "PS", "PT", "PY", "QA", "RO", "SA", "SE", "SG", "SK", "SV", "TH", "TN", "TR", "TW", "US", "UY", "VN", "ZA"], "album_type": "compilation", "release_date_precision": "day", "name": "2010s Hits", "external_urls": {"spotify": "https://open.spotify.com/album/5jdzXYmv7zWMdoJzcXrFQ9"}, "id": "5jdzXYmv7zWMdoJzcXrFQ9", "uri": "spotify:album:5jdzXYmv7zWMdoJzcXrFQ9"}, "external_ids": {"isrc": "CAV161300016"}, "name": "Rude", "duration_ms": 224793, "is_local": false, "disc_number": 1, "href": "https://api.spotify.com/v1/tracks/6pKu4lnruq6MMqncLi8fYh", "artists": [{"type": "artist", "name": "MAGIC!", "external_urls": {"spotify": "https://open.spotify.com/artist/0DxeaLnv6SyYk2DOqkLO8c"}, "id": "0DxeaLnv6SyYk2DOqkLO8c", "uri": "spotify:artist:0DxeaLnv6SyYk2DOqkLO8c", "href": "https://api.spotify.com/v1/artists/0DxeaLnv6SyYk2DOqkLO8c"}], "track_number": 20, "available_markets": ["AD", "AE", "AR", "AT", "AU", "BE", "BG", "BH", "BO", "BR", "CA", "CH", "CL", "CO", "CR", "CY", "CZ", "DE", "DK", "DO", "DZ", "EC", "EE", "EG", "ES", "FI", "FR", "GB", "GR", "GT", "HK", "HN", "HU", "ID", "IE", "IL", "IN", "IS", "IT", "JO", "JP", "KW", "LB", "LI", "LT", "LU", "LV", "MA", "MC", "MT", "MX", "MY", "NI", "NL", "NO", "NZ", "OM", "PA", "PE", "PH", "PL", "PS", "PT", "PY", "QA", "RO", "SA", "SE", "SG", "SK", "SV", "TH", "TN", "TR", "TW", "US", "UY", "VN", "ZA"], "type": "track", "preview_url": "https://p.scdn.co/mp3-preview/78a8dff4ae04068288a5e8bd58f71ec50adee62a?cid=0c947b9d3f7547e28aee080174c283c9", "explicit": false, "external_urls": {"spotify": "https://open.spotify.com/track/6pKu4lnruq6MMqncLi8fYh"}, "id": "6pKu4lnruq6MMqncLi8fYh", "uri": "spotify:track:6pKu4lnruq6MMqncLi8fYh", "popularity": 34}], "previous": null, "href": "https://api.spotify.com/v1/search?query=artist%3AMagic%21+track%3ARude&type=track&offset=0&limit=5", "limit": 5, "total": 18, "next": "https://api.spotify.com/v1/search?query=artist%3AMagic%21+track%3ARude&type=track&offset=5&limit=5"}}