{"tracks": {"offset": 0, "items": [{"album": {"total_tracks": 11, "type": "album", "release_date": "1985", "href": "https://api.spotify.com/v1/albums/3t3BbpFJiGcXl4jI5CRLLA", "artists": [{"type": "artist", "name": "Various Artists", "external_urls": {"spotify": "https://open.spotify.com/artist/0LyfQWJT6nXafLPZqxe9Of"}, "id": "0LyfQWJT6nXafLPZqxe9Of", "uri": "spotify:artist:0LyfQWJT6nXafLPZqxe9Of", "href": "https://api.spotify.com/v1/artists/0LyfQWJT6nXafLPZqxe9Of"}], "images": [{"width": 640, "url": "https://i.scdn.co/image/ab67616d0000b273f4a2ccbe20d6d52f16816812", "height": 640}, {"width": 300, "url": "https://i.scdn.co/image/ab67616d00001e02f4a2ccbe20d6d52f16816812", "height": 300}, {"width": 64, "url": "https://i.scdn.co/image/ab67616d00004851f4a2ccbe20d6d52f16816812", "height": 64}], "available_markets": ["AD", "AE", "AR", "AT", "AU", "BE", "BG", "BH", "BO", "BR", "CA", "CH", "CL", "CO", "CR", "CY", "CZ", "DE", "DK", "DO", "DZ", "EC", "EE", "EG", "ES", "FI", "FR", "GB", "GR", "GT", "HK", "HN", "HU", "ID", "IE", "IL", "IN", "IS", "IT", "JO", "JP", "KW", "LB", "LI", "LT", "LU", "LV", "MA", "MC", "MT", "MX", "MY", "NI", "NL", "NO", "NZ", "OM", "PA", "PE", "PH", "PL", "PS", "PT", "PY", "QA", "RO", "SA", "SE", "SG", "SK", "SV", "TH", "TN", "TR", "TW", "US", "UY", "VN", "ZA"], "album_type": "album", "release_date_precision": "year", "name": "Rocky IV", "external_urls": {"spotify": "https://open.spotify.com/album/3t3BbpFJiGcXl4jI5CRLLA"}, "id": "3t3BbpFJiGcXl4jI5CRLLA", "uri": "spotify:album:3t3BbpFJiGcXl4jI5CRLLA"}, "external_ids": {"isrc": "USVR19600010"}, "name": "Eye of the Tiger", "duration_ms": 245640, "is_local": false, "disc_number": 1, "href": "https://api.spotify.com/v1/tracks/2KH16WveTQWT6KOG9Rg6e2", "artists": [{"type": "artist", "name": "Survivor", "external_urls": {"spotify": "https://open.spotify.com/artist/26bcq2nyj5GB7uRr558iQg"}, "id": "26bcq2nyj5GB7uRr558iQg", "uri": "spotify:artist:26bcq2nyj5GB7uRr558iQg", "href": "https://api.spotify.com/v1/artists/26bcq2nyj5GB7uRr558iQg"}], "track_number": 4, "available_markets": ["AD", "AE", "AR", "AT", "AU", "BE", "BG", "BH", "BO", "BR", "CA", "CH", "CL", "CO", "CR", "CY", "CZ", "DE", "DK", "DO", "DZ", "EC", "EE", "EG", "ES", "FI", "FR", "GB", "GR", "GT", "HK", "HN", "HU", "ID", "IE", "IL", "IN", "IS", "IT", "JO", "JP", "KW", "LB", "LI", "LT", "LU", "LV", "MA", "MC", "MT", "MX", "MY", "NI", "NL", "NO", "NZ", "OM", "PA", "PE", "PH", "PL", "PS", "PT", "PY", "QA", "RO", "SA", "SE", "SG", "SK", "SV", "TH", "TN", "TR", "TW", "US", "UY", "VN", "ZA"], "type": "track", "preview_url": "https://p.scdn.co/mp3-preview/9e37f230afd37042e49f3d144c3b94e0b39ef8ba?cid=0c947b9d3f7547e28aee080174c283c9", "explicit": false, "external_urls": {"spotify": "https://open.spotify.com/track/2KH16WveTQWT6KOG9Rg6e2"}, "id": "2KH16WveTQWT6KOG9Rg6e2", "uri": "spotify:track:2KH16WveTQWT6KOG9Rg6e2", "popularity": 77}, {"album": {"total_tracks": 9, "type": "album", "release_date": "1982", "href": "https://api.spotify.com/v1/albums/4PT9VulQaQP6XR1xBI2x1W", "artists": [{"type": "artist", "name": "Survivor", "external_urls": {"spotify": "https://open.spotify.com/artist/26bcq2nyj5GB7uRr558iQg"}, "id": "26bcq2nyj5GB7uRr558iQg", "uri": "spotify:artist:26bcq2nyj5GB7uRr558iQg", "href": "https://api.spotify.com/v1/artists/26bcq2nyj5GB7uRr558iQg"}], "images": [{"width": 640, "url": "https://i.scdn.co/image/975d180834ffade9df5c1a8eb34acdb13459b2e5", "height": 640}, {"width": 300, "url": "https://i.scdn.co/image/b8471e86ec872e82a20fbd8c0558c294b0ce76d4", "height": 300}, {"width": 64, "url": "https://i.scdn.co/image/3f0da9bbd544d801ea6c0341fb6a532d2caa914a", "height": 64}], "available_markets": ["AD", "AE", "AR", "AT", "BE", "BH", "BO", "BR", "CA", "CH", "CL", "CO", "CR", "CY", "DE", "DK", "DO", "DZ", "EC", "EE", "EG", "ES", "FI", "FR", "GB", "GR", "GT", "HK", "HN", "ID", "IE", "IN", "IS", "IT", "JO", "JP", "KW", "LB", "LI", "LT", "LU", "LV", "MA", "MC", "MT", "MX", "MY", "NI", "NL", "NO", "OM", "PA", "PE", "PH", "PS", "PT", "PY", "QA", "SA", "SE", "SG", "SV", "TH", "TN", "TW", "US", "UY", "VN"], "album_type": "album", "release_date_precision": "year", "name": "Eye Of The Tiger", "external_urls": {"spotify": "https://open.spotify.com/album/4PT9VulQaQP6XR1xBI2x1W"}, "id": "4PT9VulQaQP6XR1xBI2x1W", "uri": "spotify:album:4PT9VulQaQP6XR1xBI2x1W"}, "external_ids": {"isrc": "USVR19300001"}, "name": "Eye of the Tiger", "duration_ms": 243773, "is_local": false, "disc_number": 1, "href": "https://api.spotify.com/v1/tracks/2HHtWyy5CgaQbC7XSoOb0e", "artists": [{"type": "artist", "name": "Survivor", "external_urls": {"spotify": "https://open.spotify.com/artist/26bcq2nyj5GB7uRr558iQg"}, "id": "26bcq2nyj5GB7uRr558iQg", "uri": "spotify:artist:26bcq2nyj5GB7uRr558iQg", "href": "https://api.spotify.com/v1/artists/26bcq2nyj5GB7uRr558iQg"}], "track_number": 1, "available_markets": ["AD", "AE", "AR", "AT", "BE", "BH", "BO", "BR", "CA", "CH", "CL", "CO", "CR", "CY", "DE", "DK", "DO", "DZ", "EC", "EE", "EG", "ES", "FI", "FR", "GB", "GR", "GT", "HK", "HN", "ID", "IE", "IN", "IS", "IT", "JO", "JP", "KW", "LB", "LI", "LT", "LU", "LV", "MA", "MC", "MT", "MX", "MY", "NI", "NL", "NO", "OM", "PA", "PE", "PH", "PS", "PT", "PY", "QA", "SA", "SG", "SV", "TH", "TN", "TW", "US", "UY", "VN"], "type": "track", "preview_url": "https://p.scdn.co/mp3-preview/0305e216dd77b09c395724bd2c3506cd1047dad2?cid=0c947b9d3f7547e28aee080174c283c9", "explicit": false, "external_urls": {"spotify": "https://open.spotify.com/track/2HHtWyy5CgaQbC7XSoOb0e"}, "id": "2HHtWyy5CgaQbC7XSoOb0e", "uri": "spotify:track:2HHtWyy5CgaQbC7XSoOb0e", "popularity": 73}, {"album": {"total_tracks": 18, "type": "album", "release_date": "2004-07-02", "href": "https://api.spotify.com/v1/albums/5mDgJdfSgdRGA0ab6Xp6H0", "artists": [{"type": "artist", "name": "Survivor", "external_urls": {"spotify": "https://open.spotify.com/artist/26bcq2nyj5GB7uRr558iQg"}, "id": "26bcq2nyj5GB7uRr558iQg", "uri": "spotify:artist:26bcq2nyj5GB7uRr558iQg", "href": "https://api.spotify.com/v1/artists/26bcq2nyj5GB7uRr558iQg"}], "images": [{"width": 640, "url": "https://i.scdn.co/image/ab67616d0000b273c88935b4505dd52683a81769", "height": 640}, {"width": 300, "url": "https://i.scdn.co/image/ab67616d00001e02c88935b4505dd52683a81769", "height": 300}, {"width": 64, "url": "https://i.scdn.co/image/ab67616d00004851c88935b4505dd52683a81769", "height": 64}], "available_markets": ["AD", "AE", "AR", "AT", "AU", "BE", "BG", "BH", "BO", "BR", "CA", "CH", "CL", "CO", "CR", "CY", "CZ", "DE", "DK", "DO", "DZ", "EC", "EE", "EG", "ES", "FI", "FR", "GB", "GR", "GT", "HK", "HN", "HU", "ID", "IE", "IL", "IN", "IS", "IT", "JO", "JP", "KW", "LB", "LI", "LT", "LU", "LV", "MA", "MC", "MT", "MX", "MY", "NI", "NL", "NO", "NZ", "OM", "PA", "PE", "PH", "PL", "PS", "PT", "PY", "QA", "RO", "SA", "SE", "SG", "SK", "SV", "TH", "TN", "TR", "TW", "US", "UY", "VN", "ZA"], "album_type": "compilation", "release_date_precision": "day", "name": "Ultimate Survivor", "external_urls": {"spotify": "https://open.spotify.com/album/5mDgJdfSgdRGA0ab6Xp6H0"}, "id": "5mDgJdfSgdRGA0ab6Xp6H0", "uri": "spotify:album:5mDgJdfSgdRGA0ab6Xp6H0"}, "external_ids": {"isrc": "USVR19600010"}, "name": "Eye of the Tiger", "duration_ms": 245533, "is_local": false, "disc_number": 1, "href": "https://api.spotify.com/v1/tracks/64F1ojnPPiJiFZtYQtHB7r", "artists": [{"type": "artist", "name": "Survivor", "external_urls": {"spotify": "https://open.spotify.com/artist/26bcq2nyj5GB7uRr558iQg"}, "id": "26bcq2nyj5GB7uRr558iQg", "uri": "spotify:artist:26bcq2nyj5GB7uRr558iQg", "href": "https://api.spotify.com/v1/artists/26bcq2nyj5GB7uRr558iQg"}], "track_number": 1, "available_markets": ["AD", "AE", "AR", "AT", "AU", "BE", "BG", "BH", "BO", "BR", "CA", "CH", "CL", "CO", "CR", "CY", "CZ", "DE", "DK", "DO", "DZ", "EC", "EE", "EG", "ES", "FI", "FR", "GR", "GT", "HK", "HN", "HU", "ID", "IE", "IL", "IN", "IS", "IT", "JO", "JP", "KW", "LB", "LI", "LT", "LU", "LV", "MA", "MC", "MT", "MX", "MY", "NI", "NL", "NO", "NZ", "OM", "PA", "PE", "PH", "PL", "PS", "PT", "PY", "QA", "RO", "SA", "SE", "SG", "SK", "SV", "TH", "TN", "TR", "TW", "US", "UY", "VN", "ZA"], "type": "track", "preview_url": "https://p.scdn.co/mp3-preview/87c16ecb6ef2618e8acd688d77b9f9f76d090ee2?cid=0c947b9d3f7547e28aee080174c283c9", "explicit": false, "external_urls": {"spotify": "https://open.spotify.com/track/64F1ojnPPiJiFZtYQtHB7r"}, "id": "64F1ojnPPiJiFZtYQtHB7r", "uri": "spotify:track:64F1ojnPPiJiFZtYQtHB7r", "popularity": 58}, {"album": {"total_tracks": 14, "type": "album", "release_date": "2006", "href": "https://api.spotify.com/v1/albums/7gdUVn0UOUaKcv1RM3iroQ", "artists": [{"type": "artist", "name": "Survivor", "external_urls": {"spotify": "https://open.spotify.com/artist/26bcq2nyj5GB7uRr558iQg"}, "id": "26bcq2nyj5GB7uRr558iQg", "uri": "spotify:artist:26bcq2nyj5GB7uRr558iQg", "href": "https://api.spotify.com/v1/artists/26bcq2nyj5GB7uRr558iQg"}], "images": [{"width": 640, "url": "https://i.scdn.co/image/ab67616d0000b2731c8c9706048624a28c26fa72", "height": 640}, {"width": 300, "url": "https://i.scdn.co/image/ab67616d00001e021c8c9706048624a28c26fa72", "height": 300}, {"width": 64, "url": "https://i.scdn.co/image/ab67616d000048511c8c9706048624a28c26fa72", "height": 64}], "available_markets": ["AR", "BO", "BR", "CA", "CL", "CO", "CR", "DO", "EC", "GT", "HN", "IN", "JP", "MX", "NI", "PA", "PE", "PY", "SG", "SV", "TH", "US", "UY"], "album_type": "compilation", "release_date_precision": "year", "name": "The Best Of Survivor", "external_urls": {"spotify": "https://open.spotify.com/album/7gdUVn0UOUaKcv1RM3iroQ"}, "id": "7gdUVn0UOUaKcv1RM3iroQ", "uri": "spotify:album:7gdUVn0UOUaKcv1RM3iroQ"}, "external_ids": {"isrc": "USVR19600010"}, "name": "Eye of the Tiger", "duration_ms": 245640, "is_local": false, "disc_number": 1, "href": "https://api.spotify.com/v1/tracks/0cKuO2BdECtbVQDCGx1dqa", "artists": [{"type": "artist", "name": "Survivor", "external_urls": {"spotify": "https://open.spotify.com/artist/26bcq2nyj5GB7uRr558iQg"}, "id": "26bcq2nyj5GB7uRr558iQg", "uri": "spotify:artist:26bcq2nyj5GB7uRr558iQg", "href": "https://api.spotify.com/v1/artists/26bcq2nyj5GB7uRr558iQg"}], "track_number": 1, "available_markets": ["AR", "BO", "BR", "CA", "CL", "CO", "CR", "DO", "EC", "GT", "HN", "IN", "JP", "MX", "NI", "PA", "PE", "PY", "SG", "SV", "TH", "US", "UY"], "type": "track", "preview_url": "https://p.scdn.co/mp3-preview/60e1077a230d67e197799ef9101ad04982730f95?cid=0c947b9d3f7547e28aee080174c283c9", "explicit": false, "external_urls": {"spotify": "https://open.spotify.com/track/0cKuO2BdECtbVQDCGx1dqa"}, "id": "0cKuO2BdECtbVQDCGx1dqa", "uri": "spotify:track:0cKuO2BdECtbVQDCGx1dqa", "popularity": 50}, {"album": {"total_tracks": 100, "type": "album", "release_date": "2010-02-26", "href": "https://api.spotify.com/v1/albums/0pvhletDH7CphbKErUtPCF", "artists": [{"type": "artist", "name": "Various Artists", "external_urls": {"spotify": "https://open.spotify.com/artist/0LyfQWJT6nXafLPZqxe9Of"}, "id": "0LyfQWJT6nXafLPZqxe9Of", "uri": "spotify:artist:0LyfQWJT6nXafLPZqxe9Of", "href": "https://api.spotify.com/v1/artists/0LyfQWJT6nXafLPZqxe9Of"}], "images": [{"width": 640, "url": "https://i.scdn.co/image/ab67616d0000b273db56ceff816b668b7b6f04ff", "height": 640}, {"width": 300, "url": "https://i.scdn.co/image/ab67616d00001e02db56ceff816b668b7b6f04ff", "height": 300}, {"width": 64, "url": "https://i.scdn.co/image/ab67616d00004851db56ceff816b668b7b6f04ff", "height": 64}], "available_markets": ["AD", "AE", "AR", "AT", "AU", "BE", "BG", "BH", "BO", "BR", "CA", "CH", "CL", "CO", "CR", "CY", "CZ", "DE", "DK", "DO", "DZ", "EC", "EE", "EG", "ES", "FI", "FR", "GB", "GR", "GT", "HK", "HN", "HU", "ID", "IE", "IL", "IN", "IS", "IT", "JO", "JP", "KW", "LB", "LI", "LT", "LU", "LV", "MA", "MC", "MT", "MX", "MY", "NI", "NL", "NZ", "OM", "PA", "PE", "PH", "PL", "PS", "PT", "PY", "QA", "RO", "SA", "SE", "SG", "SK", "SV", "TH", "TN", "TR", "TW", "US", "UY", "VN", "ZA"], "album_type": "compilation", "release_date_precision": "day", "name": "80s 100 Hits", "external_urls": {"spotify": "https://open.spotify.com/album/0pvhletDH7CphbKErUtPCF"}, "id": "0pvhletDH7CphbKErUtPCF", "uri": "spotify:album:0pvhletDH7CphbKErUtPCF"}, "external_ids": {"isrc": "USVR10400292"}, "name": "Eye of the Tiger", "duration_ms": 227413, "is_local": false, "disc_number": 1, "href": "https://api.spotify.com/v1/tracks/0jSRZBsn3RqAhBDzAefHAD", "artists": [{"type": "artist", "name": "Survivor", "external_urls": {"spotify": "https://open.spotify.com/artist/26bcq2nyj5GB7uRr558iQg"}, "id": "26bcq2nyj5GB7uRr558iQg", "uri": "spotify:artist:26bcq2nyj5GB7uRr558iQg", "href": "https://api.spotify.com/v1/artists/26bcq2nyj5GB7uRr558iQg"}], "track_number": 5, "available_markets": ["AD", "AE", "AR", "AT", "AU", "BE", "BG", "BH", "BO", "BR", "CA", "CH", "CL", "CO", "CR", "CY", "CZ", "DE", "DK", "DO", "DZ", "EC", "EE", "EG", "ES", "FI", "FR", "GB", "GR", "GT", "HK", "HN", "HU", "ID", "IE", "IL", "IN", "IS", "IT", "JO", "JP", "KW", "LB", "LI", "LT", "LU", "LV", "MA", "MC", "MT", "MX", "MY", "NI", "NL", "NZ", "OM", "PA", "PE", "PH", "PL", "PS", "PT", "PY", "QA", "RO", "SA", "SE", "SG", "SK", "SV", "TH", "TN", "TR", "TW", "US", "UY", "VN", "ZA"], "type": "track", "preview_url": "https://p.scdn.co/mp3-preview/afefee0274785465447a81de1d4b08a0d8ea8279?cid=0c947b9d3f7547e28aee080174c283c9", "explicit": false, "external_urls": {"spotify": "https://open.spotify.com/track/0jSRZBsn3RqAhBDzAefHAD"}, "id": "0jSRZBsn3RqAhBDzAefHAD", "uri": "spotify:track:0jSRZBsn3RqAhBDzAefHAD", "popularity": 53}], "previous": null, "href": "https://api.spotify.com/v1/search?query=artist%3ASurvivor+track%3AEye+of+the+Tiger&type=track&offset=0&limit=5", "limit": 5, "total": 22, "next": "https://api.spotify.com/v1/search?query=artist%3ASurvivor+track%3AEye+of+the+Tiger&type=track&offset=5&limit=5"}}