{"tracks": {"offset": 0, "items": [{"album": {"total_tracks": 15, "type": "album", "release_date": "2013-01-01", "href": "https://api.spotify.com/v1/albums/64fQ94AVziavTPdnkCS6Nj", "artists": [{"type": "artist", "name": "Bastille", "external_urls": {"spotify": "https://open.spotify.com/artist/7EQ0qTo7fWT7DPxmxtSYEc"}, "id": "7EQ0qTo7fWT7DPxmxtSYEc", "uri": "spotify:artist:7EQ0qTo7fWT7DPxmxtSYEc", "href": "https://api.spotify.com/v1/artists/7EQ0qTo7fWT7DPxmxtSYEc"}], "images": [{"width": 640, "url": "https://i.scdn.co/image/c11e271559ffbadde994990805676b0ebce96d74", "height": 640}, {"width": 300, "url": "https://i.scdn.co/image/5c8a27b47df26ee6c129c540903e1b905931409f", "height": 300}, {"width": 64, "url": "https://i.scdn.co/image/cff7da05d2cffb2738f00932e4d82b3df4c377b8", "height": 64}], "available_markets": ["US"], "album_type": "album", "release_date_precision": "day", "name": "Bad Blood", "external_urls": {"spotify": "https://open.spotify.com/album/64fQ94AVziavTPdnkCS6Nj"}, "id": "64fQ94AVziavTPdnkCS6Nj", "uri": "spotify:album:64fQ94AVziavTPdnkCS6Nj"}, "external_ids": {"isrc": "GBAAA1200795"}, "name": "Pompeii", "duration_ms": 214147, "is_local": false, "disc_number": 1, "href": "https://api.spotify.com/v1/tracks/3gbBpTdY8lnQwqxNCcf795", "artists": [{"type": "artist", "name": "Bastille", "external_urls": {"spotify": "https://open.spotify.com/artist/7EQ0qTo7fWT7DPxmxtSYEc"}, "id": "7EQ0qTo7fWT7DPxmxtSYEc", "uri": "spotify:artist:7EQ0qTo7fWT7DPxmxtSYEc", "href": "https://api.spotify.com/v1/artists/7EQ0qTo7fWT7DPxmxtSYEc"}], "track_number": 1, "available_markets": ["US"], "type": "track", "preview_url": null, "explicit": false, "external_urls": {"spotify": "https://open.spotify.com/track/3gbBpTdY8lnQwqxNCcf795"}, "id": "3gbBpTdY8lnQwqxNCcf795", "uri": "spotify:track:3gbBpTdY8lnQwqxNCcf795", "popularity": 71}, {"album": {"total_tracks": 5, "type": "album", "release_date": "2013-01-01", "href": "https://api.spotify.com/v1/albums/5LdqbRBfjz6qfhC4Q77rDe", "artists": [{"type": "artist", "name": "Bastille", "external_urls": {"spotify": "https://open.spotify.com/artist/7EQ0qTo7fWT7DPxmxtSYEc"}, "id": "7EQ0qTo7fWT7DPxmxtSYEc", "uri": "spotify:artist:7EQ0qTo7fWT7DPxmxtSYEc", "href": "https://api.spotify.com/v1/artists/7EQ0qTo7fWT7DPxmxtSYEc"}], "images": [{"width": 640, "url": "https://i.scdn.co/image/acc3698edcb6671f181b743ce3703b4594344b5c", "height": 640}, {"width": 300, "url": "https://i.scdn.co/image/b5092725e40101f59712d419e1b34ef0d1993d6a", "height": 300}, {"width": 64, "url": "https://i.scdn.co/image/1b2f223c74dab1fcddcfaac7b76f85ee512cfbdc", "height": 64}], "available_markets": ["AD", "AE", "AR", "AU", "BE", "BG", "BH", "BO", "BR", "CL", "CO", "CR", "CY", "CZ", "DK", "DO", "DZ", "EC", "EE", "EG", "ES", "FI", "FR", "GB", "GR", "GT", "HK", "HN", "HU", "ID", "IE", "IL", "IN", "IS", "JO", "JP", "KW", "LB", "LI", "LT", "LU", "LV", "MA", "MC", "MT", "MX", "MY", "NI", "NL", "NO", "NZ", "OM", "PA", "PE", "PH", "PL", "PS", "PT", "PY", "QA", "RO", "SA", "SE", "SG", "SK", "SV", "TH", "TN", "TR", "TW", "US", "UY", "VN", "ZA"], "album_type": "single", "release_date_precision": "day", "name": "Pompeii", "external_urls": {"spotify": "https://open.spotify.com/album/5LdqbRBfjz6qfhC4Q77rDe"}, "id": "5LdqbRBfjz6qfhC4Q77rDe", "uri": "spotify:album:5LdqbRBfjz6qfhC4Q77rDe"}, "external_ids": {"isrc": "GBAAA1200795"}, "name": "Pompeii", "duration_ms": 214147, "is_local": false, "disc_number": 1, "href": "https://api.spotify.com/v1/tracks/7Fw5i56my24ZBnGS7hFX2n", "artists": [{"type": "artist", "name": "Bastille", "external_urls": {"spotify": "https://open.spotify.com/artist/7EQ0qTo7fWT7DPxmxtSYEc"}, "id": "7EQ0qTo7fWT7DPxmxtSYEc", "uri": "spotify:artist:7EQ0qTo7fWT7DPxmxtSYEc", "href": "https://api.spotify.com/v1/artists/7EQ0qTo7fWT7DPxmxtSYEc"}], "track_number": 1, "available_markets": ["AD", "AE", "AR", "AU", "BE", "BG", "BH", "BO", "BR", "CL", "CO", "CR", "CY", "CZ", "DK", "DO", "DZ", "EC", "EE", "EG", "ES", "FI", "FR", "GB", "GR", "GT", "HK", "HN", "HU", "ID", "IE", "IL", "IN", "IS", "JO", "JP", "KW", "LB", "LI", "LT", "LU", "LV", "MA", "MC", "MT", "MX", "MY", "NI", "NL", "NO", "NZ", "OM", "PA", "PE", "PH", "PL", "PS", "PT", "PY", "QA", "RO", "SA", "SE", "SG", "SK", "SV", "TH", "TN", "TR", "TW", "US", "UY", "VN", "ZA"], "type": "track", "preview_url": null, "explicit": false, "external_urls": {"spotify": "https://open.spotify.com/track/7Fw5i56my24ZBnGS7hFX2n"}, "id": "7Fw5i56my24ZBnGS7hFX2n", "uri": "spotify:track:7Fw5i56my24ZBnGS7hFX2n", "popularity": 62}, {"album": {"total_tracks": 1, "type": "album", "release_date": "2014-01-01", "href": "https://api.spotify.com/v1/albums/4QJKyqHqUUBWEGYD7wekvU", "artists": [{"type": "artist", "name": "Bastille", "external_urls": {"spotify": "https://open.spotify.com/artist/7EQ0qTo7fWT7DPxmxtSYEc"}, "id": "7EQ0qTo7fWT7DPxmxtSYEc", "uri": "spotify:artist:7EQ0qTo7fWT7DPxmxtSYEc", "href": "https://api.spotify.com/v1/artists/7EQ0qTo7fWT7DPxmxtSYEc"}], "images": [{"width": 640, "url": "https://i.scdn.co/image/09e1808b46b441264a060ea6363df62c696f9ca7", "height": 640}, {"width": 300, "url": "https://i.scdn.co/image/d870b08774efcedf9498da6f2a94913179f3d775", "height": 300}, {"width": 64, "url": "https://i.scdn.co/image/e4e99680a1d1826ac151fca4da8b42d39a37ace2", "height": 64}], "available_markets": ["AD", "AE", "AR", "AT", "AU", "BE", "BG", "BH", "BO", "BR", "CA", "CH", "CL", "CO", "CR", "CY", "CZ", "DE", "DK", "DO", "DZ", "EC", "EE", "EG", "ES", "FI", "FR", "GB", "GR", "GT", "HK", "HN", "HU", "ID", "IE", "IL", "IN", "IS", "IT", "JO", "JP", "KW", "LB", "LI", "LT", "LU", "LV", "MA", "MC", "MT", "MX", "MY", "NI", "NL", "NO", "NZ", "OM", "PA", "PE", "PH", "PL", "PS", "PT", "PY", "QA", "RO", "SA", "SE", "SG", "SK", "SV", "TH", "TN", "TR", "TW", "US", "UY", "VN", "ZA"], "album_type": "single", "release_date_precision": "day", "name": "Pompeii (Audien Remix)", "external_urls": {"spotify": "https://open.spotify.com/album/4QJKyqHqUUBWEGYD7wekvU"}, "id": "4QJKyqHqUUBWEGYD7wekvU", "uri": "spotify:album:4QJKyqHqUUBWEGYD7wekvU"}, "external_ids": {"isrc": "GBUM71401449"}, "name": "Pompeii - Audien Remix", "duration_ms": 352968, "is_local": false, "disc_number": 1, "href": "https://api.spotify.com/v1/tracks/2Kl1E3NdbzT7vVi93TffoX", "artists": [{"type": "artist", "name": "Bastille", "external_urls": {"spotify": "https://open.spotify.com/artist/7EQ0qTo7fWT7DPxmxtSYEc"}, "id": "7EQ0qTo7fWT7DPxmxtSYEc", "uri": "spotify:artist:7EQ0qTo7fWT7DPxmxtSYEc", "href": "https://api.spotify.com/v1/artists/7EQ0qTo7fWT7DPxmxtSYEc"}, {"type": "artist", "name": "Audien", "external_urls": {"spotify": "https://open.spotify.com/artist/4xnMDfgEmXZEEDdITKcGuE"}, "id": "4xnMDfgEmXZEEDdITKcGuE", "uri": "spotify:artist:4xnMDfgEmXZEEDdITKcGuE", "href": "https://api.spotify.com/v1/artists/4xnMDfgEmXZEEDdITKcGuE"}], "track_number": 1, "available_markets": ["AD", "AE", "AR", "AT", "AU", "BE", "BG", "BH", "BO", "BR", "CA", "CH", "CL", "CO", "CR", "CY", "CZ", "DE", "DK", "DO", "DZ", "EC", "EE", "EG", "ES", "FI", "FR", "GB", "GR", "GT", "HK", "HN", "HU", "ID", "IE", "IL", "IN", "IS", "IT", "JO", "JP", "KW", "LB", "LI", "LT", "LU", "LV", "MA", "MC", "MT", "MX", "MY", "NI", "NL", "NO", "NZ", "OM", "PA", "PE", "PH", "PL", "PS", "PT", "PY", "QA", "RO", "SA", "SE", "SG", "SK", "SV", "TH", "TN", "TR", "TW", "US", "UY", "VN", "ZA"], "type": "track", "preview_url": null, "explicit": false, "external_urls": {"spotify": "https://open.spotify.com/track/2Kl1E3NdbzT7vVi93TffoX"}, "id": "2Kl1E3NdbzT7vVi93TffoX", "uri": "spotify:track:2Kl1E3NdbzT7vVi93TffoX", "popularity": 57}, {"album": {"total_tracks": 25, "type": "album", "release_date": "2013-01-01", "href": "https://api.spotify.com/v1/albums/5G6oMu9zNW2acdV0lqzI3L", "artists": [{"type": "artist", "name": "Bastille", "external_urls": {"spotify": "https://open.spotify.com/artist/7EQ0qTo7fWT7DPxmxtSYEc"}, "id": "7EQ0qTo7fWT7DPxmxtSYEc", "uri": "spotify:artist:7EQ0qTo7fWT7DPxmxtSYEc", "href": "https://api.spotify.com/v1/artists/7EQ0qTo7fWT7DPxmxtSYEc"}], "images": [{"width": 640, "url": "https://i.scdn.co/image/5b022921410050d3e18cde1c737e82dbbad661ed", "height": 640}, {"width": 300, "url": "https://i.scdn.co/image/4f700ae321f17d4f69ad7e275ece6fb64c9c7c10", "height": 300}, {"width": 64, "url": "https://i.scdn.co/image/ae4ac4402bd02898bd79a84a83d906cee4f3ad66", "height": 64}], "available_markets": ["AD", "AE", "AR", "AT", "AU", "BG", "BH", "BO", "BR", "CA", "CH", "CL", "CO", "CR", "CY", "CZ", "DE", "DK", "DO", "DZ", "EC", "EE", "EG", "ES", "FI", "FR", "GB", "GR", "GT", "HK", "HN", "HU", "ID", "IE", "IL", "IN", "IS", "IT", "JO", "JP", "KW", "LB", "LI", "LT", "LU", "LV", "MA", "MC", "MT", "MX", "MY", "NI", "NO", "NZ", "OM", "PA", "PE", "PH", "PL", "PS", "PT", "PY", "QA", "RO", "SA", "SE", "SG", "SK", "SV", "TH", "TN", "TR", "TW", "US", "UY", "VN", "ZA"], "album_type": "album", "release_date_precision": "day", "name": "All This Bad Blood", "external_urls": {"spotify": "https://open.spotify.com/album/5G6oMu9zNW2acdV0lqzI3L"}, "id": "5G6oMu9zNW2acdV0lqzI3L", "uri": "spotify:album:5G6oMu9zNW2acdV0lqzI3L"}, "external_ids": {"isrc": "GBAAA1200795"}, "name": "Pompeii", "duration_ms": 214147, "is_local": false, "disc_number": 1, "href": "https://api.spotify.com/v1/tracks/4Ub8UsjWuewQrPhuepfVpd", "artists": [{"type": "artist", "name": "Bastille", "external_urls": {"spotify": "https://open.spotify.com/artist/7EQ0qTo7fWT7DPxmxtSYEc"}, "id": "7EQ0qTo7fWT7DPxmxtSYEc", "uri": "spotify:artist:7EQ0qTo7fWT7DPxmxtSYEc", "href": "https://api.spotify.com/v1/artists/7EQ0qTo7fWT7DPxmxtSYEc"}], "track_number": 1, "available_markets": ["AD", "AE", "AR", "AT", "AU", "BG", "BH", "BO", "BR", "CA", "CH", "CL", "CO", "CR", "CY", "CZ", "DE", "DK", "DO", "DZ", "EC", "EE", "EG", "ES", "FI", "FR", "GB", "GR", "GT", "HK", "HN", "HU", "ID", "IE", "IL", "IN", "IS", "IT", "JO", "JP", "KW", "LB", "LI", "LT", "LU", "LV", "MA", "MC", "MT", "MX", "MY", "NI", "NO", "NZ", "OM", "PA", "PE", "PH", "PL", "PS", "PT", "PY", "QA", "RO", "SA", "SE", "SG", "SK", "SV", "TH", "TN", "TR", "TW", "US", "UY", "VN", "ZA"], "type": "track", "preview_url": null, "explicit": false, "external_urls": {"spotify": "https://open.spotify.com/track/4Ub8UsjWuewQrPhuepfVpd"}, "id": "4Ub8UsjWuewQrPhuepfVpd", "uri": "spotify:track:4Ub8UsjWuewQrPhuepfVpd", "popularity": 71}, {"album": {"total_tracks": 10, "type": "album", "release_date": "2013-01-01", "href": "https://api.spotify.com/v1/albums/32xPzu88bmeZHZBsTYI0ml", "artists": [{"type": "artist", "name": "Bastille", "external_urls": {"spotify": "https://open.spotify.com/artist/7EQ0qTo7fWT7DPxmxtSYEc"}, "id": "7EQ0qTo7fWT7DPxmxtSYEc", "uri": "spotify:artist:7EQ0qTo7fWT7DPxmxtSYEc", "href": "https://api.spotify.com/v1/artists/7EQ0qTo7fWT7DPxmxtSYEc"}], "images": [{"width": 640, "url": "https://i.scdn.co/image/69b118b14e62a4c88d5aaa8b288db82ed81f558b", "height": 640}, {"width": 300, "url": "https://i.scdn.co/image/8e11ff8ef1a93b9b9877b9d5696039dc711aa7b4", "height": 300}, {"width": 64, "url": "https://i.scdn.co/image/7e51d872e90953c26b95703e6b06b4020037cda2", "height": 64}], "available_markets": ["CA", "MX", "US"], "album_type": "album", "release_date_precision": "day", "name": "Remixed", "external_urls": {"spotify": "https://open.spotify.com/album/32xPzu88bmeZHZBsTYI0ml"}, "id": "32xPzu88bmeZHZBsTYI0ml", "uri": "spotify:album:32xPzu88bmeZHZBsTYI0ml"}, "external_ids": {"isrc": "GBAAA1200951"}, "name": "Pompeii - Remix", "duration_ms": 216687, "is_local": false, "disc_number": 1, "href": "https://api.spotify.com/v1/tracks/5o1TaTsFtDddxLa2BKw29y", "artists": [{"type": "artist", "name": "Bastille", "external_urls": {"spotify": "https://open.spotify.com/artist/7EQ0qTo7fWT7DPxmxtSYEc"}, "id": "7EQ0qTo7fWT7DPxmxtSYEc", "uri": "spotify:artist:7EQ0qTo7fWT7DPxmxtSYEc", "href": "https://api.spotify.com/v1/artists/7EQ0qTo7fWT7DPxmxtSYEc"}, {"type": "artist", "name": "Kat Krazy", "external_urls": {"spotify": "https://open.spotify.com/artist/60PKQFvtGXaQWYfVixrrDk"}, "id": "60PKQFvtGXaQWYfVixrrDk", "uri": "spotify:artist:60PKQFvtGXaQWYfVixrrDk", "href": "https://api.spotify.com/v1/artists/60PKQFvtGXaQWYfVixrrDk"}], "track_number": 3, "available_markets": ["CA", "MX", "US"], "type": "track", "preview_url": null, "explicit": false, "external_urls": {"spotify": "https://open.spotify.com/track/5o1TaTsFtDddxLa2BKw29y"}, "id": "5o1TaTsFtDddxLa2BKw29y", "uri": "spotify:track:5o1TaTsFtDddxLa2BKw29y", "popularity": 43}], "previous": null, "href": "https://api.spotify.com/v1/search?query=artist%3ABastille+track%3APompeii&type=track&offset=0&limit=5", "limit": 5, "total": 36, "next": "https://api.spotify.com/v1/search?query=artist%3ABastille+track%3APompeii&type=track&offset=5&limit=5"}}