{"tracks": {"offset": 0, "items": [{"album": {"total_tracks": 12, "type": "album", "release_date": "1987-07-21", "href": "https://api.spotify.com/v1/albums/28yHV3Gdg30AiB8h8em1eW", "artists": [{"type": "artist", "name": "Guns N' Roses", "external_urls": {"spotify": "https://open.spotify.com/artist/3qm84nBOXUEQ2vnTfUTTFC"}, "id": "3qm84nBOXUEQ2vnTfUTTFC", "uri": "spotify:artist:3qm84nBOXUEQ2vnTfUTTFC", "href": "https://api.spotify.com/v1/artists/3qm84nBOXUEQ2vnTfUTTFC"}], "images": [{"width": 640, "url": "https://i.scdn.co/image/5b51c72ba933b9ca84d7588335089be5dbfd9517", "height": 640}, {"width": 300, "url": "https://i.scdn.co/image/02416c62a31243c26004404d676eb287ff625a0b", "height": 300}, {"width": 64, "url": "https://i.scdn.co/image/33498de630a6ba4d3e70ba0a418e00f898526def", "height": 64}], "available_markets": ["AD", "AE", "AR", "AT", "AU", "BE", "BG", "BH", "BO", "BR", "CA", "CH", "CL", "CO", "CR", "CY", "CZ", "DE", "DK", "DO", "DZ", "EC", "EE", "EG", "ES", "FI", "FR", "GB", "GR", "GT", "HK", "HN", "HU", "ID", "IE", "IL", "IN", "IS", "IT", "JO", "JP", "KW", "LB", "LI", "LT", "LU", "LV", "MA", "MC", "MT", "MX", "MY", "NI", "NL", "NO", "NZ", "OM", "PA", "PE", "PH", "PL", "PS", "PT", "PY", "QA", "RO", "SA", "SE", "SG", "SK", "SV", "TH", "TN", "TR", "TW", "US", "UY", "VN", "ZA"], "album_type": "album", "release_date_precision": "day", "name": "Appetite For Destruction", "external_urls": {"spotify": "https://open.spotify.com/album/28yHV3Gdg30AiB8h8em1eW"}, "id": "28yHV3Gdg30AiB8h8em1eW", "uri": "spotify:album:28yHV3Gdg30AiB8h8em1eW"}, "external_ids": {"isrc": "USGF18714809"}, "name": "Sweet Child O' Mine", "duration_ms": 356066, "is_local": false, "disc_number": 1, "href": "https://api.spotify.com/v1/tracks/7snQQk1zcKl8gZ92AnueZW", "artists": [{"type": "artist", "name": "Guns N' Roses", "external_urls": {"spotify": "https://open.spotify.com/artist/3qm84nBOXUEQ2vnTfUTTFC"}, "id": "3qm84nBOXUEQ2vnTfUTTFC", "uri": "spotify:artist:3qm84nBOXUEQ2vnTfUTTFC", "href": "https://api.spotify.com/v1/artists/3qm84nBOXUEQ2vnTfUTTFC"}], "track_number": 9, "available_markets": ["AD", "AE", "AR", "AT", "AU", "BE", "BG", "BH", "BO", "BR", "CA", "CH", "CL", "CO", "CR", "CY", "CZ", "DE", "DK", "DO", "DZ", "EC", "EE", "EG", "ES", "FI", "FR", "GB", "GR", "GT", "HK", "HN", "HU", "ID", "IE", "IL", "IN", "IS", "IT", "JO", "JP", "KW", "LB", "LI", "LT", "LU", "LV", "MA", "MC", "MT", "MX", "MY", "NI", "NL", "NO", "NZ", "OM", "PA", "PE", "PH", "PL", "PS", "PT", "PY", "QA", "RO", "SA", "SE", "SG", "SK", "SV", "TH", "TN", "TR", "TW", "US", "UY", "VN", "ZA"], "type": "track", "preview_url": null, "explicit": false, "external_urls": {"spotify": "https://open.spotify.com/track/7snQQk1zcKl8gZ92AnueZW"}, "id": "7snQQk1zcKl8gZ92AnueZW", "uri": "spotify:track:7snQQk1zcKl8gZ92AnueZW", "popularity": 75}, {"album": {"total_tracks": 22, "type": "album", "release_date": "1999-01-01", "href": "https://api.spotify.com/v1/albums/3ZwjaVcnVo2TwhK8N8WWVs", "artists": [{"type": "artist", "name": "Guns N' Roses", "external_urls": {"spotify": "https://open.spotify.com/artist/3qm84nBOXUEQ2vnTfUTTFC"}, "id": "3qm84nBOXUEQ2vnTfUTTFC", "uri": "spotify:artist:3qm84nBOXUEQ2vnTfUTTFC", "href": "https://api.spotify.com/v1/artists/3qm84nBOXUEQ2vnTfUTTFC"}], "images": [{"width": 630, "url": "https://i.scdn.co/image/40baa9927c06332b91b3539b07d81e722dd0b0ff", "height": 640}, {"width": 296, "url": "https://i.scdn.co/image/cf31e090c68a46a3597e012cb311bfa0a571f0b9", "height": 300}, {"width": 63, "url": "https://i.scdn.co/image/a5b2175a58fba49ea6cb2a0f30d512ad1750ff7c", "height": 64}], "available_markets": ["AD", "AR", "AT", "AU", "BE", "BG", "BO", "BR", "CA", "CH", "CL", "CO", "CR", "CY", "CZ", "DE", "DK", "DO", "EC", "EE", "ES", "FI", "FR", "GB", "GR", "GT", "HK", "HN", "HU", "ID", "IE", "IL", "IS", "IT", "JP", "LI", "LT", "LU", "LV", "MC", "MT", "MX", "MY", "NI", "NL", "NO", "NZ", "PA", "PE", "PH", "PL", "PT", "PY", "RO", "SE", "SG", "SK", "SV", "TH", "TR", "TW", "US", "UY", "VN", "ZA"], "album_type": "compilation", "release_date_precision": "day", "name": "Live Era '87-'93", "external_urls": {"spotify": "https://open.spotify.com/album/3ZwjaVcnVo2TwhK8N8WWVs"}, "id": "3ZwjaVcnVo2TwhK8N8WWVs", "uri": "spotify:album:3ZwjaVcnVo2TwhK8N8WWVs"}, "external_ids": {"isrc": "USIR19915143"}, "name": "Sweet Child O' Mine - Live In Paris / 1992", "duration_ms": 445173, "is_local": false, "disc_number": 2, "href": "https://api.spotify.com/v1/tracks/0yqcmfdOv3RuDXKaloCKxY", "artists": [{"type": "artist", "name": "Guns N' Roses", "external_urls": {"spotify": "https://open.spotify.com/artist/3qm84nBOXUEQ2vnTfUTTFC"}, "id": "3qm84nBOXUEQ2vnTfUTTFC", "uri": "spotify:artist:3qm84nBOXUEQ2vnTfUTTFC", "href": "https://api.spotify.com/v1/artists/3qm84nBOXUEQ2vnTfUTTFC"}], "track_number": 7, "available_markets": ["AD", "AR", "AT", "AU", "BE", "BG", "BO", "BR", "CA", "CH", "CL", "CO", "CR", "CY", "CZ", "DE", "DK", "DO", "EC", "EE", "ES", "FI", "FR", "GB", "GR", "GT", "HK", "HN", "HU", "ID", "IE", "IL", "IS", "IT", "JP", "LI", "LT", "LU", "LV", "MC", "MT", "MX", "MY", "NI", "NL", "NO", "NZ", "PA", "PE", "PH", "PL", "PT", "PY", "RO", "SE", "SG", "SK", "SV", "TH", "TR", "TW", "US", "UY", "VN", "ZA"], "type": "track", "preview_url": null, "explicit": false, "external_urls": {"spotify": "https://open.spotify.com/track/0yqcmfdOv3RuDXKaloCKxY"}, "id": "0yqcmfdOv3RuDXKaloCKxY", "uri": "spotify:track:0yqcmfdOv3RuDXKaloCKxY", "popularity": 51}, {"album": {"total_tracks": 51, "type": "album", "release_date": "1987-07-29", "href": "https://api.spotify.com/v1/albums/3edmYBHOTxfz8NxJE1QmTP", "artists": [{"type": "artist", "name": "Guns N' Roses", "external_urls": {"spotify": "https://open.spotify.com/artist/3qm84nBOXUEQ2vnTfUTTFC"}, "id": "3qm84nBOXUEQ2vnTfUTTFC", "uri": "spotify:artist:3qm84nBOXUEQ2vnTfUTTFC", "href": "https://api.spotify.com/v1/artists/3qm84nBOXUEQ2vnTfUTTFC"}], "images": [{"width": 640, "url": "https://i.scdn.co/image/d027e1005ce2a52d032bdd6fadcb8702dca5abd6", "height": 640}, {"width": 300, "url": "https://i.scdn.co/image/8851453b6177f1f7e41392e97690d2f015f0317d", "height": 300}, {"width": 64, "url": "https://i.scdn.co/image/7eca1a23a6449d32dda98989bc7286806982aa6f", "height": 64}], "available_markets": ["AD", "AE", "AR", "AT", "AU", "BE", "BG", "BH", "BO", "BR", "CA", "CH", "CL", "CO", "CR", "CY", "CZ", "DE", "DK", "DO", "DZ", "EC", "EE", "EG", "ES", "FI", "FR", "GB", "GR", "GT", "HK", "HN", "HU", "ID", "IE", "IL", "IN", "IS", "IT", "JO", "JP", "KW", "LB", "LI", "LT", "LU", "LV", "MA", "MC", "MT", "MX", "MY", "NI", "NL", "NO", "NZ", "OM", "PA", "PE", "PH", "PL", "PS", "PT", "PY", "QA", "RO", "SA", "SE", "SG", "SK", "SV", "TH", "TN", "TR", "TW", "US", "UY", "VN", "ZA"], "album_type": "album", "release_date_precision": "day", "name": "Appetite For Destruction (Super Deluxe Edition)", "external_urls": {"spotify": "https://open.spotify.com/album/3edmYBHOTxfz8NxJE1QmTP"}, "id": "3edmYBHOTxfz8NxJE1QmTP", "uri": "spotify:album:3edmYBHOTxfz8NxJE1QmTP"}, "external_ids": {"isrc": "USGF18714809"}, "name": "Sweet Child O' Mine", "duration_ms": 356066, "is_local": false, "disc_number": 1, "href": "https://api.spotify.com/v1/tracks/50qma2LfxTfAILyNlZEnpP", "artists": [{"type": "artist", "name": "Guns N' Roses", "external_urls": {"spotify": "https://open.spotify.com/artist/3qm84nBOXUEQ2vnTfUTTFC"}, "id": "3qm84nBOXUEQ2vnTfUTTFC", "uri": "spotify:artist:3qm84nBOXUEQ2vnTfUTTFC", "href": "https://api.spotify.com/v1/artists/3qm84nBOXUEQ2vnTfUTTFC"}], "track_number": 9, "available_markets": ["AD", "AE", "AR", "AT", "AU", "BE", "BG", "BH", "BO", "BR", "CA", "CH", "CL", "CO", "CR", "CY", "CZ", "DE", "DK", "DO", "DZ", "EC", "EE", "EG", "ES", "FI", "FR", "GB", "GR", "GT", "HK", "HN", "HU", "ID", "IE", "IL", "IN", "IS", "IT", "JO", "JP", "KW", "LB", "LI", "LT", "LU", "LV", "MA", "MC", "MT", "MX", "MY", "NI", "NL", "NO", "NZ", "OM", "PA", "PE", "PH", "PL", "PS", "PT", "PY", "QA", "RO", "SA", "SE", "SG", "SK", "SV", "TH", "TN", "TR", "TW", "US", "UY", "VN", "ZA"], "type": "track", "preview_url": null, "explicit": false, "external_urls": {"spotify": "https://open.spotify.com/track/50qma2LfxTfAILyNlZEnpP"}, "id": "50qma2LfxTfAILyNlZEnpP", "uri": "spotify:track:50qma2LfxTfAILyNlZEnpP", "popularity": 44}, {"album": {"total_tracks": 14, "type": "album", "release_date": "2004-03-23", "href": "https://api.spotify.com/v1/albums/3OUWMcgPTQIElaufktjDLK", "artists": [{"type": "artist", "name": "Guns N' Roses", "external_urls": {"spotify": "https://open.spotify.com/artist/3qm84nBOXUEQ2vnTfUTTFC"}, "id": "3qm84nBOXUEQ2vnTfUTTFC", "uri": "spotify:artist:3qm84nBOXUEQ2vnTfUTTFC", "href": "https://api.spotify.com/v1/artists/3qm84nBOXUEQ2vnTfUTTFC"}], "images": [{"width": 640, "url": "https://i.scdn.co/image/f039f90c77f9de71b66f2042b19083e2dd9d140b", "height": 640}, {"width": 300, "url": "https://i.scdn.co/image/cc7464b8b80750a7022a1578f625200e612a31ba", "height": 300}, {"width": 64, "url": "https://i.scdn.co/image/12dda4120dc0e80b4c9a1d015e6f38f7d8078157", "height": 64}], "available_markets": ["AD", "AE", "AR", "AT", "AU", "BE", "BG", "BH", "BO", "BR", "CA", "CH", "CL", "CO", "CR", "CY", "CZ", "DE", "DK", "DO", "DZ", "EC", "EE", "EG", "ES", "FI", "FR", "GB", "GR", "GT", "HK", "HN", "HU", "ID", "IE", "IL", "IN", "IS", "IT", "JO", "JP", "KW", "LB", "LI", "LT", "LU", "LV", "MA", "MC", "MT", "MX", "MY", "NI", "NL", "NO", "NZ", "OM", "PA", "PE", "PH", "PL", "PS", "PT", "PY", "QA", "RO", "SA", "SE", "SG", "SK", "SV", "TH", "TN", "TR", "TW", "US", "UY", "VN", "ZA"], "album_type": "compilation", "release_date_precision": "day", "name": "Greatest Hits", "external_urls": {"spotify": "https://open.spotify.com/album/3OUWMcgPTQIElaufktjDLK"}, "id": "3OUWMcgPTQIElaufktjDLK", "uri": "spotify:album:3OUWMcgPTQIElaufktjDLK"}, "external_ids": {"isrc": "USGF18714809"}, "name": "Sweet Child O' Mine", "duration_ms": 355266, "is_local": false, "disc_number": 1, "href": "https://api.spotify.com/v1/tracks/1oY5eQ1r9V3cczAA5aXN8x", "artists": [{"type": "artist", "name": "Guns N' Roses", "external_urls": {"spotify": "https://open.spotify.com/artist/3qm84nBOXUEQ2vnTfUTTFC"}, "id": "3qm84nBOXUEQ2vnTfUTTFC", "uri": "spotify:artist:3qm84nBOXUEQ2vnTfUTTFC", "href": "https://api.spotify.com/v1/artists/3qm84nBOXUEQ2vnTfUTTFC"}], "track_number": 2, "available_markets": ["AD", "AE", "AR", "AT", "AU", "BE", "BG", "BH", "BO", "BR", "CA", "CH", "CL", "CO", "CR", "CY", "CZ", "DE", "DK", "DO", "DZ", "EC", "EE", "EG", "ES", "FI", "FR", "GB", "GR", "GT", "HK", "HN", "HU", "ID", "IE", "IL", "IN", "IS", "IT", "JO", "JP", "KW", "LB", "LI", "LT", "LU", "LV", "MA", "MC", "MT", "MX", "MY", "NI", "NL", "NO", "NZ", "OM", "PA", "PE", "PH", "PL", "PS", "PT", "PY", "QA", "RO", "SA", "SE", "SG", "SK", "SV", "TH", "TN", "TR", "TW", "US", "UY", "VN", "ZA"], "type": "track", "preview_url": null, "explicit": false, "external_urls": {"spotify": "https://open.spotify.com/track/1oY5eQ1r9V3cczAA5aXN8x"}, "id": "1oY5eQ1r9V3cczAA5aXN8x", "uri": "spotify:track:1oY5eQ1r9V3cczAA5aXN8x", "popularity": 43}, {"album": {"total_tracks": 22, "type": "album", "release_date": "1999-01-01", "href": "https://api.spotify.com/v1/albums/3nzKw4CYT0mAxI7xM41NyF", "artists": [{"type": "artist", "name": "Guns N' Roses", "external_urls": {"spotify": "https://open.spotify.com/artist/3qm84nBOXUEQ2vnTfUTTFC"}, "id": "3qm84nBOXUEQ2vnTfUTTFC", "uri": "spotify:artist:3qm84nBOXUEQ2vnTfUTTFC", "href": "https://api.spotify.com/v1/artists/3qm84nBOXUEQ2vnTfUTTFC"}], "images": [{"width": 640, "url": "https://i.scdn.co/image/e457856b297be60f848d35bb3c5f2389611696b5", "height": 640}, {"width": 300, "url": "https://i.scdn.co/image/9ebb3bea51d769427b91d09b3a687e6df855e6cf", "height": 300}, {"width": 64, "url": "https://i.scdn.co/image/aea7b5aba47ce4d60a72a5fc56b8b9c52b390924", "height": 64}], "available_markets": ["AE", "BH", "CA", "DZ", "EG", "ID", "IN", "JO", "KW", "LB", "MA", "MX", "MY", "OM", "PS", "QA", "SA", "TN", "TR", "US"], "album_type": "compilation", "release_date_precision": "day", "name": "Live Era '87-'93", "external_urls": {"spotify": "https://open.spotify.com/album/3nzKw4CYT0mAxI7xM41NyF"}, "id": "3nzKw4CYT0mAxI7xM41NyF", "uri": "spotify:album:3nzKw4CYT0mAxI7xM41NyF"}, "external_ids": {"isrc": "USIR19915143"}, "name": "Sweet Child O' Mine - Live In Paris / 1992", "duration_ms": 445200, "is_local": false, "disc_number": 2, "href": "https://api.spotify.com/v1/tracks/66zNlMfPoJggqDif5093Uy", "artists": [{"type": "artist", "name": "Guns N' Roses", "external_urls": {"spotify": "https://open.spotify.com/artist/3qm84nBOXUEQ2vnTfUTTFC"}, "id": "3qm84nBOXUEQ2vnTfUTTFC", "uri": "spotify:artist:3qm84nBOXUEQ2vnTfUTTFC", "href": "https://api.spotify.com/v1/artists/3qm84nBOXUEQ2vnTfUTTFC"}], "track_number": 7, "available_markets": ["AE", "BH", "CA", "DZ", "EG", "ID", "IN", "JO", "KW", "LB", "MA", "MX", "MY", "OM", "PS", "QA", "SA", "TN", "TR", "US"], "type": "track", "preview_url": null, "explicit": false, "external_urls": {"spotify": "https://open.spotify.com/track/66zNlMfPoJggqDif5093Uy"}, "id": "66zNlMfPoJggqDif5093Uy", "uri": "spotify:track:66zNlMfPoJggqDif5093Uy", "popularity": 18}], "previous": null, "href": "https://api.spotify.com/v1/search?query=artist%3AGuns+N%27+Roses+track%3ASweet+Child+O%27+Mine&type=track&offset=0&limit=5", "limit": 5, "total": 6, "next": "https://api.spotify.com/v1/search?query=artist%3AGuns+N%27+Roses+track%3ASweet+Child+O%27+Mine&type=track&offset=5&limit=5"}}