{"tracks": {"offset": 0, "items": [{"album": {"total_tracks": 15, "type": "album", "release_date": "2014-01-01", "href": "https://api.spotify.com/v1/albums/5kfo2COwQYeYR3cE69aSgx", "artists": [{"type": "artist", "name": "Iggy Azalea", "external_urls": {"spotify": "https://open.spotify.com/artist/5yG7ZAZafVaAlMTeBybKAL"}, "id": "5yG7ZAZafVaAlMTeBybKAL", "uri": "spotify:artist:5yG7ZAZafVaAlMTeBybKAL", "href": "https://api.spotify.com/v1/artists/5yG7ZAZafVaAlMTeBybKAL"}], "images": [{"width": 640, "url": "https://i.scdn.co/image/ab67616d0000b273fc686ef2ea225001b58ef191", "height": 640}, {"width": 300, "url": "https://i.scdn.co/image/ab67616d00001e02fc686ef2ea225001b58ef191", "height": 300}, {"width": 64, "url": "https://i.scdn.co/image/ab67616d00004851fc686ef2ea225001b58ef191", "height": 64}], "available_markets": ["AU", "CA", "MX", "NZ", "US"], "album_type": "album", "release_date_precision": "day", "name": "The New Classic (Deluxe Version)", "external_urls": {"spotify": "https://open.spotify.com/album/5kfo2COwQYeYR3cE69aSgx"}, "id": "5kfo2COwQYeYR3cE69aSgx", "uri": "spotify:album:5kfo2COwQYeYR3cE69aSgx"}, "external_ids": {"isrc": "GBUM71400597"}, "name": "Fancy", "duration_ms": 199938, "is_local": false, "disc_number": 1, "href": "https://api.spotify.com/v1/tracks/3oiMJQAWVaxSubJ7b2VUtX", "artists": [{"type": "artist", "name": "Iggy Azalea", "external_urls": {"spotify": "https://open.spotify.com/artist/5yG7ZAZafVaAlMTeBybKAL"}, "id": "5yG7ZAZafVaAlMTeBybKAL", "uri": "spotify:artist:5yG7ZAZafVaAlMTeBybKAL", "href": "https://api.spotify.com/v1/artists/5yG7ZAZafVaAlMTeBybKAL"}, {"type": "artist", "name": "Charli XCX", "external_urls": {"spotify": "https://open.spotify.com/artist/25uiPmTg16RbhZWAqwLBy5"}, "id": "25uiPmTg16RbhZWAqwLBy5", "uri": "spotify:artist:25uiPmTg16RbhZWAqwLBy5", "href": "https://api.spotify.com/v1/artists/25uiPmTg16RbhZWAqwLBy5"}], "track_number": 5, "available_markets": ["AU", "CA", "MX", "NZ", "US"], "type": "track", "preview_url": null, "explicit": true, "external_urls": {"spotify": "https://open.spotify.com/track/3oiMJQAWVaxSubJ7b2VUtX"}, "id": "3oiMJQAWVaxSubJ7b2VUtX", "uri": "spotify:track:3oiMJQAWVaxSubJ7b2VUtX", "popularity": 69}, {"album": {"total_tracks": 12, "type": "album", "release_date": "2014-01-01", "href": "https://api.spotify.com/v1/albums/3r51pg8BwnjazLJlW6dJIh", "artists": [{"type": "artist", "name": "Iggy Azalea", "external_urls": {"spotify": "https://open.spotify.com/artist/5yG7ZAZafVaAlMTeBybKAL"}, "id": "5yG7ZAZafVaAlMTeBybKAL", "uri": "spotify:artist:5yG7ZAZafVaAlMTeBybKAL", "href": "https://api.spotify.com/v1/artists/5yG7ZAZafVaAlMTeBybKAL"}], "images": [{"width": 640, "url": "https://i.scdn.co/image/ab67616d0000b2731cf523637dcf6e3f63f6da45", "height": 640}, {"width": 300, "url": "https://i.scdn.co/image/ab67616d00001e021cf523637dcf6e3f63f6da45", "height": 300}, {"width": 64, "url": "https://i.scdn.co/image/ab67616d000048511cf523637dcf6e3f63f6da45", "height": 64}], "available_markets": ["AU", "CA", "MX", "NZ", "US"], "album_type": "album", "release_date_precision": "day", "name": "The New Classic", "external_urls": {"spotify": "https://open.spotify.com/album/3r51pg8BwnjazLJlW6dJIh"}, "id": "3r51pg8BwnjazLJlW6dJIh", "uri": "spotify:album:3r51pg8BwnjazLJlW6dJIh"}, "external_ids": {"isrc": "GBUM71400597"}, "name": "Fancy", "duration_ms": 199938, "is_local": false, "disc_number": 1, "href": "https://api.spotify.com/v1/tracks/3H9DlQEsjB0whMWy9g4MCX", "artists": [{"type": "artist", "name": "Iggy Azalea", "external_urls": {"spotify": "https://open.spotify.com/artist/5yG7ZAZafVaAlMTeBybKAL"}, "id": "5yG7ZAZafVaAlMTeBybKAL", "uri": "spotify:artist:5yG7ZAZafVaAlMTeBybKAL", "href": "https://api.spotify.com/v1/artists/5yG7ZAZafVaAlMTeBybKAL"}, {"type": "artist", "name": "Charli XCX", "external_urls": {"spotify": "https://open.spotify.com/artist/25uiPmTg16RbhZWAqwLBy5"}, "id": "25uiPmTg16RbhZWAqwLBy5", "uri": "spotify:artist:25uiPmTg16RbhZWAqwLBy5", "href": "https://api.spotify.com/v1/artists/25uiPmTg16RbhZWAqwLBy5"}], "track_number": 5, "available_markets": ["AU", "CA", "MX", "NZ", "US"], "type": "track", "preview_url": null, "explicit": true, "external_urls": {"spotify": "https://open.spotify.com/track/3H9DlQEsjB0whMWy9g4MCX"}, "id": "3H9DlQEsjB0whMWy9g4MCX", "uri": "spotify:track:3H9DlQEsjB0whMWy9g4MCX", "popularity": 41}, {"album": {"total_tracks": 1, "type": "album", "release_date": "2014-01-01", "href": "https://api.spotify.com/v1/albums/31EFVmhzzjLxo58V4UuW4d", "artists": [{"type": "artist", "name": "Iggy Azalea", "external_urls": {"spotify": "https://open.spotify.com/artist/5yG7ZAZafVaAlMTeBybKAL"}, "id": "5yG7ZAZafVaAlMTeBybKAL", "uri": "spotify:artist:5yG7ZAZafVaAlMTeBybKAL", "href": "https://api.spotify.com/v1/artists/5yG7ZAZafVaAlMTeBybKAL"}], "images": [{"width": 640, "url": "https://i.scdn.co/image/ab67616d0000b2735ddd5da5f5117c541ad7ea12", "height": 640}, {"width": 300, "url": "https://i.scdn.co/image/ab67616d00001e025ddd5da5f5117c541ad7ea12", "height": 300}, {"width": 64, "url": "https://i.scdn.co/image/ab67616d000048515ddd5da5f5117c541ad7ea12", "height": 64}], "available_markets": ["CA", "MX", "US"], "album_type": "single", "release_date_precision": "day", "name": "Fancy (Yellow Claw Remix)", "external_urls": {"spotify": "https://open.spotify.com/album/31EFVmhzzjLxo58V4UuW4d"}, "id": "31EFVmhzzjLxo58V4UuW4d", "uri": "spotify:album:31EFVmhzzjLxo58V4UuW4d"}, "external_ids": {"isrc": "GBUM71401654"}, "name": "Fancy - Yellow Claw Remix", "duration_ms": 216400, "is_local": false, "disc_number": 1, "href": "https://api.spotify.com/v1/tracks/3E3pWLixkFdKw7Ylj1NFoc", "artists": [{"type": "artist", "name": "Iggy Azalea", "external_urls": {"spotify": "https://open.spotify.com/artist/5yG7ZAZafVaAlMTeBybKAL"}, "id": "5yG7ZAZafVaAlMTeBybKAL", "uri": "spotify:artist:5yG7ZAZafVaAlMTeBybKAL", "href": "https://api.spotify.com/v1/artists/5yG7ZAZafVaAlMTeBybKAL"}, {"type": "artist", "name": "Charli XCX", "external_urls": {"spotify": "https://open.spotify.com/artist/25uiPmTg16RbhZWAqwLBy5"}, "id": "25uiPmTg16RbhZWAqwLBy5", "uri": "spotify:artist:25uiPmTg16RbhZWAqwLBy5", "href": "https://api.spotify.com/v1/artists/25uiPmTg16RbhZWAqwLBy5"}, {"type": "artist", "name": "Yellow Claw", "external_urls": {"spotify": "https://open.spotify.com/artist/1C6Yysu1tBNzbLl7VhfCrc"}, "id": "1C6Yysu1tBNzbLl7VhfCrc", "uri": "spotify:artist:1C6Yysu1tBNzbLl7VhfCrc", "href": "https://api.spotify.com/v1/artists/1C6Yysu1tBNzbLl7VhfCrc"}], "track_number": 1, "available_markets": ["CA", "MX", "US"], "type": "track", "preview_url": null, "explicit": true, "external_urls": {"spotify": "https://open.spotify.com/track/3E3pWLixkFdKw7Ylj1NFoc"}, "id": "3E3pWLixkFdKw7Ylj1NFoc", "uri": "spotify:track:3E3pWLixkFdKw7Ylj1NFoc", "popularity": 39}, {"album": {"total_tracks": 15, "type": "album", "release_date": "2014-01-01", "href": "https://api.spotify.com/v1/albums/0FhVwWsk2LAVPLyH0cC50J", "artists": [{"type": "artist", "name": "Iggy Azalea", "external_urls": {"spotify": "https://open.spotify.com/artist/5yG7ZAZafVaAlMTeBybKAL"}, "id": "5yG7ZAZafVaAlMTeBybKAL", "uri": "spotify:artist:5yG7ZAZafVaAlMTeBybKAL", "href": "https://api.spotify.com/v1/artists/5yG7ZAZafVaAlMTeBybKAL"}], "images": [{"width": 640, "url": "https://i.scdn.co/image/ab67616d0000b273921145bb72ccceeed297cf67", "height": 640}, {"width": 300, "url": "https://i.scdn.co/image/ab67616d00001e02921145bb72ccceeed297cf67", "height": 300}, {"width": 64, "url": "https://i.scdn.co/image/ab67616d00004851921145bb72ccceeed297cf67", "height": 64}], "available_markets": ["AE", "AU", "BH", "CA", "CO", "DZ", "EG", "GB", "HK", "ID", "IE", "IN", "JO", "KW", "LB", "MA", "MX", "MY", "NZ", "OM", "PS", "QA", "SA", "TN", "TR", "US", "ZA"], "album_type": "album", "release_date_precision": "day", "name": "The New Classic (Deluxe Version)", "external_urls": {"spotify": "https://open.spotify.com/album/0FhVwWsk2LAVPLyH0cC50J"}, "id": "0FhVwWsk2LAVPLyH0cC50J", "uri": "spotify:album:0FhVwWsk2LAVPLyH0cC50J"}, "external_ids": {"isrc": "GBUM71401088"}, "name": "Fancy", "duration_ms": 199938, "is_local": false, "disc_number": 1, "href": "https://api.spotify.com/v1/tracks/16uGgkuyTqneR0gbNWohNz", "artists": [{"type": "artist", "name": "Iggy Azalea", "external_urls": {"spotify": "https://open.spotify.com/artist/5yG7ZAZafVaAlMTeBybKAL"}, "id": "5yG7ZAZafVaAlMTeBybKAL", "uri": "spotify:artist:5yG7ZAZafVaAlMTeBybKAL", "href": "https://api.spotify.com/v1/artists/5yG7ZAZafVaAlMTeBybKAL"}, {"type": "artist", "name": "Charli XCX", "external_urls": {"spotify": "https://open.spotify.com/artist/25uiPmTg16RbhZWAqwLBy5"}, "id": "25uiPmTg16RbhZWAqwLBy5", "uri": "spotify:artist:25uiPmTg16RbhZWAqwLBy5", "href": "https://api.spotify.com/v1/artists/25uiPmTg16RbhZWAqwLBy5"}], "track_number": 5, "available_markets": ["AE", "AU", "BH", "CA", "CO", "DZ", "EG", "GB", "HK", "ID", "IE", "IN", "JO", "KW", "LB", "MA", "MX", "MY", "NZ", "OM", "PS", "QA", "SA", "TN", "TR", "US", "ZA"], "type": "track", "preview_url": null, "explicit": false, "external_urls": {"spotify": "https://open.spotify.com/track/16uGgkuyTqneR0gbNWohNz"}, "id": "16uGgkuyTqneR0gbNWohNz", "uri": "spotify:track:16uGgkuyTqneR0gbNWohNz", "popularity": 39}, {"album": {"total_tracks": 12, "type": "album", "release_date": "2014-10-24", "href": "https://api.spotify.com/v1/albums/3Q7SysxADH9iI1Z85Xvfv8", "artists": [{"type": "artist", "name": "Iggy Azalea", "external_urls": {"spotify": "https://open.spotify.com/artist/5yG7ZAZafVaAlMTeBybKAL"}, "id": "5yG7ZAZafVaAlMTeBybKAL", "uri": "spotify:artist:5yG7ZAZafVaAlMTeBybKAL", "href": "https://api.spotify.com/v1/artists/5yG7ZAZafVaAlMTeBybKAL"}], "images": [{"width": 640, "url": "https://i.scdn.co/image/ab67616d0000b27328f0e8b0952b90e992aca5cc", "height": 640}, {"width": 300, "url": "https://i.scdn.co/image/ab67616d00001e0228f0e8b0952b90e992aca5cc", "height": 300}, {"width": 64, "url": "https://i.scdn.co/image/ab67616d0000485128f0e8b0952b90e992aca5cc", "height": 64}], "available_markets": ["CA", "MX", "US"], "album_type": "album", "release_date_precision": "day", "name": "Reclassified", "external_urls": {"spotify": "https://open.spotify.com/album/3Q7SysxADH9iI1Z85Xvfv8"}, "id": "3Q7SysxADH9iI1Z85Xvfv8", "uri": "spotify:album:3Q7SysxADH9iI1Z85Xvfv8"}, "external_ids": {"isrc": "GBUM71400597"}, "name": "Fancy", "duration_ms": 199938, "is_local": false, "disc_number": 1, "href": "https://api.spotify.com/v1/tracks/5PXSB2YH4hXU3WcPAoY9zz", "artists": [{"type": "artist", "name": "Iggy Azalea", "external_urls": {"spotify": "https://open.spotify.com/artist/5yG7ZAZafVaAlMTeBybKAL"}, "id": "5yG7ZAZafVaAlMTeBybKAL", "uri": "spotify:artist:5yG7ZAZafVaAlMTeBybKAL", "href": "https://api.spotify.com/v1/artists/5yG7ZAZafVaAlMTeBybKAL"}, {"type": "artist", "name": "Charli XCX", "external_urls": {"spotify": "https://open.spotify.com/artist/25uiPmTg16RbhZWAqwLBy5"}, "id": "25uiPmTg16RbhZWAqwLBy5", "uri": "spotify:artist:25uiPmTg16RbhZWAqwLBy5", "href": "https://api.spotify.com/v1/artists/25uiPmTg16RbhZWAqwLBy5"}], "track_number": 10, "available_markets": ["CA", "MX", "US"], "type": "track", "preview_url": null, "explicit": true, "external_urls": {"spotify": "https://open.spotify.com/track/5PXSB2YH4hXU3WcPAoY9zz"}, "id": "5PXSB2YH4hXU3WcPAoY9zz", "uri": "spotify:track:5PXSB2YH4hXU3WcPAoY9zz", "popularity": 35}], "previous": null, "href": "https://api.spotify.com/v1/search?query=artist%3AIggy+Azalea+track%3AFancy&type=track&offset=0&limit=5", "limit": 5, "total": 18, "next": "https://api.spotify.com/v1/search?query=artist%3AIggy+Azalea+track%3AFancy&type=track&offset=5&limit=5"}}