{"tracks": {"offset": 0, "items": [{"album": {"total_tracks": 15, "type": "album", "release_date": "2013-01-01", "href": "https://api.spotify.com/v1/albums/6edYDxspt9uQj21mbAfFIb", "artists": [{"type": "artist", "name": "will.i.am", "external_urls": {"spotify": "https://open.spotify.com/artist/085pc2PYOi8bGKj0PNjekA"}, "id": "085pc2PYOi8bGKj0PNjekA", "uri": "spotify:artist:085pc2PYOi8bGKj0PNjekA", "href": "https://api.spotify.com/v1/artists/085pc2PYOi8bGKj0PNjekA"}], "images": [{"width": 640, "url": "https://i.scdn.co/image/b55ed6bff125ea0e729a244feb8f8559d9596d09", "height": 640}, {"width": 300, "url": "https://i.scdn.co/image/f389248aecda37549bb7a856871989c85fd05e2a", "height": 300}, {"width": 64, "url": "https://i.scdn.co/image/8f0b818220ddb0ac942dda5182ad8d67240a7d05", "height": 64}], "available_markets": ["AD", "AE", "AR", "AT", "AU", "BE", "BG", "BH", "BO", "BR", "CA", "CH", "CL", "CO", "CR", "CY", "CZ", "DE", "DK", "DO", "DZ", "EC", "EE", "EG", "ES", "FI", "FR", "GB", "GR", "GT", "HK", "HN", "HU", "ID", "IE", "IL", "IN", "IS", "IT", "JO", "KW", "LB", "LI", "LT", "LU", "LV", "MA", "MC", "MT", "MX", "MY", "NI", "NL", "NO", "NZ", "OM", "PA", "PE", "PH", "PL", "PT", "PY", "QA", "RO", "SA", "SE", "SG", "SK", "SV", "TH", "TN", "TR", "TW", "US", "UY", "VN", "ZA"], "album_type": "album", "release_date_precision": "day", "name": "#willpower", "external_urls": {"spotify": "https://open.spotify.com/album/6edYDxspt9uQj21mbAfFIb"}, "id": "6edYDxspt9uQj21mbAfFIb", "uri": "spotify:album:6edYDxspt9uQj21mbAfFIb"}, "external_ids": {"isrc": "USUM71215597"}, "name": "Scream & Shout", "duration_ms": 283400, "is_local": false, "disc_number": 1, "href": "https://api.spotify.com/v1/tracks/2iJuuzV8P9Yz0VSurttIV5", "artists": [{"type": "artist", "name": "will.i.am", "external_urls": {"spotify": "https://open.spotify.com/artist/085pc2PYOi8bGKj0PNjekA"}, "id": "085pc2PYOi8bGKj0PNjekA", "uri": "spotify:artist:085pc2PYOi8bGKj0PNjekA", "href": "https://api.spotify.com/v1/artists/085pc2PYOi8bGKj0PNjekA"}, {"type": "artist", "name": "Britney Spears", "external_urls": {"spotify": "https://open.spotify.com/artist/26dSoYclwsYLMAKD3tpOr4"}, "id": "26dSoYclwsYLMAKD3tpOr4", "uri": "spotify:artist:26dSoYclwsYLMAKD3tpOr4", "href": "https://api.spotify.com/v1/artists/26dSoYclwsYLMAKD3tpOr4"}], "track_number": 4, "available_markets": ["AD", "AE", "AR", "AT", "AU", "BE", "BG", "BH", "BO", "BR", "CA", "CH", "CL", "CO", "CR", "CY", "CZ", "DE", "DK", "DO", "DZ", "EC", "EE", "EG", "ES", "FI", "FR", "GB", "GR", "GT", "HK", "HN", "HU", "ID", "IE", "IL", "IN", "IS", "IT", "JO", "KW", "LB", "LI", "LT", "LU", "LV", "MA", "MC", "MT", "MX", "MY", "NI", "NL", "NO", "NZ", "OM", "PA", "PE", "PH", "PL", "PT", "PY", "QA", "RO", "SA", "SE", "SG", "SK", "SV", "TH", "TN", "TR", "TW", "US", "UY", "VN", "ZA"], "type": "track", "preview_url": null, "explicit": true, "external_urls": {"spotify": "https://open.spotify.com/track/2iJuuzV8P9Yz0VSurttIV5"}, "id": "2iJuuzV8P9Yz0VSurttIV5", "uri": "spotify:track:2iJuuzV8P9Yz0VSurttIV5", "popularity": 73}, {"album": {"total_tracks": 18, "type": "album", "release_date": "2013-01-01", "href": "https://api.spotify.com/v1/albums/0VWYRbEcvJcPrqMGJirO6q", "artists": [{"type": "artist", "name": "will.i.am", "external_urls": {"spotify": "https://open.spotify.com/artist/085pc2PYOi8bGKj0PNjekA"}, "id": "085pc2PYOi8bGKj0PNjekA", "uri": "spotify:artist:085pc2PYOi8bGKj0PNjekA", "href": "https://api.spotify.com/v1/artists/085pc2PYOi8bGKj0PNjekA"}], "images": [{"width": 640, "url": "https://i.scdn.co/image/ab67616d0000b273714688e0643c652813a68fd1", "height": 640}, {"width": 300, "url": "https://i.scdn.co/image/ab67616d00001e02714688e0643c652813a68fd1", "height": 300}, {"width": 64, "url": "https://i.scdn.co/image/ab67616d00004851714688e0643c652813a68fd1", "height": 64}], "available_markets": ["AD", "AE", "AR", "AT", "AU", "BE", "BG", "BH", "BO", "BR", "CA", "CH", "CL", "CO", "CR", "CY", "CZ", "DE", "DK", "DO", "DZ", "EC", "EE", "EG", "ES", "FI", "FR", "GB", "GR", "GT", "HK", "HN", "HU", "ID", "IE", "IL", "IN", "IS", "IT", "JO", "KW", "LB", "LI", "LT", "LU", "LV", "MA", "MC", "MT", "MX", "MY", "NI", "NL", "NO", "NZ", "OM", "PA", "PE", "PH", "PL", "PT", "PY", "QA", "RO", "SA", "SE", "SG", "SK", "SV", "TH", "TN", "TR", "TW", "US", "UY", "VN", "ZA"], "album_type": "album", "release_date_precision": "day", "name": "#willpower (Deluxe)", "external_urls": {"spotify": "https://open.spotify.com/album/0VWYRbEcvJcPrqMGJirO6q"}, "id": "0VWYRbEcvJcPrqMGJirO6q", "uri": "spotify:album:0VWYRbEcvJcPrqMGJirO6q"}, "external_ids": {"isrc": "USUM71215597"}, "name": "Scream & Shout", "duration_ms": 283400, "is_local": false, "disc_number": 1, "href": "https://api.spotify.com/v1/tracks/5r6YGzvr9oZGVK6QVbh0HB", "artists": [{"type": "artist", "name": "will.i.am", "external_urls": {"spotify": "https://open.spotify.com/artist/085pc2PYOi8bGKj0PNjekA"}, "id": "085pc2PYOi8bGKj0PNjekA", "uri": "spotify:artist:085pc2PYOi8bGKj0PNjekA", "href": "https://api.spotify.com/v1/artists/085pc2PYOi8bGKj0PNjekA"}, {"type": "artist", "name": "Britney Spears", "external_urls": {"spotify": "https://open.spotify.com/artist/26dSoYclwsYLMAKD3tpOr4"}, "id": "26dSoYclwsYLMAKD3tpOr4", "uri": "spotify:artist:26dSoYclwsYLMAKD3tpOr4", "href": "https://api.spotify.com/v1/artists/26dSoYclwsYLMAKD3tpOr4"}], "track_number": 4, "available_markets": ["AD", "AE", "AR", "AT", "AU", "BE", "BG", "BH", "BO", "BR", "CA", "CH", "CL", "CO", "CR", "CY", "CZ", "DE", "DK", "DO", "DZ", "EC", "EE", "EG", "ES", "FI", "FR", "GB", "GR", "GT", "HK", "HN", "HU", "ID", "IE", "IL", "IN", "IS", "IT", "JO", "KW", "LB", "LI", "LT", "LU", "LV", "MA", "MC", "MT", "MX", "MY", "NI", "NL", "NO", "NZ", "OM", "PA", "PE", "PH", "PL", "PT", "PY", "QA", "RO", "SA", "SE", "SG", "SK", "SV", "TH", "TN", "TR", "TW", "US", "UY", "VN", "ZA"], "type": "track", "preview_url": null, "explicit": true, "external_urls": {"spotify": "https://open.spotify.com/track/5r6YGzvr9oZGVK6QVbh0HB"}, "id": "5r6YGzvr9oZGVK6QVbh0HB", "uri": "spotify:track:5r6YGzvr9oZGVK6QVbh0HB", "popularity": 51}, {"album": {"total_tracks": 18, "type": "album", "release_date": "2013-01-01", "href": "https://api.spotify.com/v1/albums/1Kn5dE4MM60dPNyYu0G9sx", "artists": [{"type": "artist", "name": "will.i.am", "external_urls": {"spotify": "https://open.spotify.com/artist/085pc2PYOi8bGKj0PNjekA"}, "id": "085pc2PYOi8bGKj0PNjekA", "uri": "spotify:artist:085pc2PYOi8bGKj0PNjekA", "href": "https://api.spotify.com/v1/artists/085pc2PYOi8bGKj0PNjekA"}], "images": [{"width": 640, "url": "https://i.scdn.co/image/ab67616d0000b273449e0d6e33c098b8f35963b0", "height": 640}, {"width": 300, "url": "https://i.scdn.co/image/ab67616d00001e02449e0d6e33c098b8f35963b0", "height": 300}, {"width": 64, "url": "https://i.scdn.co/image/ab67616d00004851449e0d6e33c098b8f35963b0", "height": 64}], "available_markets": ["AE", "AU", "BH", "CA", "DZ", "EG", "ES", "GB", "HK", "ID", "IE", "IN", "JO", "JP", "KW", "LB", "MA", "MX", "MY", "NZ", "OM", "PH", "PL", "QA", "SA", "SG", "TH", "TN", "TR", "TW", "US", "VN"], "album_type": "album", "release_date_precision": "day", "name": "#willpower (Deluxe)", "external_urls": {"spotify": "https://open.spotify.com/album/1Kn5dE4MM60dPNyYu0G9sx"}, "id": "1Kn5dE4MM60dPNyYu0G9sx", "uri": "spotify:album:1Kn5dE4MM60dPNyYu0G9sx"}, "external_ids": {"isrc": "USUM71215644"}, "name": "Scream & Shout", "duration_ms": 252266, "is_local": false, "disc_number": 1, "href": "https://api.spotify.com/v1/tracks/2ILjkVmIqxShrjuKZxZj2I", "artists": [{"type": "artist", "name": "will.i.am", "external_urls": {"spotify": "https://open.spotify.com/artist/085pc2PYOi8bGKj0PNjekA"}, "id": "085pc2PYOi8bGKj0PNjekA", "uri": "spotify:artist:085pc2PYOi8bGKj0PNjekA", "href": "https://api.spotify.com/v1/artists/085pc2PYOi8bGKj0PNjekA"}, {"type": "artist", "name": "Britney Spears", "external_urls": {"spotify": "https://open.spotify.com/artist/26dSoYclwsYLMAKD3tpOr4"}, "id": "26dSoYclwsYLMAKD3tpOr4", "uri": "spotify:artist:26dSoYclwsYLMAKD3tpOr4", "href": "https://api.spotify.com/v1/artists/26dSoYclwsYLMAKD3tpOr4"}], "track_number": 4, "available_markets": ["AE", "AU", "BH", "CA", "DZ", "EG", "ES", "GB", "HK", "ID", "IE", "IN", "JO", "JP", "KW", "LB", "MA", "MX", "MY", "NZ", "OM", "PH", "PL", "QA", "SA", "SG", "TH", "TN", "TR", "TW", "US", "VN"], "type": "track", "preview_url": null, "explicit": false, "external_urls": {"spotify": "https://open.spotify.com/track/2ILjkVmIqxShrjuKZxZj2I"}, "id": "2ILjkVmIqxShrjuKZxZj2I", "uri": "spotify:track:2ILjkVmIqxShrjuKZxZj2I", "popularity": 46}, {"album": {"total_tracks": 18, "type": "album", "release_date": "2016-08-05", "href": "https://api.spotify.com/v1/albums/3Rd3sggQA5U6WGk62jPQS8", "artists": [{"type": "artist", "name": "Various Artists", "external_urls": {"spotify": "https://open.spotify.com/artist/0LyfQWJT6nXafLPZqxe9Of"}, "id": "0LyfQWJT6nXafLPZqxe9Of", "uri": "spotify:artist:0LyfQWJT6nXafLPZqxe9Of", "href": "https://api.spotify.com/v1/artists/0LyfQWJT6nXafLPZqxe9Of"}], "images": [{"width": 640, "url": "https://i.scdn.co/image/ab67616d0000b273903f64a1355f68171bd8422b", "height": 640}, {"width": 300, "url": "https://i.scdn.co/image/ab67616d00001e02903f64a1355f68171bd8422b", "height": 300}, {"width": 64, "url": "https://i.scdn.co/image/ab67616d00004851903f64a1355f68171bd8422b", "height": 64}], "available_markets": ["US"], "album_type": "compilation", "release_date_precision": "day", "name": "NOW That's What I Call PARTY ANTHEMS 3", "external_urls": {"spotify": "https://open.spotify.com/album/3Rd3sggQA5U6WGk62jPQS8"}, "id": "3Rd3sggQA5U6WGk62jPQS8", "uri": "spotify:album:3Rd3sggQA5U6WGk62jPQS8"}, "external_ids": {"isrc": "USUM71215644"}, "name": "Scream & Shout - UK Radio Edit", "duration_ms": 251133, "is_local": false, "disc_number": 1, "href": "https://api.spotify.com/v1/tracks/04Wi1rcNpKRdIjSt7rtMM5", "artists": [{"type": "artist", "name": "will.i.am", "external_urls": {"spotify": "https://open.spotify.com/artist/085pc2PYOi8bGKj0PNjekA"}, "id": "085pc2PYOi8bGKj0PNjekA", "uri": "spotify:artist:085pc2PYOi8bGKj0PNjekA", "href": "https://api.spotify.com/v1/artists/085pc2PYOi8bGKj0PNjekA"}, {"type": "artist", "name": "Britney Spears", "external_urls": {"spotify": "https://open.spotify.com/artist/26dSoYclwsYLMAKD3tpOr4"}, "id": "26dSoYclwsYLMAKD3tpOr4", "uri": "spotify:artist:26dSoYclwsYLMAKD3tpOr4", "href": "https://api.spotify.com/v1/artists/26dSoYclwsYLMAKD3tpOr4"}], "track_number": 7, "available_markets": ["US"], "type": "track", "preview_url": "https://p.scdn.co/mp3-preview/d57bac7f5f613f0624db485f102e56b5d9a3a65d?cid=0c947b9d3f7547e28aee080174c283c9", "explicit": false, "external_urls": {"spotify": "https://open.spotify.com/track/04Wi1rcNpKRdIjSt7rtMM5"}, "id": "04Wi1rcNpKRdIjSt7rtMM5", "uri": "spotify:track:04Wi1rcNpKRdIjSt7rtMM5", "popularity": 28}, {"album": {"total_tracks": 15, "type": "album", "release_date": "2013-01-01", "href": "https://api.spotify.com/v1/albums/1rzn1wNcJG5fWlCIJSM8qo", "artists": [{"type": "artist", "name": "will.i.am", "external_urls": {"spotify": "https://open.spotify.com/artist/085pc2PYOi8bGKj0PNjekA"}, "id": "085pc2PYOi8bGKj0PNjekA", "uri": "spotify:artist:085pc2PYOi8bGKj0PNjekA", "href": "https://api.spotify.com/v1/artists/085pc2PYOi8bGKj0PNjekA"}], "images": [{"width": 640, "url": "https://i.scdn.co/image/ab67616d0000b273790c5537e75c4aae3142eb35", "height": 640}, {"width": 300, "url": "https://i.scdn.co/image/ab67616d00001e02790c5537e75c4aae3142eb35", "height": 300}, {"width": 64, "url": "https://i.scdn.co/image/ab67616d00004851790c5537e75c4aae3142eb35", "height": 64}], "available_markets": ["AE", "AU", "BH", "CA", "DZ", "EG", "ES", "GB", "HK", "ID", "IE", "IN", "JO", "KW", "LB", "MA", "MX", "MY", "NZ", "OM", "PH", "PL", "QA", "SA", "SG", "TH", "TN", "TR", "TW", "US", "VN"], "album_type": "album", "release_date_precision": "day", "name": "#willpower", "external_urls": {"spotify": "https://open.spotify.com/album/1rzn1wNcJG5fWlCIJSM8qo"}, "id": "1rzn1wNcJG5fWlCIJSM8qo", "uri": "spotify:album:1rzn1wNcJG5fWlCIJSM8qo"}, "external_ids": {"isrc": "USUM71215644"}, "name": "Scream & Shout", "duration_ms": 252266, "is_local": false, "disc_number": 1, "href": "https://api.spotify.com/v1/tracks/7l4FLIvwZX5Qy72kopmS9w", "artists": [{"type": "artist", "name": "will.i.am", "external_urls": {"spotify": "https://open.spotify.com/artist/085pc2PYOi8bGKj0PNjekA"}, "id": "085pc2PYOi8bGKj0PNjekA", "uri": "spotify:artist:085pc2PYOi8bGKj0PNjekA", "href": "https://api.spotify.com/v1/artists/085pc2PYOi8bGKj0PNjekA"}, {"type": "artist", "name": "Britney Spears", "external_urls": {"spotify": "https://open.spotify.com/artist/26dSoYclwsYLMAKD3tpOr4"}, "id": "26dSoYclwsYLMAKD3tpOr4", "uri": "spotify:artist:26dSoYclwsYLMAKD3tpOr4", "href": "https://api.spotify.com/v1/artists/26dSoYclwsYLMAKD3tpOr4"}], "track_number": 4, "available_markets": ["AE", "AU", "BH", "CA", "DZ", "EG", "ES", "GB", "HK", "ID", "IE", "IN", "JO", "KW", "LB", "MA", "MX", "MY", "NZ", "OM", "PH", "PL", "QA", "SA", "SG", "TH", "TN", "TR", "TW", "US", "VN"], "type": "track", "preview_url": null, "explicit": false, "external_urls": {"spotify": "https://open.spotify.com/track/7l4FLIvwZX5Qy72kopmS9w"}, "id": "7l4FLIvwZX5Qy72kopmS9w", "uri": "spotify:track:7l4FLIvwZX5Qy72kopmS9w", "popularity": 23}], "previous": null, "href": "https://api.spotify.com/v1/search?query=artist%3Awill.i.am+track%3AScream+%26+Shout&type=track&offset=0&limit=5", "limit": 5, "total": 14, "next": "https://api.spotify.com/v1/search?query=artist%3Awill.i.am+track%3AScream+%26+Shout&type=track&offset=5&limit=5"}}