{"tracks": {"offset": 0, "items": [{"album": {"total_tracks": 10, "type": "album", "release_date": "2014-03-03", "href": "https://api.spotify.com/v1/albums/2lkQd5T32QHDOfFkEIPJKz", "artists": [{"type": "artist", "name": "Pharrell Williams", "external_urls": {"spotify": "https://open.spotify.com/artist/2RdwBSPQiwcmiDo9kixcl8"}, "id": "2RdwBSPQiwcmiDo9kixcl8", "uri": "spotify:artist:2RdwBSPQiwcmiDo9kixcl8", "href": "https://api.spotify.com/v1/artists/2RdwBSPQiwcmiDo9kixcl8"}], "images": [{"width": 640, "url": "https://i.scdn.co/image/ab67616d0000b273d005b5fa12875efb624e8e12", "height": 640}, {"width": 300, "url": "https://i.scdn.co/image/ab67616d00001e02d005b5fa12875efb624e8e12", "height": 300}, {"width": 64, "url": "https://i.scdn.co/image/ab67616d00004851d005b5fa12875efb624e8e12", "height": 64}], "available_markets": ["AD", "AE", "AR", "AT", "AU", "BE", "BG", "BH", "BO", "BR", "CA", "CH", "CL", "CO", "CR", "CY", "CZ", "DE", "DK", "DO", "DZ", "EC", "EE", "EG", "ES", "FI", "FR", "GB", "GR", "GT", "HK", "HN", "HU", "ID", "IE", "IL", "IN", "IS", "IT", "JO", "JP", "KW", "LB", "LI", "LT", "LU", "LV", "MA", "MC", "MT", "MX", "MY", "NI", "NL", "NO", "NZ", "OM", "PA", "PE", "PH", "PL", "PS", "PT", "PY", "QA", "RO", "SA", "SE", "SG", "SK", "SV", "TH", "TN", "TR", "TW", "US", "UY", "VN", "ZA"], "album_type": "album", "release_date_precision": "day", "name": "G I R L", "external_urls": {"spotify": "https://open.spotify.com/album/2lkQd5T32QHDOfFkEIPJKz"}, "id": "2lkQd5T32QHDOfFkEIPJKz", "uri": "spotify:album:2lkQd5T32QHDOfFkEIPJKz"}, "external_ids": {"isrc": "USQ4E1300686"}, "name": "Happy - From \"Despicable Me 2\"", "duration_ms": 232720, "is_local": false, "disc_number": 1, "href": "https://api.spotify.com/v1/tracks/5b88tNINg4Q4nrRbrCXUmg", "artists": [{"type": "artist", "name": "Pharrell Williams", "external_urls": {"spotify": "https://open.spotify.com/artist/2RdwBSPQiwcmiDo9kixcl8"}, "id": "2RdwBSPQiwcmiDo9kixcl8", "uri": "spotify:artist:2RdwBSPQiwcmiDo9kixcl8", "href": "https://api.spotify.com/v1/artists/2RdwBSPQiwcmiDo9kixcl8"}], "track_number": 5, "available_markets": ["AD", "AE", "AR", "AT", "AU", "BE", "BG", "BH", "BO", "BR", "CA", "CH", "CL", "CO", "CR", "CY", "CZ", "DE", "DK", "DO", "DZ", "EC", "EE", "EG", "ES", "FI", "FR", "GB", "GR", "GT", "HK", "HN", "HU", "ID", "IE", "IL", "IN", "IS", "IT", "JO", "JP", "KW", "LB", "LI", "LT", "LU", "LV", "MA", "MC", "MT", "MX", "MY", "NI", "NL", "NO", "NZ", "OM", "PA", "PE", "PH", "PL", "PS", "PT", "PY", "QA", "RO", "SA", "SE", "SG", "SK", "SV", "TH", "TN", "TR", "TW", "US", "UY", "VN", "ZA"], "type": "track", "preview_url": "https://p.scdn.co/mp3-preview/67cffdcb7e3c82a5eb2e5f0bb235d377ccc94eeb?cid=0c947b9d3f7547e28aee080174c283c9", "explicit": false, "external_urls": {"spotify": "https://open.spotify.com/track/5b88tNINg4Q4nrRbrCXUmg"}, "id": "5b88tNINg4Q4nrRbrCXUmg", "uri": "spotify:track:5b88tNINg4Q4nrRbrCXUmg", "popularity": 80}, {"album": {"total_tracks": 4, "type": "album", "release_date": "2014-07-21", "href": "https://api.spotify.com/v1/albums/5vgusKAr3RxRP4t4Yy5X8b", "artists": [{"type": "artist", "name": "Pharrell Williams", "external_urls": {"spotify": "https://open.spotify.com/artist/2RdwBSPQiwcmiDo9kixcl8"}, "id": "2RdwBSPQiwcmiDo9kixcl8", "uri": "spotify:artist:2RdwBSPQiwcmiDo9kixcl8", "href": "https://api.spotify.com/v1/artists/2RdwBSPQiwcmiDo9kixcl8"}], "images": [{"width": 640, "url": "https://i.scdn.co/image/ab67616d0000b273c353d37ee8c2178d1354fdf3", "height": 640}, {"width": 300, "url": "https://i.scdn.co/image/ab67616d00001e02c353d37ee8c2178d1354fdf3", "height": 300}, {"width": 64, "url": "https://i.scdn.co/image/ab67616d00004851c353d37ee8c2178d1354fdf3", "height": 64}], "available_markets": ["US"], "album_type": "single", "release_date_precision": "day", "name": "Sprint Sound Sessions", "external_urls": {"spotify": "https://open.spotify.com/album/5vgusKAr3RxRP4t4Yy5X8b"}, "id": "5vgusKAr3RxRP4t4Yy5X8b", "uri": "spotify:album:5vgusKAr3RxRP4t4Yy5X8b"}, "external_ids": {"isrc": "USSM11405607"}, "name": "Happy - Live at Webster Hall", "duration_ms": 266426, "is_local": false, "disc_number": 1, "href": "https://api.spotify.com/v1/tracks/6tlsNruU4eEVR4jIEMO742", "artists": [{"type": "artist", "name": "Pharrell Williams", "external_urls": {"spotify": "https://open.spotify.com/artist/2RdwBSPQiwcmiDo9kixcl8"}, "id": "2RdwBSPQiwcmiDo9kixcl8", "uri": "spotify:artist:2RdwBSPQiwcmiDo9kixcl8", "href": "https://api.spotify.com/v1/artists/2RdwBSPQiwcmiDo9kixcl8"}], "track_number": 4, "available_markets": ["US"], "type": "track", "preview_url": "https://p.scdn.co/mp3-preview/e92a7855e20df5a9ea08adefe6e952cb06e4ea43?cid=0c947b9d3f7547e28aee080174c283c9", "explicit": false, "external_urls": {"spotify": "https://open.spotify.com/track/6tlsNruU4eEVR4jIEMO742"}, "id": "6tlsNruU4eEVR4jIEMO742", "uri": "spotify:track:6tlsNruU4eEVR4jIEMO742", "popularity": 30}, {"album": {"total_tracks": 1, "type": "album", "release_date": "2014-09-23", "href": "https://api.spotify.com/v1/albums/1KSR2lf3WrtMPrPBGzcy3A", "artists": [{"type": "artist", "name": "Pharrell Williams", "external_urls": {"spotify": "https://open.spotify.com/artist/2RdwBSPQiwcmiDo9kixcl8"}, "id": "2RdwBSPQiwcmiDo9kixcl8", "uri": "spotify:artist:2RdwBSPQiwcmiDo9kixcl8", "href": "https://api.spotify.com/v1/artists/2RdwBSPQiwcmiDo9kixcl8"}], "images": [{"width": 640, "url": "https://i.scdn.co/image/ab67616d0000b273223c7e6520f0136c5d21733b", "height": 640}, {"width": 300, "url": "https://i.scdn.co/image/ab67616d00001e02223c7e6520f0136c5d21733b", "height": 300}, {"width": 64, "url": "https://i.scdn.co/image/ab67616d00004851223c7e6520f0136c5d21733b", "height": 64}], "available_markets": ["AD", "AE", "AR", "AT", "AU", "BE", "BG", "BH", "BO", "BR", "CA", "CH", "CL", "CO", "CR", "CY", "CZ", "DE", "DK", "DO", "DZ", "EC", "EE", "EG", "ES", "FI", "FR", "GB", "GR", "GT", "HK", "HN", "HU", "ID", "IE", "IL", "IN", "IS", "IT", "JO", "JP", "KW", "LB", "LI", "LT", "LU", "LV", "MA", "MC", "MT", "MX", "MY", "NI", "NL", "NO", "NZ", "OM", "PA", "PE", "PH", "PL", "PS", "PT", "PY", "QA", "RO", "SA", "SE", "SG", "SK", "SV", "TH", "TN", "TR", "TW", "US", "UY", "VN", "ZA"], "album_type": "single", "release_date_precision": "day", "name": "Happy (Live)", "external_urls": {"spotify": "https://open.spotify.com/album/1KSR2lf3WrtMPrPBGzcy3A"}, "id": "1KSR2lf3WrtMPrPBGzcy3A", "uri": "spotify:album:1KSR2lf3WrtMPrPBGzcy3A"}, "external_ids": {"isrc": "USSM11406726"}, "name": "Happy - Live", "duration_ms": 201106, "is_local": false, "disc_number": 1, "href": "https://api.spotify.com/v1/tracks/72K0gi3DyEuaW0kPCw0lrO", "artists": [{"type": "artist", "name": "Pharrell Williams", "external_urls": {"spotify": "https://open.spotify.com/artist/2RdwBSPQiwcmiDo9kixcl8"}, "id": "2RdwBSPQiwcmiDo9kixcl8", "uri": "spotify:artist:2RdwBSPQiwcmiDo9kixcl8", "href": "https://api.spotify.com/v1/artists/2RdwBSPQiwcmiDo9kixcl8"}], "track_number": 1, "available_markets": ["AD", "AE", "AR", "AT", "AU", "BE", "BG", "BH", "BO", "BR", "CA", "CH", "CL", "CO", "CR", "CY", "CZ", "DE", "DK", "DO", "DZ", "EC", "EE", "EG", "ES", "FI", "FR", "GB", "GR", "GT", "HK", "HN", "HU", "ID", "IE", "IL", "IN", "IS", "IT", "JO", "JP", "KW", "LB", "LI", "LT", "LU", "LV", "MA", "MC", "MT", "MX", "MY", "NI", "NL", "NO", "NZ", "OM", "PA", "PE", "PH", "PL", "PS", "PT", "PY", "QA", "RO", "SA", "SE", "SG", "SK", "SV", "TH", "TN", "TR", "TW", "US", "UY", "VN", "ZA"], "type": "track", "preview_url": "https://p.scdn.co/mp3-preview/089ed3b699aab9bbe1906439133a93b54f063f97?cid=0c947b9d3f7547e28aee080174c283c9", "explicit": false, "external_urls": {"spotify": "https://open.spotify.com/track/72K0gi3DyEuaW0kPCw0lrO"}, "id": "72K0gi3DyEuaW0kPCw0lrO", "uri": "spotify:track:72K0gi3DyEuaW0kPCw0lrO", "popularity": 39}, {"album": {"total_tracks": 36, "type": "album", "release_date": "2016-11-04", "href": "https://api.spotify.com/v1/albums/74BVAeJgcJjomcDq9HKii7", "artists": [{"type": "artist", "name": "Various Artists", "external_urls": {"spotify": "https://open.spotify.com/artist/0LyfQWJT6nXafLPZqxe9Of"}, "id": "0LyfQWJT6nXafLPZqxe9Of", "uri": "spotify:artist:0LyfQWJT6nXafLPZqxe9Of", "href": "https://api.spotify.com/v1/artists/0LyfQWJT6nXafLPZqxe9Of"}], "images": [{"width": 640, "url": "https://i.scdn.co/image/ab67616d0000b2737a6f4580e210c2fd107907da", "height": 640}, {"width": 300, "url": "https://i.scdn.co/image/ab67616d00001e027a6f4580e210c2fd107907da", "height": 300}, {"width": 64, "url": "https://i.scdn.co/image/ab67616d000048517a6f4580e210c2fd107907da", "height": 64}], "available_markets": ["US"], "album_type": "compilation", "release_date_precision": "day", "name": "NOW That's What I Call Music!, Vol. 60 (Deluxe Edition)", "external_urls": {"spotify": "https://open.spotify.com/album/74BVAeJgcJjomcDq9HKii7"}, "id": "74BVAeJgcJjomcDq9HKii7", "uri": "spotify:album:74BVAeJgcJjomcDq9HKii7"}, "external_ids": {"isrc": "USQ4E1300686"}, "name": "Happy - From \"Despicable Me 2\"", "duration_ms": 230973, "is_local": false, "disc_number": 2, "href": "https://api.spotify.com/v1/tracks/5H1ur8DKF9iTilrVlEdo0w", "artists": [{"type": "artist", "name": "Pharrell Williams", "external_urls": {"spotify": "https://open.spotify.com/artist/2RdwBSPQiwcmiDo9kixcl8"}, "id": "2RdwBSPQiwcmiDo9kixcl8", "uri": "spotify:artist:2RdwBSPQiwcmiDo9kixcl8", "href": "https://api.spotify.com/v1/artists/2RdwBSPQiwcmiDo9kixcl8"}], "track_number": 1, "available_markets": ["US"], "type": "track", "preview_url": null, "explicit": false, "external_urls": {"spotify": "https://open.spotify.com/track/5H1ur8DKF9iTilrVlEdo0w"}, "id": "5H1ur8DKF9iTilrVlEdo0w", "uri": "spotify:track:5H1ur8DKF9iTilrVlEdo0w", "popularity": 24}, {"album": {"total_tracks": 100, "type": "album", "release_date": "2018-04-10", "href": "https://api.spotify.com/v1/albums/0jVGdTKQ0pValbbtxv5h5O", "artists": [{"type": "artist", "name": "Various Artists", "external_urls": {"spotify": "https://open.spotify.com/artist/0LyfQWJT6nXafLPZqxe9Of"}, "id": "0LyfQWJT6nXafLPZqxe9Of", "uri": "spotify:artist:0LyfQWJT6nXafLPZqxe9Of", "href": "https://api.spotify.com/v1/artists/0LyfQWJT6nXafLPZqxe9Of"}], "images": [{"width": 640, "url": "https://i.scdn.co/image/ab67616d0000b273b33e4b3384a7a0428f990757", "height": 640}, {"width": 300, "url": "https://i.scdn.co/image/ab67616d00001e02b33e4b3384a7a0428f990757", "height": 300}, {"width": 64, "url": "https://i.scdn.co/image/ab67616d00004851b33e4b3384a7a0428f990757", "height": 64}], "available_markets": ["AD", "AE", "AR", "AT", "AU", "BE", "BG", "BH", "BO", "BR", "CA", "CH", "CL", "CO", "CR", "CY", "CZ", "DE", "DK", "DO", "DZ", "EC", "EE", "EG", "ES", "FI", "FR", "GB", "GR", "GT", "HK", "HN", "HU", "ID", "IE", "IL", "IN", "IS", "IT", "JO", "JP", "KW", "LB", "LI", "LT", "LU", "LV", "MA", "MC", "MT", "MX", "MY", "NI", "NL", "NO", "NZ", "OM", "PA", "PE", "PH", "PL", "PS", "PT", "PY", "QA", "RO", "SA", "SE", "SG", "SK", "SV", "TH", "TN", "TR", "TW", "US", "UY", "VN", "ZA"], "album_type": "compilation", "release_date_precision": "day", "name": "Happiness Forever", "external_urls": {"spotify": "https://open.spotify.com/album/0jVGdTKQ0pValbbtxv5h5O"}, "id": "0jVGdTKQ0pValbbtxv5h5O", "uri": "spotify:album:0jVGdTKQ0pValbbtxv5h5O"}, "external_ids": {"isrc": "USQ4E1300686"}, "name": "Happy - From \"Despicable Me 2\"", "duration_ms": 232720, "is_local": false, "disc_number": 1, "href": "https://api.spotify.com/v1/tracks/1huwecVUu6sWgU7o7GHPHQ", "artists": [{"type": "artist", "name": "Pharrell Williams", "external_urls": {"spotify": "https://open.spotify.com/artist/2RdwBSPQiwcmiDo9kixcl8"}, "id": "2RdwBSPQiwcmiDo9kixcl8", "uri": "spotify:artist:2RdwBSPQiwcmiDo9kixcl8", "href": "https://api.spotify.com/v1/artists/2RdwBSPQiwcmiDo9kixcl8"}], "track_number": 1, "available_markets": ["AD", "AE", "AR", "AT", "AU", "BE", "BG", "BH", "BO", "BR", "CA", "CH", "CL", "CO", "CR", "CY", "CZ", "DE", "DK", "DO", "DZ", "EC", "EE", "EG", "ES", "FI", "FR", "GB", "GR", "GT", "HK", "HN", "HU", "ID", "IE", "IL", "IN", "IS", "IT", "JO", "JP", "KW", "LB", "LI", "LT", "LU", "LV", "MA", "MC", "MT", "MX", "MY", "NI", "NL", "NO", "NZ", "OM", "PA", "PE", "PH", "PL", "PS", "PT", "PY", "QA", "RO", "SA", "SE", "SG", "SK", "SV", "TH", "TN", "TR", "TW", "US", "UY", "VN", "ZA"], "type": "track", "preview_url": "https://p.scdn.co/mp3-preview/67cffdcb7e3c82a5eb2e5f0bb235d377ccc94eeb?cid=0c947b9d3f7547e28aee080174c283c9", "explicit": false, "external_urls": {"spotify": "https://open.spotify.com/track/1huwecVUu6sWgU7o7GHPHQ"}, "id": "1huwecVUu6sWgU7o7GHPHQ", "uri": "spotify:track:1huwecVUu6sWgU7o7GHPHQ", "popularity": 34}], "previous": null, "href": "https://api.spotify.com/v1/search?query=artist%3APharrell+Williams+track%3AHappy&type=track&offset=0&limit=5", "limit": 5, "total": 16, "next": "https://api.spotify.com/v1/search?query=artist%3APharrell+Williams+track%3AHappy&type=track&offset=5&limit=5"}}