{"tracks": {"offset": 0, "items": [{"album": {"total_tracks": 11, "type": "album", "release_date": "2013-04-19", "href": "https://api.spotify.com/v1/albums/4xkM0BwLM9H2IUcbYzpcBI", "artists": [{"type": "artist", "name": "The Neighbourhood", "external_urls": {"spotify": "https://open.spotify.com/artist/77SW9BnxLY8rJ0RciFqkHh"}, "id": "77SW9BnxLY8rJ0RciFqkHh", "uri": "spotify:artist:77SW9BnxLY8rJ0RciFqkHh", "href": "https://api.spotify.com/v1/artists/77SW9BnxLY8rJ0RciFqkHh"}], "images": [{"width": 640, "url": "https://i.scdn.co/image/ab67616d0000b27378f71c0d2fe34592a3c18f80", "height": 640}, {"width": 300, "url": "https://i.scdn.co/image/ab67616d00001e0278f71c0d2fe34592a3c18f80", "height": 300}, {"width": 64, "url": "https://i.scdn.co/image/ab67616d0000485178f71c0d2fe34592a3c18f80", "height": 64}], "available_markets": ["AD", "AE", "AR", "AT", "AU", "BE", "BG", "BH", "BO", "BR", "CA", "CH", "CL", "CO", "CR", "CY", "CZ", "DE", "DK", "DO", "DZ", "EC", "EE", "EG", "ES", "FI", "FR", "GR", "GT", "HK", "HN", "HU", "ID", "IL", "IN", "IS", "IT", "JO", "JP", "KW", "LB", "LI", "LT", "LU", "LV", "MA", "MC", "MT", "MX", "MY", "NI", "NL", "NO", "NZ", "OM", "PA", "PE", "PH", "PL", "PS", "PT", "PY", "QA", "RO", "SA", "SE", "SG", "SK", "SV", "TH", "TN", "TR", "TW", "US", "UY", "VN", "ZA"], "album_type": "album", "release_date_precision": "day", "name": "I Love You.", "external_urls": {"spotify": "https://open.spotify.com/album/4xkM0BwLM9H2IUcbYzpcBI"}, "id": "4xkM0BwLM9H2IUcbYzpcBI", "uri": "spotify:album:4xkM0BwLM9H2IUcbYzpcBI"}, "external_ids": {"isrc": "USSM11300080"}, "name": "Sweater Weather", "duration_ms": 240400, "is_local": false, "disc_number": 1, "href": "https://api.spotify.com/v1/tracks/2QjOHCTQ1Jl3zawyYOpxh6", "artists": [{"type": "artist", "name": "The Neighbourhood", "external_urls": {"spotify": "https://open.spotify.com/artist/77SW9BnxLY8rJ0RciFqkHh"}, "id": "77SW9BnxLY8rJ0RciFqkHh", "uri": "spotify:artist:77SW9BnxLY8rJ0RciFqkHh", "href": "https://api.spotify.com/v1/artists/77SW9BnxLY8rJ0RciFqkHh"}], "track_number": 4, "available_markets": ["AD", "AE", "AR", "AT", "AU", "BE", "BG", "BH", "BO", "BR", "CA", "CH", "CL", "CO", "CR", "CY", "CZ", "DE", "DK", "DO", "DZ", "EC", "EE", "EG", "ES", "FI", "FR", "GR", "GT", "HK", "HN", "HU", "ID", "IL", "IN", "IS", "IT", "JO", "JP", "KW", "LB", "LI", "LT", "LU", "LV", "MA", "MC", "MT", "MX", "MY", "NI", "NL", "NO", "NZ", "OM", "PA", "PE", "PH", "PL", "PS", "PT", "PY", "QA", "RO", "SA", "SE", "SG", "SK", "SV", "TH", "TN", "TR", "TW", "US", "UY", "VN", "ZA"], "type": "track", "preview_url": "https://p.scdn.co/mp3-preview/b189d26b94a514fa75e47775b4ce05421c67580f?cid=0c947b9d3f7547e28aee080174c283c9", "explicit": false, "external_urls": {"spotify": "https://open.spotify.com/track/2QjOHCTQ1Jl3zawyYOpxh6"}, "id": "2QjOHCTQ1Jl3zawyYOpxh6", "uri": "spotify:track:2QjOHCTQ1Jl3zawyYOpxh6", "popularity": 81}, {"album": {"total_tracks": 5, "type": "album", "release_date": "2012-08-07", "href": "https://api.spotify.com/v1/albums/64uUQtKfndQguejYmA40lL", "artists": [{"type": "artist", "name": "The Neighbourhood", "external_urls": {"spotify": "https://open.spotify.com/artist/77SW9BnxLY8rJ0RciFqkHh"}, "id": "77SW9BnxLY8rJ0RciFqkHh", "uri": "spotify:artist:77SW9BnxLY8rJ0RciFqkHh", "href": "https://api.spotify.com/v1/artists/77SW9BnxLY8rJ0RciFqkHh"}], "images": [{"width": 640, "url": "https://i.scdn.co/image/ab67616d0000b2737177fb5667cdafd34b871257", "height": 640}, {"width": 300, "url": "https://i.scdn.co/image/ab67616d00001e027177fb5667cdafd34b871257", "height": 300}, {"width": 64, "url": "https://i.scdn.co/image/ab67616d000048517177fb5667cdafd34b871257", "height": 64}], "available_markets": ["AD", "AE", "AR", "AT", "AU", "BE", "BG", "BH", "BO", "BR", "CA", "CH", "CL", "CO", "CR", "CY", "CZ", "DE", "DK", "DO", "DZ", "EC", "EE", "EG", "ES", "FI", "FR", "GR", "GT", "HK", "HN", "HU", "ID", "IL", "IN", "IS", "IT", "JO", "KW", "LB", "LI", "LT", "LU", "LV", "MA", "MC", "MT", "MX", "MY", "NI", "NL", "NO", "NZ", "OM", "PA", "PE", "PH", "PL", "PS", "PT", "PY", "QA", "RO", "SA", "SE", "SG", "SK", "SV", "TH", "TN", "TR", "TW", "US", "UY", "VN", "ZA"], "album_type": "single", "release_date_precision": "day", "name": "I'm Sorry...", "external_urls": {"spotify": "https://open.spotify.com/album/64uUQtKfndQguejYmA40lL"}, "id": "64uUQtKfndQguejYmA40lL", "uri": "spotify:album:64uUQtKfndQguejYmA40lL"}, "external_ids": {"isrc": "USSM11204647"}, "name": "Sweater Weather", "duration_ms": 240040, "is_local": false, "disc_number": 1, "href": "https://api.spotify.com/v1/tracks/4pGqFOfzvfe6avb9kbZicC", "artists": [{"type": "artist", "name": "The Neighbourhood", "external_urls": {"spotify": "https://open.spotify.com/artist/77SW9BnxLY8rJ0RciFqkHh"}, "id": "77SW9BnxLY8rJ0RciFqkHh", "uri": "spotify:artist:77SW9BnxLY8rJ0RciFqkHh", "href": "https://api.spotify.com/v1/artists/77SW9BnxLY8rJ0RciFqkHh"}], "track_number": 4, "available_markets": ["AD", "AE", "AR", "AT", "AU", "BE", "BG", "BH", "BO", "BR", "CA", "CH", "CL", "CO", "CR", "CY", "CZ", "DE", "DK", "DO", "DZ", "EC", "EE", "EG", "ES", "FI", "FR", "GR", "GT", "HK", "HN", "HU", "ID", "IL", "IN", "IS", "IT", "JO", "KW", "LB", "LI", "LT", "LU", "LV", "MA", "MC", "MT", "MX", "MY", "NI", "NL", "NO", "NZ", "OM", "PA", "PE", "PH", "PL", "PS", "PT", "PY", "QA", "RO", "SA", "SE", "SG", "SK", "SV", "TH", "TN", "TR", "TW", "US", "UY", "VN", "ZA"], "type": "track", "preview_url": "https://p.scdn.co/mp3-preview/ff64df97746e9b97673169f97e0eb5045c552278?cid=0c947b9d3f7547e28aee080174c283c9", "explicit": false, "external_urls": {"spotify": "https://open.spotify.com/track/4pGqFOfzvfe6avb9kbZicC"}, "id": "4pGqFOfzvfe6avb9kbZicC", "uri": "spotify:track:4pGqFOfzvfe6avb9kbZicC", "popularity": 64}, {"album": {"total_tracks": 2, "type": "album", "release_date": "2013-06-18", "href": "https://api.spotify.com/v1/albums/6SembYKumFch1Mm9FL0c8O", "artists": [{"type": "artist", "name": "The Neighbourhood", "external_urls": {"spotify": "https://open.spotify.com/artist/77SW9BnxLY8rJ0RciFqkHh"}, "id": "77SW9BnxLY8rJ0RciFqkHh", "uri": "spotify:artist:77SW9BnxLY8rJ0RciFqkHh", "href": "https://api.spotify.com/v1/artists/77SW9BnxLY8rJ0RciFqkHh"}], "images": [{"width": 640, "url": "https://i.scdn.co/image/ab67616d0000b2731049338f43bf19d1d602aff6", "height": 640}, {"width": 300, "url": "https://i.scdn.co/image/ab67616d00001e021049338f43bf19d1d602aff6", "height": 300}, {"width": 64, "url": "https://i.scdn.co/image/ab67616d000048511049338f43bf19d1d602aff6", "height": 64}], "available_markets": ["AD", "AE", "AR", "AT", "AU", "BE", "BG", "BH", "BO", "BR", "CA", "CH", "CL", "CO", "CR", "CY", "CZ", "DE", "DK", "DO", "DZ", "EC", "EE", "EG", "ES", "FI", "FR", "GB", "GR", "GT", "HK", "HN", "HU", "ID", "IE", "IL", "IN", "IS", "IT", "JO", "JP", "KW", "LB", "LI", "LT", "LU", "LV", "MA", "MC", "MT", "MX", "MY", "NI", "NL", "NO", "NZ", "OM", "PA", "PE", "PH", "PL", "PS", "PT", "PY", "QA", "RO", "SA", "SE", "SG", "SK", "SV", "TH", "TN", "TR", "TW", "US", "UY", "VN", "ZA"], "album_type": "single", "release_date_precision": "day", "name": "Spotify Sessions", "external_urls": {"spotify": "https://open.spotify.com/album/6SembYKumFch1Mm9FL0c8O"}, "id": "6SembYKumFch1Mm9FL0c8O", "uri": "spotify:album:6SembYKumFch1Mm9FL0c8O"}, "external_ids": {"isrc": "USSM11303072"}, "name": "Sweater Weather - Spotify Sessions Curated by Jim Eno", "duration_ms": 191560, "is_local": false, "disc_number": 1, "href": "https://api.spotify.com/v1/tracks/7sDzAu7alAL1hWvL86tSGB", "artists": [{"type": "artist", "name": "The Neighbourhood", "external_urls": {"spotify": "https://open.spotify.com/artist/77SW9BnxLY8rJ0RciFqkHh"}, "id": "77SW9BnxLY8rJ0RciFqkHh", "uri": "spotify:artist:77SW9BnxLY8rJ0RciFqkHh", "href": "https://api.spotify.com/v1/artists/77SW9BnxLY8rJ0RciFqkHh"}], "track_number": 1, "available_markets": ["AD", "AE", "AR", "AT", "AU", "BE", "BG", "BH", "BO", "BR", "CA", "CH", "CL", "CO", "CR", "CY", "CZ", "DE", "DK", "DO", "DZ", "EC", "EE", "EG", "ES", "FI", "FR", "GB", "GR", "GT", "HK", "HN", "HU", "ID", "IE", "IL", "IN", "IS", "IT", "JO", "JP", "KW", "LB", "LI", "LT", "LU", "LV", "MA", "MC", "MT", "MX", "MY", "NI", "NL", "NO", "NZ", "OM", "PA", "PE", "PH", "PL", "PS", "PT", "PY", "QA", "RO", "SA", "SE", "SG", "SK", "SV", "TH", "TN", "TR", "TW", "US", "UY", "VN", "ZA"], "type": "track", "preview_url": "https://p.scdn.co/mp3-preview/bed9e182c4c5af6bf19fdb81ea491c974d8fd6f1?cid=0c947b9d3f7547e28aee080174c283c9", "explicit": false, "external_urls": {"spotify": "https://open.spotify.com/track/7sDzAu7alAL1hWvL86tSGB"}, "id": "7sDzAu7alAL1hWvL86tSGB", "uri": "spotify:track:7sDzAu7alAL1hWvL86tSGB", "popularity": 56}, {"album": {"total_tracks": 8, "type": "album", "release_date": "2019-04-05", "href": "https://api.spotify.com/v1/albums/5CohHGj6UCyNqKxwkFxi88", "artists": [{"type": "artist", "name": "The Old Neighbourhood", "external_urls": {"spotify": "https://open.spotify.com/artist/5mLLBMFdffkAGaMJDgVlez"}, "id": "5mLLBMFdffkAGaMJDgVlez", "uri": "spotify:artist:5mLLBMFdffkAGaMJDgVlez", "href": "https://api.spotify.com/v1/artists/5mLLBMFdffkAGaMJDgVlez"}], "images": [{"width": 640, "url": "https://i.scdn.co/image/ab67616d0000b2732aa5663b3ec2b5aa601f0e78", "height": 640}, {"width": 300, "url": "https://i.scdn.co/image/ab67616d00001e022aa5663b3ec2b5aa601f0e78", "height": 300}, {"width": 64, "url": "https://i.scdn.co/image/ab67616d000048512aa5663b3ec2b5aa601f0e78", "height": 64}], "available_markets": ["AD", "AE", "AR", "AT", "AU", "BE", "BG", "BH", "BO", "BR", "CA", "CH", "CL", "CO", "CR", "CY", "CZ", "DE", "DK", "DO", "DZ", "EC", "EE", "EG", "ES", "FI", "FR", "GB", "GR", "GT", "HK", "HN", "HU", "ID", "IE", "IL", "IN", "IS", "IT", "JO", "JP", "KW", "LB", "LI", "LT", "LU", "LV", "MA", "MC", "MT", "MX", "MY", "NI", "NL", "NO", "NZ", "OM", "PA", "PE", "PH", "PL", "PS", "PT", "PY", "QA", "RO", "SA", "SE", "SG", "SK", "SV", "TH", "TN", "TR", "TW", "US", "UY", "VN", "ZA"], "album_type": "album", "release_date_precision": "day", "name": "All Weather Comes and Goes", "external_urls": {"spotify": "https://open.spotify.com/album/5CohHGj6UCyNqKxwkFxi88"}, "id": "5CohHGj6UCyNqKxwkFxi88", "uri": "spotify:album:5CohHGj6UCyNqKxwkFxi88"}, "external_ids": {"isrc": "TCAEE1939944"}, "name": "Christmas Sweater", "duration_ms": 144000, "is_local": false, "disc_number": 1, "href": "https://api.spotify.com/v1/tracks/5oYjRL0rnd9GCPiMnGdKZz", "artists": [{"type": "artist", "name": "The Old Neighbourhood", "external_urls": {"spotify": "https://open.spotify.com/artist/5mLLBMFdffkAGaMJDgVlez"}, "id": "5mLLBMFdffkAGaMJDgVlez", "uri": "spotify:artist:5mLLBMFdffkAGaMJDgVlez", "href": "https://api.spotify.com/v1/artists/5mLLBMFdffkAGaMJDgVlez"}], "track_number": 3, "available_markets": ["AD", "AE", "AR", "AT", "AU", "BE", "BG", "BH", "BO", "BR", "CA", "CH", "CL", "CO", "CR", "CY", "CZ", "DE", "DK", "DO", "DZ", "EC", "EE", "EG", "ES", "FI", "FR", "GB", "GR", "GT", "HK", "HN", "HU", "ID", "IE", "IL", "IN", "IS", "IT", "JO", "JP", "KW", "LB", "LI", "LT", "LU", "LV", "MA", "MC", "MT", "MX", "MY", "NI", "NL", "NO", "NZ", "OM", "PA", "PE", "PH", "PL", "PS", "PT", "PY", "QA", "RO", "SA", "SE", "SG", "SK", "SV", "TH", "TN", "TR", "TW", "US", "UY", "VN", "ZA"], "type": "track", "preview_url": "https://p.scdn.co/mp3-preview/4b2f9bc7d33f43732d73dc2f48042048fb0708fd?cid=0c947b9d3f7547e28aee080174c283c9", "explicit": false, "external_urls": {"spotify": "https://open.spotify.com/track/5oYjRL0rnd9GCPiMnGdKZz"}, "id": "5oYjRL0rnd9GCPiMnGdKZz", "uri": "spotify:track:5oYjRL0rnd9GCPiMnGdKZz", "popularity": 29}, {"album": {"total_tracks": 4, "type": "album", "release_date": "2014-09-01", "href": "https://api.spotify.com/v1/albums/7N2cWnq7iDrBATtqkHbtji", "artists": [{"type": "artist", "name": "The Fixation", "external_urls": {"spotify": "https://open.spotify.com/artist/539UhfM5s6hryzdyZtIlEE"}, "id": "539UhfM5s6hryzdyZtIlEE", "uri": "spotify:artist:539UhfM5s6hryzdyZtIlEE", "href": "https://api.spotify.com/v1/artists/539UhfM5s6hryzdyZtIlEE"}], "images": [{"width": 640, "url": "https://i.scdn.co/image/ab67616d0000b2736cea2ecf06551109b1af001b", "height": 640}, {"width": 300, "url": "https://i.scdn.co/image/ab67616d00001e026cea2ecf06551109b1af001b", "height": 300}, {"width": 64, "url": "https://i.scdn.co/image/ab67616d000048516cea2ecf06551109b1af001b", "height": 64}], "available_markets": ["AD", "AE", "AR", "AT", "AU", "BE", "BG", "BH", "BO", "BR", "CA", "CH", "CL", "CO", "CR", "CY", "CZ", "DE", "DK", "DO", "DZ", "EC", "EE", "EG", "ES", "FI", "FR", "GB", "GR", "GT", "HK", "HN", "HU", "ID", "IE", "IL", "IN", "IS", "IT", "JO", "JP", "KW", "LB", "LI", "LT", "LU", "LV", "MA", "MC", "MT", "MX", "MY", "NI", "NL", "NO", "NZ", "OM", "PA", "PE", "PH", "PL", "PS", "PT", "PY", "QA", "RO", "SA", "SE", "SG", "SK", "SV", "TH", "TN", "TR", "TW", "US", "UY", "VN", "ZA"], "album_type": "single", "release_date_precision": "day", "name": "Addiction", "external_urls": {"spotify": "https://open.spotify.com/album/7N2cWnq7iDrBATtqkHbtji"}, "id": "7N2cWnq7iDrBATtqkHbtji", "uri": "spotify:album:7N2cWnq7iDrBATtqkHbtji"}, "external_ids": {"isrc": "GMBA21468387"}, "name": "Sweater Weather (Cover of The Neighbourhood) (Cover of The Neighbourhood)", "duration_ms": 217320, "is_local": false, "disc_number": 1, "href": "https://api.spotify.com/v1/tracks/5bdVdtZD6YBNjXAFrVRj7o", "artists": [{"type": "artist", "name": "The Fixation", "external_urls": {"spotify": "https://open.spotify.com/artist/539UhfM5s6hryzdyZtIlEE"}, "id": "539UhfM5s6hryzdyZtIlEE", "uri": "spotify:artist:539UhfM5s6hryzdyZtIlEE", "href": "https://api.spotify.com/v1/artists/539UhfM5s6hryzdyZtIlEE"}], "track_number": 3, "available_markets": ["AD", "AE", "AR", "AT", "AU", "BE", "BG", "BH", "BO", "BR", "CA", "CH", "CL", "CO", "CR", "CY", "CZ", "DE", "DK", "DO", "DZ", "EC", "EE", "EG", "ES", "FI", "FR", "GB", "GR", "GT", "HK", "HN", "HU", "ID", "IE", "IL", "IN", "IS", "IT", "JO", "JP", "KW", "LB", "LI", "LT", "LU", "LV", "MA", "MC", "MT", "MX", "MY", "NI", "NL", "NO", "NZ", "OM", "PA", "PE", "PH", "PL", "PS", "PT", "PY", "QA", "RO", "SA", "SE", "SG", "SK", "SV", "TH", "TN", "TR", "TW", "US", "UY", "VN", "ZA"], "type": "track", "preview_url": "https://p.scdn.co/mp3-preview/38459514d89fb7a2fa258102f9415b453b371597?cid=0c947b9d3f7547e28aee080174c283c9", "explicit": false, "external_urls": {"spotify": "https://open.spotify.com/track/5bdVdtZD6YBNjXAFrVRj7o"}, "id": "5bdVdtZD6YBNjXAFrVRj7o", "uri": "spotify:track:5bdVdtZD6YBNjXAFrVRj7o", "popularity": 16}], "previous": null, "href": "https://api.spotify.com/v1/search?query=artist%3AThe+Neighbourhood+track%3ASweater+Weather&type=track&offset=0&limit=5", "limit": 5, "total": 8, "next": "https://api.spotify.com/v1/search?query=artist%3AThe+Neighbourhood+track%3ASweater+Weather&type=track&offset=5&limit=5"}}