{"tracks": {"offset": 0, "items": [{"album": {"total_tracks": 22, "type": "album", "release_date": "2011", "href": "https://api.spotify.com/v1/albums/6R0ynY7RF20ofs9GJR5TXR", "artists": [{"type": "artist", "name": "M83", "external_urls": {"spotify": "https://open.spotify.com/artist/63MQldklfxkjYDoUE4Tppz"}, "id": "63MQldklfxkjYDoUE4Tppz", "uri": "spotify:artist:63MQldklfxkjYDoUE4Tppz", "href": "https://api.spotify.com/v1/artists/63MQldklfxkjYDoUE4Tppz"}], "images": [{"width": 640, "url": "https://i.scdn.co/image/ab67616d0000b27389c5c957f376e8c87ed23dcc", "height": 640}, {"width": 300, "url": "https://i.scdn.co/image/ab67616d00001e0289c5c957f376e8c87ed23dcc", "height": 300}, {"width": 64, "url": "https://i.scdn.co/image/ab67616d0000485189c5c957f376e8c87ed23dcc", "height": 64}], "available_markets": ["CA", "US"], "album_type": "album", "release_date_precision": "year", "name": "Hurry Up, We're Dreaming", "external_urls": {"spotify": "https://open.spotify.com/album/6R0ynY7RF20ofs9GJR5TXR"}, "id": "6R0ynY7RF20ofs9GJR5TXR", "uri": "spotify:album:6R0ynY7RF20ofs9GJR5TXR"}, "external_ids": {"isrc": "GB55H1100002"}, "name": "Midnight City", "duration_ms": 241440, "is_local": false, "disc_number": 1, "href": "https://api.spotify.com/v1/tracks/1eyzqe2QqGZUmfcPZtrIyt", "artists": [{"type": "artist", "name": "M83", "external_urls": {"spotify": "https://open.spotify.com/artist/63MQldklfxkjYDoUE4Tppz"}, "id": "63MQldklfxkjYDoUE4Tppz", "uri": "spotify:artist:63MQldklfxkjYDoUE4Tppz", "href": "https://api.spotify.com/v1/artists/63MQldklfxkjYDoUE4Tppz"}], "track_number": 2, "available_markets": ["CA", "US"], "type": "track", "preview_url": "https://p.scdn.co/mp3-preview/2620971cb1ef9fda9aa2d3a5ce3a74dc9be73dd2?cid=0c947b9d3f7547e28aee080174c283c9", "explicit": false, "external_urls": {"spotify": "https://open.spotify.com/track/1eyzqe2QqGZUmfcPZtrIyt"}, "id": "1eyzqe2QqGZUmfcPZtrIyt", "uri": "spotify:track:1eyzqe2QqGZUmfcPZtrIyt", "popularity": 71}, {"album": {"total_tracks": 1, "type": "album", "release_date": "2012", "href": "https://api.spotify.com/v1/albums/5oOaP8n5kFkbxQkzp86tlU", "artists": [{"type": "artist", "name": "M83", "external_urls": {"spotify": "https://open.spotify.com/artist/63MQldklfxkjYDoUE4Tppz"}, "id": "63MQldklfxkjYDoUE4Tppz", "uri": "spotify:artist:63MQldklfxkjYDoUE4Tppz", "href": "https://api.spotify.com/v1/artists/63MQldklfxkjYDoUE4Tppz"}], "images": [{"width": 640, "url": "https://i.scdn.co/image/ab67616d0000b273a70e58a349e5baa581a6b6de", "height": 640}, {"width": 300, "url": "https://i.scdn.co/image/ab67616d00001e02a70e58a349e5baa581a6b6de", "height": 300}, {"width": 64, "url": "https://i.scdn.co/image/ab67616d00004851a70e58a349e5baa581a6b6de", "height": 64}], "available_markets": ["CA", "US"], "album_type": "single", "release_date_precision": "year", "name": "Midnight City (Eric Prydz Private Remix)", "external_urls": {"spotify": "https://open.spotify.com/album/5oOaP8n5kFkbxQkzp86tlU"}, "id": "5oOaP8n5kFkbxQkzp86tlU", "uri": "spotify:album:5oOaP8n5kFkbxQkzp86tlU"}, "external_ids": {"isrc": "GB55H1200001"}, "name": "Midnight City - Eric Prydz Private Remix", "duration_ms": 357241, "is_local": false, "disc_number": 1, "href": "https://api.spotify.com/v1/tracks/53YYzXe4shE5FF13XBrhGz", "artists": [{"type": "artist", "name": "M83", "external_urls": {"spotify": "https://open.spotify.com/artist/63MQldklfxkjYDoUE4Tppz"}, "id": "63MQldklfxkjYDoUE4Tppz", "uri": "spotify:artist:63MQldklfxkjYDoUE4Tppz", "href": "https://api.spotify.com/v1/artists/63MQldklfxkjYDoUE4Tppz"}], "track_number": 1, "available_markets": ["CA", "US"], "type": "track", "preview_url": "https://p.scdn.co/mp3-preview/5808586c37cd15f78a89e37af970eff942f33164?cid=0c947b9d3f7547e28aee080174c283c9", "explicit": false, "external_urls": {"spotify": "https://open.spotify.com/track/53YYzXe4shE5FF13XBrhGz"}, "id": "53YYzXe4shE5FF13XBrhGz", "uri": "spotify:track:53YYzXe4shE5FF13XBrhGz", "popularity": 47}, {"album": {"total_tracks": 5, "type": "album", "release_date": "2011", "href": "https://api.spotify.com/v1/albums/5DB2xMdT0qoWeaHGW9q8e6", "artists": [{"type": "artist", "name": "M83", "external_urls": {"spotify": "https://open.spotify.com/artist/63MQldklfxkjYDoUE4Tppz"}, "id": "63MQldklfxkjYDoUE4Tppz", "uri": "spotify:artist:63MQldklfxkjYDoUE4Tppz", "href": "https://api.spotify.com/v1/artists/63MQldklfxkjYDoUE4Tppz"}], "images": [{"width": 640, "url": "https://i.scdn.co/image/ab67616d0000b273049f9a441a58fddb44f7576b", "height": 640}, {"width": 300, "url": "https://i.scdn.co/image/ab67616d00001e02049f9a441a58fddb44f7576b", "height": 300}, {"width": 64, "url": "https://i.scdn.co/image/ab67616d00004851049f9a441a58fddb44f7576b", "height": 64}], "available_markets": ["CA", "US"], "album_type": "single", "release_date_precision": "year", "name": "Midnight City", "external_urls": {"spotify": "https://open.spotify.com/album/5DB2xMdT0qoWeaHGW9q8e6"}, "id": "5DB2xMdT0qoWeaHGW9q8e6", "uri": "spotify:album:5DB2xMdT0qoWeaHGW9q8e6"}, "external_ids": {"isrc": "GB55H1100002"}, "name": "Midnight City", "duration_ms": 241440, "is_local": false, "disc_number": 1, "href": "https://api.spotify.com/v1/tracks/6uaBPdNeTvL4yH9CVJOg6K", "artists": [{"type": "artist", "name": "M83", "external_urls": {"spotify": "https://open.spotify.com/artist/63MQldklfxkjYDoUE4Tppz"}, "id": "63MQldklfxkjYDoUE4Tppz", "uri": "spotify:artist:63MQldklfxkjYDoUE4Tppz", "href": "https://api.spotify.com/v1/artists/63MQldklfxkjYDoUE4Tppz"}], "track_number": 1, "available_markets": ["CA", "US"], "type": "track", "preview_url": "https://p.scdn.co/mp3-preview/2620971cb1ef9fda9aa2d3a5ce3a74dc9be73dd2?cid=0c947b9d3f7547e28aee080174c283c9", "explicit": false, "external_urls": {"spotify": "https://open.spotify.com/track/6uaBPdNeTvL4yH9CVJOg6K"}, "id": "6uaBPdNeTvL4yH9CVJOg6K", "uri": "spotify:track:6uaBPdNeTvL4yH9CVJOg6K", "popularity": 35}, {"album": {"total_tracks": 19, "type": "album", "release_date": "2012-07-09", "href": "https://api.spotify.com/v1/albums/2ZD68KMPySR5NFMAsLcdTN", "artists": [{"type": "artist", "name": "Various Artists", "external_urls": {"spotify": "https://open.spotify.com/artist/0LyfQWJT6nXafLPZqxe9Of"}, "id": "0LyfQWJT6nXafLPZqxe9Of", "uri": "spotify:artist:0LyfQWJT6nXafLPZqxe9Of", "href": "https://api.spotify.com/v1/artists/0LyfQWJT6nXafLPZqxe9Of"}], "images": [{"width": 640, "url": "https://i.scdn.co/image/ab67616d0000b273b5fc7afa432a33baf03add9e", "height": 640}, {"width": 300, "url": "https://i.scdn.co/image/ab67616d00001e02b5fc7afa432a33baf03add9e", "height": 300}, {"width": 64, "url": "https://i.scdn.co/image/ab67616d00004851b5fc7afa432a33baf03add9e", "height": 64}], "available_markets": ["AD", "AE", "AR", "AT", "AU", "BE", "BG", "BH", "BO", "BR", "CA", "CH", "CL", "CO", "CR", "CY", "CZ", "DE", "DK", "DO", "DZ", "EC", "EE", "EG", "ES", "FI", "FR", "GR", "GT", "HK", "HN", "HU", "ID", "IL", "IN", "IS", "IT", "JO", "JP", "KW", "LB", "LI", "LT", "LU", "LV", "MA", "MC", "MT", "MX", "MY", "NI", "NL", "NO", "NZ", "OM", "PA", "PE", "PH", "PL", "PS", "PT", "PY", "QA", "RO", "SA", "SE", "SG", "SK", "SV", "TH", "TN", "TR", "TW", "US", "UY", "VN", "ZA"], "album_type": "compilation", "release_date_precision": "day", "name": "Sound Of Swedish House Worldwide", "external_urls": {"spotify": "https://open.spotify.com/album/2ZD68KMPySR5NFMAsLcdTN"}, "id": "2ZD68KMPySR5NFMAsLcdTN", "uri": "spotify:album:2ZD68KMPySR5NFMAsLcdTN"}, "external_ids": {"isrc": "GB55H1200001"}, "name": "Midnight City - Eric Prydz Private Remix", "duration_ms": 363746, "is_local": false, "disc_number": 1, "href": "https://api.spotify.com/v1/tracks/5Pw36qPj0axCMBcRlZI7pk", "artists": [{"type": "artist", "name": "M83", "external_urls": {"spotify": "https://open.spotify.com/artist/63MQldklfxkjYDoUE4Tppz"}, "id": "63MQldklfxkjYDoUE4Tppz", "uri": "spotify:artist:63MQldklfxkjYDoUE4Tppz", "href": "https://api.spotify.com/v1/artists/63MQldklfxkjYDoUE4Tppz"}], "track_number": 1, "available_markets": ["AD", "AE", "AR", "AT", "AU", "BE", "BG", "BH", "BO", "BR", "CA", "CH", "CL", "CO", "CR", "CY", "CZ", "DE", "DK", "DO", "DZ", "EC", "EE", "EG", "ES", "FI", "FR", "GR", "GT", "HK", "HN", "HU", "ID", "IL", "IN", "IS", "IT", "JO", "JP", "KW", "LB", "LI", "LT", "LU", "LV", "MA", "MC", "MT", "MX", "MY", "NI", "NL", "NO", "NZ", "OM", "PA", "PE", "PH", "PL", "PS", "PT", "PY", "QA", "RO", "SA", "SE", "SG", "SK", "SV", "TH", "TN", "TR", "TW", "US", "UY", "VN", "ZA"], "type": "track", "preview_url": "https://p.scdn.co/mp3-preview/07e29ed1d6afa9d928d2e8419d8609b637fd19a4?cid=0c947b9d3f7547e28aee080174c283c9", "explicit": false, "external_urls": {"spotify": "https://open.spotify.com/track/5Pw36qPj0axCMBcRlZI7pk"}, "id": "5Pw36qPj0axCMBcRlZI7pk", "uri": "spotify:track:5Pw36qPj0axCMBcRlZI7pk", "popularity": 34}, {"album": {"total_tracks": 5, "type": "album", "release_date": "2011", "href": "https://api.spotify.com/v1/albums/5DB2xMdT0qoWeaHGW9q8e6", "artists": [{"type": "artist", "name": "M83", "external_urls": {"spotify": "https://open.spotify.com/artist/63MQldklfxkjYDoUE4Tppz"}, "id": "63MQldklfxkjYDoUE4Tppz", "uri": "spotify:artist:63MQldklfxkjYDoUE4Tppz", "href": "https://api.spotify.com/v1/artists/63MQldklfxkjYDoUE4Tppz"}], "images": [{"width": 640, "url": "https://i.scdn.co/image/ab67616d0000b273049f9a441a58fddb44f7576b", "height": 640}, {"width": 300, "url": "https://i.scdn.co/image/ab67616d00001e02049f9a441a58fddb44f7576b", "height": 300}, {"width": 64, "url": "https://i.scdn.co/image/ab67616d00004851049f9a441a58fddb44f7576b", "height": 64}], "available_markets": ["CA", "US"], "album_type": "single", "release_date_precision": "year", "name": "Midnight City", "external_urls": {"spotify": "https://open.spotify.com/album/5DB2xMdT0qoWeaHGW9q8e6"}, "id": "5DB2xMdT0qoWeaHGW9q8e6", "uri": "spotify:album:5DB2xMdT0qoWeaHGW9q8e6"}, "external_ids": {"isrc": "GB55H1100025"}, "name": "Midnight City - Trentemoller Remix", "duration_ms": 449142, "is_local": false, "disc_number": 1, "href": "https://api.spotify.com/v1/tracks/5jOdIoHFsUlSGQGCoYs1YG", "artists": [{"type": "artist", "name": "M83", "external_urls": {"spotify": "https://open.spotify.com/artist/63MQldklfxkjYDoUE4Tppz"}, "id": "63MQldklfxkjYDoUE4Tppz", "uri": "spotify:artist:63MQldklfxkjYDoUE4Tppz", "href": "https://api.spotify.com/v1/artists/63MQldklfxkjYDoUE4Tppz"}], "track_number": 3, "available_markets": ["CA", "US"], "type": "track", "preview_url": "https://p.scdn.co/mp3-preview/0392f51fafc0bb7539e0531ec7649afdf47a1d43?cid=0c947b9d3f7547e28aee080174c283c9", "explicit": false, "external_urls": {"spotify": "https://open.spotify.com/track/5jOdIoHFsUlSGQGCoYs1YG"}, "id": "5jOdIoHFsUlSGQGCoYs1YG", "uri": "spotify:track:5jOdIoHFsUlSGQGCoYs1YG", "popularity": 23}], "previous": null, "href": "https://api.spotify.com/v1/search?query=artist%3AM83+track%3AMidnight+City&type=track&offset=0&limit=5", "limit": 5, "total": 12, "next": "https://api.spotify.com/v1/search?query=artist%3AM83+track%3AMidnight+City&type=track&offset=5&limit=5"}}