{"tracks": {"offset": 0, "items": [{"album": {"total_tracks": 12, "type": "album", "release_date": "2013-01-01", "href": "https://api.spotify.com/v1/albums/1s9tU91VJt4sU5owi29GD3", "artists": [{"type": "artist", "name": "Avicii", "external_urls": {"spotify": "https://open.spotify.com/artist/1vCWHaC5f2uS3yhpwWbIA6"}, "id": "1vCWHaC5f2uS3yhpwWbIA6", "uri": "spotify:artist:1vCWHaC5f2uS3yhpwWbIA6", "href": "https://api.spotify.com/v1/artists/1vCWHaC5f2uS3yhpwWbIA6"}], "images": [{"width": 640, "url": "https://i.scdn.co/image/475a5d46cf92bccce46ab199bd68169e441df699", "height": 640}, {"width": 300, "url": "https://i.scdn.co/image/c4b49902870bc369f597884d5939c933b5e65ced", "height": 300}, {"width": 64, "url": "https://i.scdn.co/image/08a4e9cf0dfe8717a7d1decd083e4fadcb41bc66", "height": 64}], "available_markets": ["AD", "AE", "AR", "AT", "AU", "BE", "BG", "BH", "BO", "BR", "CA", "CH", "CL", "CO", "CR", "CY", "CZ", "DE", "DK", "DO", "DZ", "EC", "EE", "EG", "ES", "FI", "FR", "GB", "GR", "GT", "HK", "HN", "HU", "ID", "IE", "IL", "IN", "IS", "IT", "JO", "KW", "LB", "LI", "LT", "LU", "LV", "MA", "MC", "MT", "MX", "MY", "NI", "NL", "NO", "NZ", "OM", "PA", "PE", "PH", "PL", "PS", "PT", "PY", "QA", "RO", "SA", "SE", "SG", "SK", "SV", "TH", "TN", "TR", "TW", "US", "UY", "VN", "ZA"], "album_type": "album", "release_date_precision": "day", "name": "True", "external_urls": {"spotify": "https://open.spotify.com/album/1s9tU91VJt4sU5owi29GD3"}, "id": "1s9tU91VJt4sU5owi29GD3", "uri": "spotify:album:1s9tU91VJt4sU5owi29GD3"}, "external_ids": {"isrc": "SEUM71301326"}, "name": "Wake Me Up", "duration_ms": 247426, "is_local": false, "disc_number": 1, "href": "https://api.spotify.com/v1/tracks/4h8VwCb1MTGoLKueQ1WgbD", "artists": [{"type": "artist", "name": "Avicii", "external_urls": {"spotify": "https://open.spotify.com/artist/1vCWHaC5f2uS3yhpwWbIA6"}, "id": "1vCWHaC5f2uS3yhpwWbIA6", "uri": "spotify:artist:1vCWHaC5f2uS3yhpwWbIA6", "href": "https://api.spotify.com/v1/artists/1vCWHaC5f2uS3yhpwWbIA6"}], "track_number": 1, "available_markets": ["AD", "AE", "AR", "AT", "AU", "BE", "BG", "BH", "BO", "BR", "CA", "CH", "CL", "CO", "CR", "CY", "CZ", "DE", "DK", "DO", "DZ", "EC", "EE", "EG", "ES", "FI", "FR", "GB", "GR", "GT", "HK", "HN", "HU", "ID", "IE", "IL", "IN", "IS", "IT", "JO", "KW", "LB", "LI", "LT", "LU", "LV", "MA", "MC", "MT", "MX", "MY", "NI", "NL", "NO", "NZ", "OM", "PA", "PE", "PH", "PL", "PS", "PT", "PY", "QA", "RO", "SA", "SE", "SG", "SK", "SV", "TH", "TN", "TR", "TW", "US", "UY", "VN", "ZA"], "type": "track", "preview_url": null, "explicit": false, "external_urls": {"spotify": "https://open.spotify.com/track/4h8VwCb1MTGoLKueQ1WgbD"}, "id": "4h8VwCb1MTGoLKueQ1WgbD", "uri": "spotify:track:4h8VwCb1MTGoLKueQ1WgbD", "popularity": 84}, {"album": {"total_tracks": 1, "type": "album", "release_date": "2013-07-30", "href": "https://api.spotify.com/v1/albums/37qAVEAZSyRTVFvVRHcwOa", "artists": [{"type": "artist", "name": "Avicii", "external_urls": {"spotify": "https://open.spotify.com/artist/1vCWHaC5f2uS3yhpwWbIA6"}, "id": "1vCWHaC5f2uS3yhpwWbIA6", "uri": "spotify:artist:1vCWHaC5f2uS3yhpwWbIA6", "href": "https://api.spotify.com/v1/artists/1vCWHaC5f2uS3yhpwWbIA6"}], "images": [{"width": 640, "url": "https://i.scdn.co/image/58c686e976e4016a962f5d3d6c4c5ff5c8ec6cfe", "height": 640}, {"width": 300, "url": "https://i.scdn.co/image/40962a1bc66134fd28b9140b0c46b6a0f830e8d7", "height": 300}, {"width": 64, "url": "https://i.scdn.co/image/1629beb007bbb22ecdf922fb6d1f62428b3e5771", "height": 64}], "available_markets": ["CA", "MX", "US"], "album_type": "single", "release_date_precision": "day", "name": "Wake Me Up", "external_urls": {"spotify": "https://open.spotify.com/album/37qAVEAZSyRTVFvVRHcwOa"}, "id": "37qAVEAZSyRTVFvVRHcwOa", "uri": "spotify:album:37qAVEAZSyRTVFvVRHcwOa"}, "external_ids": {"isrc": "SEUM71301326"}, "name": "Wake Me Up", "duration_ms": 249693, "is_local": false, "disc_number": 1, "href": "https://api.spotify.com/v1/tracks/4QRZirU4s1f30iDHzuKncj", "artists": [{"type": "artist", "name": "Avicii", "external_urls": {"spotify": "https://open.spotify.com/artist/1vCWHaC5f2uS3yhpwWbIA6"}, "id": "1vCWHaC5f2uS3yhpwWbIA6", "uri": "spotify:artist:1vCWHaC5f2uS3yhpwWbIA6", "href": "https://api.spotify.com/v1/artists/1vCWHaC5f2uS3yhpwWbIA6"}], "track_number": 1, "available_markets": ["CA", "MX", "US"], "type": "track", "preview_url": null, "explicit": false, "external_urls": {"spotify": "https://open.spotify.com/track/4QRZirU4s1f30iDHzuKncj"}, "id": "4QRZirU4s1f30iDHzuKncj", "uri": "spotify:track:4QRZirU4s1f30iDHzuKncj", "popularity": 52}, {"album": {"total_tracks": 2, "type": "album", "release_date": "2013-01-01", "href": "https://api.spotify.com/v1/albums/0KVrsQK6GPlEteo3xuRZhS", "artists": [{"type": "artist", "name": "Avicii", "external_urls": {"spotify": "https://open.spotify.com/artist/1vCWHaC5f2uS3yhpwWbIA6"}, "id": "1vCWHaC5f2uS3yhpwWbIA6", "uri": "spotify:artist:1vCWHaC5f2uS3yhpwWbIA6", "href": "https://api.spotify.com/v1/artists/1vCWHaC5f2uS3yhpwWbIA6"}], "images": [{"width": 640, "url": "https://i.scdn.co/image/74fd8578d753eed2768485567f73f2a38d0ca63e", "height": 640}, {"width": 300, "url": "https://i.scdn.co/image/a05d70e41acd238f992865b6272d9866278a2d8a", "height": 300}, {"width": 64, "url": "https://i.scdn.co/image/8e47f785a57b017cab2c2d5026840a77d5c47401", "height": 64}], "available_markets": ["AD", "AE", "AR", "AT", "AU", "BE", "BG", "BH", "BO", "BR", "CA", "CH", "CL", "CO", "CR", "CY", "CZ", "DE", "DK", "DO", "DZ", "EC", "EE", "EG", "ES", "FI", "FR", "GR", "GT", "HK", "HN", "HU", "ID", "IL", "IN", "IS", "IT", "JO", "JP", "KW", "LB", "LI", "LT", "LU", "LV", "MA", "MC", "MT", "MX", "MY", "NI", "NL", "NO", "NZ", "OM", "PA", "PE", "PH", "PL", "PS", "PT", "PY", "QA", "RO", "SA", "SE", "SG", "SK", "SV", "TH", "TN", "TR", "TW", "US", "UY", "VN", "ZA"], "album_type": "single", "release_date_precision": "day", "name": "Wake Me Up (Remixes II)", "external_urls": {"spotify": "https://open.spotify.com/album/0KVrsQK6GPlEteo3xuRZhS"}, "id": "0KVrsQK6GPlEteo3xuRZhS", "uri": "spotify:album:0KVrsQK6GPlEteo3xuRZhS"}, "external_ids": {"isrc": "CH3131340284"}, "name": "Wake Me Up - EDX Miami Sunset Remix", "duration_ms": 392812, "is_local": false, "disc_number": 1, "href": "https://api.spotify.com/v1/tracks/6vQ0VbsRRFOYVmjAMM8c2a", "artists": [{"type": "artist", "name": "Avicii", "external_urls": {"spotify": "https://open.spotify.com/artist/1vCWHaC5f2uS3yhpwWbIA6"}, "id": "1vCWHaC5f2uS3yhpwWbIA6", "uri": "spotify:artist:1vCWHaC5f2uS3yhpwWbIA6", "href": "https://api.spotify.com/v1/artists/1vCWHaC5f2uS3yhpwWbIA6"}], "track_number": 2, "available_markets": ["AD", "AE", "AR", "AT", "AU", "BE", "BG", "BH", "BO", "BR", "CA", "CH", "CL", "CO", "CR", "CY", "CZ", "DE", "DK", "DO", "DZ", "EC", "EE", "EG", "ES", "FI", "FR", "GR", "GT", "HK", "HN", "HU", "ID", "IL", "IN", "IS", "IT", "JO", "JP", "KW", "LB", "LI", "LT", "LU", "LV", "MA", "MC", "MT", "MX", "MY", "NI", "NL", "NO", "NZ", "OM", "PA", "PE", "PH", "PL", "PS", "PT", "PY", "QA", "RO", "SA", "SE", "SG", "SK", "SV", "TH", "TN", "TR", "TW", "US", "UY", "VN", "ZA"], "type": "track", "preview_url": null, "explicit": false, "external_urls": {"spotify": "https://open.spotify.com/track/6vQ0VbsRRFOYVmjAMM8c2a"}, "id": "6vQ0VbsRRFOYVmjAMM8c2a", "uri": "spotify:track:6vQ0VbsRRFOYVmjAMM8c2a", "popularity": 54}, {"album": {"total_tracks": 9, "type": "album", "release_date": "2014-01-01", "href": "https://api.spotify.com/v1/albums/0ignCov9foaLxuqND5GMtl", "artists": [{"type": "artist", "name": "Avicii", "external_urls": {"spotify": "https://open.spotify.com/artist/1vCWHaC5f2uS3yhpwWbIA6"}, "id": "1vCWHaC5f2uS3yhpwWbIA6", "uri": "spotify:artist:1vCWHaC5f2uS3yhpwWbIA6", "href": "https://api.spotify.com/v1/artists/1vCWHaC5f2uS3yhpwWbIA6"}], "images": [{"width": 640, "url": "https://i.scdn.co/image/ad0aead9ee5b8088f1897f53bc2f4623f128304e", "height": 640}, {"width": 300, "url": "https://i.scdn.co/image/d4bd2f3d1e92f64a6daaad0add50a3498be512cf", "height": 300}, {"width": 64, "url": "https://i.scdn.co/image/a8bb80be6c267bc0f0b52c8a02ad5b6b2877fc12", "height": 64}], "available_markets": ["AD", "AE", "AR", "AT", "AU", "BE", "BG", "BH", "BO", "BR", "CA", "CH", "CL", "CO", "CR", "CY", "CZ", "DE", "DK", "DO", "DZ", "EC", "EE", "EG", "ES", "FI", "FR", "GB", "GR", "GT", "HK", "HN", "HU", "ID", "IE", "IL", "IN", "IS", "IT", "JO", "JP", "KW", "LB", "LI", "LT", "LU", "LV", "MA", "MC", "MT", "MX", "MY", "NI", "NL", "NO", "NZ", "OM", "PA", "PE", "PH", "PL", "PS", "PT", "PY", "QA", "RO", "SA", "SE", "SG", "SK", "SV", "TH", "TN", "TR", "TW", "US", "UY", "VN", "ZA"], "album_type": "album", "release_date_precision": "day", "name": "True: Avicii By Avicii", "external_urls": {"spotify": "https://open.spotify.com/album/0ignCov9foaLxuqND5GMtl"}, "id": "0ignCov9foaLxuqND5GMtl", "uri": "spotify:album:0ignCov9foaLxuqND5GMtl"}, "external_ids": {"isrc": "CH3131340325"}, "name": "Wake Me Up - Avicii By Avicii", "duration_ms": 425760, "is_local": false, "disc_number": 1, "href": "https://api.spotify.com/v1/tracks/3bMsT2EiXYKSUjc9uvIkI3", "artists": [{"type": "artist", "name": "Avicii", "external_urls": {"spotify": "https://open.spotify.com/artist/1vCWHaC5f2uS3yhpwWbIA6"}, "id": "1vCWHaC5f2uS3yhpwWbIA6", "uri": "spotify:artist:1vCWHaC5f2uS3yhpwWbIA6", "href": "https://api.spotify.com/v1/artists/1vCWHaC5f2uS3yhpwWbIA6"}, {"type": "artist", "name": "Tim Bergling", "external_urls": {"spotify": "https://open.spotify.com/artist/5baGk14NDI3ZDPbr6wJilc"}, "id": "5baGk14NDI3ZDPbr6wJilc", "uri": "spotify:artist:5baGk14NDI3ZDPbr6wJilc", "href": "https://api.spotify.com/v1/artists/5baGk14NDI3ZDPbr6wJilc"}], "track_number": 1, "available_markets": ["AD", "AE", "AR", "AT", "AU", "BE", "BG", "BH", "BO", "BR", "CA", "CH", "CL", "CO", "CR", "CY", "CZ", "DE", "DK", "DO", "DZ", "EC", "EE", "EG", "ES", "FI", "FR", "GB", "GR", "GT", "HK", "HN", "HU", "ID", "IE", "IL", "IN", "IS", "IT", "JO", "JP", "KW", "LB", "LI", "LT", "LU", "LV", "MA", "MC", "MT", "MX", "MY", "NI", "NL", "NO", "NZ", "OM", "PA", "PE", "PH", "PL", "PS", "PT", "PY", "QA", "RO", "SA", "SE", "SG", "SK", "SV", "TH", "TN", "TR", "TW", "US", "UY", "VN", "ZA"], "type": "track", "preview_url": null, "explicit": false, "external_urls": {"spotify": "https://open.spotify.com/track/3bMsT2EiXYKSUjc9uvIkI3"}, "id": "3bMsT2EiXYKSUjc9uvIkI3", "uri": "spotify:track:3bMsT2EiXYKSUjc9uvIkI3", "popularity": 51}, {"album": {"total_tracks": 2, "type": "album", "release_date": "2013-01-01", "href": "https://api.spotify.com/v1/albums/3EhZIuxBiEh6yCkosURDQ3", "artists": [{"type": "artist", "name": "Avicii", "external_urls": {"spotify": "https://open.spotify.com/artist/1vCWHaC5f2uS3yhpwWbIA6"}, "id": "1vCWHaC5f2uS3yhpwWbIA6", "uri": "spotify:artist:1vCWHaC5f2uS3yhpwWbIA6", "href": "https://api.spotify.com/v1/artists/1vCWHaC5f2uS3yhpwWbIA6"}], "images": [{"width": 640, "url": "https://i.scdn.co/image/9abe46ce7333af330f7a1ea959ef15cae301906d", "height": 640}, {"width": 300, "url": "https://i.scdn.co/image/8c029502e86b2a139114894a9975fcd470e03255", "height": 300}, {"width": 64, "url": "https://i.scdn.co/image/427e487b8a68256a00d5372632b83fd3900a0b0d", "height": 64}], "available_markets": ["AD", "AE", "AR", "AT", "AU", "BE", "BG", "BH", "BO", "BR", "CA", "CH", "CL", "CO", "CR", "CY", "CZ", "DE", "DK", "DO", "DZ", "EC", "EE", "EG", "ES", "FI", "GB", "GR", "GT", "HK", "HN", "HU", "ID", "IE", "IL", "IN", "IS", "IT", "JO", "JP", "KW", "LB", "LI", "LT", "LU", "LV", "MA", "MC", "MT", "MX", "MY", "NI", "NL", "NO", "NZ", "OM", "PA", "PE", "PH", "PL", "PS", "PT", "PY", "QA", "RO", "SA", "SE", "SG", "SK", "SV", "TH", "TN", "TR", "TW", "US", "UY", "VN", "ZA"], "album_type": "single", "release_date_precision": "day", "name": "Wake Me Up (Remixes)", "external_urls": {"spotify": "https://open.spotify.com/album/3EhZIuxBiEh6yCkosURDQ3"}, "id": "3EhZIuxBiEh6yCkosURDQ3", "uri": "spotify:album:3EhZIuxBiEh6yCkosURDQ3"}, "external_ids": {"isrc": "CH3131340094"}, "name": "Wake Me Up - Reggae Mix", "duration_ms": 271626, "is_local": false, "disc_number": 1, "href": "https://api.spotify.com/v1/tracks/0Fd88oYq5IZsWUsApsu0DY", "artists": [{"type": "artist", "name": "Avicii", "external_urls": {"spotify": "https://open.spotify.com/artist/1vCWHaC5f2uS3yhpwWbIA6"}, "id": "1vCWHaC5f2uS3yhpwWbIA6", "uri": "spotify:artist:1vCWHaC5f2uS3yhpwWbIA6", "href": "https://api.spotify.com/v1/artists/1vCWHaC5f2uS3yhpwWbIA6"}], "track_number": 2, "available_markets": ["AD", "AE", "AR", "AT", "AU", "BE", "BG", "BH", "BO", "BR", "CA", "CH", "CL", "CO", "CR", "CY", "CZ", "DE", "DK", "DO", "DZ", "EC", "EE", "EG", "ES", "FI", "GB", "GR", "GT", "HK", "HN", "HU", "ID", "IE", "IL", "IN", "IS", "IT", "JO", "JP", "KW", "LB", "LI", "LT", "LU", "LV", "MA", "MC", "MT", "MX", "MY", "NI", "NL", "NO", "NZ", "OM", "PA", "PE", "PH", "PL", "PS", "PT", "PY", "QA", "RO", "SA", "SE", "SG", "SK", "SV", "TH", "TN", "TR", "TW", "US", "UY", "VN", "ZA"], "type": "track", "preview_url": null, "explicit": false, "external_urls": {"spotify": "https://open.spotify.com/track/0Fd88oYq5IZsWUsApsu0DY"}, "id": "0Fd88oYq5IZsWUsApsu0DY", "uri": "spotify:track:0Fd88oYq5IZsWUsApsu0DY", "popularity": 51}], "previous": null, "href": "https://api.spotify.com/v1/search?query=artist%3AAvicii+track%3AWake+Me+Up&type=track&offset=0&limit=5", "limit": 5, "total": 30, "next": "https://api.spotify.com/v1/search?query=artist%3AAvicii+track%3AWake+Me+Up&type=track&offset=5&limit=5"}}