{"tracks": {"offset": 0, "items": [{"album": {"total_tracks": 23, "type": "album", "release_date": "2012-11-12", "href": "https://api.spotify.com/v1/albums/5PW8nAtvf2HV8RYZFd4IrX", "artists": [{"type": "artist", "name": "Lana Del Rey", "external_urls": {"spotify": "https://open.spotify.com/artist/00FQb4jTyendYWaN8pK0wa"}, "id": "00FQb4jTyendYWaN8pK0wa", "uri": "spotify:artist:00FQb4jTyendYWaN8pK0wa", "href": "https://api.spotify.com/v1/artists/00FQb4jTyendYWaN8pK0wa"}], "images": [{"width": 640, "url": "https://i.scdn.co/image/2fd037ed12cf6d069c47d1e96befebbe654af27b", "height": 640}, {"width": 300, "url": "https://i.scdn.co/image/3602cba750849eff1305b67f7f85de8ce4cb0c27", "height": 300}, {"width": 64, "url": "https://i.scdn.co/image/09fb328e1ee90c9c9c14dd2a50e6f4c579d66cd2", "height": 64}], "available_markets": ["CA", "CR", "MX", "US"], "album_type": "album", "release_date_precision": "day", "name": "Born To Die - The Paradise Edition", "external_urls": {"spotify": "https://open.spotify.com/album/5PW8nAtvf2HV8RYZFd4IrX"}, "id": "5PW8nAtvf2HV8RYZFd4IrX", "uri": "spotify:album:5PW8nAtvf2HV8RYZFd4IrX"}, "external_ids": {"isrc": "GBUM71111621"}, "name": "Video Games - Remastered", "duration_ms": 281960, "is_local": false, "disc_number": 1, "href": "https://api.spotify.com/v1/tracks/24jvD83UgLmrdGjhWTFslY", "artists": [{"type": "artist", "name": "Lana Del Rey", "external_urls": {"spotify": "https://open.spotify.com/artist/00FQb4jTyendYWaN8pK0wa"}, "id": "00FQb4jTyendYWaN8pK0wa", "uri": "spotify:artist:00FQb4jTyendYWaN8pK0wa", "href": "https://api.spotify.com/v1/artists/00FQb4jTyendYWaN8pK0wa"}], "track_number": 4, "available_markets": ["CA", "CR", "MX", "US"], "type": "track", "preview_url": null, "explicit": false, "external_urls": {"spotify": "https://open.spotify.com/track/24jvD83UgLmrdGjhWTFslY"}, "id": "24jvD83UgLmrdGjhWTFslY", "uri": "spotify:track:24jvD83UgLmrdGjhWTFslY", "popularity": 65}, {"album": {"total_tracks": 15, "type": "album", "release_date": "2012-01-30", "href": "https://api.spotify.com/v1/albums/3TtsWmvFbChKTWIRfa85lS", "artists": [{"type": "artist", "name": "Lana Del Rey", "external_urls": {"spotify": "https://open.spotify.com/artist/00FQb4jTyendYWaN8pK0wa"}, "id": "00FQb4jTyendYWaN8pK0wa", "uri": "spotify:artist:00FQb4jTyendYWaN8pK0wa", "href": "https://api.spotify.com/v1/artists/00FQb4jTyendYWaN8pK0wa"}], "images": [{"width": 640, "url": "https://i.scdn.co/image/d37aa43a471ac77b85e893d7a34769244731b70b", "height": 640}, {"width": 300, "url": "https://i.scdn.co/image/ca7148d7d34c576f51ac1d5aa928f3f184b27e12", "height": 300}, {"width": 64, "url": "https://i.scdn.co/image/94ffd1474526b9e048b0737f7643537dcbcab6ac", "height": 64}], "available_markets": ["CA", "US"], "album_type": "album", "release_date_precision": "day", "name": "Born To Die (Bonus Track Version)", "external_urls": {"spotify": "https://open.spotify.com/album/3TtsWmvFbChKTWIRfa85lS"}, "id": "3TtsWmvFbChKTWIRfa85lS", "uri": "spotify:album:3TtsWmvFbChKTWIRfa85lS"}, "external_ids": {"isrc": "GBUM71111621"}, "name": "Video Games - Remastered", "duration_ms": 281946, "is_local": false, "disc_number": 1, "href": "https://api.spotify.com/v1/tracks/1GNIYBU1XhMSlAxJXiUBbC", "artists": [{"type": "artist", "name": "Lana Del Rey", "external_urls": {"spotify": "https://open.spotify.com/artist/00FQb4jTyendYWaN8pK0wa"}, "id": "00FQb4jTyendYWaN8pK0wa", "uri": "spotify:artist:00FQb4jTyendYWaN8pK0wa", "href": "https://api.spotify.com/v1/artists/00FQb4jTyendYWaN8pK0wa"}], "track_number": 4, "available_markets": ["CA", "US"], "type": "track", "preview_url": null, "explicit": false, "external_urls": {"spotify": "https://open.spotify.com/track/1GNIYBU1XhMSlAxJXiUBbC"}, "id": "1GNIYBU1XhMSlAxJXiUBbC", "uri": "spotify:track:1GNIYBU1XhMSlAxJXiUBbC", "popularity": 56}, {"album": {"total_tracks": 13, "type": "album", "release_date": "2012-01-30", "href": "https://api.spotify.com/v1/albums/4X8hAqIWpQyQks2yRhyqs4", "artists": [{"type": "artist", "name": "Lana Del Rey", "external_urls": {"spotify": "https://open.spotify.com/artist/00FQb4jTyendYWaN8pK0wa"}, "id": "00FQb4jTyendYWaN8pK0wa", "uri": "spotify:artist:00FQb4jTyendYWaN8pK0wa", "href": "https://api.spotify.com/v1/artists/00FQb4jTyendYWaN8pK0wa"}], "images": [{"width": 640, "url": "https://i.scdn.co/image/d3a6192a9bc0d68f9b3a5dbbab4ef3618755d289", "height": 640}, {"width": 300, "url": "https://i.scdn.co/image/908ed29089cb1acf6a741aea8fafc6023c0038cd", "height": 300}, {"width": 64, "url": "https://i.scdn.co/image/2229731d3ed532e06d7274688c0da2cff74ad84f", "height": 64}], "available_markets": ["CA", "FR", "US"], "album_type": "album", "release_date_precision": "day", "name": "Born To Die", "external_urls": {"spotify": "https://open.spotify.com/album/4X8hAqIWpQyQks2yRhyqs4"}, "id": "4X8hAqIWpQyQks2yRhyqs4", "uri": "spotify:album:4X8hAqIWpQyQks2yRhyqs4"}, "external_ids": {"isrc": "GBUM71111621"}, "name": "Video Games - Remastered", "duration_ms": 281946, "is_local": false, "disc_number": 1, "href": "https://api.spotify.com/v1/tracks/5by7gtiDrxe4n2qQQunL8S", "artists": [{"type": "artist", "name": "Lana Del Rey", "external_urls": {"spotify": "https://open.spotify.com/artist/00FQb4jTyendYWaN8pK0wa"}, "id": "00FQb4jTyendYWaN8pK0wa", "uri": "spotify:artist:00FQb4jTyendYWaN8pK0wa", "href": "https://api.spotify.com/v1/artists/00FQb4jTyendYWaN8pK0wa"}], "track_number": 4, "available_markets": ["CA", "FR", "US"], "type": "track", "preview_url": null, "explicit": false, "external_urls": {"spotify": "https://open.spotify.com/track/5by7gtiDrxe4n2qQQunL8S"}, "id": "5by7gtiDrxe4n2qQQunL8S", "uri": "spotify:track:5by7gtiDrxe4n2qQQunL8S", "popularity": 52}, {"album": {"total_tracks": 5, "type": "album", "release_date": "2012-01-01", "href": "https://api.spotify.com/v1/albums/5xQF02P2MtoIIqMCB1MOoM", "artists": [{"type": "artist", "name": "Lana Del Rey", "external_urls": {"spotify": "https://open.spotify.com/artist/00FQb4jTyendYWaN8pK0wa"}, "id": "00FQb4jTyendYWaN8pK0wa", "uri": "spotify:artist:00FQb4jTyendYWaN8pK0wa", "href": "https://api.spotify.com/v1/artists/00FQb4jTyendYWaN8pK0wa"}], "images": [{"width": 640, "url": "https://i.scdn.co/image/c180504baf6c348b60212f84575bb05e931b59fc", "height": 640}, {"width": 300, "url": "https://i.scdn.co/image/39c80972db6410b081032306dcba777bc6ed7443", "height": 300}, {"width": 64, "url": "https://i.scdn.co/image/823ce40b32381fc96eeaec2a6289536edca2195e", "height": 64}], "available_markets": ["AU", "BE", "BG", "BR", "CA", "CO", "CR", "CY", "CZ", "DO", "EC", "EE", "ES", "FI", "FR", "GR", "HU", "IL", "IN", "IS", "JP", "LT", "LU", "LV", "MT", "MX", "MY", "NO", "NZ", "PE", "PH", "PL", "PT", "RO", "SG", "SK", "TR", "US", "ZA"], "album_type": "single", "release_date_precision": "day", "name": "Video Games Remixes", "external_urls": {"spotify": "https://open.spotify.com/album/5xQF02P2MtoIIqMCB1MOoM"}, "id": "5xQF02P2MtoIIqMCB1MOoM", "uri": "spotify:album:5xQF02P2MtoIIqMCB1MOoM"}, "external_ids": {"isrc": "GBUM71110024"}, "name": "Video Games - Jakwob and Etherwood Remix", "duration_ms": 222560, "is_local": false, "disc_number": 1, "href": "https://api.spotify.com/v1/tracks/5FtPuqpCjMjkQ6hTg5rkhZ", "artists": [{"type": "artist", "name": "Lana Del Rey", "external_urls": {"spotify": "https://open.spotify.com/artist/00FQb4jTyendYWaN8pK0wa"}, "id": "00FQb4jTyendYWaN8pK0wa", "uri": "spotify:artist:00FQb4jTyendYWaN8pK0wa", "href": "https://api.spotify.com/v1/artists/00FQb4jTyendYWaN8pK0wa"}, {"type": "artist", "name": "Jakwob", "external_urls": {"spotify": "https://open.spotify.com/artist/4S5yXnFzWvHu16wfuDjjfM"}, "id": "4S5yXnFzWvHu16wfuDjjfM", "uri": "spotify:artist:4S5yXnFzWvHu16wfuDjjfM", "href": "https://api.spotify.com/v1/artists/4S5yXnFzWvHu16wfuDjjfM"}, {"type": "artist", "name": "Etherwood", "external_urls": {"spotify": "https://open.spotify.com/artist/3GEUIa3Z0Qlivy3EcJm5RX"}, "id": "3GEUIa3Z0Qlivy3EcJm5RX", "uri": "spotify:artist:3GEUIa3Z0Qlivy3EcJm5RX", "href": "https://api.spotify.com/v1/artists/3GEUIa3Z0Qlivy3EcJm5RX"}], "track_number": 2, "available_markets": ["AU", "BE", "BG", "BR", "CA", "CO", "CR", "CY", "CZ", "DO", "EC", "EE", "ES", "FI", "FR", "GR", "HU", "IL", "IN", "IS", "JP", "LT", "LU", "LV", "MT", "MX", "MY", "NO", "NZ", "PE", "PH", "PL", "PT", "RO", "SG", "SK", "TR", "US", "ZA"], "type": "track", "preview_url": null, "explicit": false, "external_urls": {"spotify": "https://open.spotify.com/track/5FtPuqpCjMjkQ6hTg5rkhZ"}, "id": "5FtPuqpCjMjkQ6hTg5rkhZ", "uri": "spotify:track:5FtPuqpCjMjkQ6hTg5rkhZ", "popularity": 36}, {"album": {"total_tracks": 5, "type": "album", "release_date": "2012-01-01", "href": "https://api.spotify.com/v1/albums/5xQF02P2MtoIIqMCB1MOoM", "artists": [{"type": "artist", "name": "Lana Del Rey", "external_urls": {"spotify": "https://open.spotify.com/artist/00FQb4jTyendYWaN8pK0wa"}, "id": "00FQb4jTyendYWaN8pK0wa", "uri": "spotify:artist:00FQb4jTyendYWaN8pK0wa", "href": "https://api.spotify.com/v1/artists/00FQb4jTyendYWaN8pK0wa"}], "images": [{"width": 640, "url": "https://i.scdn.co/image/c180504baf6c348b60212f84575bb05e931b59fc", "height": 640}, {"width": 300, "url": "https://i.scdn.co/image/39c80972db6410b081032306dcba777bc6ed7443", "height": 300}, {"width": 64, "url": "https://i.scdn.co/image/823ce40b32381fc96eeaec2a6289536edca2195e", "height": 64}], "available_markets": ["AU", "BE", "BG", "BR", "CA", "CO", "CR", "CY", "CZ", "DO", "EC", "EE", "ES", "FI", "FR", "GR", "HU", "IL", "IN", "IS", "JP", "LT", "LU", "LV", "MT", "MX", "MY", "NO", "NZ", "PE", "PH", "PL", "PT", "RO", "SG", "SK", "TR", "US", "ZA"], "album_type": "single", "release_date_precision": "day", "name": "Video Games Remixes", "external_urls": {"spotify": "https://open.spotify.com/album/5xQF02P2MtoIIqMCB1MOoM"}, "id": "5xQF02P2MtoIIqMCB1MOoM", "uri": "spotify:album:5xQF02P2MtoIIqMCB1MOoM"}, "external_ids": {"isrc": "GBUM71107881"}, "name": "Video Games - Club Clique For The Bad Girls Remix", "duration_ms": 297720, "is_local": false, "disc_number": 1, "href": "https://api.spotify.com/v1/tracks/4KmtER3ibPlEHMw2CtU6Ba", "artists": [{"type": "artist", "name": "Lana Del Rey", "external_urls": {"spotify": "https://open.spotify.com/artist/00FQb4jTyendYWaN8pK0wa"}, "id": "00FQb4jTyendYWaN8pK0wa", "uri": "spotify:artist:00FQb4jTyendYWaN8pK0wa", "href": "https://api.spotify.com/v1/artists/00FQb4jTyendYWaN8pK0wa"}, {"type": "artist", "name": "Club Clique", "external_urls": {"spotify": "https://open.spotify.com/artist/1EnozkTUyiBieU9iagUUZu"}, "id": "1EnozkTUyiBieU9iagUUZu", "uri": "spotify:artist:1EnozkTUyiBieU9iagUUZu", "href": "https://api.spotify.com/v1/artists/1EnozkTUyiBieU9iagUUZu"}], "track_number": 1, "available_markets": ["AU", "BE", "BG", "BR", "CA", "CO", "CR", "CY", "CZ", "DO", "EC", "EE", "ES", "FI", "FR", "GR", "HU", "IL", "IN", "IS", "JP", "LT", "LU", "LV", "MT", "MX", "MY", "NO", "NZ", "PE", "PH", "PL", "PT", "RO", "SG", "SK", "TR", "US", "ZA"], "type": "track", "preview_url": null, "explicit": false, "external_urls": {"spotify": "https://open.spotify.com/track/4KmtER3ibPlEHMw2CtU6Ba"}, "id": "4KmtER3ibPlEHMw2CtU6Ba", "uri": "spotify:track:4KmtER3ibPlEHMw2CtU6Ba", "popularity": 33}], "previous": null, "href": "https://api.spotify.com/v1/search?query=artist%3ALana+Del+Rey+track%3AVideo+Games&type=track&offset=0&limit=5", "limit": 5, "total": 11, "next": "https://api.spotify.com/v1/search?query=artist%3ALana+Del+Rey+track%3AVideo+Games&type=track&offset=5&limit=5"}}