{"tracks": {"offset": 0, "items": [{"album": {"total_tracks": 10, "type": "album", "release_date": "2014-01-01", "href": "https://api.spotify.com/v1/albums/08jWgM4vSkTose4blKBWov", "artists": [{"type": "artist", "name": "Sam Smith", "external_urls": {"spotify": "https://open.spotify.com/artist/2wY79sveU1sp5g7SokKOiI"}, "id": "2wY79sveU1sp5g7SokKOiI", "uri": "spotify:artist:2wY79sveU1sp5g7SokKOiI", "href": "https://api.spotify.com/v1/artists/2wY79sveU1sp5g7SokKOiI"}], "images": [{"width": 640, "url": "https://i.scdn.co/image/47df1c7008331fa8460d536067fa95de752b1d29", "height": 640}, {"width": 300, "url": "https://i.scdn.co/image/f09167632cd5c164fb9e06e809caef092d118b6b", "height": 300}, {"width": 64, "url": "https://i.scdn.co/image/0ed9a1e3b7036cf18ab122b5d485251b8c8eed1f", "height": 64}], "available_markets": ["AD", "AE", "AR", "AT", "AU", "BE", "BG", "BH", "BO", "BR", "CA", "CH", "CL", "CO", "CR", "CY", "CZ", "DE", "DK", "DO", "DZ", "EC", "EE", "EG", "ES", "FI", "FR", "GB", "GR", "GT", "HK", "HN", "HU", "ID", "IE", "IL", "IN", "IS", "IT", "JO", "KW", "LB", "LI", "LT", "LU", "LV", "MA", "MC", "MT", "MX", "MY", "NI", "NL", "NO", "NZ", "OM", "PA", "PE", "PH", "PL", "PS", "PT", "PY", "QA", "RO", "SA", "SE", "SG", "SK", "SV", "TH", "TN", "TR", "TW", "US", "UY", "VN", "ZA"], "album_type": "album", "release_date_precision": "day", "name": "In The Lonely Hour", "external_urls": {"spotify": "https://open.spotify.com/album/08jWgM4vSkTose4blKBWov"}, "id": "08jWgM4vSkTose4blKBWov", "uri": "spotify:album:08jWgM4vSkTose4blKBWov"}, "external_ids": {"isrc": "GBUM71308833"}, "name": "Stay With Me", "duration_ms": 172723, "is_local": false, "disc_number": 1, "href": "https://api.spotify.com/v1/tracks/5Nm9ERjJZ5oyfXZTECKmRt", "artists": [{"type": "artist", "name": "Sam Smith", "external_urls": {"spotify": "https://open.spotify.com/artist/2wY79sveU1sp5g7SokKOiI"}, "id": "2wY79sveU1sp5g7SokKOiI", "uri": "spotify:artist:2wY79sveU1sp5g7SokKOiI", "href": "https://api.spotify.com/v1/artists/2wY79sveU1sp5g7SokKOiI"}], "track_number": 3, "available_markets": ["AD", "AE", "AR", "AT", "AU", "BE", "BG", "BH", "BO", "BR", "CA", "CH", "CL", "CO", "CR", "CY", "CZ", "DE", "DK", "DO", "DZ", "EC", "EE", "EG", "ES", "FI", "FR", "GB", "GR", "GT", "HK", "HN", "HU", "ID", "IE", "IL", "IN", "IS", "IT", "JO", "KW", "LB", "LI", "LT", "LU", "LV", "MA", "MC", "MT", "MX", "MY", "NI", "NL", "NO", "NZ", "OM", "PA", "PE", "PH", "PL", "PS", "PT", "PY", "QA", "RO", "SA", "SE", "SG", "SK", "SV", "TH", "TN", "TR", "TW", "US", "UY", "VN", "ZA"], "type": "track", "preview_url": null, "explicit": false, "external_urls": {"spotify": "https://open.spotify.com/track/5Nm9ERjJZ5oyfXZTECKmRt"}, "id": "5Nm9ERjJZ5oyfXZTECKmRt", "uri": "spotify:track:5Nm9ERjJZ5oyfXZTECKmRt", "popularity": 85}, {"album": {"total_tracks": 23, "type": "album", "release_date": "2015-11-06", "href": "https://api.spotify.com/v1/albums/0vrWqbRQEMKqhTGcDLQK7x", "artists": [{"type": "artist", "name": "Sam Smith", "external_urls": {"spotify": "https://open.spotify.com/artist/2wY79sveU1sp5g7SokKOiI"}, "id": "2wY79sveU1sp5g7SokKOiI", "uri": "spotify:artist:2wY79sveU1sp5g7SokKOiI", "href": "https://api.spotify.com/v1/artists/2wY79sveU1sp5g7SokKOiI"}], "images": [{"width": 640, "url": "https://i.scdn.co/image/445ff539b6f2fcb0531753b7a04994a70ecdebc5", "height": 640}, {"width": 300, "url": "https://i.scdn.co/image/c6e317167521527759db2f01d692fba2a7cb1a00", "height": 300}, {"width": 64, "url": "https://i.scdn.co/image/1f37bc4c3296015c987c3b72fb47602584d319ef", "height": 64}], "available_markets": ["AD", "AE", "AR", "AT", "AU", "BE", "BG", "BH", "BO", "BR", "CA", "CH", "CL", "CO", "CR", "CY", "CZ", "DE", "DK", "DO", "DZ", "EC", "EE", "EG", "ES", "FI", "FR", "GB", "GR", "GT", "HK", "HN", "HU", "ID", "IE", "IL", "IN", "IS", "IT", "JO", "JP", "KW", "LB", "LI", "LT", "LU", "LV", "MA", "MC", "MT", "MX", "MY", "NI", "NL", "NO", "NZ", "OM", "PA", "PE", "PH", "PL", "PS", "PT", "PY", "QA", "RO", "SA", "SE", "SG", "SK", "SV", "TH", "TN", "TR", "TW", "US", "UY", "VN", "ZA"], "album_type": "album", "release_date_precision": "day", "name": "In The Lonely Hour (Drowning Shadows Edition)", "external_urls": {"spotify": "https://open.spotify.com/album/0vrWqbRQEMKqhTGcDLQK7x"}, "id": "0vrWqbRQEMKqhTGcDLQK7x", "uri": "spotify:album:0vrWqbRQEMKqhTGcDLQK7x"}, "external_ids": {"isrc": "GBUM71308833"}, "name": "Stay With Me", "duration_ms": 172723, "is_local": false, "disc_number": 1, "href": "https://api.spotify.com/v1/tracks/31CHJzSweI6r1dk6XrZceK", "artists": [{"type": "artist", "name": "Sam Smith", "external_urls": {"spotify": "https://open.spotify.com/artist/2wY79sveU1sp5g7SokKOiI"}, "id": "2wY79sveU1sp5g7SokKOiI", "uri": "spotify:artist:2wY79sveU1sp5g7SokKOiI", "href": "https://api.spotify.com/v1/artists/2wY79sveU1sp5g7SokKOiI"}], "track_number": 3, "available_markets": ["AD", "AE", "AR", "AT", "AU", "BE", "BG", "BH", "BO", "BR", "CA", "CH", "CL", "CO", "CR", "CY", "CZ", "DE", "DK", "DO", "DZ", "EC", "EE", "EG", "ES", "FI", "FR", "GB", "GR", "GT", "HK", "HN", "HU", "ID", "IE", "IL", "IN", "IS", "IT", "JO", "JP", "KW", "LB", "LI", "LT", "LU", "LV", "MA", "MC", "MT", "MX", "MY", "NI", "NL", "NO", "NZ", "OM", "PA", "PE", "PH", "PL", "PS", "PT", "PY", "QA", "RO", "SA", "SE", "SG", "SK", "SV", "TH", "TN", "TR", "TW", "US", "UY", "VN", "ZA"], "type": "track", "preview_url": null, "explicit": false, "external_urls": {"spotify": "https://open.spotify.com/track/31CHJzSweI6r1dk6XrZceK"}, "id": "31CHJzSweI6r1dk6XrZceK", "uri": "spotify:track:31CHJzSweI6r1dk6XrZceK", "popularity": 55}, {"album": {"total_tracks": 23, "type": "album", "release_date": "2015-11-06", "href": "https://api.spotify.com/v1/albums/0vrWqbRQEMKqhTGcDLQK7x", "artists": [{"type": "artist", "name": "Sam Smith", "external_urls": {"spotify": "https://open.spotify.com/artist/2wY79sveU1sp5g7SokKOiI"}, "id": "2wY79sveU1sp5g7SokKOiI", "uri": "spotify:artist:2wY79sveU1sp5g7SokKOiI", "href": "https://api.spotify.com/v1/artists/2wY79sveU1sp5g7SokKOiI"}], "images": [{"width": 640, "url": "https://i.scdn.co/image/445ff539b6f2fcb0531753b7a04994a70ecdebc5", "height": 640}, {"width": 300, "url": "https://i.scdn.co/image/c6e317167521527759db2f01d692fba2a7cb1a00", "height": 300}, {"width": 64, "url": "https://i.scdn.co/image/1f37bc4c3296015c987c3b72fb47602584d319ef", "height": 64}], "available_markets": ["AD", "AE", "AR", "AT", "AU", "BE", "BG", "BH", "BO", "BR", "CA", "CH", "CL", "CO", "CR", "CY", "CZ", "DE", "DK", "DO", "DZ", "EC", "EE", "EG", "ES", "FI", "FR", "GB", "GR", "GT", "HK", "HN", "HU", "ID", "IE", "IL", "IN", "IS", "IT", "JO", "JP", "KW", "LB", "LI", "LT", "LU", "LV", "MA", "MC", "MT", "MX", "MY", "NI", "NL", "NO", "NZ", "OM", "PA", "PE", "PH", "PL", "PS", "PT", "PY", "QA", "RO", "SA", "SE", "SG", "SK", "SV", "TH", "TN", "TR", "TW", "US", "UY", "VN", "ZA"], "album_type": "album", "release_date_precision": "day", "name": "In The Lonely Hour (Drowning Shadows Edition)", "external_urls": {"spotify": "https://open.spotify.com/album/0vrWqbRQEMKqhTGcDLQK7x"}, "id": "0vrWqbRQEMKqhTGcDLQK7x", "uri": "spotify:album:0vrWqbRQEMKqhTGcDLQK7x"}, "external_ids": {"isrc": "GBUM71402189"}, "name": "Stay With Me - Radio Edit", "duration_ms": 173448, "is_local": false, "disc_number": 1, "href": "https://api.spotify.com/v1/tracks/3C08A6WXAl2XAsI5hZtTSR", "artists": [{"type": "artist", "name": "Sam Smith", "external_urls": {"spotify": "https://open.spotify.com/artist/2wY79sveU1sp5g7SokKOiI"}, "id": "2wY79sveU1sp5g7SokKOiI", "uri": "spotify:artist:2wY79sveU1sp5g7SokKOiI", "href": "https://api.spotify.com/v1/artists/2wY79sveU1sp5g7SokKOiI"}, {"type": "artist", "name": "Mary J. Blige", "external_urls": {"spotify": "https://open.spotify.com/artist/1XkoF8ryArs86LZvFOkbyr"}, "id": "1XkoF8ryArs86LZvFOkbyr", "uri": "spotify:artist:1XkoF8ryArs86LZvFOkbyr", "href": "https://api.spotify.com/v1/artists/1XkoF8ryArs86LZvFOkbyr"}], "track_number": 21, "available_markets": ["AD", "AE", "AR", "AT", "AU", "BE", "BG", "BH", "BO", "BR", "CA", "CH", "CL", "CO", "CR", "CY", "CZ", "DE", "DK", "DO", "DZ", "EC", "EE", "EG", "ES", "FI", "FR", "GB", "GR", "GT", "HK", "HN", "HU", "ID", "IE", "IL", "IN", "IS", "IT", "JO", "JP", "KW", "LB", "LI", "LT", "LU", "LV", "MA", "MC", "MT", "MX", "MY", "NI", "NL", "NO", "NZ", "OM", "PA", "PE", "PH", "PL", "PS", "PT", "PY", "QA", "RO", "SA", "SE", "SG", "SK", "SV", "TH", "TN", "TR", "TW", "US", "UY", "VN", "ZA"], "type": "track", "preview_url": null, "explicit": false, "external_urls": {"spotify": "https://open.spotify.com/track/3C08A6WXAl2XAsI5hZtTSR"}, "id": "3C08A6WXAl2XAsI5hZtTSR", "uri": "spotify:track:3C08A6WXAl2XAsI5hZtTSR", "popularity": 55}, {"album": {"total_tracks": 28, "type": "album", "release_date": "2017-10-06", "href": "https://api.spotify.com/v1/albums/6BX3TAr9l2T65INfgaK1wt", "artists": [{"type": "artist", "name": "Various Artists", "external_urls": {"spotify": "https://open.spotify.com/artist/0LyfQWJT6nXafLPZqxe9Of"}, "id": "0LyfQWJT6nXafLPZqxe9Of", "uri": "spotify:artist:0LyfQWJT6nXafLPZqxe9Of", "href": "https://api.spotify.com/v1/artists/0LyfQWJT6nXafLPZqxe9Of"}], "images": [{"width": 640, "url": "https://i.scdn.co/image/b54bcbdbf78fa0968bc53da3000427b888dec039", "height": 640}, {"width": 300, "url": "https://i.scdn.co/image/2c8dc3697cf3f876e69c2702b51766a939c9e397", "height": 300}, {"width": 64, "url": "https://i.scdn.co/image/c4e701cb9cb3c8903493f39b324cae51914c5c63", "height": 64}], "available_markets": ["AD", "AE", "AR", "AT", "AU", "BE", "BG", "BH", "BO", "BR", "CA", "CH", "CL", "CO", "CR", "CY", "CZ", "DE", "DK", "DO", "DZ", "EC", "EE", "EG", "ES", "FI", "FR", "GB", "GR", "GT", "HK", "HN", "HU", "ID", "IE", "IL", "IN", "IS", "IT", "JO", "JP", "KW", "LB", "LI", "LT", "LU", "LV", "MA", "MC", "MT", "MX", "MY", "NI", "NL", "NO", "NZ", "OM", "PA", "PE", "PH", "PL", "PS", "PT", "PY", "QA", "RO", "SA", "SG", "SK", "SV", "TH", "TN", "TR", "TW", "US", "UY", "VN", "ZA"], "album_type": "compilation", "release_date_precision": "day", "name": "Study Music", "external_urls": {"spotify": "https://open.spotify.com/album/6BX3TAr9l2T65INfgaK1wt"}, "id": "6BX3TAr9l2T65INfgaK1wt", "uri": "spotify:album:6BX3TAr9l2T65INfgaK1wt"}, "external_ids": {"isrc": "GBUM71308833"}, "name": "Stay With Me", "duration_ms": 173326, "is_local": false, "disc_number": 1, "href": "https://api.spotify.com/v1/tracks/7kdHA5S22omZNra0LR858I", "artists": [{"type": "artist", "name": "Sam Smith", "external_urls": {"spotify": "https://open.spotify.com/artist/2wY79sveU1sp5g7SokKOiI"}, "id": "2wY79sveU1sp5g7SokKOiI", "uri": "spotify:artist:2wY79sveU1sp5g7SokKOiI", "href": "https://api.spotify.com/v1/artists/2wY79sveU1sp5g7SokKOiI"}], "track_number": 2, "available_markets": ["AD", "AE", "AR", "AT", "AU", "BE", "BG", "BH", "BO", "BR", "CA", "CH", "CL", "CO", "CR", "CY", "CZ", "DE", "DK", "DO", "DZ", "EC", "EE", "EG", "ES", "FI", "FR", "GB", "GR", "GT", "HK", "HN", "HU", "ID", "IE", "IL", "IN", "IS", "IT", "JO", "JP", "KW", "LB", "LI", "LT", "LU", "LV", "MA", "MC", "MT", "MX", "MY", "NI", "NL", "NO", "NZ", "OM", "PA", "PE", "PH", "PL", "PS", "PT", "PY", "QA", "RO", "SA", "SG", "SK", "SV", "TH", "TN", "TR", "TW", "US", "UY", "VN", "ZA"], "type": "track", "preview_url": null, "explicit": false, "external_urls": {"spotify": "https://open.spotify.com/track/7kdHA5S22omZNra0LR858I"}, "id": "7kdHA5S22omZNra0LR858I", "uri": "spotify:track:7kdHA5S22omZNra0LR858I", "popularity": 15}, {"album": {"total_tracks": 36, "type": "album", "release_date": "2017-09-22", "href": "https://api.spotify.com/v1/albums/55BxFSeJAUHIIzctEAGBOb", "artists": [{"type": "artist", "name": "Various Artists", "external_urls": {"spotify": "https://open.spotify.com/artist/0LyfQWJT6nXafLPZqxe9Of"}, "id": "0LyfQWJT6nXafLPZqxe9Of", "uri": "spotify:artist:0LyfQWJT6nXafLPZqxe9Of", "href": "https://api.spotify.com/v1/artists/0LyfQWJT6nXafLPZqxe9Of"}], "images": [{"width": 640, "url": "https://i.scdn.co/image/ab67616d0000b27338cde3ede58b1da3928b459a", "height": 640}, {"width": 300, "url": "https://i.scdn.co/image/ab67616d00001e0238cde3ede58b1da3928b459a", "height": 300}, {"width": 64, "url": "https://i.scdn.co/image/ab67616d0000485138cde3ede58b1da3928b459a", "height": 64}], "available_markets": ["AD", "AE", "AR", "AT", "AU", "BE", "BG", "BH", "BO", "BR", "CA", "CH", "CL", "CO", "CR", "CY", "CZ", "DE", "DK", "DO", "DZ", "EC", "EE", "EG", "ES", "FI", "FR", "GB", "GR", "GT", "HK", "HN", "HU", "ID", "IE", "IL", "IN", "IS", "IT", "JO", "JP", "KW", "LB", "LI", "LT", "LU", "LV", "MA", "MC", "MT", "MX", "MY", "NI", "NL", "NO", "NZ", "OM", "PA", "PE", "PH", "PL", "PS", "PT", "PY", "QA", "RO", "SA", "SG", "SK", "SV", "TH", "TN", "TR", "TW", "US", "UY", "VN", "ZA"], "album_type": "compilation", "release_date_precision": "day", "name": "Dinner Party", "external_urls": {"spotify": "https://open.spotify.com/album/55BxFSeJAUHIIzctEAGBOb"}, "id": "55BxFSeJAUHIIzctEAGBOb", "uri": "spotify:album:55BxFSeJAUHIIzctEAGBOb"}, "external_ids": {"isrc": "GBUM71308833"}, "name": "Stay With Me", "duration_ms": 173421, "is_local": false, "disc_number": 1, "href": "https://api.spotify.com/v1/tracks/5rWiDr1yyTDxPqKUPQECyU", "artists": [{"type": "artist", "name": "Sam Smith", "external_urls": {"spotify": "https://open.spotify.com/artist/2wY79sveU1sp5g7SokKOiI"}, "id": "2wY79sveU1sp5g7SokKOiI", "uri": "spotify:artist:2wY79sveU1sp5g7SokKOiI", "href": "https://api.spotify.com/v1/artists/2wY79sveU1sp5g7SokKOiI"}], "track_number": 24, "available_markets": ["AD", "AE", "AR", "AT", "AU", "BE", "BG", "BH", "BO", "BR", "CA", "CH", "CL", "CO", "CR", "CY", "CZ", "DE", "DK", "DO", "DZ", "EC", "EE", "EG", "ES", "FI", "FR", "GB", "GR", "GT", "HK", "HN", "HU", "ID", "IE", "IL", "IN", "IS", "IT", "JO", "JP", "KW", "LB", "LI", "LT", "LU", "LV", "MA", "MC", "MT", "MX", "MY", "NI", "NL", "NO", "NZ", "OM", "PA", "PE", "PH", "PL", "PS", "PT", "PY", "QA", "RO", "SA", "SG", "SK", "SV", "TH", "TN", "TR", "TW", "US", "UY", "VN", "ZA"], "type": "track", "preview_url": null, "explicit": false, "external_urls": {"spotify": "https://open.spotify.com/track/5rWiDr1yyTDxPqKUPQECyU"}, "id": "5rWiDr1yyTDxPqKUPQECyU", "uri": "spotify:track:5rWiDr1yyTDxPqKUPQECyU", "popularity": 15}], "previous": null, "href": "https://api.spotify.com/v1/search?query=artist%3ASam+Smith+track%3AStay+With+Me&type=track&offset=0&limit=5", "limit": 5, "total": 8, "next": "https://api.spotify.com/v1/search?query=artist%3ASam+Smith+track%3AStay+With+Me&type=track&offset=5&limit=5"}}