{"tracks": {"offset": 0, "items": [{"album": {"total_tracks": 10, "type": "album", "release_date": "2009", "href": "https://api.spotify.com/v1/albums/47enZlu6ssi5aFaAxHc0wt", "artists": [{"type": "artist", "name": "The Temper Trap", "external_urls": {"spotify": "https://open.spotify.com/artist/4W48hZAnAHVOC2c8WH8pcq"}, "id": "4W48hZAnAHVOC2c8WH8pcq", "uri": "spotify:artist:4W48hZAnAHVOC2c8WH8pcq", "href": "https://api.spotify.com/v1/artists/4W48hZAnAHVOC2c8WH8pcq"}], "images": [{"width": 640, "url": "https://i.scdn.co/image/ab67616d0000b27387946430ca4bd10176aa8e90", "height": 640}, {"width": 300, "url": "https://i.scdn.co/image/ab67616d00001e0287946430ca4bd10176aa8e90", "height": 300}, {"width": 64, "url": "https://i.scdn.co/image/ab67616d0000485187946430ca4bd10176aa8e90", "height": 64}], "available_markets": ["US"], "album_type": "album", "release_date_precision": "year", "name": "Conditions", "external_urls": {"spotify": "https://open.spotify.com/album/47enZlu6ssi5aFaAxHc0wt"}, "id": "47enZlu6ssi5aFaAxHc0wt", "uri": "spotify:album:47enZlu6ssi5aFaAxHc0wt"}, "external_ids": {"isrc": "GBZUZ0900013"}, "name": "Sweet Disposition", "duration_ms": 230800, "is_local": false, "disc_number": 1, "href": "https://api.spotify.com/v1/tracks/5RoIXwyTCdyUjpMMkk4uPd", "artists": [{"type": "artist", "name": "The Temper Trap", "external_urls": {"spotify": "https://open.spotify.com/artist/4W48hZAnAHVOC2c8WH8pcq"}, "id": "4W48hZAnAHVOC2c8WH8pcq", "uri": "spotify:artist:4W48hZAnAHVOC2c8WH8pcq", "href": "https://api.spotify.com/v1/artists/4W48hZAnAHVOC2c8WH8pcq"}], "track_number": 2, "available_markets": ["US"], "type": "track", "preview_url": "https://p.scdn.co/mp3-preview/385f0135b7ba06c3ac3bdbadd15eb9b02c5ecdf0?cid=0c947b9d3f7547e28aee080174c283c9", "explicit": false, "external_urls": {"spotify": "https://open.spotify.com/track/5RoIXwyTCdyUjpMMkk4uPd"}, "id": "5RoIXwyTCdyUjpMMkk4uPd", "uri": "spotify:track:5RoIXwyTCdyUjpMMkk4uPd", "popularity": 66}, {"album": {"total_tracks": 1, "type": "album", "release_date": "2019-04-05", "href": "https://api.spotify.com/v1/albums/1T5hWf7rZDryYjrNqq5hHN", "artists": [{"type": "artist", "name": "The Temper Trap", "external_urls": {"spotify": "https://open.spotify.com/artist/4W48hZAnAHVOC2c8WH8pcq"}, "id": "4W48hZAnAHVOC2c8WH8pcq", "uri": "spotify:artist:4W48hZAnAHVOC2c8WH8pcq", "href": "https://api.spotify.com/v1/artists/4W48hZAnAHVOC2c8WH8pcq"}, {"type": "artist", "name": "Vintage Culture", "external_urls": {"spotify": "https://open.spotify.com/artist/28uJnu5EsrGml2tBd7y8ts"}, "id": "28uJnu5EsrGml2tBd7y8ts", "uri": "spotify:artist:28uJnu5EsrGml2tBd7y8ts", "href": "https://api.spotify.com/v1/artists/28uJnu5EsrGml2tBd7y8ts"}, {"type": "artist", "name": "Lazy Bear", "external_urls": {"spotify": "https://open.spotify.com/artist/3DUHqp1EQvqsbodW3qKDH9"}, "id": "3DUHqp1EQvqsbodW3qKDH9", "uri": "spotify:artist:3DUHqp1EQvqsbodW3qKDH9", "href": "https://api.spotify.com/v1/artists/3DUHqp1EQvqsbodW3qKDH9"}], "images": [{"width": 640, "url": "https://i.scdn.co/image/ab67616d0000b273ccceace1876a49925e65e459", "height": 640}, {"width": 300, "url": "https://i.scdn.co/image/ab67616d00001e02ccceace1876a49925e65e459", "height": 300}, {"width": 64, "url": "https://i.scdn.co/image/ab67616d00004851ccceace1876a49925e65e459", "height": 64}], "available_markets": ["AD", "AE", "AR", "AT", "AU", "BE", "BG", "BH", "BO", "BR", "CA", "CH", "CL", "CO", "CR", "CY", "CZ", "DE", "DK", "DO", "DZ", "EC", "EE", "EG", "ES", "FI", "FR", "GB", "GR", "GT", "HK", "HN", "HU", "ID", "IE", "IL", "IN", "IS", "IT", "JO", "JP", "KW", "LB", "LI", "LT", "LU", "LV", "MA", "MC", "MT", "MX", "MY", "NI", "NL", "NO", "NZ", "OM", "PA", "PE", "PH", "PL", "PS", "PT", "PY", "QA", "RO", "SA", "SE", "SG", "SK", "SV", "TH", "TN", "TR", "TW", "US", "UY", "VN", "ZA"], "album_type": "single", "release_date_precision": "day", "name": "Sweet Disposition (Vintage Culture & Lazy Bear Remix)", "external_urls": {"spotify": "https://open.spotify.com/album/1T5hWf7rZDryYjrNqq5hHN"}, "id": "1T5hWf7rZDryYjrNqq5hHN", "uri": "spotify:album:1T5hWf7rZDryYjrNqq5hHN"}, "external_ids": {"isrc": "AULI01923740"}, "name": "Sweet Disposition - Vintage Culture & Lazy Bear Remix", "duration_ms": 225245, "is_local": false, "disc_number": 1, "href": "https://api.spotify.com/v1/tracks/4MFZBEsF4RZ8ihiLCyl79f", "artists": [{"type": "artist", "name": "The Temper Trap", "external_urls": {"spotify": "https://open.spotify.com/artist/4W48hZAnAHVOC2c8WH8pcq"}, "id": "4W48hZAnAHVOC2c8WH8pcq", "uri": "spotify:artist:4W48hZAnAHVOC2c8WH8pcq", "href": "https://api.spotify.com/v1/artists/4W48hZAnAHVOC2c8WH8pcq"}, {"type": "artist", "name": "Vintage Culture", "external_urls": {"spotify": "https://open.spotify.com/artist/28uJnu5EsrGml2tBd7y8ts"}, "id": "28uJnu5EsrGml2tBd7y8ts", "uri": "spotify:artist:28uJnu5EsrGml2tBd7y8ts", "href": "https://api.spotify.com/v1/artists/28uJnu5EsrGml2tBd7y8ts"}, {"type": "artist", "name": "Lazy Bear", "external_urls": {"spotify": "https://open.spotify.com/artist/3DUHqp1EQvqsbodW3qKDH9"}, "id": "3DUHqp1EQvqsbodW3qKDH9", "uri": "spotify:artist:3DUHqp1EQvqsbodW3qKDH9", "href": "https://api.spotify.com/v1/artists/3DUHqp1EQvqsbodW3qKDH9"}], "track_number": 1, "available_markets": ["AD", "AE", "AR", "AT", "AU", "BE", "BG", "BH", "BO", "BR", "CA", "CH", "CL", "CO", "CR", "CY", "CZ", "DE", "DK", "DO", "DZ", "EC", "EE", "EG", "ES", "FI", "FR", "GB", "GR", "GT", "HK", "HN", "HU", "ID", "IE", "IL", "IN", "IS", "IT", "JO", "JP", "KW", "LB", "LI", "LT", "LU", "LV", "MA", "MC", "MT", "MX", "MY", "NI", "NL", "NO", "NZ", "OM", "PA", "PE", "PH", "PL", "PS", "PT", "PY", "QA", "RO", "SA", "SE", "SG", "SK", "SV", "TH", "TN", "TR", "TW", "US", "UY", "VN", "ZA"], "type": "track", "preview_url": "https://p.scdn.co/mp3-preview/c0d203e62076df481d4ec148e96c37fa716e4d81?cid=0c947b9d3f7547e28aee080174c283c9", "explicit": false, "external_urls": {"spotify": "https://open.spotify.com/track/4MFZBEsF4RZ8ihiLCyl79f"}, "id": "4MFZBEsF4RZ8ihiLCyl79f", "uri": "spotify:track:4MFZBEsF4RZ8ihiLCyl79f", "popularity": 66}, {"album": {"total_tracks": 2, "type": "album", "release_date": "2019-09-20", "href": "https://api.spotify.com/v1/albums/4Fbusn5p49DtXL6ZPBSkpD", "artists": [{"type": "artist", "name": "The Temper Trap", "external_urls": {"spotify": "https://open.spotify.com/artist/4W48hZAnAHVOC2c8WH8pcq"}, "id": "4W48hZAnAHVOC2c8WH8pcq", "uri": "spotify:artist:4W48hZAnAHVOC2c8WH8pcq", "href": "https://api.spotify.com/v1/artists/4W48hZAnAHVOC2c8WH8pcq"}, {"type": "artist", "name": "Cristoph", "external_urls": {"spotify": "https://open.spotify.com/artist/532SqCIYmJyXEdEiCJLgYG"}, "id": "532SqCIYmJyXEdEiCJLgYG", "uri": "spotify:artist:532SqCIYmJyXEdEiCJLgYG", "href": "https://api.spotify.com/v1/artists/532SqCIYmJyXEdEiCJLgYG"}], "images": [{"width": 640, "url": "https://i.scdn.co/image/1cb21a9951c5bebd3d2749461dcec574330afbdf", "height": 640}, {"width": 300, "url": "https://i.scdn.co/image/556fc64a0cd96acbae2483a22ddc5247eed3a860", "height": 300}, {"width": 64, "url": "https://i.scdn.co/image/f90ded396e9f9210d0e5771ece120a85425a1f1f", "height": 64}], "available_markets": ["CA", "US"], "album_type": "single", "release_date_precision": "day", "name": "Sweet Disposition (Cristoph Remix)", "external_urls": {"spotify": "https://open.spotify.com/album/4Fbusn5p49DtXL6ZPBSkpD"}, "id": "4Fbusn5p49DtXL6ZPBSkpD", "uri": "spotify:album:4Fbusn5p49DtXL6ZPBSkpD"}, "external_ids": {"isrc": "GB5KW1903147"}, "name": "Sweet Disposition - Cristoph Remix", "duration_ms": 495386, "is_local": false, "disc_number": 1, "href": "https://api.spotify.com/v1/tracks/4fIZQRgheoP0eRBXV9SIXC", "artists": [{"type": "artist", "name": "The Temper Trap", "external_urls": {"spotify": "https://open.spotify.com/artist/4W48hZAnAHVOC2c8WH8pcq"}, "id": "4W48hZAnAHVOC2c8WH8pcq", "uri": "spotify:artist:4W48hZAnAHVOC2c8WH8pcq", "href": "https://api.spotify.com/v1/artists/4W48hZAnAHVOC2c8WH8pcq"}], "track_number": 2, "available_markets": ["CA", "US"], "type": "track", "preview_url": "https://p.scdn.co/mp3-preview/58801dbe28c424974d3cf8fad591429478f9defe?cid=0c947b9d3f7547e28aee080174c283c9", "explicit": false, "external_urls": {"spotify": "https://open.spotify.com/track/4fIZQRgheoP0eRBXV9SIXC"}, "id": "4fIZQRgheoP0eRBXV9SIXC", "uri": "spotify:track:4fIZQRgheoP0eRBXV9SIXC", "popularity": 36}, {"album": {"total_tracks": 2, "type": "album", "release_date": "2019-09-20", "href": "https://api.spotify.com/v1/albums/4Fbusn5p49DtXL6ZPBSkpD", "artists": [{"type": "artist", "name": "The Temper Trap", "external_urls": {"spotify": "https://open.spotify.com/artist/4W48hZAnAHVOC2c8WH8pcq"}, "id": "4W48hZAnAHVOC2c8WH8pcq", "uri": "spotify:artist:4W48hZAnAHVOC2c8WH8pcq", "href": "https://api.spotify.com/v1/artists/4W48hZAnAHVOC2c8WH8pcq"}, {"type": "artist", "name": "Cristoph", "external_urls": {"spotify": "https://open.spotify.com/artist/532SqCIYmJyXEdEiCJLgYG"}, "id": "532SqCIYmJyXEdEiCJLgYG", "uri": "spotify:artist:532SqCIYmJyXEdEiCJLgYG", "href": "https://api.spotify.com/v1/artists/532SqCIYmJyXEdEiCJLgYG"}], "images": [{"width": 640, "url": "https://i.scdn.co/image/1cb21a9951c5bebd3d2749461dcec574330afbdf", "height": 640}, {"width": 300, "url": "https://i.scdn.co/image/556fc64a0cd96acbae2483a22ddc5247eed3a860", "height": 300}, {"width": 64, "url": "https://i.scdn.co/image/f90ded396e9f9210d0e5771ece120a85425a1f1f", "height": 64}], "available_markets": ["CA", "US"], "album_type": "single", "release_date_precision": "day", "name": "Sweet Disposition (Cristoph Remix)", "external_urls": {"spotify": "https://open.spotify.com/album/4Fbusn5p49DtXL6ZPBSkpD"}, "id": "4Fbusn5p49DtXL6ZPBSkpD", "uri": "spotify:album:4Fbusn5p49DtXL6ZPBSkpD"}, "external_ids": {"isrc": "GB5KW1903375"}, "name": "Sweet Disposition - Cristoph Remix Edit", "duration_ms": 257225, "is_local": false, "disc_number": 1, "href": "https://api.spotify.com/v1/tracks/4ITIMl0PZ5D5DakcQSFudE", "artists": [{"type": "artist", "name": "The Temper Trap", "external_urls": {"spotify": "https://open.spotify.com/artist/4W48hZAnAHVOC2c8WH8pcq"}, "id": "4W48hZAnAHVOC2c8WH8pcq", "uri": "spotify:artist:4W48hZAnAHVOC2c8WH8pcq", "href": "https://api.spotify.com/v1/artists/4W48hZAnAHVOC2c8WH8pcq"}, {"type": "artist", "name": "Cristoph", "external_urls": {"spotify": "https://open.spotify.com/artist/532SqCIYmJyXEdEiCJLgYG"}, "id": "532SqCIYmJyXEdEiCJLgYG", "uri": "spotify:artist:532SqCIYmJyXEdEiCJLgYG", "href": "https://api.spotify.com/v1/artists/532SqCIYmJyXEdEiCJLgYG"}], "track_number": 1, "available_markets": ["CA", "US"], "type": "track", "preview_url": "https://p.scdn.co/mp3-preview/0ec555918577233041f9fc143e07a1cce97d47f2?cid=0c947b9d3f7547e28aee080174c283c9", "explicit": false, "external_urls": {"spotify": "https://open.spotify.com/track/4ITIMl0PZ5D5DakcQSFudE"}, "id": "4ITIMl0PZ5D5DakcQSFudE", "uri": "spotify:track:4ITIMl0PZ5D5DakcQSFudE", "popularity": 36}, {"album": {"total_tracks": 1, "type": "album", "release_date": "2017-06-16", "href": "https://api.spotify.com/v1/albums/6aSfppV7qyQLu1n1QTTAMW", "artists": [{"type": "artist", "name": "The Temper Trap", "external_urls": {"spotify": "https://open.spotify.com/artist/4W48hZAnAHVOC2c8WH8pcq"}, "id": "4W48hZAnAHVOC2c8WH8pcq", "uri": "spotify:artist:4W48hZAnAHVOC2c8WH8pcq", "href": "https://api.spotify.com/v1/artists/4W48hZAnAHVOC2c8WH8pcq"}, {"type": "artist", "name": "Youngr", "external_urls": {"spotify": "https://open.spotify.com/artist/5TrkbV9x6OdTBlzWPJeBz5"}, "id": "5TrkbV9x6OdTBlzWPJeBz5", "uri": "spotify:artist:5TrkbV9x6OdTBlzWPJeBz5", "href": "https://api.spotify.com/v1/artists/5TrkbV9x6OdTBlzWPJeBz5"}], "images": [{"width": 640, "url": "https://i.scdn.co/image/ab67616d0000b273c4de55d126d63b3059a84814", "height": 640}, {"width": 300, "url": "https://i.scdn.co/image/ab67616d00001e02c4de55d126d63b3059a84814", "height": 300}, {"width": 64, "url": "https://i.scdn.co/image/ab67616d00004851c4de55d126d63b3059a84814", "height": 64}], "available_markets": ["AD", "AE", "AR", "AT", "AU", "BE", "BG", "BH", "BO", "BR", "CA", "CH", "CL", "CO", "CR", "CY", "CZ", "DE", "DK", "DO", "DZ", "EC", "EE", "EG", "ES", "FI", "FR", "GB", "GR", "GT", "HK", "HN", "HU", "ID", "IE", "IL", "IN", "IS", "IT", "JO", "JP", "KW", "LB", "LI", "LT", "LU", "LV", "MA", "MC", "MT", "MX", "MY", "NI", "NL", "NO", "NZ", "OM", "PA", "PE", "PH", "PL", "PS", "PT", "PY", "QA", "RO", "SA", "SE", "SG", "SK", "SV", "TH", "TN", "TR", "TW", "US", "UY", "VN", "ZA"], "album_type": "single", "release_date_precision": "day", "name": "Sweet Disposition (Bootleg)", "external_urls": {"spotify": "https://open.spotify.com/album/6aSfppV7qyQLu1n1QTTAMW"}, "id": "6aSfppV7qyQLu1n1QTTAMW", "uri": "spotify:album:6aSfppV7qyQLu1n1QTTAMW"}, "external_ids": {"isrc": "GB5KW1701953"}, "name": "Sweet Disposition - Bootleg", "duration_ms": 294005, "is_local": false, "disc_number": 1, "href": "https://api.spotify.com/v1/tracks/1WmXwlO2Q07qaA4PIqLULi", "artists": [{"type": "artist", "name": "The Temper Trap", "external_urls": {"spotify": "https://open.spotify.com/artist/4W48hZAnAHVOC2c8WH8pcq"}, "id": "4W48hZAnAHVOC2c8WH8pcq", "uri": "spotify:artist:4W48hZAnAHVOC2c8WH8pcq", "href": "https://api.spotify.com/v1/artists/4W48hZAnAHVOC2c8WH8pcq"}, {"type": "artist", "name": "Youngr", "external_urls": {"spotify": "https://open.spotify.com/artist/5TrkbV9x6OdTBlzWPJeBz5"}, "id": "5TrkbV9x6OdTBlzWPJeBz5", "uri": "spotify:artist:5TrkbV9x6OdTBlzWPJeBz5", "href": "https://api.spotify.com/v1/artists/5TrkbV9x6OdTBlzWPJeBz5"}], "track_number": 1, "available_markets": ["AD", "AE", "AR", "AT", "AU", "BE", "BG", "BH", "BO", "BR", "CA", "CH", "CL", "CO", "CR", "CY", "CZ", "DE", "DK", "DO", "DZ", "EC", "EE", "EG", "ES", "FI", "FR", "GB", "GR", "GT", "HK", "HN", "HU", "ID", "IE", "IL", "IN", "IS", "IT", "JO", "JP", "KW", "LB", "LI", "LT", "LU", "LV", "MA", "MC", "MT", "MX", "MY", "NI", "NL", "NO", "NZ", "OM", "PA", "PE", "PH", "PL", "PS", "PT", "PY", "QA", "RO", "SA", "SE", "SG", "SK", "SV", "TH", "TN", "TR", "TW", "US", "UY", "VN", "ZA"], "type": "track", "preview_url": null, "explicit": false, "external_urls": {"spotify": "https://open.spotify.com/track/1WmXwlO2Q07qaA4PIqLULi"}, "id": "1WmXwlO2Q07qaA4PIqLULi", "uri": "spotify:track:1WmXwlO2Q07qaA4PIqLULi", "popularity": 48}], "previous": null, "href": "https://api.spotify.com/v1/search?query=artist%3AThe+Temper+Trap+track%3ASweet+Disposition&type=track&offset=0&limit=5", "limit": 5, "total": 15, "next": "https://api.spotify.com/v1/search?query=artist%3AThe+Temper+Trap+track%3ASweet+Disposition&type=track&offset=5&limit=5"}}