{"tracks": {"offset": 0, "items": [{"album": {"total_tracks": 10, "type": "album", "release_date": "1982-04-08", "href": "https://api.spotify.com/v1/albums/62U7xIHcID94o20Of5ea4D", "artists": [{"type": "artist", "name": "TOTO", "external_urls": {"spotify": "https://open.spotify.com/artist/0PFtn5NtBbbUNbU9EAmIWF"}, "id": "0PFtn5NtBbbUNbU9EAmIWF", "uri": "spotify:artist:0PFtn5NtBbbUNbU9EAmIWF", "href": "https://api.spotify.com/v1/artists/0PFtn5NtBbbUNbU9EAmIWF"}], "images": [{"width": 640, "url": "https://i.scdn.co/image/ab67616d0000b273673d6a2831f72e48745ea80d", "height": 640}, {"width": 300, "url": "https://i.scdn.co/image/ab67616d00001e02673d6a2831f72e48745ea80d", "height": 300}, {"width": 64, "url": "https://i.scdn.co/image/ab67616d00004851673d6a2831f72e48745ea80d", "height": 64}], "available_markets": ["AD", "AE", "AR", "AT", "AU", "BE", "BG", "BH", "BO", "BR", "CA", "CH", "CL", "CO", "CR", "CY", "CZ", "DE", "DK", "DO", "DZ", "EC", "EE", "EG", "ES", "FI", "FR", "GB", "GR", "GT", "HK", "HN", "HU", "ID", "IE", "IL", "IN", "IS", "IT", "JO", "JP", "KW", "LB", "LI", "LT", "LU", "LV", "MA", "MC", "MT", "MX", "MY", "NI", "NL", "NO", "NZ", "OM", "PA", "PE", "PH", "PL", "PS", "PT", "PY", "QA", "RO", "SA", "SE", "SG", "SK", "SV", "TH", "TN", "TR", "TW", "US", "UY", "VN", "ZA"], "album_type": "album", "release_date_precision": "day", "name": "Toto IV", "external_urls": {"spotify": "https://open.spotify.com/album/62U7xIHcID94o20Of5ea4D"}, "id": "62U7xIHcID94o20Of5ea4D", "uri": "spotify:album:62U7xIHcID94o20Of5ea4D"}, "external_ids": {"isrc": "USSM19801941"}, "name": "Africa", "duration_ms": 295893, "is_local": false, "disc_number": 1, "href": "https://api.spotify.com/v1/tracks/2374M0fQpWi3dLnB54qaLX", "artists": [{"type": "artist", "name": "TOTO", "external_urls": {"spotify": "https://open.spotify.com/artist/0PFtn5NtBbbUNbU9EAmIWF"}, "id": "0PFtn5NtBbbUNbU9EAmIWF", "uri": "spotify:artist:0PFtn5NtBbbUNbU9EAmIWF", "href": "https://api.spotify.com/v1/artists/0PFtn5NtBbbUNbU9EAmIWF"}], "track_number": 10, "available_markets": ["AD", "AE", "AR", "AT", "AU", "BE", "BG", "BH", "BO", "BR", "CA", "CH", "CL", "CO", "CR", "CY", "CZ", "DE", "DK", "DO", "DZ", "EC", "EE", "EG", "ES", "FI", "FR", "GB", "GR", "GT", "HK", "HN", "HU", "ID", "IE", "IL", "IN", "IS", "IT", "JO", "JP", "KW", "LB", "LI", "LT", "LU", "LV", "MA", "MC", "MT", "MX", "MY", "NI", "NL", "NO", "NZ", "OM", "PA", "PE", "PH", "PL", "PS", "PT", "PY", "QA", "RO", "SA", "SE", "SG", "SK", "SV", "TH", "TN", "TR", "TW", "US", "UY", "VN", "ZA"], "type": "track", "preview_url": "https://p.scdn.co/mp3-preview/dd78dafe31bb98f230372c038a126b8808f9349b?cid=0c947b9d3f7547e28aee080174c283c9", "explicit": false, "external_urls": {"spotify": "https://open.spotify.com/track/2374M0fQpWi3dLnB54qaLX"}, "id": "2374M0fQpWi3dLnB54qaLX", "uri": "spotify:track:2374M0fQpWi3dLnB54qaLX", "popularity": 85}, {"album": {"total_tracks": 17, "type": "album", "release_date": "2018-02-09", "href": "https://api.spotify.com/v1/albums/5ChYBNgy8o2ps5716s1GH2", "artists": [{"type": "artist", "name": "TOTO", "external_urls": {"spotify": "https://open.spotify.com/artist/0PFtn5NtBbbUNbU9EAmIWF"}, "id": "0PFtn5NtBbbUNbU9EAmIWF", "uri": "spotify:artist:0PFtn5NtBbbUNbU9EAmIWF", "href": "https://api.spotify.com/v1/artists/0PFtn5NtBbbUNbU9EAmIWF"}], "images": [{"width": 640, "url": "https://i.scdn.co/image/ab67616d0000b273f8c5b4b15e315515124d6c62", "height": 640}, {"width": 300, "url": "https://i.scdn.co/image/ab67616d00001e02f8c5b4b15e315515124d6c62", "height": 300}, {"width": 64, "url": "https://i.scdn.co/image/ab67616d00004851f8c5b4b15e315515124d6c62", "height": 64}], "available_markets": ["AD", "AE", "AR", "AT", "AU", "BE", "BG", "BH", "BO", "BR", "CA", "CH", "CL", "CO", "CR", "CY", "CZ", "DE", "DK", "DO", "DZ", "EC", "EE", "EG", "ES", "FI", "FR", "GB", "GR", "GT", "HK", "HN", "HU", "ID", "IE", "IL", "IN", "IS", "IT", "JO", "JP", "KW", "LB", "LI", "LT", "LU", "LV", "MA", "MC", "MT", "MX", "MY", "NI", "NL", "NO", "NZ", "OM", "PA", "PE", "PH", "PL", "PS", "PT", "PY", "QA", "RO", "SA", "SE", "SG", "SK", "SV", "TH", "TN", "TR", "TW", "US", "UY", "VN", "ZA"], "album_type": "compilation", "release_date_precision": "day", "name": "Greatest Hits: 40 Trips Around The Sun", "external_urls": {"spotify": "https://open.spotify.com/album/5ChYBNgy8o2ps5716s1GH2"}, "id": "5ChYBNgy8o2ps5716s1GH2", "uri": "spotify:album:5ChYBNgy8o2ps5716s1GH2"}, "external_ids": {"isrc": "USSM19801941"}, "name": "Africa", "duration_ms": 295346, "is_local": false, "disc_number": 1, "href": "https://api.spotify.com/v1/tracks/6QZo2TgclkUMwJgggi8QSQ", "artists": [{"type": "artist", "name": "TOTO", "external_urls": {"spotify": "https://open.spotify.com/artist/0PFtn5NtBbbUNbU9EAmIWF"}, "id": "0PFtn5NtBbbUNbU9EAmIWF", "uri": "spotify:artist:0PFtn5NtBbbUNbU9EAmIWF", "href": "https://api.spotify.com/v1/artists/0PFtn5NtBbbUNbU9EAmIWF"}], "track_number": 17, "available_markets": ["AD", "AE", "AR", "AT", "AU", "BE", "BG", "BH", "BO", "BR", "CA", "CH", "CL", "CO", "CR", "CY", "CZ", "DE", "DK", "DO", "DZ", "EC", "EE", "EG", "ES", "FI", "FR", "GB", "GR", "GT", "HK", "HN", "HU", "ID", "IE", "IL", "IN", "IS", "IT", "JO", "JP", "KW", "LB", "LI", "LT", "LU", "LV", "MA", "MC", "MT", "MX", "MY", "NI", "NL", "NO", "NZ", "OM", "PA", "PE", "PH", "PL", "PS", "PT", "PY", "QA", "RO", "SA", "SE", "SG", "SK", "SV", "TH", "TN", "TR", "TW", "US", "UY", "VN", "ZA"], "type": "track", "preview_url": "https://p.scdn.co/mp3-preview/32191b4df823588647bbcbb2715cf1f84ddb485c?cid=0c947b9d3f7547e28aee080174c283c9", "explicit": false, "external_urls": {"spotify": "https://open.spotify.com/track/6QZo2TgclkUMwJgggi8QSQ"}, "id": "6QZo2TgclkUMwJgggi8QSQ", "uri": "spotify:track:6QZo2TgclkUMwJgggi8QSQ", "popularity": 50}, {"album": {"total_tracks": 30, "type": "album", "release_date": "2017-10-27", "href": "https://api.spotify.com/v1/albums/0CTCk1eshEadFqZ4NBfe9N", "artists": [{"type": "artist", "name": "Various Artists", "external_urls": {"spotify": "https://open.spotify.com/artist/0LyfQWJT6nXafLPZqxe9Of"}, "id": "0LyfQWJT6nXafLPZqxe9Of", "uri": "spotify:artist:0LyfQWJT6nXafLPZqxe9Of", "href": "https://api.spotify.com/v1/artists/0LyfQWJT6nXafLPZqxe9Of"}], "images": [{"width": 640, "url": "https://i.scdn.co/image/ab67616d0000b273bd0db295c0164ddbc0584ebb", "height": 640}, {"width": 300, "url": "https://i.scdn.co/image/ab67616d00001e02bd0db295c0164ddbc0584ebb", "height": 300}, {"width": 64, "url": "https://i.scdn.co/image/ab67616d00004851bd0db295c0164ddbc0584ebb", "height": 64}], "available_markets": ["AD", "AE", "AR", "AT", "AU", "BE", "BG", "BH", "BO", "BR", "CA", "CH", "CL", "CO", "CR", "CY", "CZ", "DE", "DK", "DO", "DZ", "EC", "EE", "EG", "ES", "FI", "FR", "GB", "GR", "GT", "HK", "HN", "HU", "ID", "IE", "IL", "IN", "IS", "IT", "JO", "JP", "KW", "LB", "LI", "LT", "LU", "LV", "MA", "MC", "MT", "MX", "MY", "NI", "NL", "NO", "NZ", "OM", "PA", "PE", "PH", "PL", "PS", "PT", "PY", "QA", "RO", "SA", "SE", "SG", "SK", "SV", "TH", "TN", "TR", "TW", "US", "UY", "VN", "ZA"], "album_type": "compilation", "release_date_precision": "day", "name": "Stranger Things (Soundtrack from the Netflix Original Series)", "external_urls": {"spotify": "https://open.spotify.com/album/0CTCk1eshEadFqZ4NBfe9N"}, "id": "0CTCk1eshEadFqZ4NBfe9N", "uri": "spotify:album:0CTCk1eshEadFqZ4NBfe9N"}, "external_ids": {"isrc": "USSM19801941"}, "name": "Africa", "duration_ms": 296400, "is_local": false, "disc_number": 1, "href": "https://api.spotify.com/v1/tracks/3h4h7LYcudzLLRX2dJU6st", "artists": [{"type": "artist", "name": "TOTO", "external_urls": {"spotify": "https://open.spotify.com/artist/0PFtn5NtBbbUNbU9EAmIWF"}, "id": "0PFtn5NtBbbUNbU9EAmIWF", "uri": "spotify:artist:0PFtn5NtBbbUNbU9EAmIWF", "href": "https://api.spotify.com/v1/artists/0PFtn5NtBbbUNbU9EAmIWF"}], "track_number": 16, "available_markets": ["AD", "AE", "AR", "AT", "AU", "BE", "BG", "BH", "BO", "BR", "CA", "CH", "CL", "CO", "CR", "CY", "CZ", "DE", "DK", "DO", "DZ", "EC", "EE", "EG", "ES", "FI", "FR", "GB", "GR", "GT", "HK", "HN", "HU", "ID", "IE", "IL", "IN", "IS", "IT", "JO", "JP", "KW", "LB", "LI", "LT", "LU", "LV", "MA", "MC", "MT", "MX", "MY", "NI", "NL", "NO", "NZ", "OM", "PA", "PE", "PH", "PL", "PS", "PT", "PY", "QA", "RO", "SA", "SE", "SG", "SK", "SV", "TH", "TN", "TR", "TW", "US", "UY", "VN", "ZA"], "type": "track", "preview_url": "https://p.scdn.co/mp3-preview/f564d19acc9f933378de64974c276ca04983f006?cid=0c947b9d3f7547e28aee080174c283c9", "explicit": false, "external_urls": {"spotify": "https://open.spotify.com/track/3h4h7LYcudzLLRX2dJU6st"}, "id": "3h4h7LYcudzLLRX2dJU6st", "uri": "spotify:track:3h4h7LYcudzLLRX2dJU6st", "popularity": 54}, {"album": {"total_tracks": 100, "type": "album", "release_date": "2010-02-26", "href": "https://api.spotify.com/v1/albums/0pvhletDH7CphbKErUtPCF", "artists": [{"type": "artist", "name": "Various Artists", "external_urls": {"spotify": "https://open.spotify.com/artist/0LyfQWJT6nXafLPZqxe9Of"}, "id": "0LyfQWJT6nXafLPZqxe9Of", "uri": "spotify:artist:0LyfQWJT6nXafLPZqxe9Of", "href": "https://api.spotify.com/v1/artists/0LyfQWJT6nXafLPZqxe9Of"}], "images": [{"width": 640, "url": "https://i.scdn.co/image/ab67616d0000b273db56ceff816b668b7b6f04ff", "height": 640}, {"width": 300, "url": "https://i.scdn.co/image/ab67616d00001e02db56ceff816b668b7b6f04ff", "height": 300}, {"width": 64, "url": "https://i.scdn.co/image/ab67616d00004851db56ceff816b668b7b6f04ff", "height": 64}], "available_markets": ["AD", "AE", "AR", "AT", "AU", "BE", "BG", "BH", "BO", "BR", "CA", "CH", "CL", "CO", "CR", "CY", "CZ", "DE", "DK", "DO", "DZ", "EC", "EE", "EG", "ES", "FI", "FR", "GB", "GR", "GT", "HK", "HN", "HU", "ID", "IE", "IL", "IN", "IS", "IT", "JO", "JP", "KW", "LB", "LI", "LT", "LU", "LV", "MA", "MC", "MT", "MX", "MY", "NI", "NL", "NZ", "OM", "PA", "PE", "PH", "PL", "PS", "PT", "PY", "QA", "RO", "SA", "SE", "SG", "SK", "SV", "TH", "TN", "TR", "TW", "US", "UY", "VN", "ZA"], "album_type": "compilation", "release_date_precision": "day", "name": "80s 100 Hits", "external_urls": {"spotify": "https://open.spotify.com/album/0pvhletDH7CphbKErUtPCF"}, "id": "0pvhletDH7CphbKErUtPCF", "uri": "spotify:album:0pvhletDH7CphbKErUtPCF"}, "external_ids": {"isrc": "USSM19802957"}, "name": "Africa", "duration_ms": 260839, "is_local": false, "disc_number": 1, "href": "https://api.spotify.com/v1/tracks/28o8m1o9RGtySbmQJtAvym", "artists": [{"type": "artist", "name": "TOTO", "external_urls": {"spotify": "https://open.spotify.com/artist/0PFtn5NtBbbUNbU9EAmIWF"}, "id": "0PFtn5NtBbbUNbU9EAmIWF", "uri": "spotify:artist:0PFtn5NtBbbUNbU9EAmIWF", "href": "https://api.spotify.com/v1/artists/0PFtn5NtBbbUNbU9EAmIWF"}], "track_number": 24, "available_markets": ["AD", "AE", "AR", "AT", "AU", "BE", "BG", "BH", "BO", "BR", "CA", "CH", "CL", "CO", "CR", "CY", "CZ", "DE", "DK", "DO", "DZ", "EC", "EE", "EG", "ES", "FI", "FR", "GB", "GR", "GT", "HK", "HN", "HU", "ID", "IE", "IL", "IN", "IS", "IT", "JO", "JP", "KW", "LB", "LI", "LT", "LU", "LV", "MA", "MC", "MT", "MX", "MY", "NI", "NL", "NZ", "OM", "PA", "PE", "PH", "PL", "PS", "PT", "PY", "QA", "RO", "SA", "SE", "SG", "SK", "SV", "TH", "TN", "TR", "TW", "US", "UY", "VN", "ZA"], "type": "track", "preview_url": "https://p.scdn.co/mp3-preview/6c4334c511930f083caf810624a97aebe11b39e7?cid=0c947b9d3f7547e28aee080174c283c9", "explicit": false, "external_urls": {"spotify": "https://open.spotify.com/track/28o8m1o9RGtySbmQJtAvym"}, "id": "28o8m1o9RGtySbmQJtAvym", "uri": "spotify:track:28o8m1o9RGtySbmQJtAvym", "popularity": 56}, {"album": {"total_tracks": 80, "type": "album", "release_date": "2014-03-03", "href": "https://api.spotify.com/v1/albums/3C20zCOVCXIb9xr0Z6wcCG", "artists": [{"type": "artist", "name": "Various Artists", "external_urls": {"spotify": "https://open.spotify.com/artist/0LyfQWJT6nXafLPZqxe9Of"}, "id": "0LyfQWJT6nXafLPZqxe9Of", "uri": "spotify:artist:0LyfQWJT6nXafLPZqxe9Of", "href": "https://api.spotify.com/v1/artists/0LyfQWJT6nXafLPZqxe9Of"}], "images": [{"width": 640, "url": "https://i.scdn.co/image/ab67616d0000b273c722845f4d534fee30ab6d0f", "height": 640}, {"width": 300, "url": "https://i.scdn.co/image/ab67616d00001e02c722845f4d534fee30ab6d0f", "height": 300}, {"width": 64, "url": "https://i.scdn.co/image/ab67616d00004851c722845f4d534fee30ab6d0f", "height": 64}], "available_markets": ["US"], "album_type": "compilation", "release_date_precision": "day", "name": "80 Totally 80s Hits", "external_urls": {"spotify": "https://open.spotify.com/album/3C20zCOVCXIb9xr0Z6wcCG"}, "id": "3C20zCOVCXIb9xr0Z6wcCG", "uri": "spotify:album:3C20zCOVCXIb9xr0Z6wcCG"}, "external_ids": {"isrc": "USSM19801941"}, "name": "Africa", "duration_ms": 294133, "is_local": false, "disc_number": 1, "href": "https://api.spotify.com/v1/tracks/42uZezaPwnVyYyfh2aHo6p", "artists": [{"type": "artist", "name": "TOTO", "external_urls": {"spotify": "https://open.spotify.com/artist/0PFtn5NtBbbUNbU9EAmIWF"}, "id": "0PFtn5NtBbbUNbU9EAmIWF", "uri": "spotify:artist:0PFtn5NtBbbUNbU9EAmIWF", "href": "https://api.spotify.com/v1/artists/0PFtn5NtBbbUNbU9EAmIWF"}], "track_number": 18, "available_markets": ["US"], "type": "track", "preview_url": "https://p.scdn.co/mp3-preview/53636cf75a9ef8701b6e872c211e3548dd372fa9?cid=0c947b9d3f7547e28aee080174c283c9", "explicit": false, "external_urls": {"spotify": "https://open.spotify.com/track/42uZezaPwnVyYyfh2aHo6p"}, "id": "42uZezaPwnVyYyfh2aHo6p", "uri": "spotify:track:42uZezaPwnVyYyfh2aHo6p", "popularity": 35}], "previous": null, "href": "https://api.spotify.com/v1/search?query=artist%3AToto+track%3AAfrica&type=track&offset=0&limit=5", "limit": 5, "total": 27, "next": "https://api.spotify.com/v1/search?query=artist%3AToto+track%3AAfrica&type=track&offset=5&limit=5"}}