{"tracks": {"offset": 0, "items": [{"album": {"total_tracks": 15, "type": "album", "release_date": "2009-01-01", "href": "https://api.spotify.com/v1/albums/36fdxiOzdlmsrHgGcfvqUJ", "artists": [{"type": "artist", "name": "The Black Eyed Peas", "external_urls": {"spotify": "https://open.spotify.com/artist/1yxSLGMDHlW21z4YXirZDS"}, "id": "1yxSLGMDHlW21z4YXirZDS", "uri": "spotify:artist:1yxSLGMDHlW21z4YXirZDS", "href": "https://api.spotify.com/v1/artists/1yxSLGMDHlW21z4YXirZDS"}], "images": [{"width": 640, "url": "https://i.scdn.co/image/dc627b2686233921c45a80243d0e6aeb08a6e5bf", "height": 640}, {"width": 300, "url": "https://i.scdn.co/image/0c4ec6743277b0b3c58ec21b0034219005f6449f", "height": 300}, {"width": 64, "url": "https://i.scdn.co/image/38e2040835a1ec400124f0f9ed61215bbbc821b9", "height": 64}], "available_markets": ["CA", "US"], "album_type": "album", "release_date_precision": "day", "name": "THE E.N.D. (THE ENERGY NEVER DIES)", "external_urls": {"spotify": "https://open.spotify.com/album/36fdxiOzdlmsrHgGcfvqUJ"}, "id": "36fdxiOzdlmsrHgGcfvqUJ", "uri": "spotify:album:36fdxiOzdlmsrHgGcfvqUJ"}, "external_ids": {"isrc": "USUM70965169"}, "name": "I Gotta Feeling", "duration_ms": 289133, "is_local": false, "disc_number": 1, "href": "https://api.spotify.com/v1/tracks/4vp2J1l5RD4gMZwGFLfRAu", "artists": [{"type": "artist", "name": "The Black Eyed Peas", "external_urls": {"spotify": "https://open.spotify.com/artist/1yxSLGMDHlW21z4YXirZDS"}, "id": "1yxSLGMDHlW21z4YXirZDS", "uri": "spotify:artist:1yxSLGMDHlW21z4YXirZDS", "href": "https://api.spotify.com/v1/artists/1yxSLGMDHlW21z4YXirZDS"}], "track_number": 5, "available_markets": ["CA", "US"], "type": "track", "preview_url": null, "explicit": false, "external_urls": {"spotify": "https://open.spotify.com/track/4vp2J1l5RD4gMZwGFLfRAu"}, "id": "4vp2J1l5RD4gMZwGFLfRAu", "uri": "spotify:track:4vp2J1l5RD4gMZwGFLfRAu", "popularity": 70}, {"album": {"total_tracks": 20, "type": "album", "release_date": "2011-01-01", "href": "https://api.spotify.com/v1/albums/5qf9TEgsN87fxwEKsJP2vu", "artists": [{"type": "artist", "name": "The Black Eyed Peas", "external_urls": {"spotify": "https://open.spotify.com/artist/1yxSLGMDHlW21z4YXirZDS"}, "id": "1yxSLGMDHlW21z4YXirZDS", "uri": "spotify:artist:1yxSLGMDHlW21z4YXirZDS", "href": "https://api.spotify.com/v1/artists/1yxSLGMDHlW21z4YXirZDS"}], "images": [{"width": 640, "url": "https://i.scdn.co/image/73b0d8a1aee09dd3e14e14ee1b8bd4bd614669f0", "height": 640}, {"width": 300, "url": "https://i.scdn.co/image/faa0d0c09c535ffff719ee64ba4274917508daab", "height": 300}, {"width": 64, "url": "https://i.scdn.co/image/7a9590f4f54ff9a2672ecd1e92ed8ab93ccc2d26", "height": 64}], "available_markets": ["CA", "MX", "US"], "album_type": "compilation", "release_date_precision": "day", "name": "The Beginning & The Best Of The E.N.D.", "external_urls": {"spotify": "https://open.spotify.com/album/5qf9TEgsN87fxwEKsJP2vu"}, "id": "5qf9TEgsN87fxwEKsJP2vu", "uri": "spotify:album:5qf9TEgsN87fxwEKsJP2vu"}, "external_ids": {"isrc": "USUM71101058"}, "name": "I Gotta Feeling", "duration_ms": 289186, "is_local": false, "disc_number": 2, "href": "https://api.spotify.com/v1/tracks/72np30cEzvqzxAUG5mrhyT", "artists": [{"type": "artist", "name": "The Black Eyed Peas", "external_urls": {"spotify": "https://open.spotify.com/artist/1yxSLGMDHlW21z4YXirZDS"}, "id": "1yxSLGMDHlW21z4YXirZDS", "uri": "spotify:artist:1yxSLGMDHlW21z4YXirZDS", "href": "https://api.spotify.com/v1/artists/1yxSLGMDHlW21z4YXirZDS"}], "track_number": 2, "available_markets": ["CA", "MX", "US"], "type": "track", "preview_url": null, "explicit": false, "external_urls": {"spotify": "https://open.spotify.com/track/72np30cEzvqzxAUG5mrhyT"}, "id": "72np30cEzvqzxAUG5mrhyT", "uri": "spotify:track:72np30cEzvqzxAUG5mrhyT", "popularity": 49}, {"album": {"total_tracks": 24, "type": "album", "release_date": "2018-09-14", "href": "https://api.spotify.com/v1/albums/5Q4YAfyREjs05kndnKl5b3", "artists": [{"type": "artist", "name": "Various Artists", "external_urls": {"spotify": "https://open.spotify.com/artist/0LyfQWJT6nXafLPZqxe9Of"}, "id": "0LyfQWJT6nXafLPZqxe9Of", "uri": "spotify:artist:0LyfQWJT6nXafLPZqxe9Of", "href": "https://api.spotify.com/v1/artists/0LyfQWJT6nXafLPZqxe9Of"}], "images": [{"width": 640, "url": "https://i.scdn.co/image/ab67616d0000b2730536bbd8873eef360ea26151", "height": 640}, {"width": 300, "url": "https://i.scdn.co/image/ab67616d00001e020536bbd8873eef360ea26151", "height": 300}, {"width": 64, "url": "https://i.scdn.co/image/ab67616d000048510536bbd8873eef360ea26151", "height": 64}], "available_markets": ["AR", "AT", "AU", "BO", "BR", "CA", "CH", "CL", "CO", "CR", "DE", "DK", "DO", "EC", "ES", "FI", "FR", "GB", "GT", "HN", "MX", "NI", "NO", "PA", "PE", "PY", "SE", "SV", "US", "UY"], "album_type": "compilation", "release_date_precision": "day", "name": "Have A Good Day", "external_urls": {"spotify": "https://open.spotify.com/album/5Q4YAfyREjs05kndnKl5b3"}, "id": "5Q4YAfyREjs05kndnKl5b3", "uri": "spotify:album:5Q4YAfyREjs05kndnKl5b3"}, "external_ids": {"isrc": "USUM70965169"}, "name": "I Gotta Feeling", "duration_ms": 289133, "is_local": false, "disc_number": 1, "href": "https://api.spotify.com/v1/tracks/6Hywd0btm58Pq2wzvIQS5H", "artists": [{"type": "artist", "name": "The Black Eyed Peas", "external_urls": {"spotify": "https://open.spotify.com/artist/1yxSLGMDHlW21z4YXirZDS"}, "id": "1yxSLGMDHlW21z4YXirZDS", "uri": "spotify:artist:1yxSLGMDHlW21z4YXirZDS", "href": "https://api.spotify.com/v1/artists/1yxSLGMDHlW21z4YXirZDS"}], "track_number": 5, "available_markets": ["AR", "AT", "AU", "BO", "BR", "CA", "CH", "CL", "CO", "CR", "DE", "DK", "DO", "EC", "ES", "FI", "FR", "GB", "GT", "HN", "MX", "NI", "NO", "PA", "PE", "PY", "SE", "SV", "US", "UY"], "type": "track", "preview_url": null, "explicit": false, "external_urls": {"spotify": "https://open.spotify.com/track/6Hywd0btm58Pq2wzvIQS5H"}, "id": "6Hywd0btm58Pq2wzvIQS5H", "uri": "spotify:track:6Hywd0btm58Pq2wzvIQS5H", "popularity": 27}, {"album": {"total_tracks": 20, "type": "album", "release_date": "2018-10-26", "href": "https://api.spotify.com/v1/albums/5aNqHSr2qZND9vV2xYJXK8", "artists": [{"type": "artist", "name": "Various Artists", "external_urls": {"spotify": "https://open.spotify.com/artist/0LyfQWJT6nXafLPZqxe9Of"}, "id": "0LyfQWJT6nXafLPZqxe9Of", "uri": "spotify:artist:0LyfQWJT6nXafLPZqxe9Of", "href": "https://api.spotify.com/v1/artists/0LyfQWJT6nXafLPZqxe9Of"}], "images": [{"width": 640, "url": "https://i.scdn.co/image/ab67616d0000b273b5e4b3f2e5a7b8854076dd9d", "height": 640}, {"width": 300, "url": "https://i.scdn.co/image/ab67616d00001e02b5e4b3f2e5a7b8854076dd9d", "height": 300}, {"width": 64, "url": "https://i.scdn.co/image/ab67616d00004851b5e4b3f2e5a7b8854076dd9d", "height": 64}], "available_markets": ["US"], "album_type": "compilation", "release_date_precision": "day", "name": "NOW That's What I Call Music! 20th Anniversary, Vol. 1", "external_urls": {"spotify": "https://open.spotify.com/album/5aNqHSr2qZND9vV2xYJXK8"}, "id": "5aNqHSr2qZND9vV2xYJXK8", "uri": "spotify:album:5aNqHSr2qZND9vV2xYJXK8"}, "external_ids": {"isrc": "USUM70969621"}, "name": "I Gotta Feeling", "duration_ms": 243826, "is_local": false, "disc_number": 1, "href": "https://api.spotify.com/v1/tracks/2gQSSh6vELR3z2gx6BnBqA", "artists": [{"type": "artist", "name": "The Black Eyed Peas", "external_urls": {"spotify": "https://open.spotify.com/artist/1yxSLGMDHlW21z4YXirZDS"}, "id": "1yxSLGMDHlW21z4YXirZDS", "uri": "spotify:artist:1yxSLGMDHlW21z4YXirZDS", "href": "https://api.spotify.com/v1/artists/1yxSLGMDHlW21z4YXirZDS"}], "track_number": 11, "available_markets": ["US"], "type": "track", "preview_url": null, "explicit": false, "external_urls": {"spotify": "https://open.spotify.com/track/2gQSSh6vELR3z2gx6BnBqA"}, "id": "2gQSSh6vELR3z2gx6BnBqA", "uri": "spotify:track:2gQSSh6vELR3z2gx6BnBqA", "popularity": 19}, {"album": {"total_tracks": 18, "type": "album", "release_date": "2017-11-03", "href": "https://api.spotify.com/v1/albums/1HmhKmGGvDUKghMj9m7P7f", "artists": [{"type": "artist", "name": "Various Artists", "external_urls": {"spotify": "https://open.spotify.com/artist/0LyfQWJT6nXafLPZqxe9Of"}, "id": "0LyfQWJT6nXafLPZqxe9Of", "uri": "spotify:artist:0LyfQWJT6nXafLPZqxe9Of", "href": "https://api.spotify.com/v1/artists/0LyfQWJT6nXafLPZqxe9Of"}], "images": [{"width": 640, "url": "https://i.scdn.co/image/ab67616d0000b273033ece0ff52b5ea6a3f49937", "height": 640}, {"width": 300, "url": "https://i.scdn.co/image/ab67616d00001e02033ece0ff52b5ea6a3f49937", "height": 300}, {"width": 64, "url": "https://i.scdn.co/image/ab67616d00004851033ece0ff52b5ea6a3f49937", "height": 64}], "available_markets": ["US"], "album_type": "compilation", "release_date_precision": "day", "name": "NOW That's What I Call The 00s", "external_urls": {"spotify": "https://open.spotify.com/album/1HmhKmGGvDUKghMj9m7P7f"}, "id": "1HmhKmGGvDUKghMj9m7P7f", "uri": "spotify:album:1HmhKmGGvDUKghMj9m7P7f"}, "external_ids": {"isrc": "USUM70969621"}, "name": "I Gotta Feeling", "duration_ms": 244573, "is_local": false, "disc_number": 1, "href": "https://api.spotify.com/v1/tracks/77jl2jYBpFtkw3nD9XCJSI", "artists": [{"type": "artist", "name": "The Black Eyed Peas", "external_urls": {"spotify": "https://open.spotify.com/artist/1yxSLGMDHlW21z4YXirZDS"}, "id": "1yxSLGMDHlW21z4YXirZDS", "uri": "spotify:artist:1yxSLGMDHlW21z4YXirZDS", "href": "https://api.spotify.com/v1/artists/1yxSLGMDHlW21z4YXirZDS"}], "track_number": 6, "available_markets": ["US"], "type": "track", "preview_url": null, "explicit": false, "external_urls": {"spotify": "https://open.spotify.com/track/77jl2jYBpFtkw3nD9XCJSI"}, "id": "77jl2jYBpFtkw3nD9XCJSI", "uri": "spotify:track:77jl2jYBpFtkw3nD9XCJSI", "popularity": 17}], "previous": null, "href": "https://api.spotify.com/v1/search?query=artist%3AThe+Black+Eyed+Peas+track%3AI+Gotta+Feeling&type=track&offset=0&limit=5", "limit": 5, "total": 152, "next": "https://api.spotify.com/v1/search?query=artist%3AThe+Black+Eyed+Peas+track%3AI+Gotta+Feeling&type=track&offset=5&limit=5"}}