{"tracks": {"offset": 0, "items": [{"album": {"total_tracks": 10, "type": "album", "release_date": "2006-03-21", "href": "https://api.spotify.com/v1/albums/4BozXZbBYOnLakhZNUv40C", "artists": [{"type": "artist", "name": "Band of Horses", "external_urls": {"spotify": "https://open.spotify.com/artist/0OdUWJ0sBjDrqHygGUXeCF"}, "id": "0OdUWJ0sBjDrqHygGUXeCF", "uri": "spotify:artist:0OdUWJ0sBjDrqHygGUXeCF", "href": "https://api.spotify.com/v1/artists/0OdUWJ0sBjDrqHygGUXeCF"}], "images": [{"width": 640, "url": "https://i.scdn.co/image/ab67616d0000b273e9fe0987e0f1c6eccf4e2836", "height": 640}, {"width": 300, "url": "https://i.scdn.co/image/ab67616d00001e02e9fe0987e0f1c6eccf4e2836", "height": 300}, {"width": 64, "url": "https://i.scdn.co/image/ab67616d00004851e9fe0987e0f1c6eccf4e2836", "height": 64}], "available_markets": ["AD", "AE", "AR", "AT", "AU", "BE", "BG", "BH", "BO", "BR", "CA", "CH", "CL", "CO", "CR", "CY", "CZ", "DE", "DK", "DO", "DZ", "EC", "EE", "EG", "ES", "FI", "FR", "GB", "GR", "GT", "HK", "HN", "HU", "ID", "IE", "IL", "IN", "IS", "IT", "JO", "JP", "KW", "LB", "LI", "LT", "LU", "LV", "MA", "MC", "MT", "MX", "MY", "NI", "NL", "NO", "NZ", "OM", "PA", "PE", "PH", "PL", "PS", "PT", "PY", "QA", "RO", "SA", "SE", "SG", "SK", "SV", "TH", "TN", "TR", "TW", "US", "UY", "VN", "ZA"], "album_type": "album", "release_date_precision": "day", "name": "Everything All The Time", "external_urls": {"spotify": "https://open.spotify.com/album/4BozXZbBYOnLakhZNUv40C"}, "id": "4BozXZbBYOnLakhZNUv40C", "uri": "spotify:album:4BozXZbBYOnLakhZNUv40C"}, "external_ids": {"isrc": "USSUB0669004"}, "name": "The Funeral", "duration_ms": 321146, "is_local": false, "disc_number": 1, "href": "https://api.spotify.com/v1/tracks/27IZXTdeGYjU6m5lTyDpmr", "artists": [{"type": "artist", "name": "Band of Horses", "external_urls": {"spotify": "https://open.spotify.com/artist/0OdUWJ0sBjDrqHygGUXeCF"}, "id": "0OdUWJ0sBjDrqHygGUXeCF", "uri": "spotify:artist:0OdUWJ0sBjDrqHygGUXeCF", "href": "https://api.spotify.com/v1/artists/0OdUWJ0sBjDrqHygGUXeCF"}], "track_number": 4, "available_markets": ["AD", "AE", "AR", "AT", "AU", "BE", "BG", "BH", "BO", "BR", "CA", "CH", "CL", "CO", "CR", "CY", "CZ", "DE", "DK", "DO", "DZ", "EC", "EE", "EG", "ES", "FI", "FR", "GB", "GR", "GT", "HK", "HN", "HU", "ID", "IE", "IL", "IN", "IS", "IT", "JO", "JP", "KW", "LB", "LI", "LT", "LU", "LV", "MA", "MC", "MT", "MX", "MY", "NI", "NL", "NO", "NZ", "OM", "PA", "PE", "PH", "PL", "PS", "PT", "PY", "QA", "RO", "SA", "SE", "SG", "SK", "SV", "TH", "TN", "TR", "TW", "US", "UY", "VN", "ZA"], "type": "track", "preview_url": "https://p.scdn.co/mp3-preview/ec0526b1578ca7bb8a753640a78a331c4116360b?cid=0c947b9d3f7547e28aee080174c283c9", "explicit": false, "external_urls": {"spotify": "https://open.spotify.com/track/27IZXTdeGYjU6m5lTyDpmr"}, "id": "27IZXTdeGYjU6m5lTyDpmr", "uri": "spotify:track:27IZXTdeGYjU6m5lTyDpmr", "popularity": 72}, {"album": {"total_tracks": 11, "type": "album", "release_date": "2013", "href": "https://api.spotify.com/v1/albums/6N3W6VPGBBxZcYajhZB75a", "artists": [{"type": "artist", "name": "Band of Horses", "external_urls": {"spotify": "https://open.spotify.com/artist/0OdUWJ0sBjDrqHygGUXeCF"}, "id": "0OdUWJ0sBjDrqHygGUXeCF", "uri": "spotify:artist:0OdUWJ0sBjDrqHygGUXeCF", "href": "https://api.spotify.com/v1/artists/0OdUWJ0sBjDrqHygGUXeCF"}], "images": [{"width": 640, "url": "https://i.scdn.co/image/ab67616d0000b273200b5321f6c18838e104d86c", "height": 640}, {"width": 300, "url": "https://i.scdn.co/image/ab67616d00001e02200b5321f6c18838e104d86c", "height": 300}, {"width": 64, "url": "https://i.scdn.co/image/ab67616d00004851200b5321f6c18838e104d86c", "height": 64}], "available_markets": ["AD", "AE", "AR", "AT", "AU", "BE", "BG", "BH", "BO", "BR", "CA", "CH", "CL", "CO", "CR", "CY", "CZ", "DE", "DK", "DO", "DZ", "EC", "EE", "EG", "ES", "FI", "FR", "GB", "GR", "GT", "HN", "HU", "IE", "IL", "IN", "IS", "IT", "JO", "KW", "LB", "LI", "LT", "LU", "LV", "MA", "MC", "MT", "MX", "NI", "NL", "NO", "NZ", "OM", "PA", "PE", "PL", "PS", "PT", "PY", "QA", "RO", "SA", "SE", "SK", "SV", "TN", "TR", "US", "UY", "ZA"], "album_type": "album", "release_date_precision": "year", "name": "Acoustic at The Ryman (Live)", "external_urls": {"spotify": "https://open.spotify.com/album/6N3W6VPGBBxZcYajhZB75a"}, "id": "6N3W6VPGBBxZcYajhZB75a", "uri": "spotify:album:6N3W6VPGBBxZcYajhZB75a"}, "external_ids": {"isrc": "GBWWP1300169"}, "name": "The Funeral - Live Acoustic", "duration_ms": 307760, "is_local": false, "disc_number": 1, "href": "https://api.spotify.com/v1/tracks/1jKvrkkZxtQ7ZDiXdITOis", "artists": [{"type": "artist", "name": "Band of Horses", "external_urls": {"spotify": "https://open.spotify.com/artist/0OdUWJ0sBjDrqHygGUXeCF"}, "id": "0OdUWJ0sBjDrqHygGUXeCF", "uri": "spotify:artist:0OdUWJ0sBjDrqHygGUXeCF", "href": "https://api.spotify.com/v1/artists/0OdUWJ0sBjDrqHygGUXeCF"}], "track_number": 9, "available_markets": ["AD", "AE", "AR", "AT", "AU", "BE", "BG", "BH", "BO", "BR", "CA", "CH", "CL", "CO", "CR", "CY", "CZ", "DE", "DK", "DO", "DZ", "EC", "EE", "EG", "ES", "FI", "FR", "GB", "GR", "GT", "HN", "HU", "IE", "IL", "IN", "IS", "IT", "JO", "KW", "LB", "LI", "LT", "LU", "LV", "MA", "MC", "MT", "MX", "NI", "NL", "NO", "NZ", "OM", "PA", "PE", "PL", "PS", "PT", "PY", "QA", "RO", "SA", "SE", "SK", "SV", "TN", "TR", "US", "UY", "ZA"], "type": "track", "preview_url": "https://p.scdn.co/mp3-preview/38858a230dfef6d718d5bb3830b0309a16d0f980?cid=0c947b9d3f7547e28aee080174c283c9", "explicit": false, "external_urls": {"spotify": "https://open.spotify.com/track/1jKvrkkZxtQ7ZDiXdITOis"}, "id": "1jKvrkkZxtQ7ZDiXdITOis", "uri": "spotify:track:1jKvrkkZxtQ7ZDiXdITOis", "popularity": 53}, {"album": {"total_tracks": 1, "type": "album", "release_date": "2015-09-21", "href": "https://api.spotify.com/v1/albums/3qdwPanKCuUNV7n5KFVbTI", "artists": [{"type": "artist", "name": "Band of Horses", "external_urls": {"spotify": "https://open.spotify.com/artist/0OdUWJ0sBjDrqHygGUXeCF"}, "id": "0OdUWJ0sBjDrqHygGUXeCF", "uri": "spotify:artist:0OdUWJ0sBjDrqHygGUXeCF", "href": "https://api.spotify.com/v1/artists/0OdUWJ0sBjDrqHygGUXeCF"}, {"type": "artist", "name": "Excision", "external_urls": {"spotify": "https://open.spotify.com/artist/0NBBeEdiyoMtCjAwv88B8T"}, "id": "0NBBeEdiyoMtCjAwv88B8T", "uri": "spotify:artist:0NBBeEdiyoMtCjAwv88B8T", "href": "https://api.spotify.com/v1/artists/0NBBeEdiyoMtCjAwv88B8T"}], "images": [{"width": 640, "url": "https://i.scdn.co/image/ab67616d0000b273b1236b6045b06fd7da86683f", "height": 640}, {"width": 300, "url": "https://i.scdn.co/image/ab67616d00001e02b1236b6045b06fd7da86683f", "height": 300}, {"width": 64, "url": "https://i.scdn.co/image/ab67616d00004851b1236b6045b06fd7da86683f", "height": 64}], "available_markets": ["AD", "AE", "AR", "AT", "AU", "BE", "BG", "BH", "BO", "BR", "CA", "CH", "CL", "CO", "CR", "CY", "CZ", "DE", "DK", "DO", "DZ", "EC", "EE", "EG", "ES", "FI", "FR", "GB", "GR", "GT", "HK", "HN", "HU", "ID", "IE", "IL", "IN", "IS", "IT", "JO", "JP", "KW", "LB", "LI", "LT", "LU", "LV", "MA", "MC", "MT", "MX", "MY", "NI", "NL", "NO", "NZ", "OM", "PA", "PE", "PH", "PL", "PS", "PT", "PY", "QA", "RO", "SA", "SE", "SG", "SK", "SV", "TH", "TN", "TR", "TW", "US", "UY", "VN", "ZA"], "album_type": "single", "release_date_precision": "day", "name": "The Funeral (Excision Remix)", "external_urls": {"spotify": "https://open.spotify.com/album/3qdwPanKCuUNV7n5KFVbTI"}, "id": "3qdwPanKCuUNV7n5KFVbTI", "uri": "spotify:album:3qdwPanKCuUNV7n5KFVbTI"}, "external_ids": {"isrc": "USSUB1515601"}, "name": "The Funeral - Excision Remix", "duration_ms": 292338, "is_local": false, "disc_number": 1, "href": "https://api.spotify.com/v1/tracks/39npZ2mx3dWuNdGRg9PBm0", "artists": [{"type": "artist", "name": "Band of Horses", "external_urls": {"spotify": "https://open.spotify.com/artist/0OdUWJ0sBjDrqHygGUXeCF"}, "id": "0OdUWJ0sBjDrqHygGUXeCF", "uri": "spotify:artist:0OdUWJ0sBjDrqHygGUXeCF", "href": "https://api.spotify.com/v1/artists/0OdUWJ0sBjDrqHygGUXeCF"}, {"type": "artist", "name": "Excision", "external_urls": {"spotify": "https://open.spotify.com/artist/0NBBeEdiyoMtCjAwv88B8T"}, "id": "0NBBeEdiyoMtCjAwv88B8T", "uri": "spotify:artist:0NBBeEdiyoMtCjAwv88B8T", "href": "https://api.spotify.com/v1/artists/0NBBeEdiyoMtCjAwv88B8T"}], "track_number": 1, "available_markets": ["AD", "AE", "AR", "AT", "AU", "BE", "BG", "BH", "BO", "BR", "CA", "CH", "CL", "CO", "CR", "CY", "CZ", "DE", "DK", "DO", "DZ", "EC", "EE", "EG", "ES", "FI", "FR", "GB", "GR", "GT", "HK", "HN", "HU", "ID", "IE", "IL", "IN", "IS", "IT", "JO", "JP", "KW", "LB", "LI", "LT", "LU", "LV", "MA", "MC", "MT", "MX", "MY", "NI", "NL", "NO", "NZ", "OM", "PA", "PE", "PH", "PL", "PS", "PT", "PY", "QA", "RO", "SA", "SE", "SG", "SK", "SV", "TH", "TN", "TR", "TW", "US", "UY", "VN", "ZA"], "type": "track", "preview_url": "https://p.scdn.co/mp3-preview/2daf50bec5edce5e4f2c7292a1022d31e2e654ef?cid=0c947b9d3f7547e28aee080174c283c9", "explicit": false, "external_urls": {"spotify": "https://open.spotify.com/track/39npZ2mx3dWuNdGRg9PBm0"}, "id": "39npZ2mx3dWuNdGRg9PBm0", "uri": "spotify:track:39npZ2mx3dWuNdGRg9PBm0", "popularity": 43}, {"album": {"total_tracks": 30, "type": "album", "release_date": "2013-08-23", "href": "https://api.spotify.com/v1/albums/3w49qpxqcJV4VFgDSe0wIC", "artists": [{"type": "artist", "name": "Dash Berlin", "external_urls": {"spotify": "https://open.spotify.com/artist/1xT5p0VBpnZDrvVSjX9sri"}, "id": "1xT5p0VBpnZDrvVSjX9sri", "uri": "spotify:artist:1xT5p0VBpnZDrvVSjX9sri", "href": "https://api.spotify.com/v1/artists/1xT5p0VBpnZDrvVSjX9sri"}], "images": [{"width": 640, "url": "https://i.scdn.co/image/ab67616d0000b2733f6a983c8470b20155f9dbb4", "height": 640}, {"width": 300, "url": "https://i.scdn.co/image/ab67616d00001e023f6a983c8470b20155f9dbb4", "height": 300}, {"width": 64, "url": "https://i.scdn.co/image/ab67616d000048513f6a983c8470b20155f9dbb4", "height": 64}], "available_markets": ["AD", "AE", "AR", "AT", "AU", "BE", "BG", "BH", "BO", "BR", "CA", "CH", "CL", "CO", "CR", "CY", "CZ", "DE", "DK", "DO", "DZ", "EC", "EE", "EG", "ES", "FI", "FR", "GB", "GR", "GT", "HK", "HN", "HU", "ID", "IE", "IL", "IN", "IS", "IT", "JO", "JP", "KW", "LB", "LI", "LT", "LU", "LV", "MA", "MC", "MT", "MX", "MY", "NI", "NL", "NO", "NZ", "OM", "PA", "PE", "PH", "PL", "PS", "PT", "PY", "QA", "RO", "SA", "SE", "SG", "SK", "SV", "TH", "TN", "TR", "TW", "US", "UY", "VN", "ZA"], "album_type": "album", "release_date_precision": "day", "name": "#musicislife (#deluxe)", "external_urls": {"spotify": "https://open.spotify.com/album/3w49qpxqcJV4VFgDSe0wIC"}, "id": "3w49qpxqcJV4VFgDSe0wIC", "uri": "spotify:album:3w49qpxqcJV4VFgDSe0wIC"}, "external_ids": {"isrc": "NLF711308270"}, "name": "The Funeral - Dash Berlin Remix", "duration_ms": 252574, "is_local": false, "disc_number": 2, "href": "https://api.spotify.com/v1/tracks/55lmYbSRU1mDDKSYSIIDmI", "artists": [{"type": "artist", "name": "Band of Horses", "external_urls": {"spotify": "https://open.spotify.com/artist/0OdUWJ0sBjDrqHygGUXeCF"}, "id": "0OdUWJ0sBjDrqHygGUXeCF", "uri": "spotify:artist:0OdUWJ0sBjDrqHygGUXeCF", "href": "https://api.spotify.com/v1/artists/0OdUWJ0sBjDrqHygGUXeCF"}, {"type": "artist", "name": "Dash Berlin", "external_urls": {"spotify": "https://open.spotify.com/artist/1xT5p0VBpnZDrvVSjX9sri"}, "id": "1xT5p0VBpnZDrvVSjX9sri", "uri": "spotify:artist:1xT5p0VBpnZDrvVSjX9sri", "href": "https://api.spotify.com/v1/artists/1xT5p0VBpnZDrvVSjX9sri"}], "track_number": 14, "available_markets": ["AD", "AE", "AR", "AT", "AU", "BE", "BG", "BH", "BO", "BR", "CA", "CH", "CL", "CO", "CR", "CY", "CZ", "DE", "DK", "DO", "DZ", "EC", "EE", "EG", "ES", "FI", "FR", "GB", "GR", "GT", "HK", "HN", "HU", "ID", "IE", "IL", "IN", "IS", "IT", "JO", "JP", "KW", "LB", "LI", "LT", "LU", "LV", "MA", "MC", "MT", "MX", "MY", "NI", "NL", "NO", "NZ", "OM", "PA", "PE", "PH", "PL", "PS", "PT", "PY", "QA", "RO", "SA", "SE", "SG", "SK", "SV", "TH", "TN", "TR", "TW", "US", "UY", "VN", "ZA"], "type": "track", "preview_url": "https://p.scdn.co/mp3-preview/c8fc8999309a59ab452d5c78bdc420a16c8b6362?cid=0c947b9d3f7547e28aee080174c283c9", "explicit": false, "external_urls": {"spotify": "https://open.spotify.com/track/55lmYbSRU1mDDKSYSIIDmI"}, "id": "55lmYbSRU1mDDKSYSIIDmI", "uri": "spotify:track:55lmYbSRU1mDDKSYSIIDmI", "popularity": 32}, {"album": {"total_tracks": 30, "type": "album", "release_date": "2013-12-20", "href": "https://api.spotify.com/v1/albums/4kYmRMmgwFsVkVS7dtXErz", "artists": [{"type": "artist", "name": "Dash Berlin", "external_urls": {"spotify": "https://open.spotify.com/artist/1xT5p0VBpnZDrvVSjX9sri"}, "id": "1xT5p0VBpnZDrvVSjX9sri", "uri": "spotify:artist:1xT5p0VBpnZDrvVSjX9sri", "href": "https://api.spotify.com/v1/artists/1xT5p0VBpnZDrvVSjX9sri"}], "images": [{"width": 640, "url": "https://i.scdn.co/image/ab67616d0000b273e076bc7968fd76282ef384f5", "height": 640}, {"width": 300, "url": "https://i.scdn.co/image/ab67616d00001e02e076bc7968fd76282ef384f5", "height": 300}, {"width": 64, "url": "https://i.scdn.co/image/ab67616d00004851e076bc7968fd76282ef384f5", "height": 64}], "available_markets": ["AD", "AE", "AR", "AT", "AU", "BE", "BG", "BH", "BO", "BR", "CA", "CH", "CL", "CO", "CR", "CY", "CZ", "DE", "DK", "DO", "DZ", "EC", "EE", "EG", "ES", "FI", "FR", "GB", "GR", "GT", "HK", "HN", "HU", "ID", "IE", "IL", "IN", "IS", "IT", "JO", "JP", "KW", "LB", "LI", "LT", "LU", "LV", "MA", "MC", "MT", "MX", "MY", "NI", "NL", "NO", "NZ", "OM", "PA", "PE", "PH", "PL", "PS", "PT", "PY", "QA", "RO", "SA", "SE", "SG", "SK", "SV", "TH", "TN", "TR", "TW", "US", "UY", "VN", "ZA"], "album_type": "compilation", "release_date_precision": "day", "name": "United Destination 4", "external_urls": {"spotify": "https://open.spotify.com/album/4kYmRMmgwFsVkVS7dtXErz"}, "id": "4kYmRMmgwFsVkVS7dtXErz", "uri": "spotify:album:4kYmRMmgwFsVkVS7dtXErz"}, "external_ids": {"isrc": "NLF711308270"}, "name": "The Funeral - Dash Berlin Radio Edit", "duration_ms": 252574, "is_local": false, "disc_number": 2, "href": "https://api.spotify.com/v1/tracks/48impWUOVg9L3lmBllBs2L", "artists": [{"type": "artist", "name": "Band of Horses", "external_urls": {"spotify": "https://open.spotify.com/artist/0OdUWJ0sBjDrqHygGUXeCF"}, "id": "0OdUWJ0sBjDrqHygGUXeCF", "uri": "spotify:artist:0OdUWJ0sBjDrqHygGUXeCF", "href": "https://api.spotify.com/v1/artists/0OdUWJ0sBjDrqHygGUXeCF"}], "track_number": 12, "available_markets": ["AD", "AE", "AR", "AT", "AU", "BE", "BG", "BH", "BO", "BR", "CA", "CH", "CL", "CO", "CR", "CY", "CZ", "DE", "DK", "DO", "DZ", "EC", "EE", "EG", "ES", "FI", "FR", "GB", "GR", "GT", "HK", "HN", "HU", "ID", "IE", "IL", "IN", "IS", "IT", "JO", "JP", "KW", "LB", "LI", "LT", "LU", "LV", "MA", "MC", "MT", "MX", "MY", "NI", "NL", "NO", "NZ", "OM", "PA", "PE", "PH", "PL", "PS", "PT", "PY", "QA", "RO", "SA", "SE", "SG", "SK", "SV", "TH", "TN", "TR", "TW", "US", "UY", "VN", "ZA"], "type": "track", "preview_url": "https://p.scdn.co/mp3-preview/c8fc8999309a59ab452d5c78bdc420a16c8b6362?cid=0c947b9d3f7547e28aee080174c283c9", "explicit": false, "external_urls": {"spotify": "https://open.spotify.com/track/48impWUOVg9L3lmBllBs2L"}, "id": "48impWUOVg9L3lmBllBs2L", "uri": "spotify:track:48impWUOVg9L3lmBllBs2L", "popularity": 22}], "previous": null, "href": "https://api.spotify.com/v1/search?query=artist%3ABand+of+Horses+track%3AThe+Funeral&type=track&offset=0&limit=5", "limit": 5, "total": 8, "next": "https://api.spotify.com/v1/search?query=artist%3ABand+of+Horses+track%3AThe+Funeral&type=track&offset=5&limit=5"}}