{"tracks": {"offset": 0, "items": [{"album": {"total_tracks": 20, "type": "album", "release_date": "2013-08-30", "href": "https://api.spotify.com/v1/albums/4OTAx9un4e6NfoHuVRiOrC", "artists": [{"type": "artist", "name": "John Legend", "external_urls": {"spotify": "https://open.spotify.com/artist/5y2Xq6xcjJb2jVM54GHK3t"}, "id": "5y2Xq6xcjJb2jVM54GHK3t", "uri": "spotify:artist:5y2Xq6xcjJb2jVM54GHK3t", "href": "https://api.spotify.com/v1/artists/5y2Xq6xcjJb2jVM54GHK3t"}], "images": [{"width": 640, "url": "https://i.scdn.co/image/ab67616d0000b27394c9217a398f5174757c0c78", "height": 640}, {"width": 300, "url": "https://i.scdn.co/image/ab67616d00001e0294c9217a398f5174757c0c78", "height": 300}, {"width": 64, "url": "https://i.scdn.co/image/ab67616d0000485194c9217a398f5174757c0c78", "height": 64}], "available_markets": ["AD", "AE", "AR", "AT", "AU", "BE", "BG", "BH", "BO", "BR", "CA", "CH", "CL", "CO", "CR", "CY", "CZ", "DE", "DK", "DO", "DZ", "EC", "EE", "EG", "ES", "FI", "FR", "GB", "GR", "GT", "HK", "HN", "HU", "ID", "IE", "IL", "IN", "IS", "IT", "JO", "JP", "KW", "LB", "LI", "LT", "LU", "LV", "MA", "MC", "MT", "MX", "MY", "NI", "NL", "NO", "NZ", "OM", "PA", "PE", "PH", "PL", "PS", "PT", "PY", "QA", "RO", "SA", "SE", "SG", "SK", "SV", "TH", "TN", "TR", "TW", "US", "UY", "VN", "ZA"], "album_type": "album", "release_date_precision": "day", "name": "Love In The Future (Expanded Edition)", "external_urls": {"spotify": "https://open.spotify.com/album/4OTAx9un4e6NfoHuVRiOrC"}, "id": "4OTAx9un4e6NfoHuVRiOrC", "uri": "spotify:album:4OTAx9un4e6NfoHuVRiOrC"}, "external_ids": {"isrc": "USSM11303954"}, "name": "All of Me", "duration_ms": 269560, "is_local": false, "disc_number": 1, "href": "https://api.spotify.com/v1/tracks/3U4isOIWM3VvDubwSI3y7a", "artists": [{"type": "artist", "name": "John Legend", "external_urls": {"spotify": "https://open.spotify.com/artist/5y2Xq6xcjJb2jVM54GHK3t"}, "id": "5y2Xq6xcjJb2jVM54GHK3t", "uri": "spotify:artist:5y2Xq6xcjJb2jVM54GHK3t", "href": "https://api.spotify.com/v1/artists/5y2Xq6xcjJb2jVM54GHK3t"}], "track_number": 6, "available_markets": ["AD", "AE", "AR", "AT", "AU", "BE", "BG", "BH", "BO", "BR", "CA", "CH", "CL", "CO", "CR", "CY", "CZ", "DE", "DK", "DO", "DZ", "EC", "EE", "EG", "ES", "FI", "FR", "GB", "GR", "GT", "HK", "HN", "HU", "ID", "IE", "IL", "IN", "IS", "IT", "JO", "JP", "KW", "LB", "LI", "LT", "LU", "LV", "MA", "MC", "MT", "MX", "MY", "NI", "NL", "NO", "NZ", "OM", "PA", "PE", "PH", "PL", "PS", "PT", "PY", "QA", "RO", "SA", "SE", "SG", "SK", "SV", "TH", "TN", "TR", "TW", "US", "UY", "VN", "ZA"], "type": "track", "preview_url": "https://p.scdn.co/mp3-preview/488c53471e56ff9f629652691444438951e880bb?cid=0c947b9d3f7547e28aee080174c283c9", "explicit": false, "external_urls": {"spotify": "https://open.spotify.com/track/3U4isOIWM3VvDubwSI3y7a"}, "id": "3U4isOIWM3VvDubwSI3y7a", "uri": "spotify:track:3U4isOIWM3VvDubwSI3y7a", "popularity": 86}, {"album": {"total_tracks": 30, "type": "album", "release_date": "2018-02-02", "href": "https://api.spotify.com/v1/albums/6oUTqYPV88CVjpv2H4Noo9", "artists": [{"type": "artist", "name": "Various Artists", "external_urls": {"spotify": "https://open.spotify.com/artist/0LyfQWJT6nXafLPZqxe9Of"}, "id": "0LyfQWJT6nXafLPZqxe9Of", "uri": "spotify:artist:0LyfQWJT6nXafLPZqxe9Of", "href": "https://api.spotify.com/v1/artists/0LyfQWJT6nXafLPZqxe9Of"}], "images": [{"width": 640, "url": "https://i.scdn.co/image/ab67616d0000b273b2b11dc3833006a2a6583831", "height": 640}, {"width": 300, "url": "https://i.scdn.co/image/ab67616d00001e02b2b11dc3833006a2a6583831", "height": 300}, {"width": 64, "url": "https://i.scdn.co/image/ab67616d00004851b2b11dc3833006a2a6583831", "height": 64}], "available_markets": ["AD", "AE", "AR", "AT", "AU", "BE", "BG", "BH", "BO", "BR", "CA", "CH", "CL", "CO", "CR", "CY", "CZ", "DE", "DK", "DO", "DZ", "EC", "EE", "EG", "ES", "FI", "FR", "GB", "GR", "GT", "HK", "HN", "HU", "ID", "IE", "IL", "IN", "IS", "IT", "JO", "JP", "KW", "LB", "LI", "LT", "LU", "LV", "MA", "MC", "MT", "MX", "MY", "NI", "NL", "NO", "NZ", "OM", "PA", "PE", "PH", "PL", "PS", "PT", "PY", "QA", "RO", "SA", "SE", "SG", "SK", "SV", "TH", "TN", "TR", "TW", "US", "UY", "VN", "ZA"], "album_type": "compilation", "release_date_precision": "day", "name": "Valentine's Day - R&B Love", "external_urls": {"spotify": "https://open.spotify.com/album/6oUTqYPV88CVjpv2H4Noo9"}, "id": "6oUTqYPV88CVjpv2H4Noo9", "uri": "spotify:album:6oUTqYPV88CVjpv2H4Noo9"}, "external_ids": {"isrc": "USSM11303954"}, "name": "All of Me", "duration_ms": 270413, "is_local": false, "disc_number": 1, "href": "https://api.spotify.com/v1/tracks/4oyTkYNopVIPm7Ebah6H2F", "artists": [{"type": "artist", "name": "John Legend", "external_urls": {"spotify": "https://open.spotify.com/artist/5y2Xq6xcjJb2jVM54GHK3t"}, "id": "5y2Xq6xcjJb2jVM54GHK3t", "uri": "spotify:artist:5y2Xq6xcjJb2jVM54GHK3t", "href": "https://api.spotify.com/v1/artists/5y2Xq6xcjJb2jVM54GHK3t"}], "track_number": 1, "available_markets": ["AD", "AE", "AR", "AT", "AU", "BE", "BG", "BH", "BO", "BR", "CA", "CH", "CL", "CO", "CR", "CY", "CZ", "DE", "DK", "DO", "DZ", "EC", "EE", "EG", "ES", "FI", "FR", "GB", "GR", "GT", "HK", "HN", "HU", "ID", "IE", "IL", "IN", "IS", "IT", "JO", "JP", "KW", "LB", "LI", "LT", "LU", "LV", "MA", "MC", "MT", "MX", "MY", "NI", "NL", "NO", "NZ", "OM", "PA", "PE", "PH", "PL", "PS", "PT", "PY", "QA", "RO", "SA", "SE", "SG", "SK", "SV", "TH", "TN", "TR", "TW", "US", "UY", "VN", "ZA"], "type": "track", "preview_url": "https://p.scdn.co/mp3-preview/e185eefcc4659254cc217c59d6c639f40332e365?cid=0c947b9d3f7547e28aee080174c283c9", "explicit": false, "external_urls": {"spotify": "https://open.spotify.com/track/4oyTkYNopVIPm7Ebah6H2F"}, "id": "4oyTkYNopVIPm7Ebah6H2F", "uri": "spotify:track:4oyTkYNopVIPm7Ebah6H2F", "popularity": 60}, {"album": {"total_tracks": 1, "type": "album", "release_date": "2014-02-25", "href": "https://api.spotify.com/v1/albums/4c2rSdHI9WUXn0zyXoWtbB", "artists": [{"type": "artist", "name": "John Legend", "external_urls": {"spotify": "https://open.spotify.com/artist/5y2Xq6xcjJb2jVM54GHK3t"}, "id": "5y2Xq6xcjJb2jVM54GHK3t", "uri": "spotify:artist:5y2Xq6xcjJb2jVM54GHK3t", "href": "https://api.spotify.com/v1/artists/5y2Xq6xcjJb2jVM54GHK3t"}], "images": [{"width": 640, "url": "https://i.scdn.co/image/ab67616d0000b2733e186705fd0e5565eec92813", "height": 640}, {"width": 300, "url": "https://i.scdn.co/image/ab67616d00001e023e186705fd0e5565eec92813", "height": 300}, {"width": 64, "url": "https://i.scdn.co/image/ab67616d000048513e186705fd0e5565eec92813", "height": 64}], "available_markets": ["AD", "AE", "AR", "AT", "AU", "BE", "BG", "BH", "BO", "BR", "CA", "CH", "CL", "CO", "CR", "CY", "CZ", "DE", "DK", "DO", "DZ", "EC", "EE", "EG", "ES", "FI", "FR", "GB", "GR", "GT", "HK", "HN", "HU", "ID", "IE", "IL", "IN", "IS", "IT", "JO", "JP", "KW", "LB", "LI", "LT", "LU", "LV", "MA", "MC", "MT", "MX", "MY", "NI", "NL", "NO", "NZ", "OM", "PA", "PE", "PH", "PL", "PS", "PT", "PY", "QA", "RO", "SA", "SE", "SG", "SK", "SV", "TH", "TN", "TR", "TW", "US", "UY", "VN", "ZA"], "album_type": "single", "release_date_precision": "day", "name": "All of Me (Ti\u00ebsto's Birthday Treatment Remix) [Radio Edit]", "external_urls": {"spotify": "https://open.spotify.com/album/4c2rSdHI9WUXn0zyXoWtbB"}, "id": "4c2rSdHI9WUXn0zyXoWtbB", "uri": "spotify:album:4c2rSdHI9WUXn0zyXoWtbB"}, "external_ids": {"isrc": "USSM11400705"}, "name": "All of Me (Ti\u00ebsto's Birthday Treatment Remix) - Radio Edit", "duration_ms": 251613, "is_local": false, "disc_number": 1, "href": "https://api.spotify.com/v1/tracks/1mzGywacjpeik00PVLBPpF", "artists": [{"type": "artist", "name": "John Legend", "external_urls": {"spotify": "https://open.spotify.com/artist/5y2Xq6xcjJb2jVM54GHK3t"}, "id": "5y2Xq6xcjJb2jVM54GHK3t", "uri": "spotify:artist:5y2Xq6xcjJb2jVM54GHK3t", "href": "https://api.spotify.com/v1/artists/5y2Xq6xcjJb2jVM54GHK3t"}, {"type": "artist", "name": "Jason Agel", "external_urls": {"spotify": "https://open.spotify.com/artist/1fiatwjGipTH7cFxTeyKOP"}, "id": "1fiatwjGipTH7cFxTeyKOP", "uri": "spotify:artist:1fiatwjGipTH7cFxTeyKOP", "href": "https://api.spotify.com/v1/artists/1fiatwjGipTH7cFxTeyKOP"}, {"type": "artist", "name": "Ti\u00ebsto", "external_urls": {"spotify": "https://open.spotify.com/artist/2o5jDhtHVPhrJdv3cEQ99Z"}, "id": "2o5jDhtHVPhrJdv3cEQ99Z", "uri": "spotify:artist:2o5jDhtHVPhrJdv3cEQ99Z", "href": "https://api.spotify.com/v1/artists/2o5jDhtHVPhrJdv3cEQ99Z"}], "track_number": 1, "available_markets": ["AD", "AE", "AR", "AT", "AU", "BE", "BG", "BH", "BO", "BR", "CA", "CH", "CL", "CO", "CR", "CY", "CZ", "DE", "DK", "DO", "DZ", "EC", "EE", "EG", "ES", "FI", "FR", "GB", "GR", "GT", "HK", "HN", "HU", "ID", "IE", "IL", "IN", "IS", "IT", "JO", "JP", "KW", "LB", "LI", "LT", "LU", "LV", "MA", "MC", "MT", "MX", "MY", "NI", "NL", "NO", "NZ", "OM", "PA", "PE", "PH", "PL", "PS", "PT", "PY", "QA", "RO", "SA", "SE", "SG", "SK", "SV", "TH", "TN", "TR", "TW", "US", "UY", "VN", "ZA"], "type": "track", "preview_url": "https://p.scdn.co/mp3-preview/11b72deb1b6ef4c9dca09863364e8a214c6e343c?cid=0c947b9d3f7547e28aee080174c283c9", "explicit": false, "external_urls": {"spotify": "https://open.spotify.com/track/1mzGywacjpeik00PVLBPpF"}, "id": "1mzGywacjpeik00PVLBPpF", "uri": "spotify:track:1mzGywacjpeik00PVLBPpF", "popularity": 65}, {"album": {"total_tracks": 7, "type": "album", "release_date": "2013-11-22", "href": "https://api.spotify.com/v1/albums/0ryfxFVYctq06Btwatl8zE", "artists": [{"type": "artist", "name": "John Legend", "external_urls": {"spotify": "https://open.spotify.com/artist/5y2Xq6xcjJb2jVM54GHK3t"}, "id": "5y2Xq6xcjJb2jVM54GHK3t", "uri": "spotify:artist:5y2Xq6xcjJb2jVM54GHK3t", "href": "https://api.spotify.com/v1/artists/5y2Xq6xcjJb2jVM54GHK3t"}], "images": [{"width": 640, "url": "https://i.scdn.co/image/ab67616d0000b273d56159304b0098aa0873b839", "height": 640}, {"width": 300, "url": "https://i.scdn.co/image/ab67616d00001e02d56159304b0098aa0873b839", "height": 300}, {"width": 64, "url": "https://i.scdn.co/image/ab67616d00004851d56159304b0098aa0873b839", "height": 64}], "available_markets": ["AD", "AE", "AR", "AT", "AU", "BE", "BG", "BH", "BO", "BR", "CA", "CH", "CL", "CO", "CR", "CY", "CZ", "DE", "DK", "DO", "DZ", "EC", "EE", "EG", "ES", "FI", "FR", "GB", "GR", "GT", "HK", "HN", "HU", "ID", "IE", "IL", "IN", "IS", "IT", "JO", "JP", "KW", "LB", "LI", "LT", "LU", "LV", "MA", "MC", "MT", "MX", "MY", "NI", "NL", "NO", "NZ", "OM", "PA", "PE", "PH", "PL", "PS", "PT", "PY", "QA", "RO", "SA", "SE", "SG", "SK", "SV", "TH", "TN", "TR", "TW", "US", "UY", "VN", "ZA"], "album_type": "album", "release_date_precision": "day", "name": "Spotify Sessions", "external_urls": {"spotify": "https://open.spotify.com/album/0ryfxFVYctq06Btwatl8zE"}, "id": "0ryfxFVYctq06Btwatl8zE", "uri": "spotify:album:0ryfxFVYctq06Btwatl8zE"}, "external_ids": {"isrc": "USSM11306723"}, "name": "All of Me - Live from Spotify Milan", "duration_ms": 291960, "is_local": false, "disc_number": 1, "href": "https://api.spotify.com/v1/tracks/6nyZQ82OI0OujbbFpo3e0K", "artists": [{"type": "artist", "name": "John Legend", "external_urls": {"spotify": "https://open.spotify.com/artist/5y2Xq6xcjJb2jVM54GHK3t"}, "id": "5y2Xq6xcjJb2jVM54GHK3t", "uri": "spotify:artist:5y2Xq6xcjJb2jVM54GHK3t", "href": "https://api.spotify.com/v1/artists/5y2Xq6xcjJb2jVM54GHK3t"}], "track_number": 6, "available_markets": ["AD", "AE", "AR", "AT", "AU", "BE", "BG", "BH", "BO", "BR", "CA", "CH", "CL", "CO", "CR", "CY", "CZ", "DE", "DK", "DO", "DZ", "EC", "EE", "EG", "ES", "FI", "FR", "GB", "GR", "GT", "HK", "HN", "HU", "ID", "IE", "IL", "IN", "IS", "IT", "JO", "JP", "KW", "LB", "LI", "LT", "LU", "LV", "MA", "MC", "MT", "MX", "MY", "NI", "NL", "NO", "NZ", "OM", "PA", "PE", "PH", "PL", "PS", "PT", "PY", "QA", "RO", "SA", "SE", "SG", "SK", "SV", "TH", "TN", "TR", "TW", "US", "UY", "VN", "ZA"], "type": "track", "preview_url": "https://p.scdn.co/mp3-preview/d1924efa49082eebf001a3c567090579937eecea?cid=0c947b9d3f7547e28aee080174c283c9", "explicit": false, "external_urls": {"spotify": "https://open.spotify.com/track/6nyZQ82OI0OujbbFpo3e0K"}, "id": "6nyZQ82OI0OujbbFpo3e0K", "uri": "spotify:track:6nyZQ82OI0OujbbFpo3e0K", "popularity": 58}, {"album": {"total_tracks": 1, "type": "album", "release_date": "2014-06-05", "href": "https://api.spotify.com/v1/albums/0YJy7XKEFg73QYwwPBqRnm", "artists": [{"type": "artist", "name": "John Legend", "external_urls": {"spotify": "https://open.spotify.com/artist/5y2Xq6xcjJb2jVM54GHK3t"}, "id": "5y2Xq6xcjJb2jVM54GHK3t", "uri": "spotify:artist:5y2Xq6xcjJb2jVM54GHK3t", "href": "https://api.spotify.com/v1/artists/5y2Xq6xcjJb2jVM54GHK3t"}], "images": [{"width": 640, "url": "https://i.scdn.co/image/ab67616d0000b273701cb23e218f325ab3c50d36", "height": 640}, {"width": 300, "url": "https://i.scdn.co/image/ab67616d00001e02701cb23e218f325ab3c50d36", "height": 300}, {"width": 64, "url": "https://i.scdn.co/image/ab67616d00004851701cb23e218f325ab3c50d36", "height": 64}], "available_markets": ["AD", "AE", "AR", "AT", "AU", "BE", "BG", "BH", "BO", "BR", "CA", "CH", "CL", "CO", "CR", "CY", "CZ", "DE", "DK", "DO", "DZ", "EC", "EE", "EG", "ES", "FI", "FR", "GB", "GR", "GT", "HK", "HN", "HU", "ID", "IE", "IL", "IN", "IS", "IT", "JO", "JP", "KW", "LB", "LI", "LT", "LU", "LV", "MA", "MC", "MT", "MX", "MY", "NI", "NL", "NO", "NZ", "OM", "PA", "PE", "PH", "PL", "PS", "PT", "PY", "QA", "RO", "SA", "SE", "SG", "SK", "SV", "TH", "TN", "TR", "TW", "US", "UY", "VN", "ZA"], "album_type": "single", "release_date_precision": "day", "name": "All of Me (feat. Jennifer Nettles & Hunter Hayes)", "external_urls": {"spotify": "https://open.spotify.com/album/0YJy7XKEFg73QYwwPBqRnm"}, "id": "0YJy7XKEFg73QYwwPBqRnm", "uri": "spotify:album:0YJy7XKEFg73QYwwPBqRnm"}, "external_ids": {"isrc": "USSM11404440"}, "name": "All of Me (feat. Jennifer Nettles & Hunter Hayes)", "duration_ms": 259706, "is_local": false, "disc_number": 1, "href": "https://api.spotify.com/v1/tracks/0vaLIgHcJM3Fs3jxN9MxPm", "artists": [{"type": "artist", "name": "John Legend", "external_urls": {"spotify": "https://open.spotify.com/artist/5y2Xq6xcjJb2jVM54GHK3t"}, "id": "5y2Xq6xcjJb2jVM54GHK3t", "uri": "spotify:artist:5y2Xq6xcjJb2jVM54GHK3t", "href": "https://api.spotify.com/v1/artists/5y2Xq6xcjJb2jVM54GHK3t"}, {"type": "artist", "name": "Jennifer Nettles", "external_urls": {"spotify": "https://open.spotify.com/artist/2WV4xLQooFalR2cit0XSKp"}, "id": "2WV4xLQooFalR2cit0XSKp", "uri": "spotify:artist:2WV4xLQooFalR2cit0XSKp", "href": "https://api.spotify.com/v1/artists/2WV4xLQooFalR2cit0XSKp"}, {"type": "artist", "name": "Hunter Hayes", "external_urls": {"spotify": "https://open.spotify.com/artist/7H6dkUChT5EoOQtUVMg4cN"}, "id": "7H6dkUChT5EoOQtUVMg4cN", "uri": "spotify:artist:7H6dkUChT5EoOQtUVMg4cN", "href": "https://api.spotify.com/v1/artists/7H6dkUChT5EoOQtUVMg4cN"}], "track_number": 1, "available_markets": ["AD", "AE", "AR", "AT", "AU", "BE", "BG", "BH", "BO", "BR", "CA", "CH", "CL", "CO", "CR", "CY", "CZ", "DE", "DK", "DO", "DZ", "EC", "EE", "EG", "ES", "FI", "FR", "GB", "GR", "GT", "HK", "HN", "HU", "ID", "IE", "IL", "IN", "IS", "IT", "JO", "JP", "KW", "LB", "LI", "LT", "LU", "LV", "MA", "MC", "MT", "MX", "MY", "NI", "NL", "NO", "NZ", "OM", "PA", "PE", "PH", "PL", "PS", "PT", "PY", "QA", "RO", "SA", "SE", "SG", "SK", "SV", "TH", "TN", "TR", "TW", "US", "UY", "VN", "ZA"], "type": "track", "preview_url": "https://p.scdn.co/mp3-preview/053624d4b6193cf0103d1a6084216cb715c496d0?cid=0c947b9d3f7547e28aee080174c283c9", "explicit": false, "external_urls": {"spotify": "https://open.spotify.com/track/0vaLIgHcJM3Fs3jxN9MxPm"}, "id": "0vaLIgHcJM3Fs3jxN9MxPm", "uri": "spotify:track:0vaLIgHcJM3Fs3jxN9MxPm", "popularity": 42}], "previous": null, "href": "https://api.spotify.com/v1/search?query=artist%3AJohn+Legend+track%3AAll+of+Me&type=track&offset=0&limit=5", "limit": 5, "total": 19, "next": "https://api.spotify.com/v1/search?query=artist%3AJohn+Legend+track%3AAll+of+Me&type=track&offset=5&limit=5"}}