{"tracks": {"offset": 0, "items": [{"album": {"total_tracks": 13, "type": "album", "release_date": "1991-09-26", "href": "https://api.spotify.com/v1/albums/2guirTSEqLizK7j9i1MTTZ", "artists": [{"type": "artist", "name": "Nirvana", "external_urls": {"spotify": "https://open.spotify.com/artist/6olE6TJLqED3rqDCT0FyPh"}, "id": "6olE6TJLqED3rqDCT0FyPh", "uri": "spotify:artist:6olE6TJLqED3rqDCT0FyPh", "href": "https://api.spotify.com/v1/artists/6olE6TJLqED3rqDCT0FyPh"}], "images": [{"width": 640, "url": "https://i.scdn.co/image/d1e45852702e21c779fcb7fc5bc5d17552447c03", "height": 640}, {"width": 300, "url": "https://i.scdn.co/image/40d8dc34c6f4e7527b24f8c8f7afabd14c9ce83f", "height": 300}, {"width": 64, "url": "https://i.scdn.co/image/dd7e7cf73d58ea713051363e308a343e46bbcf7f", "height": 64}], "available_markets": ["CA", "MX", "US"], "album_type": "album", "release_date_precision": "day", "name": "Nevermind (Remastered)", "external_urls": {"spotify": "https://open.spotify.com/album/2guirTSEqLizK7j9i1MTTZ"}, "id": "2guirTSEqLizK7j9i1MTTZ", "uri": "spotify:album:2guirTSEqLizK7j9i1MTTZ"}, "external_ids": {"isrc": "USGF19942501"}, "name": "Smells Like Teen Spirit", "duration_ms": 301920, "is_local": false, "disc_number": 1, "href": "https://api.spotify.com/v1/tracks/5ghIJDpPoe3CfHMGu71E6T", "artists": [{"type": "artist", "name": "Nirvana", "external_urls": {"spotify": "https://open.spotify.com/artist/6olE6TJLqED3rqDCT0FyPh"}, "id": "6olE6TJLqED3rqDCT0FyPh", "uri": "spotify:artist:6olE6TJLqED3rqDCT0FyPh", "href": "https://api.spotify.com/v1/artists/6olE6TJLqED3rqDCT0FyPh"}], "track_number": 1, "available_markets": ["CA", "MX", "US"], "type": "track", "preview_url": null, "explicit": false, "external_urls": {"spotify": "https://open.spotify.com/track/5ghIJDpPoe3CfHMGu71E6T"}, "id": "5ghIJDpPoe3CfHMGu71E6T", "uri": "spotify:track:5ghIJDpPoe3CfHMGu71E6T", "popularity": 76}, {"album": {"total_tracks": 43, "type": "album", "release_date": "1991-09-26", "href": "https://api.spotify.com/v1/albums/6yaiubHHJy8N8QcHy3julo", "artists": [{"type": "artist", "name": "Nirvana", "external_urls": {"spotify": "https://open.spotify.com/artist/6olE6TJLqED3rqDCT0FyPh"}, "id": "6olE6TJLqED3rqDCT0FyPh", "uri": "spotify:artist:6olE6TJLqED3rqDCT0FyPh", "href": "https://api.spotify.com/v1/artists/6olE6TJLqED3rqDCT0FyPh"}], "images": [{"width": 640, "url": "https://i.scdn.co/image/48bb717f8cbb774cc7f87dd0d2e1a9d160dc2c75", "height": 640}, {"width": 300, "url": "https://i.scdn.co/image/f78e6ef9c21af1d9efb03d585f93c6d7e7d10549", "height": 300}, {"width": 64, "url": "https://i.scdn.co/image/dbd06d3bdb20b8e1b5db2d096cf0de2a4ec7122f", "height": 64}], "available_markets": ["CA", "US"], "album_type": "album", "release_date_precision": "day", "name": "Nevermind", "external_urls": {"spotify": "https://open.spotify.com/album/6yaiubHHJy8N8QcHy3julo"}, "id": "6yaiubHHJy8N8QcHy3julo", "uri": "spotify:album:6yaiubHHJy8N8QcHy3julo"}, "external_ids": {"isrc": "USGF19942501"}, "name": "Smells Like Teen Spirit", "duration_ms": 301920, "is_local": false, "disc_number": 1, "href": "https://api.spotify.com/v1/tracks/75aLTVBSGIquqzQ6AkmK3Q", "artists": [{"type": "artist", "name": "Nirvana", "external_urls": {"spotify": "https://open.spotify.com/artist/6olE6TJLqED3rqDCT0FyPh"}, "id": "6olE6TJLqED3rqDCT0FyPh", "uri": "spotify:artist:6olE6TJLqED3rqDCT0FyPh", "href": "https://api.spotify.com/v1/artists/6olE6TJLqED3rqDCT0FyPh"}], "track_number": 1, "available_markets": ["CA", "US"], "type": "track", "preview_url": null, "explicit": false, "external_urls": {"spotify": "https://open.spotify.com/track/75aLTVBSGIquqzQ6AkmK3Q"}, "id": "75aLTVBSGIquqzQ6AkmK3Q", "uri": "spotify:track:75aLTVBSGIquqzQ6AkmK3Q", "popularity": 44}, {"album": {"total_tracks": 14, "type": "album", "release_date": "2002-10-29", "href": "https://api.spotify.com/v1/albums/5zBPRXCAc801vyHWoRurNZ", "artists": [{"type": "artist", "name": "Nirvana", "external_urls": {"spotify": "https://open.spotify.com/artist/6olE6TJLqED3rqDCT0FyPh"}, "id": "6olE6TJLqED3rqDCT0FyPh", "uri": "spotify:artist:6olE6TJLqED3rqDCT0FyPh", "href": "https://api.spotify.com/v1/artists/6olE6TJLqED3rqDCT0FyPh"}], "images": [{"width": 640, "url": "https://i.scdn.co/image/ae7504c00f9aa3d73927f3d9692b71c23b5f1116", "height": 640}, {"width": 300, "url": "https://i.scdn.co/image/31e5eb777d63219606e831092b0af98173e12060", "height": 300}, {"width": 64, "url": "https://i.scdn.co/image/4093c7a7564f0314d610e06de6505013df275118", "height": 64}], "available_markets": ["AD", "AE", "AR", "AT", "AU", "BE", "BG", "BH", "BO", "BR", "CA", "CH", "CL", "CO", "CR", "CY", "CZ", "DE", "DK", "DO", "DZ", "EC", "EE", "EG", "ES", "FI", "FR", "GB", "GR", "GT", "HK", "HN", "HU", "ID", "IE", "IL", "IN", "IS", "IT", "JO", "JP", "KW", "LB", "LI", "LT", "LU", "LV", "MA", "MC", "MT", "MX", "MY", "NI", "NL", "NO", "NZ", "OM", "PA", "PE", "PH", "PL", "PS", "PT", "PY", "QA", "RO", "SA", "SE", "SG", "SK", "SV", "TH", "TN", "TR", "TW", "US", "UY", "VN", "ZA"], "album_type": "album", "release_date_precision": "day", "name": "Nirvana", "external_urls": {"spotify": "https://open.spotify.com/album/5zBPRXCAc801vyHWoRurNZ"}, "id": "5zBPRXCAc801vyHWoRurNZ", "uri": "spotify:album:5zBPRXCAc801vyHWoRurNZ"}, "external_ids": {"isrc": "USGF19942501"}, "name": "Smells Like Teen Spirit", "duration_ms": 301453, "is_local": false, "disc_number": 1, "href": "https://api.spotify.com/v1/tracks/6y1etHPLRsgA467gLBOgBm", "artists": [{"type": "artist", "name": "Nirvana", "external_urls": {"spotify": "https://open.spotify.com/artist/6olE6TJLqED3rqDCT0FyPh"}, "id": "6olE6TJLqED3rqDCT0FyPh", "uri": "spotify:artist:6olE6TJLqED3rqDCT0FyPh", "href": "https://api.spotify.com/v1/artists/6olE6TJLqED3rqDCT0FyPh"}], "track_number": 5, "available_markets": ["AD", "AE", "AR", "AT", "AU", "BE", "BG", "BH", "BO", "BR", "CA", "CH", "CL", "CO", "CR", "CY", "CZ", "DE", "DK", "DO", "DZ", "EC", "EE", "EG", "ES", "FI", "FR", "GB", "GR", "GT", "HK", "HN", "HU", "ID", "IE", "IL", "IN", "IS", "IT", "JO", "JP", "KW", "LB", "LI", "LT", "LU", "LV", "MA", "MC", "MT", "MX", "MY", "NI", "NL", "NO", "NZ", "OM", "PA", "PE", "PH", "PL", "PS", "PT", "PY", "QA", "RO", "SA", "SE", "SG", "SK", "SV", "TH", "TN", "TR", "TW", "US", "UY", "VN", "ZA"], "type": "track", "preview_url": null, "explicit": false, "external_urls": {"spotify": "https://open.spotify.com/track/6y1etHPLRsgA467gLBOgBm"}, "id": "6y1etHPLRsgA467gLBOgBm", "uri": "spotify:track:6y1etHPLRsgA467gLBOgBm", "popularity": 50}, {"album": {"total_tracks": 70, "type": "album", "release_date": "1991-09-26", "href": "https://api.spotify.com/v1/albums/3FFGbUutKWN1c4f0CJR4Uh", "artists": [{"type": "artist", "name": "Nirvana", "external_urls": {"spotify": "https://open.spotify.com/artist/6olE6TJLqED3rqDCT0FyPh"}, "id": "6olE6TJLqED3rqDCT0FyPh", "uri": "spotify:artist:6olE6TJLqED3rqDCT0FyPh", "href": "https://api.spotify.com/v1/artists/6olE6TJLqED3rqDCT0FyPh"}], "images": [{"width": 640, "url": "https://i.scdn.co/image/21cc8363d82e345298796965b5225b796550bea6", "height": 640}, {"width": 300, "url": "https://i.scdn.co/image/d1b5c4722ce46b68ef272c5802567f54e06111bd", "height": 300}, {"width": 64, "url": "https://i.scdn.co/image/015aca6b734dfb5904c48948806f488644ed3532", "height": 64}], "available_markets": ["CA", "MX", "US"], "album_type": "album", "release_date_precision": "day", "name": "Nevermind (Super Deluxe Edition)", "external_urls": {"spotify": "https://open.spotify.com/album/3FFGbUutKWN1c4f0CJR4Uh"}, "id": "3FFGbUutKWN1c4f0CJR4Uh", "uri": "spotify:album:3FFGbUutKWN1c4f0CJR4Uh"}, "external_ids": {"isrc": "USGF19942501"}, "name": "Smells Like Teen Spirit", "duration_ms": 301920, "is_local": false, "disc_number": 1, "href": "https://api.spotify.com/v1/tracks/2Wtm3yc0paBifvBSjOhO3b", "artists": [{"type": "artist", "name": "Nirvana", "external_urls": {"spotify": "https://open.spotify.com/artist/6olE6TJLqED3rqDCT0FyPh"}, "id": "6olE6TJLqED3rqDCT0FyPh", "uri": "spotify:artist:6olE6TJLqED3rqDCT0FyPh", "href": "https://api.spotify.com/v1/artists/6olE6TJLqED3rqDCT0FyPh"}], "track_number": 1, "available_markets": ["CA", "MX", "US"], "type": "track", "preview_url": null, "explicit": false, "external_urls": {"spotify": "https://open.spotify.com/track/2Wtm3yc0paBifvBSjOhO3b"}, "id": "2Wtm3yc0paBifvBSjOhO3b", "uri": "spotify:track:2Wtm3yc0paBifvBSjOhO3b", "popularity": 34}, {"album": {"total_tracks": 19, "type": "album", "release_date": "2019-04-12", "href": "https://api.spotify.com/v1/albums/5A7qhg1w3J1GVoPPTChYCF", "artists": [{"type": "artist", "name": "Nirvana", "external_urls": {"spotify": "https://open.spotify.com/artist/6olE6TJLqED3rqDCT0FyPh"}, "id": "6olE6TJLqED3rqDCT0FyPh", "uri": "spotify:artist:6olE6TJLqED3rqDCT0FyPh", "href": "https://api.spotify.com/v1/artists/6olE6TJLqED3rqDCT0FyPh"}], "images": [{"width": 640, "url": "https://i.scdn.co/image/ced16276385ff86ab09abeea2736454c6c2b9871", "height": 640}, {"width": 300, "url": "https://i.scdn.co/image/0b2031c888053e6317b59a57d0b54ed66c3b1aa0", "height": 300}, {"width": 64, "url": "https://i.scdn.co/image/bc70c1aeee2e508bdbce230d725c5f7835a725c1", "height": 64}], "available_markets": ["AD", "AE", "AR", "AT", "AU", "BE", "BG", "BH", "BO", "BR", "CA", "CH", "CL", "CO", "CR", "CY", "CZ", "DE", "DK", "DO", "DZ", "EC", "EE", "EG", "ES", "FI", "FR", "GB", "GR", "GT", "HK", "HN", "HU", "ID", "IE", "IL", "IN", "IS", "IT", "JO", "JP", "KW", "LB", "LI", "LT", "LU", "LV", "MA", "MC", "MT", "MX", "MY", "NI", "NL", "NO", "NZ", "OM", "PA", "PE", "PH", "PL", "PS", "PT", "PY", "QA", "RO", "SA", "SE", "SG", "SK", "SV", "TH", "TN", "TR", "TW", "US", "UY", "VN", "ZA"], "album_type": "album", "release_date_precision": "day", "name": "Live At The Paramount", "external_urls": {"spotify": "https://open.spotify.com/album/5A7qhg1w3J1GVoPPTChYCF"}, "id": "5A7qhg1w3J1GVoPPTChYCF", "uri": "spotify:album:5A7qhg1w3J1GVoPPTChYCF"}, "external_ids": {"isrc": "USUM71113789"}, "name": "Smells Like Teen Spirit - Live At The Paramount/1991", "duration_ms": 285573, "is_local": false, "disc_number": 1, "href": "https://api.spotify.com/v1/tracks/50bA0cAFEo3Ep99yj0x2th", "artists": [{"type": "artist", "name": "Nirvana", "external_urls": {"spotify": "https://open.spotify.com/artist/6olE6TJLqED3rqDCT0FyPh"}, "id": "6olE6TJLqED3rqDCT0FyPh", "uri": "spotify:artist:6olE6TJLqED3rqDCT0FyPh", "href": "https://api.spotify.com/v1/artists/6olE6TJLqED3rqDCT0FyPh"}], "track_number": 6, "available_markets": ["AD", "AE", "AR", "AT", "AU", "BE", "BG", "BH", "BO", "BR", "CA", "CH", "CL", "CO", "CR", "CY", "CZ", "DE", "DK", "DO", "DZ", "EC", "EE", "EG", "ES", "FI", "FR", "GB", "GR", "GT", "HK", "HN", "HU", "ID", "IE", "IL", "IN", "IS", "IT", "JO", "JP", "KW", "LB", "LI", "LT", "LU", "LV", "MA", "MC", "MT", "MX", "MY", "NI", "NL", "NO", "NZ", "OM", "PA", "PE", "PH", "PL", "PS", "PT", "PY", "QA", "RO", "SA", "SE", "SG", "SK", "SV", "TH", "TN", "TR", "TW", "US", "UY", "VN", "ZA"], "type": "track", "preview_url": null, "explicit": false, "external_urls": {"spotify": "https://open.spotify.com/track/50bA0cAFEo3Ep99yj0x2th"}, "id": "50bA0cAFEo3Ep99yj0x2th", "uri": "spotify:track:50bA0cAFEo3Ep99yj0x2th", "popularity": 44}], "previous": null, "href": "https://api.spotify.com/v1/search?query=artist%3ANirvana+track%3ASmells+Like+Teen+Spirit&type=track&offset=0&limit=5", "limit": 5, "total": 19, "next": "https://api.spotify.com/v1/search?query=artist%3ANirvana+track%3ASmells+Like+Teen+Spirit&type=track&offset=5&limit=5"}}