{"tracks": {"offset": 0, "items": [{"album": {"total_tracks": 15, "type": "album", "release_date": "2014-09-19", "href": "https://api.spotify.com/v1/albums/4Pv7m8D82A1Xun7xNCKZjJ", "artists": [{"type": "artist", "name": "Hozier", "external_urls": {"spotify": "https://open.spotify.com/artist/2FXC3k01G6Gw61bmprjgqS"}, "id": "2FXC3k01G6Gw61bmprjgqS", "uri": "spotify:artist:2FXC3k01G6Gw61bmprjgqS", "href": "https://api.spotify.com/v1/artists/2FXC3k01G6Gw61bmprjgqS"}], "images": [{"width": 640, "url": "https://i.scdn.co/image/ab67616d0000b2734ca68d59a4a29c856a4a39c2", "height": 640}, {"width": 300, "url": "https://i.scdn.co/image/ab67616d00001e024ca68d59a4a29c856a4a39c2", "height": 300}, {"width": 64, "url": "https://i.scdn.co/image/ab67616d000048514ca68d59a4a29c856a4a39c2", "height": 64}], "available_markets": ["AU", "CA", "US"], "album_type": "album", "release_date_precision": "day", "name": "Hozier (Expanded Edition)", "external_urls": {"spotify": "https://open.spotify.com/album/4Pv7m8D82A1Xun7xNCKZjJ"}, "id": "4Pv7m8D82A1Xun7xNCKZjJ", "uri": "spotify:album:4Pv7m8D82A1Xun7xNCKZjJ"}, "external_ids": {"isrc": "USSM11307291"}, "name": "Take Me to Church", "duration_ms": 241693, "is_local": false, "disc_number": 1, "href": "https://api.spotify.com/v1/tracks/1CS7Sd1u5tWkstBhpssyjP", "artists": [{"type": "artist", "name": "Hozier", "external_urls": {"spotify": "https://open.spotify.com/artist/2FXC3k01G6Gw61bmprjgqS"}, "id": "2FXC3k01G6Gw61bmprjgqS", "uri": "spotify:artist:2FXC3k01G6Gw61bmprjgqS", "href": "https://api.spotify.com/v1/artists/2FXC3k01G6Gw61bmprjgqS"}], "track_number": 1, "available_markets": ["AU", "CA", "US"], "type": "track", "preview_url": "https://p.scdn.co/mp3-preview/cdbb37ee18245800e331528fd781bac388da9254?cid=0c947b9d3f7547e28aee080174c283c9", "explicit": false, "external_urls": {"spotify": "https://open.spotify.com/track/1CS7Sd1u5tWkstBhpssyjP"}, "id": "1CS7Sd1u5tWkstBhpssyjP", "uri": "spotify:track:1CS7Sd1u5tWkstBhpssyjP", "popularity": 77}, {"album": {"total_tracks": 4, "type": "album", "release_date": "2013-09-13", "href": "https://api.spotify.com/v1/albums/4vPuWtVR7VLGRcdKWVwHBY", "artists": [{"type": "artist", "name": "Hozier", "external_urls": {"spotify": "https://open.spotify.com/artist/2FXC3k01G6Gw61bmprjgqS"}, "id": "2FXC3k01G6Gw61bmprjgqS", "uri": "spotify:artist:2FXC3k01G6Gw61bmprjgqS", "href": "https://api.spotify.com/v1/artists/2FXC3k01G6Gw61bmprjgqS"}], "images": [{"width": 640, "url": "https://i.scdn.co/image/ab67616d0000b273afbbb944950de88267c198a1", "height": 640}, {"width": 300, "url": "https://i.scdn.co/image/ab67616d00001e02afbbb944950de88267c198a1", "height": 300}, {"width": 64, "url": "https://i.scdn.co/image/ab67616d00004851afbbb944950de88267c198a1", "height": 64}], "available_markets": ["AU", "CA", "US"], "album_type": "single", "release_date_precision": "day", "name": "Take Me to Church EP", "external_urls": {"spotify": "https://open.spotify.com/album/4vPuWtVR7VLGRcdKWVwHBY"}, "id": "4vPuWtVR7VLGRcdKWVwHBY", "uri": "spotify:album:4vPuWtVR7VLGRcdKWVwHBY"}, "external_ids": {"isrc": "USSM11307291"}, "name": "Take Me to Church", "duration_ms": 241586, "is_local": false, "disc_number": 1, "href": "https://api.spotify.com/v1/tracks/7J4gq1xNP3IsG6lDk0eSa7", "artists": [{"type": "artist", "name": "Hozier", "external_urls": {"spotify": "https://open.spotify.com/artist/2FXC3k01G6Gw61bmprjgqS"}, "id": "2FXC3k01G6Gw61bmprjgqS", "uri": "spotify:artist:2FXC3k01G6Gw61bmprjgqS", "href": "https://api.spotify.com/v1/artists/2FXC3k01G6Gw61bmprjgqS"}], "track_number": 1, "available_markets": ["AU", "CA", "US"], "type": "track", "preview_url": "https://p.scdn.co/mp3-preview/9b9ecadd03cb31fa4a6d50b0ba26e69e1956ee78?cid=0c947b9d3f7547e28aee080174c283c9", "explicit": false, "external_urls": {"spotify": "https://open.spotify.com/track/7J4gq1xNP3IsG6lDk0eSa7"}, "id": "7J4gq1xNP3IsG6lDk0eSa7", "uri": "spotify:track:7J4gq1xNP3IsG6lDk0eSa7", "popularity": 51}, {"album": {"total_tracks": 4, "type": "album", "release_date": "2014-09-01", "href": "https://api.spotify.com/v1/albums/4IEY5pUQMlTAAMfMNCc4pb", "artists": [{"type": "artist", "name": "Hozier", "external_urls": {"spotify": "https://open.spotify.com/artist/2FXC3k01G6Gw61bmprjgqS"}, "id": "2FXC3k01G6Gw61bmprjgqS", "uri": "spotify:artist:2FXC3k01G6Gw61bmprjgqS", "href": "https://api.spotify.com/v1/artists/2FXC3k01G6Gw61bmprjgqS"}], "images": [{"width": 640, "url": "https://i.scdn.co/image/1abdd476387e571899e7eaba24fadb8331510192", "height": 640}, {"width": 300, "url": "https://i.scdn.co/image/08069543f442fbf580c8ac83da328aaf3e24ff77", "height": 300}, {"width": 64, "url": "https://i.scdn.co/image/7bdcc215efe6279767e4236d7201c6c40161a8b0", "height": 64}], "available_markets": ["AU", "CA", "US"], "album_type": "single", "release_date_precision": "day", "name": "Spotify Sessions London", "external_urls": {"spotify": "https://open.spotify.com/album/4IEY5pUQMlTAAMfMNCc4pb"}, "id": "4IEY5pUQMlTAAMfMNCc4pb", "uri": "spotify:album:4IEY5pUQMlTAAMfMNCc4pb"}, "external_ids": {"isrc": "USSM11405718"}, "name": "Take Me to Church - Live From Spotify London", "duration_ms": 246493, "is_local": false, "disc_number": 1, "href": "https://api.spotify.com/v1/tracks/6d0wEqM0jJTNv1asKflGGi", "artists": [{"type": "artist", "name": "Hozier", "external_urls": {"spotify": "https://open.spotify.com/artist/2FXC3k01G6Gw61bmprjgqS"}, "id": "2FXC3k01G6Gw61bmprjgqS", "uri": "spotify:artist:2FXC3k01G6Gw61bmprjgqS", "href": "https://api.spotify.com/v1/artists/2FXC3k01G6Gw61bmprjgqS"}], "track_number": 1, "available_markets": ["AU", "CA", "US"], "type": "track", "preview_url": "https://p.scdn.co/mp3-preview/e4aae59c7a795bff7015c4a9da226d851b5d87cc?cid=0c947b9d3f7547e28aee080174c283c9", "explicit": false, "external_urls": {"spotify": "https://open.spotify.com/track/6d0wEqM0jJTNv1asKflGGi"}, "id": "6d0wEqM0jJTNv1asKflGGi", "uri": "spotify:track:6d0wEqM0jJTNv1asKflGGi", "popularity": 53}, {"album": {"total_tracks": 6, "type": "album", "release_date": "2015-07-31", "href": "https://api.spotify.com/v1/albums/4cm3cwzDQ9IjWTj2u8K2ef", "artists": [{"type": "artist", "name": "Hozier", "external_urls": {"spotify": "https://open.spotify.com/artist/2FXC3k01G6Gw61bmprjgqS"}, "id": "2FXC3k01G6Gw61bmprjgqS", "uri": "spotify:artist:2FXC3k01G6Gw61bmprjgqS", "href": "https://api.spotify.com/v1/artists/2FXC3k01G6Gw61bmprjgqS"}], "images": [{"width": 640, "url": "https://i.scdn.co/image/ab67616d0000b273628bd3f2e108009776294206", "height": 640}, {"width": 300, "url": "https://i.scdn.co/image/ab67616d00001e02628bd3f2e108009776294206", "height": 300}, {"width": 64, "url": "https://i.scdn.co/image/ab67616d00004851628bd3f2e108009776294206", "height": 64}], "available_markets": ["AU", "CA", "US"], "album_type": "single", "release_date_precision": "day", "name": "Live in America", "external_urls": {"spotify": "https://open.spotify.com/album/4cm3cwzDQ9IjWTj2u8K2ef"}, "id": "4cm3cwzDQ9IjWTj2u8K2ef", "uri": "spotify:album:4cm3cwzDQ9IjWTj2u8K2ef"}, "external_ids": {"isrc": "USSM11505347"}, "name": "Take Me to Church - Live in America", "duration_ms": 260293, "is_local": false, "disc_number": 1, "href": "https://api.spotify.com/v1/tracks/1cmuZLsrQ0XN4ldFGeIKpI", "artists": [{"type": "artist", "name": "Hozier", "external_urls": {"spotify": "https://open.spotify.com/artist/2FXC3k01G6Gw61bmprjgqS"}, "id": "2FXC3k01G6Gw61bmprjgqS", "uri": "spotify:artist:2FXC3k01G6Gw61bmprjgqS", "href": "https://api.spotify.com/v1/artists/2FXC3k01G6Gw61bmprjgqS"}], "track_number": 6, "available_markets": ["AU", "CA", "US"], "type": "track", "preview_url": "https://p.scdn.co/mp3-preview/129a5d9d83ae9bf42e44c1d5bc69d971ae64838a?cid=0c947b9d3f7547e28aee080174c283c9", "explicit": false, "external_urls": {"spotify": "https://open.spotify.com/track/1cmuZLsrQ0XN4ldFGeIKpI"}, "id": "1cmuZLsrQ0XN4ldFGeIKpI", "uri": "spotify:track:1cmuZLsrQ0XN4ldFGeIKpI", "popularity": 34}, {"album": {"total_tracks": 50, "type": "album", "release_date": "2018-08-31", "href": "https://api.spotify.com/v1/albums/44L47x5e4Af7L2GHcPafJY", "artists": [{"type": "artist", "name": "Various Artists", "external_urls": {"spotify": "https://open.spotify.com/artist/0LyfQWJT6nXafLPZqxe9Of"}, "id": "0LyfQWJT6nXafLPZqxe9Of", "uri": "spotify:artist:0LyfQWJT6nXafLPZqxe9Of", "href": "https://api.spotify.com/v1/artists/0LyfQWJT6nXafLPZqxe9Of"}], "images": [{"width": 600, "url": "https://i.scdn.co/image/159eb891988a6b3c97a1613ae61484c736c3180b", "height": 600}, {"width": 300, "url": "https://i.scdn.co/image/6fa2d2c79c23f9c92c31bfa6fe9717fad8a0dbf9", "height": 300}, {"width": 64, "url": "https://i.scdn.co/image/d9d993ffdf404220764287ece9de96df093eebe3", "height": 64}], "available_markets": ["AD", "AE", "AR", "AT", "AU", "BE", "BG", "BO", "BR", "CA", "CH", "CL", "CO", "CR", "CY", "CZ", "DE", "DK", "DZ", "EC", "EE", "EG", "ES", "FI", "FR", "GB", "GR", "GT", "HK", "HN", "HU", "ID", "IE", "IL", "IS", "IT", "JO", "JP", "KW", "LB", "LI", "LT", "LU", "LV", "MA", "MC", "MT", "MX", "MY", "NI", "NL", "NO", "NZ", "OM", "PA", "PE", "PH", "PL", "PS", "PT", "PY", "QA", "RO", "SA", "SE", "SG", "SK", "SV", "TH", "TN", "TR", "TW", "US", "UY", "VN", "ZA"], "album_type": "compilation", "release_date_precision": "day", "name": "Background Piano for Studying", "external_urls": {"spotify": "https://open.spotify.com/album/44L47x5e4Af7L2GHcPafJY"}, "id": "44L47x5e4Af7L2GHcPafJY", "uri": "spotify:album:44L47x5e4Af7L2GHcPafJY"}, "external_ids": {"isrc": "SEWDL6141508"}, "name": "Take Me to Church", "duration_ms": 244006, "is_local": false, "disc_number": 1, "href": "https://api.spotify.com/v1/tracks/0K5mzeqZeaRYAXxgIOtiAj", "artists": [{"type": "artist", "name": "Hozier", "external_urls": {"spotify": "https://open.spotify.com/artist/2FXC3k01G6Gw61bmprjgqS"}, "id": "2FXC3k01G6Gw61bmprjgqS", "uri": "spotify:artist:2FXC3k01G6Gw61bmprjgqS", "href": "https://api.spotify.com/v1/artists/2FXC3k01G6Gw61bmprjgqS"}, {"type": "artist", "name": "Bartolomeo Cristofori", "external_urls": {"spotify": "https://open.spotify.com/artist/0y87UYssdzgv3wOht0z4hI"}, "id": "0y87UYssdzgv3wOht0z4hI", "uri": "spotify:artist:0y87UYssdzgv3wOht0z4hI", "href": "https://api.spotify.com/v1/artists/0y87UYssdzgv3wOht0z4hI"}], "track_number": 26, "available_markets": ["AD", "AE", "AR", "AT", "AU", "BE", "BG", "BO", "BR", "CA", "CH", "CL", "CO", "CR", "CY", "CZ", "DE", "DK", "DZ", "EC", "EE", "EG", "ES", "FI", "FR", "GB", "GR", "GT", "HK", "HN", "HU", "ID", "IE", "IL", "IS", "IT", "JO", "JP", "KW", "LB", "LI", "LT", "LU", "LV", "MA", "MC", "MT", "MX", "MY", "NI", "NL", "NO", "NZ", "OM", "PA", "PE", "PH", "PL", "PS", "PT", "PY", "QA", "RO", "SA", "SE", "SG", "SK", "SV", "TH", "TN", "TR", "TW", "US", "UY", "VN", "ZA"], "type": "track", "preview_url": "https://p.scdn.co/mp3-preview/be60792ab7e74d47131ba1629c6c754681061487?cid=0c947b9d3f7547e28aee080174c283c9", "explicit": false, "external_urls": {"spotify": "https://open.spotify.com/track/0K5mzeqZeaRYAXxgIOtiAj"}, "id": "0K5mzeqZeaRYAXxgIOtiAj", "uri": "spotify:track:0K5mzeqZeaRYAXxgIOtiAj", "popularity": 14}], "previous": null, "href": "https://api.spotify.com/v1/search?query=artist%3AHozier+track%3ATake+Me+To+Church&type=track&offset=0&limit=5", "limit": 5, "total": 8, "next": "https://api.spotify.com/v1/search?query=artist%3AHozier+track%3ATake+Me+To+Church&type=track&offset=5&limit=5"}}