{"tracks": {"offset": 0, "items": [{"album": {"total_tracks": 40, "type": "album", "release_date": "1995-10-02", "href": "https://api.spotify.com/v1/albums/6ozp33PI3p9AdddB6ZL3xQ", "artists": [{"type": "artist", "name": "Oasis", "external_urls": {"spotify": "https://open.spotify.com/artist/2DaxqgrOhkeH0fpeiQq2f4"}, "id": "2DaxqgrOhkeH0fpeiQq2f4", "uri": "spotify:artist:2DaxqgrOhkeH0fpeiQq2f4", "href": "https://api.spotify.com/v1/artists/2DaxqgrOhkeH0fpeiQq2f4"}], "images": [{"width": 640, "url": "https://i.scdn.co/image/ab67616d0000b2731f2be6f8ed797aeb11973194", "height": 640}, {"width": 300, "url": "https://i.scdn.co/image/ab67616d00001e021f2be6f8ed797aeb11973194", "height": 300}, {"width": 64, "url": "https://i.scdn.co/image/ab67616d000048511f2be6f8ed797aeb11973194", "height": 64}], "available_markets": ["CA", "US"], "album_type": "album", "release_date_precision": "day", "name": "(What's The Story) Morning Glory? (Deluxe Edition) [Remastered]", "external_urls": {"spotify": "https://open.spotify.com/album/6ozp33PI3p9AdddB6ZL3xQ"}, "id": "6ozp33PI3p9AdddB6ZL3xQ", "uri": "spotify:album:6ozp33PI3p9AdddB6ZL3xQ"}, "external_ids": {"isrc": "GBQCP1400109"}, "name": "Wonderwall - Remastered", "duration_ms": 258732, "is_local": false, "disc_number": 1, "href": "https://api.spotify.com/v1/tracks/5wj4E6IsrVtn8IBJQOd0Cl", "artists": [{"type": "artist", "name": "Oasis", "external_urls": {"spotify": "https://open.spotify.com/artist/2DaxqgrOhkeH0fpeiQq2f4"}, "id": "2DaxqgrOhkeH0fpeiQq2f4", "uri": "spotify:artist:2DaxqgrOhkeH0fpeiQq2f4", "href": "https://api.spotify.com/v1/artists/2DaxqgrOhkeH0fpeiQq2f4"}], "track_number": 3, "available_markets": ["CA", "US"], "type": "track", "preview_url": "https://p.scdn.co/mp3-preview/658627c1c2fb5f9a89ce556ead028b7cebd297c6?cid=0c947b9d3f7547e28aee080174c283c9", "explicit": false, "external_urls": {"spotify": "https://open.spotify.com/track/5wj4E6IsrVtn8IBJQOd0Cl"}, "id": "5wj4E6IsrVtn8IBJQOd0Cl", "uri": "spotify:track:5wj4E6IsrVtn8IBJQOd0Cl", "popularity": 73}, {"album": {"total_tracks": 18, "type": "album", "release_date": "2006-11-20", "href": "https://api.spotify.com/v1/albums/5VkPS9sK4VYUUeHG0icQmI", "artists": [{"type": "artist", "name": "Oasis", "external_urls": {"spotify": "https://open.spotify.com/artist/2DaxqgrOhkeH0fpeiQq2f4"}, "id": "2DaxqgrOhkeH0fpeiQq2f4", "uri": "spotify:artist:2DaxqgrOhkeH0fpeiQq2f4", "href": "https://api.spotify.com/v1/artists/2DaxqgrOhkeH0fpeiQq2f4"}], "images": [{"width": 640, "url": "https://i.scdn.co/image/ab67616d0000b27329f951c74e9cbfffeb7b52f9", "height": 640}, {"width": 300, "url": "https://i.scdn.co/image/ab67616d00001e0229f951c74e9cbfffeb7b52f9", "height": 300}, {"width": 64, "url": "https://i.scdn.co/image/ab67616d0000485129f951c74e9cbfffeb7b52f9", "height": 64}], "available_markets": ["CA", "US"], "album_type": "compilation", "release_date_precision": "day", "name": "Stop The Clocks", "external_urls": {"spotify": "https://open.spotify.com/album/5VkPS9sK4VYUUeHG0icQmI"}, "id": "5VkPS9sK4VYUUeHG0icQmI", "uri": "spotify:album:5VkPS9sK4VYUUeHG0icQmI"}, "external_ids": {"isrc": "GBAAW9500189"}, "name": "Wonderwall", "duration_ms": 258079, "is_local": false, "disc_number": 1, "href": "https://api.spotify.com/v1/tracks/4w7RuuQAVP0JXlAom3z1aC", "artists": [{"type": "artist", "name": "Oasis", "external_urls": {"spotify": "https://open.spotify.com/artist/2DaxqgrOhkeH0fpeiQq2f4"}, "id": "2DaxqgrOhkeH0fpeiQq2f4", "uri": "spotify:artist:2DaxqgrOhkeH0fpeiQq2f4", "href": "https://api.spotify.com/v1/artists/2DaxqgrOhkeH0fpeiQq2f4"}], "track_number": 6, "available_markets": ["CA", "US"], "type": "track", "preview_url": "https://p.scdn.co/mp3-preview/cffcc40b4cdac1717e00e4accb00548f49365d36?cid=0c947b9d3f7547e28aee080174c283c9", "explicit": false, "external_urls": {"spotify": "https://open.spotify.com/track/4w7RuuQAVP0JXlAom3z1aC"}, "id": "4w7RuuQAVP0JXlAom3z1aC", "uri": "spotify:track:4w7RuuQAVP0JXlAom3z1aC", "popularity": 58}, {"album": {"total_tracks": 18, "type": "album", "release_date": "2001-12-11", "href": "https://api.spotify.com/v1/albums/19rUOvZluw40PCM6tYcPhY", "artists": [{"type": "artist", "name": "Oasis", "external_urls": {"spotify": "https://open.spotify.com/artist/2DaxqgrOhkeH0fpeiQq2f4"}, "id": "2DaxqgrOhkeH0fpeiQq2f4", "uri": "spotify:artist:2DaxqgrOhkeH0fpeiQq2f4", "href": "https://api.spotify.com/v1/artists/2DaxqgrOhkeH0fpeiQq2f4"}], "images": [{"width": 640, "url": "https://i.scdn.co/image/ab67616d0000b273b572d898068efe7819ad0f7b", "height": 640}, {"width": 300, "url": "https://i.scdn.co/image/ab67616d00001e02b572d898068efe7819ad0f7b", "height": 300}, {"width": 64, "url": "https://i.scdn.co/image/ab67616d00004851b572d898068efe7819ad0f7b", "height": 64}], "available_markets": ["CA", "US"], "album_type": "album", "release_date_precision": "day", "name": "Familiar To Millions (Live)", "external_urls": {"spotify": "https://open.spotify.com/album/19rUOvZluw40PCM6tYcPhY"}, "id": "19rUOvZluw40PCM6tYcPhY", "uri": "spotify:album:19rUOvZluw40PCM6tYcPhY"}, "external_ids": {"isrc": "GBBQY0002025"}, "name": "Wonderwall [Live At Wembley Stadium, 2000]", "duration_ms": 286466, "is_local": false, "disc_number": 1, "href": "https://api.spotify.com/v1/tracks/6KkH3gz9kGVSkKKm9XNtYf", "artists": [{"type": "artist", "name": "Oasis", "external_urls": {"spotify": "https://open.spotify.com/artist/2DaxqgrOhkeH0fpeiQq2f4"}, "id": "2DaxqgrOhkeH0fpeiQq2f4", "uri": "spotify:artist:2DaxqgrOhkeH0fpeiQq2f4", "href": "https://api.spotify.com/v1/artists/2DaxqgrOhkeH0fpeiQq2f4"}], "track_number": 11, "available_markets": ["CA", "US"], "type": "track", "preview_url": "https://p.scdn.co/mp3-preview/92bdb18e758d77b728e1cd4e9b3f3dc97e9c2a42?cid=0c947b9d3f7547e28aee080174c283c9", "explicit": false, "external_urls": {"spotify": "https://open.spotify.com/track/6KkH3gz9kGVSkKKm9XNtYf"}, "id": "6KkH3gz9kGVSkKKm9XNtYf", "uri": "spotify:track:6KkH3gz9kGVSkKKm9XNtYf", "popularity": 29}, {"album": {"total_tracks": 12, "type": "album", "release_date": "1995-10-02", "href": "https://api.spotify.com/v1/albums/7EW77iyGMou046Z44pOrIk", "artists": [{"type": "artist", "name": "Oasis", "external_urls": {"spotify": "https://open.spotify.com/artist/2DaxqgrOhkeH0fpeiQq2f4"}, "id": "2DaxqgrOhkeH0fpeiQq2f4", "uri": "spotify:artist:2DaxqgrOhkeH0fpeiQq2f4", "href": "https://api.spotify.com/v1/artists/2DaxqgrOhkeH0fpeiQq2f4"}], "images": [{"width": 640, "url": "https://i.scdn.co/image/ab67616d0000b2731ad93a1b8d9fcea3c56f287b", "height": 640}, {"width": 300, "url": "https://i.scdn.co/image/ab67616d00001e021ad93a1b8d9fcea3c56f287b", "height": 300}, {"width": 64, "url": "https://i.scdn.co/image/ab67616d000048511ad93a1b8d9fcea3c56f287b", "height": 64}], "available_markets": ["CA", "US"], "album_type": "album", "release_date_precision": "day", "name": "(What's the Story) Morning Glory? [Remastered]", "external_urls": {"spotify": "https://open.spotify.com/album/7EW77iyGMou046Z44pOrIk"}, "id": "7EW77iyGMou046Z44pOrIk", "uri": "spotify:album:7EW77iyGMou046Z44pOrIk"}, "external_ids": {"isrc": "GBQCP1400109"}, "name": "Wonderwall - Remastered", "duration_ms": 258734, "is_local": false, "disc_number": 1, "href": "https://api.spotify.com/v1/tracks/1Gce8OBQM4M9CZ8aW6TO9A", "artists": [{"type": "artist", "name": "Oasis", "external_urls": {"spotify": "https://open.spotify.com/artist/2DaxqgrOhkeH0fpeiQq2f4"}, "id": "2DaxqgrOhkeH0fpeiQq2f4", "uri": "spotify:artist:2DaxqgrOhkeH0fpeiQq2f4", "href": "https://api.spotify.com/v1/artists/2DaxqgrOhkeH0fpeiQq2f4"}], "track_number": 3, "available_markets": ["CA", "US"], "type": "track", "preview_url": "https://p.scdn.co/mp3-preview/4c66dbcd59fde7de0cfd5a8a90e1478b2e122920?cid=0c947b9d3f7547e28aee080174c283c9", "explicit": false, "external_urls": {"spotify": "https://open.spotify.com/track/1Gce8OBQM4M9CZ8aW6TO9A"}, "id": "1Gce8OBQM4M9CZ8aW6TO9A", "uri": "spotify:track:1Gce8OBQM4M9CZ8aW6TO9A", "popularity": 27}, {"album": {"total_tracks": 10, "type": "album", "release_date": "2019-02-11", "href": "https://api.spotify.com/v1/albums/1pNrVUE6aOFQMV7AiMR6TH", "artists": [{"type": "artist", "name": "Various Artists", "external_urls": {"spotify": "https://open.spotify.com/artist/0LyfQWJT6nXafLPZqxe9Of"}, "id": "0LyfQWJT6nXafLPZqxe9Of", "uri": "spotify:artist:0LyfQWJT6nXafLPZqxe9Of", "href": "https://api.spotify.com/v1/artists/0LyfQWJT6nXafLPZqxe9Of"}], "images": [{"width": 640, "url": "https://i.scdn.co/image/ab67616d0000b27379b7bdad437a5bf4d08bbc8b", "height": 640}, {"width": 300, "url": "https://i.scdn.co/image/ab67616d00001e0279b7bdad437a5bf4d08bbc8b", "height": 300}, {"width": 64, "url": "https://i.scdn.co/image/ab67616d0000485179b7bdad437a5bf4d08bbc8b", "height": 64}], "available_markets": ["AD", "AE", "AR", "AT", "AU", "BE", "BG", "BH", "BO", "BR", "CA", "CH", "CL", "CO", "CR", "CY", "CZ", "DE", "DK", "DO", "DZ", "EC", "EE", "EG", "ES", "FI", "FR", "GB", "GR", "GT", "HK", "HN", "HU", "ID", "IE", "IL", "IN", "IS", "IT", "JO", "JP", "KW", "LB", "LI", "LT", "LU", "LV", "MA", "MC", "MT", "MX", "MY", "NI", "NL", "NO", "NZ", "OM", "PA", "PE", "PH", "PL", "PS", "PT", "PY", "QA", "RO", "SA", "SE", "SG", "SK", "SV", "TH", "TN", "TR", "TW", "US", "UY", "VN", "ZA"], "album_type": "compilation", "release_date_precision": "day", "name": "Relaxing Classical Playlist: Essential Anxiety Relief", "external_urls": {"spotify": "https://open.spotify.com/album/1pNrVUE6aOFQMV7AiMR6TH"}, "id": "1pNrVUE6aOFQMV7AiMR6TH", "uri": "spotify:album:1pNrVUE6aOFQMV7AiMR6TH"}, "external_ids": {"isrc": "PLS921748592"}, "name": "Wonderwall - Acoustic Cover", "duration_ms": 214194, "is_local": false, "disc_number": 1, "href": "https://api.spotify.com/v1/tracks/4vf2pgRjEplRleAnvziRRW", "artists": [{"type": "artist", "name": "Oasis", "external_urls": {"spotify": "https://open.spotify.com/artist/2DaxqgrOhkeH0fpeiQq2f4"}, "id": "2DaxqgrOhkeH0fpeiQq2f4", "uri": "spotify:artist:2DaxqgrOhkeH0fpeiQq2f4", "href": "https://api.spotify.com/v1/artists/2DaxqgrOhkeH0fpeiQq2f4"}, {"type": "artist", "name": "Jose Lokey", "external_urls": {"spotify": "https://open.spotify.com/artist/03nTAmoXk5dmxFerZ0j6SB"}, "id": "03nTAmoXk5dmxFerZ0j6SB", "uri": "spotify:artist:03nTAmoXk5dmxFerZ0j6SB", "href": "https://api.spotify.com/v1/artists/03nTAmoXk5dmxFerZ0j6SB"}], "track_number": 7, "available_markets": ["AD", "AE", "AR", "AT", "AU", "BE", "BG", "BH", "BO", "BR", "CA", "CH", "CL", "CO", "CR", "CY", "CZ", "DE", "DK", "DO", "DZ", "EC", "EE", "EG", "ES", "FI", "FR", "GB", "GR", "GT", "HK", "HN", "HU", "ID", "IE", "IL", "IN", "IS", "IT", "JO", "JP", "KW", "LB", "LI", "LT", "LU", "LV", "MA", "MC", "MT", "MX", "MY", "NI", "NL", "NO", "NZ", "OM", "PA", "PE", "PH", "PL", "PS", "PT", "PY", "QA", "RO", "SA", "SE", "SG", "SK", "SV", "TH", "TN", "TR", "TW", "US", "UY", "VN", "ZA"], "type": "track", "preview_url": "https://p.scdn.co/mp3-preview/509bd8de12e8d045adfdc2889a010ef09772ce26?cid=0c947b9d3f7547e28aee080174c283c9", "explicit": false, "external_urls": {"spotify": "https://open.spotify.com/track/4vf2pgRjEplRleAnvziRRW"}, "id": "4vf2pgRjEplRleAnvziRRW", "uri": "spotify:track:4vf2pgRjEplRleAnvziRRW", "popularity": 10}], "previous": null, "href": "https://api.spotify.com/v1/search?query=artist%3AOasis+track%3AWonderwall&type=track&offset=0&limit=5", "limit": 5, "total": 10, "next": "https://api.spotify.com/v1/search?query=artist%3AOasis+track%3AWonderwall&type=track&offset=5&limit=5"}}