{"tracks": {"offset": 0, "items": [{"album": {"total_tracks": 11, "type": "album", "release_date": "2009-09-10", "href": "https://api.spotify.com/v1/albums/0eFHYz8NmK75zSplL5qlfM", "artists": [{"type": "artist", "name": "Muse", "external_urls": {"spotify": "https://open.spotify.com/artist/12Chz98pHFMPJEknJQMWvI"}, "id": "12Chz98pHFMPJEknJQMWvI", "uri": "spotify:artist:12Chz98pHFMPJEknJQMWvI", "href": "https://api.spotify.com/v1/artists/12Chz98pHFMPJEknJQMWvI"}], "images": [{"width": 640, "url": "https://i.scdn.co/image/ab67616d0000b273b6d4566db0d12894a1a3b7a2", "height": 640}, {"width": 300, "url": "https://i.scdn.co/image/ab67616d00001e02b6d4566db0d12894a1a3b7a2", "height": 300}, {"width": 64, "url": "https://i.scdn.co/image/ab67616d00004851b6d4566db0d12894a1a3b7a2", "height": 64}], "available_markets": ["AD", "AE", "AR", "AT", "AU", "BE", "BG", "BH", "BO", "BR", "CA", "CH", "CL", "CO", "CR", "CY", "CZ", "DE", "DK", "DO", "DZ", "EC", "EE", "EG", "ES", "FI", "FR", "GB", "GR", "GT", "HK", "HN", "HU", "ID", "IE", "IL", "IS", "IT", "JO", "JP", "KW", "LB", "LI", "LT", "LU", "LV", "MA", "MC", "MT", "MX", "MY", "NI", "NL", "NO", "NZ", "OM", "PA", "PE", "PH", "PL", "PS", "PT", "PY", "QA", "RO", "SA", "SE", "SG", "SK", "SV", "TH", "TN", "TR", "TW", "US", "UY", "VN", "ZA"], "album_type": "album", "release_date_precision": "day", "name": "The Resistance", "external_urls": {"spotify": "https://open.spotify.com/album/0eFHYz8NmK75zSplL5qlfM"}, "id": "0eFHYz8NmK75zSplL5qlfM", "uri": "spotify:album:0eFHYz8NmK75zSplL5qlfM"}, "external_ids": {"isrc": "GBAHT0900320"}, "name": "Uprising", "duration_ms": 304840, "is_local": false, "disc_number": 1, "href": "https://api.spotify.com/v1/tracks/4VqPOruhp5EdPBeR92t6lQ", "artists": [{"type": "artist", "name": "Muse", "external_urls": {"spotify": "https://open.spotify.com/artist/12Chz98pHFMPJEknJQMWvI"}, "id": "12Chz98pHFMPJEknJQMWvI", "uri": "spotify:artist:12Chz98pHFMPJEknJQMWvI", "href": "https://api.spotify.com/v1/artists/12Chz98pHFMPJEknJQMWvI"}], "track_number": 1, "available_markets": ["AD", "AE", "AR", "AT", "AU", "BE", "BG", "BH", "BO", "BR", "CA", "CH", "CL", "CO", "CR", "CY", "CZ", "DE", "DK", "DO", "DZ", "EC", "EE", "EG", "ES", "FI", "FR", "GB", "GR", "GT", "HK", "HN", "HU", "ID", "IE", "IL", "IS", "IT", "JO", "JP", "KW", "LB", "LI", "LT", "LU", "LV", "MA", "MC", "MT", "MX", "MY", "NI", "NL", "NO", "NZ", "OM", "PA", "PE", "PH", "PL", "PS", "PT", "PY", "QA", "RO", "SA", "SE", "SG", "SK", "SV", "TH", "TN", "TR", "TW", "US", "UY", "VN", "ZA"], "type": "track", "preview_url": "https://p.scdn.co/mp3-preview/104ad0ea32356b9f3b2e95a8610f504c90b0026b?cid=0c947b9d3f7547e28aee080174c283c9", "explicit": false, "external_urls": {"spotify": "https://open.spotify.com/track/4VqPOruhp5EdPBeR92t6lQ"}, "id": "4VqPOruhp5EdPBeR92t6lQ", "uri": "spotify:track:4VqPOruhp5EdPBeR92t6lQ", "popularity": 77}, {"album": {"total_tracks": 13, "type": "album", "release_date": "2013-11-25", "href": "https://api.spotify.com/v1/albums/2m7L60M210ABzrY9GLyBPZ", "artists": [{"type": "artist", "name": "Muse", "external_urls": {"spotify": "https://open.spotify.com/artist/12Chz98pHFMPJEknJQMWvI"}, "id": "12Chz98pHFMPJEknJQMWvI", "uri": "spotify:artist:12Chz98pHFMPJEknJQMWvI", "href": "https://api.spotify.com/v1/artists/12Chz98pHFMPJEknJQMWvI"}], "images": [{"width": 640, "url": "https://i.scdn.co/image/ab67616d0000b27306abd7e9854cba988401707c", "height": 640}, {"width": 300, "url": "https://i.scdn.co/image/ab67616d00001e0206abd7e9854cba988401707c", "height": 300}, {"width": 64, "url": "https://i.scdn.co/image/ab67616d0000485106abd7e9854cba988401707c", "height": 64}], "available_markets": ["AD", "AE", "AR", "AT", "AU", "BE", "BG", "BH", "BO", "BR", "CA", "CH", "CL", "CO", "CR", "CY", "CZ", "DE", "DK", "DO", "DZ", "EC", "EE", "EG", "ES", "FI", "FR", "GB", "GR", "GT", "HK", "HN", "HU", "ID", "IE", "IL", "IS", "IT", "JO", "JP", "KW", "LB", "LT", "LU", "LV", "MA", "MC", "MT", "MX", "MY", "NI", "NL", "NO", "NZ", "OM", "PA", "PE", "PH", "PL", "PT", "PY", "QA", "RO", "SA", "SE", "SG", "SK", "SV", "TH", "TN", "TR", "TW", "US", "UY", "VN", "ZA"], "album_type": "album", "release_date_precision": "day", "name": "Live at Rome Olympic Stadium", "external_urls": {"spotify": "https://open.spotify.com/album/2m7L60M210ABzrY9GLyBPZ"}, "id": "2m7L60M210ABzrY9GLyBPZ", "uri": "spotify:album:2m7L60M210ABzrY9GLyBPZ"}, "external_ids": {"isrc": "GBAHT1326119"}, "name": "Uprising - Live at Rome Olympic Stadium", "duration_ms": 335000, "is_local": false, "disc_number": 1, "href": "https://api.spotify.com/v1/tracks/3fM1dfdFwNoCuenLcovLXB", "artists": [{"type": "artist", "name": "Muse", "external_urls": {"spotify": "https://open.spotify.com/artist/12Chz98pHFMPJEknJQMWvI"}, "id": "12Chz98pHFMPJEknJQMWvI", "uri": "spotify:artist:12Chz98pHFMPJEknJQMWvI", "href": "https://api.spotify.com/v1/artists/12Chz98pHFMPJEknJQMWvI"}], "track_number": 12, "available_markets": ["AD", "AE", "AR", "AT", "AU", "BE", "BG", "BH", "BO", "BR", "CA", "CH", "CL", "CO", "CR", "CY", "CZ", "DE", "DK", "DO", "DZ", "EC", "EE", "EG", "ES", "FI", "FR", "GB", "GR", "GT", "HK", "HN", "HU", "ID", "IE", "IL", "IS", "IT", "JO", "JP", "KW", "LB", "LT", "LU", "LV", "MA", "MC", "MT", "MX", "MY", "NI", "NL", "NO", "NZ", "OM", "PA", "PE", "PH", "PL", "PT", "PY", "QA", "RO", "SA", "SE", "SG", "SK", "SV", "TH", "TN", "TR", "TW", "US", "UY", "VN", "ZA"], "type": "track", "preview_url": "https://p.scdn.co/mp3-preview/17e1daf0eda89ffd8b3ef27e9f7a3ce149276e42?cid=0c947b9d3f7547e28aee080174c283c9", "explicit": true, "external_urls": {"spotify": "https://open.spotify.com/track/3fM1dfdFwNoCuenLcovLXB"}, "id": "3fM1dfdFwNoCuenLcovLXB", "uri": "spotify:track:3fM1dfdFwNoCuenLcovLXB", "popularity": 47}, {"album": {"total_tracks": 3, "type": "album", "release_date": "2009-12-15", "href": "https://api.spotify.com/v1/albums/5xvv9EPw6Gl4ASaVgNIgLW", "artists": [{"type": "artist", "name": "Muse", "external_urls": {"spotify": "https://open.spotify.com/artist/12Chz98pHFMPJEknJQMWvI"}, "id": "12Chz98pHFMPJEknJQMWvI", "uri": "spotify:artist:12Chz98pHFMPJEknJQMWvI", "href": "https://api.spotify.com/v1/artists/12Chz98pHFMPJEknJQMWvI"}], "images": [{"width": 640, "url": "https://i.scdn.co/image/ab67616d0000b273c44df6c319c0907c62ec703d", "height": 640}, {"width": 300, "url": "https://i.scdn.co/image/ab67616d00001e02c44df6c319c0907c62ec703d", "height": 300}, {"width": 64, "url": "https://i.scdn.co/image/ab67616d00004851c44df6c319c0907c62ec703d", "height": 64}], "available_markets": ["CA", "US"], "album_type": "single", "release_date_precision": "day", "name": "Uprising", "external_urls": {"spotify": "https://open.spotify.com/album/5xvv9EPw6Gl4ASaVgNIgLW"}, "id": "5xvv9EPw6Gl4ASaVgNIgLW", "uri": "spotify:album:5xvv9EPw6Gl4ASaVgNIgLW"}, "external_ids": {"isrc": "GBAHT0900395"}, "name": "Uprising - Does It Offend You Yeah Mix", "duration_ms": 240333, "is_local": false, "disc_number": 1, "href": "https://api.spotify.com/v1/tracks/1Y5wyKMkBChdJsHM9U0noA", "artists": [{"type": "artist", "name": "Muse", "external_urls": {"spotify": "https://open.spotify.com/artist/12Chz98pHFMPJEknJQMWvI"}, "id": "12Chz98pHFMPJEknJQMWvI", "uri": "spotify:artist:12Chz98pHFMPJEknJQMWvI", "href": "https://api.spotify.com/v1/artists/12Chz98pHFMPJEknJQMWvI"}, {"type": "artist", "name": "Does It Offend You, Yeah?", "external_urls": {"spotify": "https://open.spotify.com/artist/4bFfSfCBYpFh37ziXCSqUs"}, "id": "4bFfSfCBYpFh37ziXCSqUs", "uri": "spotify:artist:4bFfSfCBYpFh37ziXCSqUs", "href": "https://api.spotify.com/v1/artists/4bFfSfCBYpFh37ziXCSqUs"}], "track_number": 1, "available_markets": ["CA", "US"], "type": "track", "preview_url": "https://p.scdn.co/mp3-preview/8cf23b3d10fcafd473eda960decb69af00f56439?cid=0c947b9d3f7547e28aee080174c283c9", "explicit": false, "external_urls": {"spotify": "https://open.spotify.com/track/1Y5wyKMkBChdJsHM9U0noA"}, "id": "1Y5wyKMkBChdJsHM9U0noA", "uri": "spotify:track:1Y5wyKMkBChdJsHM9U0noA", "popularity": 21}, {"album": {"total_tracks": 3, "type": "album", "release_date": "2009-12-15", "href": "https://api.spotify.com/v1/albums/5xvv9EPw6Gl4ASaVgNIgLW", "artists": [{"type": "artist", "name": "Muse", "external_urls": {"spotify": "https://open.spotify.com/artist/12Chz98pHFMPJEknJQMWvI"}, "id": "12Chz98pHFMPJEknJQMWvI", "uri": "spotify:artist:12Chz98pHFMPJEknJQMWvI", "href": "https://api.spotify.com/v1/artists/12Chz98pHFMPJEknJQMWvI"}], "images": [{"width": 640, "url": "https://i.scdn.co/image/ab67616d0000b273c44df6c319c0907c62ec703d", "height": 640}, {"width": 300, "url": "https://i.scdn.co/image/ab67616d00001e02c44df6c319c0907c62ec703d", "height": 300}, {"width": 64, "url": "https://i.scdn.co/image/ab67616d00004851c44df6c319c0907c62ec703d", "height": 64}], "available_markets": ["CA", "US"], "album_type": "single", "release_date_precision": "day", "name": "Uprising", "external_urls": {"spotify": "https://open.spotify.com/album/5xvv9EPw6Gl4ASaVgNIgLW"}, "id": "5xvv9EPw6Gl4ASaVgNIgLW", "uri": "spotify:album:5xvv9EPw6Gl4ASaVgNIgLW"}, "external_ids": {"isrc": "GBAHT0900439"}, "name": "Uprising - Live from Teignmouth", "duration_ms": 337060, "is_local": false, "disc_number": 1, "href": "https://api.spotify.com/v1/tracks/6ifiPZ2rNKPrxfvqqlgeUg", "artists": [{"type": "artist", "name": "Muse", "external_urls": {"spotify": "https://open.spotify.com/artist/12Chz98pHFMPJEknJQMWvI"}, "id": "12Chz98pHFMPJEknJQMWvI", "uri": "spotify:artist:12Chz98pHFMPJEknJQMWvI", "href": "https://api.spotify.com/v1/artists/12Chz98pHFMPJEknJQMWvI"}], "track_number": 2, "available_markets": ["CA", "US"], "type": "track", "preview_url": "https://p.scdn.co/mp3-preview/028fe46c2bbedeb9748e69bfecb17bff2f1bde11?cid=0c947b9d3f7547e28aee080174c283c9", "explicit": false, "external_urls": {"spotify": "https://open.spotify.com/track/6ifiPZ2rNKPrxfvqqlgeUg"}, "id": "6ifiPZ2rNKPrxfvqqlgeUg", "uri": "spotify:track:6ifiPZ2rNKPrxfvqqlgeUg", "popularity": 16}, {"album": {"total_tracks": 9, "type": "album", "release_date": "2016-01-01", "href": "https://api.spotify.com/v1/albums/2XUt6NyTCVVyy68lQ3sn20", "artists": [{"type": "artist", "name": "Muse Day", "external_urls": {"spotify": "https://open.spotify.com/artist/5OAqKO2Qs4tIZyBmgBx65f"}, "id": "5OAqKO2Qs4tIZyBmgBx65f", "uri": "spotify:artist:5OAqKO2Qs4tIZyBmgBx65f", "href": "https://api.spotify.com/v1/artists/5OAqKO2Qs4tIZyBmgBx65f"}], "images": [{"width": 640, "url": "https://i.scdn.co/image/ab67616d0000b273910923957d87c6a88d9e7cc6", "height": 640}, {"width": 300, "url": "https://i.scdn.co/image/ab67616d00001e02910923957d87c6a88d9e7cc6", "height": 300}, {"width": 64, "url": "https://i.scdn.co/image/ab67616d00004851910923957d87c6a88d9e7cc6", "height": 64}], "available_markets": ["AD", "AE", "AR", "AT", "AU", "BE", "BG", "BH", "BO", "BR", "CA", "CH", "CL", "CO", "CR", "CY", "CZ", "DE", "DK", "DO", "DZ", "EC", "EE", "EG", "ES", "FI", "FR", "GB", "GR", "GT", "HK", "HN", "HU", "ID", "IE", "IL", "IN", "IS", "IT", "JO", "JP", "KW", "LB", "LI", "LT", "LU", "LV", "MA", "MC", "MT", "MX", "MY", "NI", "NL", "NO", "NZ", "OM", "PA", "PE", "PH", "PL", "PS", "PT", "PY", "QA", "RO", "SA", "SE", "SG", "SK", "SV", "TH", "TN", "TR", "TW", "US", "UY", "VN", "ZA"], "album_type": "album", "release_date_precision": "day", "name": "Synth n Strings", "external_urls": {"spotify": "https://open.spotify.com/album/2XUt6NyTCVVyy68lQ3sn20"}, "id": "2XUt6NyTCVVyy68lQ3sn20", "uri": "spotify:album:2XUt6NyTCVVyy68lQ3sn20"}, "external_ids": {"isrc": "GB-SMU-24-44238"}, "name": "Uprising of The War", "duration_ms": 213942, "is_local": false, "disc_number": 1, "href": "https://api.spotify.com/v1/tracks/29NMUyPMFI34DHgxHHCctJ", "artists": [{"type": "artist", "name": "Muse Day", "external_urls": {"spotify": "https://open.spotify.com/artist/5OAqKO2Qs4tIZyBmgBx65f"}, "id": "5OAqKO2Qs4tIZyBmgBx65f", "uri": "spotify:artist:5OAqKO2Qs4tIZyBmgBx65f", "href": "https://api.spotify.com/v1/artists/5OAqKO2Qs4tIZyBmgBx65f"}], "track_number": 1, "available_markets": ["AD", "AE", "AR", "AT", "AU", "BE", "BG", "BH", "BO", "BR", "CA", "CH", "CL", "CO", "CR", "CY", "CZ", "DE", "DK", "DO", "DZ", "EC", "EE", "EG", "ES", "FI", "FR", "GB", "GR", "GT", "HK", "HN", "HU", "ID", "IE", "IL", "IN", "IS", "IT", "JO", "JP", "KW", "LB", "LI", "LT", "LU", "LV", "MA", "MC", "MT", "MX", "MY", "NI", "NL", "NO", "NZ", "OM", "PA", "PE", "PH", "PL", "PS", "PT", "PY", "QA", "RO", "SA", "SE", "SG", "SK", "SV", "TH", "TN", "TR", "TW", "US", "UY", "VN", "ZA"], "type": "track", "preview_url": "https://p.scdn.co/mp3-preview/c98650695cb34172f9572f094b8251ed26993e75?cid=0c947b9d3f7547e28aee080174c283c9", "explicit": false, "external_urls": {"spotify": "https://open.spotify.com/track/29NMUyPMFI34DHgxHHCctJ"}, "id": "29NMUyPMFI34DHgxHHCctJ", "uri": "spotify:track:29NMUyPMFI34DHgxHHCctJ", "popularity": 0}], "previous": null, "href": "https://api.spotify.com/v1/search?query=artist%3AMuse+track%3AUprising&type=track&offset=0&limit=5", "limit": 5, "total": 9, "next": "https://api.spotify.com/v1/search?query=artist%3AMuse+track%3AUprising&type=track&offset=5&limit=5"}}