{"tracks": {"offset": 0, "items": [{"album": {"total_tracks": 17, "type": "album", "release_date": "2012", "href": "https://api.spotify.com/v1/albums/2F7tejLHzTqFq2XLol9ZGy", "artists": [{"type": "artist", "name": "Pitbull", "external_urls": {"spotify": "https://open.spotify.com/artist/0TnOYISbd1XYRBk9myaseg"}, "id": "0TnOYISbd1XYRBk9myaseg", "uri": "spotify:artist:0TnOYISbd1XYRBk9myaseg", "href": "https://api.spotify.com/v1/artists/0TnOYISbd1XYRBk9myaseg"}], "images": [{"width": 640, "url": "https://i.scdn.co/image/ab67616d0000b273f2486b438645e97b523e4f90", "height": 640}, {"width": 300, "url": "https://i.scdn.co/image/ab67616d00001e02f2486b438645e97b523e4f90", "height": 300}, {"width": 64, "url": "https://i.scdn.co/image/ab67616d00004851f2486b438645e97b523e4f90", "height": 64}], "available_markets": ["AD", "AR", "AT", "BE", "BG", "BO", "BR", "CA", "CH", "CL", "CO", "CR", "CY", "CZ", "DE", "DK", "DO", "DZ", "EC", "EE", "ES", "FI", "FR", "GR", "GT", "HK", "HN", "HU", "ID", "IE", "IL", "IN", "IS", "IT", "JP", "LI", "LT", "LU", "LV", "MA", "MC", "MT", "MX", "MY", "NI", "NL", "NO", "PA", "PE", "PH", "PL", "PT", "PY", "RO", "SE", "SG", "SK", "SV", "TH", "TN", "TR", "TW", "US", "UY", "VN", "ZA"], "album_type": "album", "release_date_precision": "year", "name": "Global Warming: Meltdown (Deluxe Version)", "external_urls": {"spotify": "https://open.spotify.com/album/2F7tejLHzTqFq2XLol9ZGy"}, "id": "2F7tejLHzTqFq2XLol9ZGy", "uri": "spotify:album:2F7tejLHzTqFq2XLol9ZGy"}, "external_ids": {"isrc": "USRC11301695"}, "name": "Timber (feat. Ke$ha)", "duration_ms": 204160, "is_local": false, "disc_number": 1, "href": "https://api.spotify.com/v1/tracks/3cHyrEgdyYRjgJKSOiOtcS", "artists": [{"type": "artist", "name": "Pitbull", "external_urls": {"spotify": "https://open.spotify.com/artist/0TnOYISbd1XYRBk9myaseg"}, "id": "0TnOYISbd1XYRBk9myaseg", "uri": "spotify:artist:0TnOYISbd1XYRBk9myaseg", "href": "https://api.spotify.com/v1/artists/0TnOYISbd1XYRBk9myaseg"}, {"type": "artist", "name": "Kesha", "external_urls": {"spotify": "https://open.spotify.com/artist/6LqNN22kT3074XbTVUrhzX"}, "id": "6LqNN22kT3074XbTVUrhzX", "uri": "spotify:artist:6LqNN22kT3074XbTVUrhzX", "href": "https://api.spotify.com/v1/artists/6LqNN22kT3074XbTVUrhzX"}], "track_number": 13, "available_markets": ["AD", "AR", "AT", "BE", "BG", "BO", "BR", "CA", "CH", "CL", "CO", "CR", "CY", "CZ", "DE", "DK", "DO", "DZ", "EC", "EE", "ES", "FI", "FR", "GR", "GT", "HK", "HN", "HU", "ID", "IE", "IL", "IN", "IS", "IT", "JP", "LI", "LT", "LU", "LV", "MA", "MC", "MT", "MX", "MY", "NI", "NL", "NO", "PA", "PE", "PH", "PL", "PT", "PY", "RO", "SE", "SG", "SK", "SV", "TH", "TN", "TR", "TW", "US", "UY", "VN", "ZA"], "type": "track", "preview_url": "https://p.scdn.co/mp3-preview/d26c8392936843a07bb162853093de5bf2eb0011?cid=0c947b9d3f7547e28aee080174c283c9", "explicit": false, "external_urls": {"spotify": "https://open.spotify.com/track/3cHyrEgdyYRjgJKSOiOtcS"}, "id": "3cHyrEgdyYRjgJKSOiOtcS", "uri": "spotify:track:3cHyrEgdyYRjgJKSOiOtcS", "popularity": 76}, {"album": {"total_tracks": 17, "type": "album", "release_date": "2012", "href": "https://api.spotify.com/v1/albums/7sIlk4PsSWt7WhUs0JsFoG", "artists": [{"type": "artist", "name": "Pitbull", "external_urls": {"spotify": "https://open.spotify.com/artist/0TnOYISbd1XYRBk9myaseg"}, "id": "0TnOYISbd1XYRBk9myaseg", "uri": "spotify:artist:0TnOYISbd1XYRBk9myaseg", "href": "https://api.spotify.com/v1/artists/0TnOYISbd1XYRBk9myaseg"}], "images": [{"width": 640, "url": "https://i.scdn.co/image/ab67616d0000b2735c3714e2591b30f2f5194704", "height": 640}, {"width": 300, "url": "https://i.scdn.co/image/ab67616d00001e025c3714e2591b30f2f5194704", "height": 300}, {"width": 64, "url": "https://i.scdn.co/image/ab67616d000048515c3714e2591b30f2f5194704", "height": 64}], "available_markets": ["CA", "GB", "IE", "JP", "US", "ZA"], "album_type": "album", "release_date_precision": "year", "name": "Global Warming: Meltdown (Deluxe Version)", "external_urls": {"spotify": "https://open.spotify.com/album/7sIlk4PsSWt7WhUs0JsFoG"}, "id": "7sIlk4PsSWt7WhUs0JsFoG", "uri": "spotify:album:7sIlk4PsSWt7WhUs0JsFoG"}, "external_ids": {"isrc": "USRC11301695"}, "name": "Timber", "duration_ms": 204200, "is_local": false, "disc_number": 1, "href": "https://api.spotify.com/v1/tracks/3tgZ9vmhuAY9wEoNUJskzV", "artists": [{"type": "artist", "name": "Pitbull", "external_urls": {"spotify": "https://open.spotify.com/artist/0TnOYISbd1XYRBk9myaseg"}, "id": "0TnOYISbd1XYRBk9myaseg", "uri": "spotify:artist:0TnOYISbd1XYRBk9myaseg", "href": "https://api.spotify.com/v1/artists/0TnOYISbd1XYRBk9myaseg"}, {"type": "artist", "name": "Kesha", "external_urls": {"spotify": "https://open.spotify.com/artist/6LqNN22kT3074XbTVUrhzX"}, "id": "6LqNN22kT3074XbTVUrhzX", "uri": "spotify:artist:6LqNN22kT3074XbTVUrhzX", "href": "https://api.spotify.com/v1/artists/6LqNN22kT3074XbTVUrhzX"}], "track_number": 13, "available_markets": ["CA", "GB", "IE", "JP", "US", "ZA"], "type": "track", "preview_url": "https://p.scdn.co/mp3-preview/4c8551c63855c08ef787b03a7c75f720831b4812?cid=0c947b9d3f7547e28aee080174c283c9", "explicit": false, "external_urls": {"spotify": "https://open.spotify.com/track/3tgZ9vmhuAY9wEoNUJskzV"}, "id": "3tgZ9vmhuAY9wEoNUJskzV", "uri": "spotify:track:3tgZ9vmhuAY9wEoNUJskzV", "popularity": 60}, {"album": {"total_tracks": 13, "type": "album", "release_date": "2017-12-01", "href": "https://api.spotify.com/v1/albums/1webHYaeCy8j9smqS23sgE", "artists": [{"type": "artist", "name": "Pitbull", "external_urls": {"spotify": "https://open.spotify.com/artist/0TnOYISbd1XYRBk9myaseg"}, "id": "0TnOYISbd1XYRBk9myaseg", "uri": "spotify:artist:0TnOYISbd1XYRBk9myaseg", "href": "https://api.spotify.com/v1/artists/0TnOYISbd1XYRBk9myaseg"}], "images": [{"width": 640, "url": "https://i.scdn.co/image/ab67616d0000b273d0db76fd1bcf286a8ea02981", "height": 640}, {"width": 300, "url": "https://i.scdn.co/image/ab67616d00001e02d0db76fd1bcf286a8ea02981", "height": 300}, {"width": 64, "url": "https://i.scdn.co/image/ab67616d00004851d0db76fd1bcf286a8ea02981", "height": 64}], "available_markets": ["AD", "AE", "AR", "AT", "AU", "BE", "BG", "BH", "BO", "BR", "CA", "CH", "CL", "CO", "CR", "CY", "CZ", "DE", "DK", "DO", "DZ", "EC", "EE", "EG", "ES", "FI", "FR", "GB", "GR", "GT", "HK", "HN", "HU", "ID", "IE", "IL", "IN", "IS", "IT", "JO", "KW", "LB", "LI", "LT", "LU", "LV", "MA", "MC", "MT", "MX", "MY", "NI", "NL", "NO", "NZ", "OM", "PA", "PE", "PH", "PL", "PS", "PT", "PY", "QA", "RO", "SA", "SE", "SG", "SK", "SV", "TH", "TN", "TR", "TW", "US", "UY", "VN", "ZA"], "album_type": "compilation", "release_date_precision": "day", "name": "Greatest Hits", "external_urls": {"spotify": "https://open.spotify.com/album/1webHYaeCy8j9smqS23sgE"}, "id": "1webHYaeCy8j9smqS23sgE", "uri": "spotify:album:1webHYaeCy8j9smqS23sgE"}, "external_ids": {"isrc": "USRC11301695"}, "name": "Timber", "duration_ms": 204000, "is_local": false, "disc_number": 1, "href": "https://api.spotify.com/v1/tracks/6KKRDClzyxixBankDVkVUv", "artists": [{"type": "artist", "name": "Pitbull", "external_urls": {"spotify": "https://open.spotify.com/artist/0TnOYISbd1XYRBk9myaseg"}, "id": "0TnOYISbd1XYRBk9myaseg", "uri": "spotify:artist:0TnOYISbd1XYRBk9myaseg", "href": "https://api.spotify.com/v1/artists/0TnOYISbd1XYRBk9myaseg"}, {"type": "artist", "name": "Kesha", "external_urls": {"spotify": "https://open.spotify.com/artist/6LqNN22kT3074XbTVUrhzX"}, "id": "6LqNN22kT3074XbTVUrhzX", "uri": "spotify:artist:6LqNN22kT3074XbTVUrhzX", "href": "https://api.spotify.com/v1/artists/6LqNN22kT3074XbTVUrhzX"}], "track_number": 2, "available_markets": ["AD", "AE", "AR", "AT", "AU", "BE", "BG", "BH", "BO", "BR", "CA", "CH", "CL", "CO", "CR", "CY", "CZ", "DE", "DK", "DO", "DZ", "EC", "EE", "EG", "ES", "FI", "FR", "GB", "GR", "GT", "HK", "HN", "HU", "ID", "IE", "IL", "IN", "IS", "IT", "JO", "KW", "LB", "LI", "LT", "LU", "LV", "MA", "MC", "MT", "MX", "MY", "NI", "NL", "NO", "NZ", "OM", "PA", "PE", "PH", "PL", "PS", "PT", "PY", "QA", "RO", "SA", "SE", "SG", "SK", "SV", "TH", "TN", "TR", "TW", "US", "UY", "VN", "ZA"], "type": "track", "preview_url": "https://p.scdn.co/mp3-preview/a3df954708dd9839ad14f295845129366703d329?cid=0c947b9d3f7547e28aee080174c283c9", "explicit": false, "external_urls": {"spotify": "https://open.spotify.com/track/6KKRDClzyxixBankDVkVUv"}, "id": "6KKRDClzyxixBankDVkVUv", "uri": "spotify:track:6KKRDClzyxixBankDVkVUv", "popularity": 38}, {"album": {"total_tracks": 31, "type": "album", "release_date": "2019-04-11", "href": "https://api.spotify.com/v1/albums/5jdzXYmv7zWMdoJzcXrFQ9", "artists": [{"type": "artist", "name": "Various Artists", "external_urls": {"spotify": "https://open.spotify.com/artist/0LyfQWJT6nXafLPZqxe9Of"}, "id": "0LyfQWJT6nXafLPZqxe9Of", "uri": "spotify:artist:0LyfQWJT6nXafLPZqxe9Of", "href": "https://api.spotify.com/v1/artists/0LyfQWJT6nXafLPZqxe9Of"}], "images": [{"width": 640, "url": "https://i.scdn.co/image/ab67616d0000b2738634df56f01887c06c8218f2", "height": 640}, {"width": 300, "url": "https://i.scdn.co/image/ab67616d00001e028634df56f01887c06c8218f2", "height": 300}, {"width": 64, "url": "https://i.scdn.co/image/ab67616d000048518634df56f01887c06c8218f2", "height": 64}], "available_markets": ["AD", "AE", "AR", "AT", "AU", "BE", "BG", "BH", "BO", "BR", "CA", "CH", "CL", "CO", "CR", "CY", "CZ", "DE", "DK", "DO", "DZ", "EC", "EE", "EG", "ES", "FI", "FR", "GB", "GR", "GT", "HK", "HN", "HU", "ID", "IE", "IL", "IN", "IS", "IT", "JO", "JP", "KW", "LB", "LI", "LT", "LU", "LV", "MA", "MC", "MT", "MX", "MY", "NI", "NL", "NO", "NZ", "OM", "PA", "PE", "PH", "PL", "PS", "PT", "PY", "QA", "RO", "SA", "SE", "SG", "SK", "SV", "TH", "TN", "TR", "TW", "US", "UY", "VN", "ZA"], "album_type": "compilation", "release_date_precision": "day", "name": "2010s Hits", "external_urls": {"spotify": "https://open.spotify.com/album/5jdzXYmv7zWMdoJzcXrFQ9"}, "id": "5jdzXYmv7zWMdoJzcXrFQ9", "uri": "spotify:album:5jdzXYmv7zWMdoJzcXrFQ9"}, "external_ids": {"isrc": "USRC11301695"}, "name": "Timber (feat. Ke$ha)", "duration_ms": 203973, "is_local": false, "disc_number": 1, "href": "https://api.spotify.com/v1/tracks/34b2uHCUPKhK5RPftDQ0lN", "artists": [{"type": "artist", "name": "Pitbull", "external_urls": {"spotify": "https://open.spotify.com/artist/0TnOYISbd1XYRBk9myaseg"}, "id": "0TnOYISbd1XYRBk9myaseg", "uri": "spotify:artist:0TnOYISbd1XYRBk9myaseg", "href": "https://api.spotify.com/v1/artists/0TnOYISbd1XYRBk9myaseg"}, {"type": "artist", "name": "Kesha", "external_urls": {"spotify": "https://open.spotify.com/artist/6LqNN22kT3074XbTVUrhzX"}, "id": "6LqNN22kT3074XbTVUrhzX", "uri": "spotify:artist:6LqNN22kT3074XbTVUrhzX", "href": "https://api.spotify.com/v1/artists/6LqNN22kT3074XbTVUrhzX"}], "track_number": 16, "available_markets": ["AD", "AE", "AR", "AT", "AU", "BE", "BG", "BH", "BO", "BR", "CA", "CH", "CL", "CO", "CR", "CY", "CZ", "DE", "DK", "DO", "DZ", "EC", "EE", "EG", "ES", "FI", "FR", "GB", "GR", "GT", "HK", "HN", "HU", "ID", "IE", "IL", "IN", "IS", "IT", "JO", "JP", "KW", "LB", "LI", "LT", "LU", "LV", "MA", "MC", "MT", "MX", "MY", "NI", "NL", "NO", "NZ", "OM", "PA", "PE", "PH", "PL", "PS", "PT", "PY", "QA", "RO", "SA", "SE", "SG", "SK", "SV", "TH", "TN", "TR", "TW", "US", "UY", "VN", "ZA"], "type": "track", "preview_url": "https://p.scdn.co/mp3-preview/8818a09262be54a5251557f11dc32b2bfa3086bf?cid=0c947b9d3f7547e28aee080174c283c9", "explicit": false, "external_urls": {"spotify": "https://open.spotify.com/track/34b2uHCUPKhK5RPftDQ0lN"}, "id": "34b2uHCUPKhK5RPftDQ0lN", "uri": "spotify:track:34b2uHCUPKhK5RPftDQ0lN", "popularity": 34}, {"album": {"total_tracks": 30, "type": "album", "release_date": "2018-12-07", "href": "https://api.spotify.com/v1/albums/6iE4f7SmNoKRqm5yQBwyPl", "artists": [{"type": "artist", "name": "Various Artists", "external_urls": {"spotify": "https://open.spotify.com/artist/0LyfQWJT6nXafLPZqxe9Of"}, "id": "0LyfQWJT6nXafLPZqxe9Of", "uri": "spotify:artist:0LyfQWJT6nXafLPZqxe9Of", "href": "https://api.spotify.com/v1/artists/0LyfQWJT6nXafLPZqxe9Of"}], "images": [{"width": 640, "url": "https://i.scdn.co/image/ab67616d0000b273173f7e6c53b0ec670d75eec9", "height": 640}, {"width": 300, "url": "https://i.scdn.co/image/ab67616d00001e02173f7e6c53b0ec670d75eec9", "height": 300}, {"width": 64, "url": "https://i.scdn.co/image/ab67616d00004851173f7e6c53b0ec670d75eec9", "height": 64}], "available_markets": ["AD", "AE", "AR", "AT", "AU", "BE", "BG", "BH", "BO", "BR", "CA", "CH", "CL", "CO", "CR", "CY", "CZ", "DE", "DK", "DO", "DZ", "EC", "EE", "EG", "ES", "FI", "FR", "GB", "GR", "GT", "HK", "HN", "HU", "ID", "IE", "IL", "IN", "IS", "IT", "JO", "JP", "KW", "LB", "LI", "LT", "LU", "LV", "MA", "MC", "MT", "MX", "MY", "NI", "NL", "NO", "NZ", "OM", "PA", "PE", "PH", "PL", "PS", "PT", "PY", "QA", "RO", "SA", "SE", "SG", "SK", "SV", "TH", "TN", "TR", "TW", "US", "UY", "VN", "ZA"], "album_type": "compilation", "release_date_precision": "day", "name": "New Year's Eve - NYE 2018/2019", "external_urls": {"spotify": "https://open.spotify.com/album/6iE4f7SmNoKRqm5yQBwyPl"}, "id": "6iE4f7SmNoKRqm5yQBwyPl", "uri": "spotify:album:6iE4f7SmNoKRqm5yQBwyPl"}, "external_ids": {"isrc": "USRC11301695"}, "name": "Timber (feat. Ke$ha)", "duration_ms": 204200, "is_local": false, "disc_number": 1, "href": "https://api.spotify.com/v1/tracks/2sTvZNvGmebdDZ0Sa8tdHn", "artists": [{"type": "artist", "name": "Pitbull", "external_urls": {"spotify": "https://open.spotify.com/artist/0TnOYISbd1XYRBk9myaseg"}, "id": "0TnOYISbd1XYRBk9myaseg", "uri": "spotify:artist:0TnOYISbd1XYRBk9myaseg", "href": "https://api.spotify.com/v1/artists/0TnOYISbd1XYRBk9myaseg"}, {"type": "artist", "name": "Kesha", "external_urls": {"spotify": "https://open.spotify.com/artist/6LqNN22kT3074XbTVUrhzX"}, "id": "6LqNN22kT3074XbTVUrhzX", "uri": "spotify:artist:6LqNN22kT3074XbTVUrhzX", "href": "https://api.spotify.com/v1/artists/6LqNN22kT3074XbTVUrhzX"}], "track_number": 18, "available_markets": ["AD", "AE", "AR", "AT", "AU", "BE", "BG", "BH", "BO", "BR", "CA", "CH", "CL", "CO", "CR", "CY", "CZ", "DE", "DK", "DO", "DZ", "EC", "EE", "EG", "ES", "FI", "FR", "GB", "GR", "GT", "HK", "HN", "HU", "ID", "IE", "IL", "IN", "IS", "IT", "JO", "JP", "KW", "LB", "LI", "LT", "LU", "LV", "MA", "MC", "MT", "MX", "MY", "NI", "NL", "NO", "NZ", "OM", "PA", "PE", "PH", "PL", "PS", "PT", "PY", "QA", "RO", "SA", "SE", "SG", "SK", "SV", "TH", "TN", "TR", "TW", "US", "UY", "VN", "ZA"], "type": "track", "preview_url": "https://p.scdn.co/mp3-preview/4c8551c63855c08ef787b03a7c75f720831b4812?cid=0c947b9d3f7547e28aee080174c283c9", "explicit": false, "external_urls": {"spotify": "https://open.spotify.com/track/2sTvZNvGmebdDZ0Sa8tdHn"}, "id": "2sTvZNvGmebdDZ0Sa8tdHn", "uri": "spotify:track:2sTvZNvGmebdDZ0Sa8tdHn", "popularity": 30}], "previous": null, "href": "https://api.spotify.com/v1/search?query=artist%3APitbull+track%3ATimber&type=track&offset=0&limit=5", "limit": 5, "total": 9, "next": "https://api.spotify.com/v1/search?query=artist%3APitbull+track%3ATimber&type=track&offset=5&limit=5"}}