{"tracks": {"offset": 0, "items": [{"album": {"total_tracks": 11, "type": "album", "release_date": "2015-01-12", "href": "https://api.spotify.com/v1/albums/3vLaOYCNCzngDf8QdBg2V1", "artists": [{"type": "artist", "name": "Mark Ronson", "external_urls": {"spotify": "https://open.spotify.com/artist/3hv9jJF3adDNsBSIQDqcjp"}, "id": "3hv9jJF3adDNsBSIQDqcjp", "uri": "spotify:artist:3hv9jJF3adDNsBSIQDqcjp", "href": "https://api.spotify.com/v1/artists/3hv9jJF3adDNsBSIQDqcjp"}], "images": [{"width": 640, "url": "https://i.scdn.co/image/ab67616d0000b27375a609817a8b9a5d1ea6911d", "height": 640}, {"width": 300, "url": "https://i.scdn.co/image/ab67616d00001e0275a609817a8b9a5d1ea6911d", "height": 300}, {"width": 64, "url": "https://i.scdn.co/image/ab67616d0000485175a609817a8b9a5d1ea6911d", "height": 64}], "available_markets": ["AD", "AE", "AR", "AT", "AU", "BE", "BG", "BH", "BO", "BR", "CA", "CH", "CL", "CO", "CR", "CY", "CZ", "DE", "DK", "DO", "DZ", "EC", "EE", "EG", "ES", "FI", "FR", "GB", "GR", "GT", "HK", "HN", "HU", "ID", "IE", "IL", "IN", "IS", "IT", "JO", "JP", "KW", "LB", "LI", "LT", "LU", "LV", "MA", "MC", "MT", "MX", "MY", "NI", "NL", "NO", "NZ", "OM", "PA", "PE", "PH", "PL", "PS", "PT", "PY", "QA", "RO", "SA", "SE", "SG", "SK", "SV", "TH", "TN", "TR", "TW", "US", "UY", "VN", "ZA"], "album_type": "album", "release_date_precision": "day", "name": "Uptown Special", "external_urls": {"spotify": "https://open.spotify.com/album/3vLaOYCNCzngDf8QdBg2V1"}, "id": "3vLaOYCNCzngDf8QdBg2V1", "uri": "spotify:album:3vLaOYCNCzngDf8QdBg2V1"}, "external_ids": {"isrc": "GBARL1401524"}, "name": "Uptown Funk", "duration_ms": 269666, "is_local": false, "disc_number": 1, "href": "https://api.spotify.com/v1/tracks/32OlwWuMpZ6b0aN2RZOeMS", "artists": [{"type": "artist", "name": "Mark Ronson", "external_urls": {"spotify": "https://open.spotify.com/artist/3hv9jJF3adDNsBSIQDqcjp"}, "id": "3hv9jJF3adDNsBSIQDqcjp", "uri": "spotify:artist:3hv9jJF3adDNsBSIQDqcjp", "href": "https://api.spotify.com/v1/artists/3hv9jJF3adDNsBSIQDqcjp"}, {"type": "artist", "name": "Bruno Mars", "external_urls": {"spotify": "https://open.spotify.com/artist/0du5cEVh5yTK9QJze8zA0C"}, "id": "0du5cEVh5yTK9QJze8zA0C", "uri": "spotify:artist:0du5cEVh5yTK9QJze8zA0C", "href": "https://api.spotify.com/v1/artists/0du5cEVh5yTK9QJze8zA0C"}], "track_number": 4, "available_markets": ["AD", "AE", "AR", "AT", "AU", "BE", "BG", "BH", "BO", "BR", "CA", "CH", "CL", "CO", "CR", "CY", "CZ", "DE", "DK", "DO", "DZ", "EC", "EE", "EG", "ES", "FI", "FR", "GB", "GR", "GT", "HK", "HN", "HU", "ID", "IE", "IL", "IN", "IS", "IT", "JO", "JP", "KW", "LB", "LI", "LT", "LU", "LV", "MA", "MC", "MT", "MX", "MY", "NI", "NL", "NO", "NZ", "OM", "PA", "PE", "PH", "PL", "PS", "PT", "PY", "QA", "RO", "SA", "SE", "SG", "SK", "SV", "TH", "TN", "TR", "TW", "US", "UY", "VN", "ZA"], "type": "track", "preview_url": "https://p.scdn.co/mp3-preview/88a794d97fcb4475f72a27be7baf71b94d5a9dda?cid=0c947b9d3f7547e28aee080174c283c9", "explicit": false, "external_urls": {"spotify": "https://open.spotify.com/track/32OlwWuMpZ6b0aN2RZOeMS"}, "id": "32OlwWuMpZ6b0aN2RZOeMS", "uri": "spotify:track:32OlwWuMpZ6b0aN2RZOeMS", "popularity": 82}, {"album": {"total_tracks": 4, "type": "album", "release_date": "2015-04-13", "href": "https://api.spotify.com/v1/albums/6oJPf4A0f047HhhANIFJVK", "artists": [{"type": "artist", "name": "Mark Ronson", "external_urls": {"spotify": "https://open.spotify.com/artist/3hv9jJF3adDNsBSIQDqcjp"}, "id": "3hv9jJF3adDNsBSIQDqcjp", "uri": "spotify:artist:3hv9jJF3adDNsBSIQDqcjp", "href": "https://api.spotify.com/v1/artists/3hv9jJF3adDNsBSIQDqcjp"}], "images": [{"width": 640, "url": "https://i.scdn.co/image/ab67616d0000b273146f0228683dc97769498290", "height": 640}, {"width": 300, "url": "https://i.scdn.co/image/ab67616d00001e02146f0228683dc97769498290", "height": 300}, {"width": 64, "url": "https://i.scdn.co/image/ab67616d00004851146f0228683dc97769498290", "height": 64}], "available_markets": ["AD", "AE", "AR", "AT", "AU", "BE", "BG", "BH", "BO", "BR", "CA", "CH", "CL", "CO", "CR", "CY", "CZ", "DE", "DK", "DO", "DZ", "EC", "EE", "EG", "ES", "FI", "FR", "GB", "GR", "GT", "HK", "HN", "HU", "ID", "IE", "IL", "IN", "IS", "IT", "JO", "JP", "KW", "LB", "LI", "LT", "LU", "LV", "MA", "MC", "MT", "MX", "MY", "NI", "NL", "NO", "NZ", "OM", "PA", "PE", "PH", "PL", "PS", "PT", "PY", "QA", "RO", "SA", "SE", "SG", "SK", "SV", "TH", "TN", "TR", "TW", "US", "UY", "VN", "ZA"], "album_type": "single", "release_date_precision": "day", "name": "Uptown Funk (Remixes)", "external_urls": {"spotify": "https://open.spotify.com/album/6oJPf4A0f047HhhANIFJVK"}, "id": "6oJPf4A0f047HhhANIFJVK", "uri": "spotify:album:6oJPf4A0f047HhhANIFJVK"}, "external_ids": {"isrc": "GBARL1500475"}, "name": "Uptown Funk - Will Sparks Remix", "duration_ms": 277226, "is_local": false, "disc_number": 1, "href": "https://api.spotify.com/v1/tracks/5MpKzeXvOBFiZpQWV9iP5O", "artists": [{"type": "artist", "name": "Mark Ronson", "external_urls": {"spotify": "https://open.spotify.com/artist/3hv9jJF3adDNsBSIQDqcjp"}, "id": "3hv9jJF3adDNsBSIQDqcjp", "uri": "spotify:artist:3hv9jJF3adDNsBSIQDqcjp", "href": "https://api.spotify.com/v1/artists/3hv9jJF3adDNsBSIQDqcjp"}, {"type": "artist", "name": "Bruno Mars", "external_urls": {"spotify": "https://open.spotify.com/artist/0du5cEVh5yTK9QJze8zA0C"}, "id": "0du5cEVh5yTK9QJze8zA0C", "uri": "spotify:artist:0du5cEVh5yTK9QJze8zA0C", "href": "https://api.spotify.com/v1/artists/0du5cEVh5yTK9QJze8zA0C"}], "track_number": 4, "available_markets": ["AD", "AE", "AR", "AT", "AU", "BE", "BG", "BH", "BO", "BR", "CA", "CH", "CL", "CO", "CR", "CY", "CZ", "DE", "DK", "DO", "DZ", "EC", "EE", "EG", "ES", "FI", "FR", "GB", "GR", "GT", "HK", "HN", "HU", "ID", "IE", "IL", "IN", "IS", "IT", "JO", "JP", "KW", "LB", "LI", "LT", "LU", "LV", "MA", "MC", "MT", "MX", "MY", "NI", "NL", "NO", "NZ", "OM", "PA", "PE", "PH", "PL", "PS", "PT", "PY", "QA", "RO", "SA", "SE", "SG", "SK", "SV", "TH", "TN", "TR", "TW", "US", "UY", "VN", "ZA"], "type": "track", "preview_url": "https://p.scdn.co/mp3-preview/cedb00d21cbd8ad842385fe6a079fc7d2b94a0c8?cid=0c947b9d3f7547e28aee080174c283c9", "explicit": false, "external_urls": {"spotify": "https://open.spotify.com/track/5MpKzeXvOBFiZpQWV9iP5O"}, "id": "5MpKzeXvOBFiZpQWV9iP5O", "uri": "spotify:track:5MpKzeXvOBFiZpQWV9iP5O", "popularity": 57}, {"album": {"total_tracks": 4, "type": "album", "release_date": "2015-04-13", "href": "https://api.spotify.com/v1/albums/6oJPf4A0f047HhhANIFJVK", "artists": [{"type": "artist", "name": "Mark Ronson", "external_urls": {"spotify": "https://open.spotify.com/artist/3hv9jJF3adDNsBSIQDqcjp"}, "id": "3hv9jJF3adDNsBSIQDqcjp", "uri": "spotify:artist:3hv9jJF3adDNsBSIQDqcjp", "href": "https://api.spotify.com/v1/artists/3hv9jJF3adDNsBSIQDqcjp"}], "images": [{"width": 640, "url": "https://i.scdn.co/image/ab67616d0000b273146f0228683dc97769498290", "height": 640}, {"width": 300, "url": "https://i.scdn.co/image/ab67616d00001e02146f0228683dc97769498290", "height": 300}, {"width": 64, "url": "https://i.scdn.co/image/ab67616d00004851146f0228683dc97769498290", "height": 64}], "available_markets": ["AD", "AE", "AR", "AT", "AU", "BE", "BG", "BH", "BO", "BR", "CA", "CH", "CL", "CO", "CR", "CY", "CZ", "DE", "DK", "DO", "DZ", "EC", "EE", "EG", "ES", "FI", "FR", "GB", "GR", "GT", "HK", "HN", "HU", "ID", "IE", "IL", "IN", "IS", "IT", "JO", "JP", "KW", "LB", "LI", "LT", "LU", "LV", "MA", "MC", "MT", "MX", "MY", "NI", "NL", "NO", "NZ", "OM", "PA", "PE", "PH", "PL", "PS", "PT", "PY", "QA", "RO", "SA", "SE", "SG", "SK", "SV", "TH", "TN", "TR", "TW", "US", "UY", "VN", "ZA"], "album_type": "single", "release_date_precision": "day", "name": "Uptown Funk (Remixes)", "external_urls": {"spotify": "https://open.spotify.com/album/6oJPf4A0f047HhhANIFJVK"}, "id": "6oJPf4A0f047HhhANIFJVK", "uri": "spotify:album:6oJPf4A0f047HhhANIFJVK"}, "external_ids": {"isrc": "GBARL1401524"}, "name": "Uptown Funk", "duration_ms": 269666, "is_local": false, "disc_number": 1, "href": "https://api.spotify.com/v1/tracks/57n3qOwXcoRMyGFjeqC1Rh", "artists": [{"type": "artist", "name": "Mark Ronson", "external_urls": {"spotify": "https://open.spotify.com/artist/3hv9jJF3adDNsBSIQDqcjp"}, "id": "3hv9jJF3adDNsBSIQDqcjp", "uri": "spotify:artist:3hv9jJF3adDNsBSIQDqcjp", "href": "https://api.spotify.com/v1/artists/3hv9jJF3adDNsBSIQDqcjp"}, {"type": "artist", "name": "Bruno Mars", "external_urls": {"spotify": "https://open.spotify.com/artist/0du5cEVh5yTK9QJze8zA0C"}, "id": "0du5cEVh5yTK9QJze8zA0C", "uri": "spotify:artist:0du5cEVh5yTK9QJze8zA0C", "href": "https://api.spotify.com/v1/artists/0du5cEVh5yTK9QJze8zA0C"}], "track_number": 1, "available_markets": ["AD", "AE", "AR", "AT", "AU", "BE", "BG", "BH", "BO", "BR", "CA", "CH", "CL", "CO", "CR", "CY", "CZ", "DE", "DK", "DO", "DZ", "EC", "EE", "EG", "ES", "FI", "FR", "GB", "GR", "GT", "HK", "HN", "HU", "ID", "IE", "IL", "IN", "IS", "IT", "JO", "JP", "KW", "LB", "LI", "LT", "LU", "LV", "MA", "MC", "MT", "MX", "MY", "NI", "NL", "NO", "NZ", "OM", "PA", "PE", "PH", "PL", "PS", "PT", "PY", "QA", "RO", "SA", "SE", "SG", "SK", "SV", "TH", "TN", "TR", "TW", "US", "UY", "VN", "ZA"], "type": "track", "preview_url": "https://p.scdn.co/mp3-preview/88a794d97fcb4475f72a27be7baf71b94d5a9dda?cid=0c947b9d3f7547e28aee080174c283c9", "explicit": false, "external_urls": {"spotify": "https://open.spotify.com/track/57n3qOwXcoRMyGFjeqC1Rh"}, "id": "57n3qOwXcoRMyGFjeqC1Rh", "uri": "spotify:track:57n3qOwXcoRMyGFjeqC1Rh", "popularity": 55}, {"album": {"total_tracks": 18, "type": "album", "release_date": "2016-08-05", "href": "https://api.spotify.com/v1/albums/3Rd3sggQA5U6WGk62jPQS8", "artists": [{"type": "artist", "name": "Various Artists", "external_urls": {"spotify": "https://open.spotify.com/artist/0LyfQWJT6nXafLPZqxe9Of"}, "id": "0LyfQWJT6nXafLPZqxe9Of", "uri": "spotify:artist:0LyfQWJT6nXafLPZqxe9Of", "href": "https://api.spotify.com/v1/artists/0LyfQWJT6nXafLPZqxe9Of"}], "images": [{"width": 640, "url": "https://i.scdn.co/image/ab67616d0000b273903f64a1355f68171bd8422b", "height": 640}, {"width": 300, "url": "https://i.scdn.co/image/ab67616d00001e02903f64a1355f68171bd8422b", "height": 300}, {"width": 64, "url": "https://i.scdn.co/image/ab67616d00004851903f64a1355f68171bd8422b", "height": 64}], "available_markets": ["US"], "album_type": "compilation", "release_date_precision": "day", "name": "NOW That's What I Call PARTY ANTHEMS 3", "external_urls": {"spotify": "https://open.spotify.com/album/3Rd3sggQA5U6WGk62jPQS8"}, "id": "3Rd3sggQA5U6WGk62jPQS8", "uri": "spotify:album:3Rd3sggQA5U6WGk62jPQS8"}, "external_ids": {"isrc": "GBARL1401540"}, "name": "Uptown Funk - Radio Edit", "duration_ms": 233493, "is_local": false, "disc_number": 1, "href": "https://api.spotify.com/v1/tracks/65NgsMieGd6ffCTIYfEo7w", "artists": [{"type": "artist", "name": "Mark Ronson", "external_urls": {"spotify": "https://open.spotify.com/artist/3hv9jJF3adDNsBSIQDqcjp"}, "id": "3hv9jJF3adDNsBSIQDqcjp", "uri": "spotify:artist:3hv9jJF3adDNsBSIQDqcjp", "href": "https://api.spotify.com/v1/artists/3hv9jJF3adDNsBSIQDqcjp"}, {"type": "artist", "name": "Bruno Mars", "external_urls": {"spotify": "https://open.spotify.com/artist/0du5cEVh5yTK9QJze8zA0C"}, "id": "0du5cEVh5yTK9QJze8zA0C", "uri": "spotify:artist:0du5cEVh5yTK9QJze8zA0C", "href": "https://api.spotify.com/v1/artists/0du5cEVh5yTK9QJze8zA0C"}], "track_number": 2, "available_markets": ["US"], "type": "track", "preview_url": "https://p.scdn.co/mp3-preview/52279252cbb38bb5a51fcdd1660d8294a8700417?cid=0c947b9d3f7547e28aee080174c283c9", "explicit": false, "external_urls": {"spotify": "https://open.spotify.com/track/65NgsMieGd6ffCTIYfEo7w"}, "id": "65NgsMieGd6ffCTIYfEo7w", "uri": "spotify:track:65NgsMieGd6ffCTIYfEo7w", "popularity": 42}, {"album": {"total_tracks": 30, "type": "album", "release_date": "2018-12-07", "href": "https://api.spotify.com/v1/albums/6iE4f7SmNoKRqm5yQBwyPl", "artists": [{"type": "artist", "name": "Various Artists", "external_urls": {"spotify": "https://open.spotify.com/artist/0LyfQWJT6nXafLPZqxe9Of"}, "id": "0LyfQWJT6nXafLPZqxe9Of", "uri": "spotify:artist:0LyfQWJT6nXafLPZqxe9Of", "href": "https://api.spotify.com/v1/artists/0LyfQWJT6nXafLPZqxe9Of"}], "images": [{"width": 640, "url": "https://i.scdn.co/image/ab67616d0000b273173f7e6c53b0ec670d75eec9", "height": 640}, {"width": 300, "url": "https://i.scdn.co/image/ab67616d00001e02173f7e6c53b0ec670d75eec9", "height": 300}, {"width": 64, "url": "https://i.scdn.co/image/ab67616d00004851173f7e6c53b0ec670d75eec9", "height": 64}], "available_markets": ["AD", "AE", "AR", "AT", "AU", "BE", "BG", "BH", "BO", "BR", "CA", "CH", "CL", "CO", "CR", "CY", "CZ", "DE", "DK", "DO", "DZ", "EC", "EE", "EG", "ES", "FI", "FR", "GB", "GR", "GT", "HK", "HN", "HU", "ID", "IE", "IL", "IN", "IS", "IT", "JO", "JP", "KW", "LB", "LI", "LT", "LU", "LV", "MA", "MC", "MT", "MX", "MY", "NI", "NL", "NO", "NZ", "OM", "PA", "PE", "PH", "PL", "PS", "PT", "PY", "QA", "RO", "SA", "SE", "SG", "SK", "SV", "TH", "TN", "TR", "TW", "US", "UY", "VN", "ZA"], "album_type": "compilation", "release_date_precision": "day", "name": "New Year's Eve - NYE 2018/2019", "external_urls": {"spotify": "https://open.spotify.com/album/6iE4f7SmNoKRqm5yQBwyPl"}, "id": "6iE4f7SmNoKRqm5yQBwyPl", "uri": "spotify:album:6iE4f7SmNoKRqm5yQBwyPl"}, "external_ids": {"isrc": "GBARL1401524"}, "name": "Uptown Funk (feat. Bruno Mars)", "duration_ms": 270933, "is_local": false, "disc_number": 1, "href": "https://api.spotify.com/v1/tracks/1oP75mIKhxUPbdYadfKAts", "artists": [{"type": "artist", "name": "Mark Ronson", "external_urls": {"spotify": "https://open.spotify.com/artist/3hv9jJF3adDNsBSIQDqcjp"}, "id": "3hv9jJF3adDNsBSIQDqcjp", "uri": "spotify:artist:3hv9jJF3adDNsBSIQDqcjp", "href": "https://api.spotify.com/v1/artists/3hv9jJF3adDNsBSIQDqcjp"}, {"type": "artist", "name": "Bruno Mars", "external_urls": {"spotify": "https://open.spotify.com/artist/0du5cEVh5yTK9QJze8zA0C"}, "id": "0du5cEVh5yTK9QJze8zA0C", "uri": "spotify:artist:0du5cEVh5yTK9QJze8zA0C", "href": "https://api.spotify.com/v1/artists/0du5cEVh5yTK9QJze8zA0C"}], "track_number": 10, "available_markets": ["AD", "AE", "AR", "AT", "AU", "BE", "BG", "BH", "BO", "BR", "CA", "CH", "CL", "CO", "CR", "CY", "CZ", "DE", "DK", "DO", "DZ", "EC", "EE", "EG", "ES", "FI", "FR", "GB", "GR", "GT", "HK", "HN", "HU", "ID", "IE", "IL", "IN", "IS", "IT", "JO", "JP", "KW", "LB", "LI", "LT", "LU", "LV", "MA", "MC", "MT", "MX", "MY", "NI", "NL", "NO", "NZ", "OM", "PA", "PE", "PH", "PL", "PS", "PT", "PY", "QA", "RO", "SA", "SE", "SG", "SK", "SV", "TH", "TN", "TR", "TW", "US", "UY", "VN", "ZA"], "type": "track", "preview_url": "https://p.scdn.co/mp3-preview/fc3f9f7c3a2550fda9bb48e45990241391fe15b5?cid=0c947b9d3f7547e28aee080174c283c9", "explicit": false, "external_urls": {"spotify": "https://open.spotify.com/track/1oP75mIKhxUPbdYadfKAts"}, "id": "1oP75mIKhxUPbdYadfKAts", "uri": "spotify:track:1oP75mIKhxUPbdYadfKAts", "popularity": 49}], "previous": null, "href": "https://api.spotify.com/v1/search?query=artist%3AMark+Ronson+track%3AUptown+Funk&type=track&offset=0&limit=5", "limit": 5, "total": 15, "next": "https://api.spotify.com/v1/search?query=artist%3AMark+Ronson+track%3AUptown+Funk&type=track&offset=5&limit=5"}}