{"tracks": {"offset": 0, "items": [{"album": {"total_tracks": 12, "type": "album", "release_date": "2007-01-01", "href": "https://api.spotify.com/v1/albums/1Lymt1abGCr3J06bbnmWca", "artists": [{"type": "artist", "name": "M.I.A.", "external_urls": {"spotify": "https://open.spotify.com/artist/0QJIPDAEDILuo8AIq3pMuU"}, "id": "0QJIPDAEDILuo8AIq3pMuU", "uri": "spotify:artist:0QJIPDAEDILuo8AIq3pMuU", "href": "https://api.spotify.com/v1/artists/0QJIPDAEDILuo8AIq3pMuU"}], "images": [{"width": 640, "url": "https://i.scdn.co/image/ab67616d0000b273c7778d1b204e064c7a517b05", "height": 640}, {"width": 300, "url": "https://i.scdn.co/image/ab67616d00001e02c7778d1b204e064c7a517b05", "height": 300}, {"width": 64, "url": "https://i.scdn.co/image/ab67616d00004851c7778d1b204e064c7a517b05", "height": 64}], "available_markets": ["BR", "US"], "album_type": "album", "release_date_precision": "day", "name": "Kala", "external_urls": {"spotify": "https://open.spotify.com/album/1Lymt1abGCr3J06bbnmWca"}, "id": "1Lymt1abGCr3J06bbnmWca", "uri": "spotify:album:1Lymt1abGCr3J06bbnmWca"}, "external_ids": {"isrc": "GBBKS0700215"}, "name": "Paper Planes", "duration_ms": 203760, "is_local": false, "disc_number": 1, "href": "https://api.spotify.com/v1/tracks/1kusepF3AacIEtUTYrw4GV", "artists": [{"type": "artist", "name": "M.I.A.", "external_urls": {"spotify": "https://open.spotify.com/artist/0QJIPDAEDILuo8AIq3pMuU"}, "id": "0QJIPDAEDILuo8AIq3pMuU", "uri": "spotify:artist:0QJIPDAEDILuo8AIq3pMuU", "href": "https://api.spotify.com/v1/artists/0QJIPDAEDILuo8AIq3pMuU"}], "track_number": 11, "available_markets": ["BR", "US"], "type": "track", "preview_url": null, "explicit": false, "external_urls": {"spotify": "https://open.spotify.com/track/1kusepF3AacIEtUTYrw4GV"}, "id": "1kusepF3AacIEtUTYrw4GV", "uri": "spotify:track:1kusepF3AacIEtUTYrw4GV", "popularity": 70}, {"album": {"total_tracks": 5, "type": "album", "release_date": "2008-01-01", "href": "https://api.spotify.com/v1/albums/28XLKUCiDi5aGzJYQ2nvAW", "artists": [{"type": "artist", "name": "M.I.A.", "external_urls": {"spotify": "https://open.spotify.com/artist/0QJIPDAEDILuo8AIq3pMuU"}, "id": "0QJIPDAEDILuo8AIq3pMuU", "uri": "spotify:artist:0QJIPDAEDILuo8AIq3pMuU", "href": "https://api.spotify.com/v1/artists/0QJIPDAEDILuo8AIq3pMuU"}], "images": [{"width": 640, "url": "https://i.scdn.co/image/973c746bb06183fdc3fa2dd7e8efd6c69b7b8006", "height": 640}, {"width": 300, "url": "https://i.scdn.co/image/57c2a880aacdfa93523bf9fc5ed2a9bbb0efe2bd", "height": 300}, {"width": 64, "url": "https://i.scdn.co/image/3aed76975e47e273e6014f9e482dfb1d16b571a5", "height": 64}], "available_markets": ["US"], "album_type": "single", "release_date_precision": "day", "name": "Paper Planes", "external_urls": {"spotify": "https://open.spotify.com/album/28XLKUCiDi5aGzJYQ2nvAW"}, "id": "28XLKUCiDi5aGzJYQ2nvAW", "uri": "spotify:album:28XLKUCiDi5aGzJYQ2nvAW"}, "external_ids": {"isrc": "GBBKS0800034"}, "name": "Paper Planes - Blaqstarr Remix", "duration_ms": 241600, "is_local": false, "disc_number": 1, "href": "https://api.spotify.com/v1/tracks/7CdoiceXjPWZxjQT0q3aVV", "artists": [{"type": "artist", "name": "M.I.A.", "external_urls": {"spotify": "https://open.spotify.com/artist/0QJIPDAEDILuo8AIq3pMuU"}, "id": "0QJIPDAEDILuo8AIq3pMuU", "uri": "spotify:artist:0QJIPDAEDILuo8AIq3pMuU", "href": "https://api.spotify.com/v1/artists/0QJIPDAEDILuo8AIq3pMuU"}, {"type": "artist", "name": "Rye Rye", "external_urls": {"spotify": "https://open.spotify.com/artist/0S05AeePINj4CeTVMfysIu"}, "id": "0S05AeePINj4CeTVMfysIu", "uri": "spotify:artist:0S05AeePINj4CeTVMfysIu", "href": "https://api.spotify.com/v1/artists/0S05AeePINj4CeTVMfysIu"}, {"type": "artist", "name": "Afrikan Boy", "external_urls": {"spotify": "https://open.spotify.com/artist/7IYwVupkZuGBcG3CPBzsC5"}, "id": "7IYwVupkZuGBcG3CPBzsC5", "uri": "spotify:artist:7IYwVupkZuGBcG3CPBzsC5", "href": "https://api.spotify.com/v1/artists/7IYwVupkZuGBcG3CPBzsC5"}], "track_number": 1, "available_markets": ["US"], "type": "track", "preview_url": null, "explicit": false, "external_urls": {"spotify": "https://open.spotify.com/track/7CdoiceXjPWZxjQT0q3aVV"}, "id": "7CdoiceXjPWZxjQT0q3aVV", "uri": "spotify:track:7CdoiceXjPWZxjQT0q3aVV", "popularity": 46}, {"album": {"total_tracks": 5, "type": "album", "release_date": "2008-01-01", "href": "https://api.spotify.com/v1/albums/28XLKUCiDi5aGzJYQ2nvAW", "artists": [{"type": "artist", "name": "M.I.A.", "external_urls": {"spotify": "https://open.spotify.com/artist/0QJIPDAEDILuo8AIq3pMuU"}, "id": "0QJIPDAEDILuo8AIq3pMuU", "uri": "spotify:artist:0QJIPDAEDILuo8AIq3pMuU", "href": "https://api.spotify.com/v1/artists/0QJIPDAEDILuo8AIq3pMuU"}], "images": [{"width": 640, "url": "https://i.scdn.co/image/973c746bb06183fdc3fa2dd7e8efd6c69b7b8006", "height": 640}, {"width": 300, "url": "https://i.scdn.co/image/57c2a880aacdfa93523bf9fc5ed2a9bbb0efe2bd", "height": 300}, {"width": 64, "url": "https://i.scdn.co/image/3aed76975e47e273e6014f9e482dfb1d16b571a5", "height": 64}], "available_markets": ["US"], "album_type": "single", "release_date_precision": "day", "name": "Paper Planes", "external_urls": {"spotify": "https://open.spotify.com/album/28XLKUCiDi5aGzJYQ2nvAW"}, "id": "28XLKUCiDi5aGzJYQ2nvAW", "uri": "spotify:album:28XLKUCiDi5aGzJYQ2nvAW"}, "external_ids": {"isrc": "GBBKS0700516"}, "name": "Paper Planes - Diplo Street Remix", "duration_ms": 225160, "is_local": false, "disc_number": 1, "href": "https://api.spotify.com/v1/tracks/6RzgLIPAL0ikigYa3ufujc", "artists": [{"type": "artist", "name": "M.I.A.", "external_urls": {"spotify": "https://open.spotify.com/artist/0QJIPDAEDILuo8AIq3pMuU"}, "id": "0QJIPDAEDILuo8AIq3pMuU", "uri": "spotify:artist:0QJIPDAEDILuo8AIq3pMuU", "href": "https://api.spotify.com/v1/artists/0QJIPDAEDILuo8AIq3pMuU"}, {"type": "artist", "name": "Bun B", "external_urls": {"spotify": "https://open.spotify.com/artist/45a6gCQWq61lIUDmr1tKuO"}, "id": "45a6gCQWq61lIUDmr1tKuO", "uri": "spotify:artist:45a6gCQWq61lIUDmr1tKuO", "href": "https://api.spotify.com/v1/artists/45a6gCQWq61lIUDmr1tKuO"}, {"type": "artist", "name": "Rich Boy", "external_urls": {"spotify": "https://open.spotify.com/artist/6mXlDbi03T8wXYwWYew0Ut"}, "id": "6mXlDbi03T8wXYwWYew0Ut", "uri": "spotify:artist:6mXlDbi03T8wXYwWYew0Ut", "href": "https://api.spotify.com/v1/artists/6mXlDbi03T8wXYwWYew0Ut"}], "track_number": 3, "available_markets": ["US"], "type": "track", "preview_url": null, "explicit": false, "external_urls": {"spotify": "https://open.spotify.com/track/6RzgLIPAL0ikigYa3ufujc"}, "id": "6RzgLIPAL0ikigYa3ufujc", "uri": "spotify:track:6RzgLIPAL0ikigYa3ufujc", "popularity": 45}, {"album": {"total_tracks": 5, "type": "album", "release_date": "2008-01-01", "href": "https://api.spotify.com/v1/albums/28XLKUCiDi5aGzJYQ2nvAW", "artists": [{"type": "artist", "name": "M.I.A.", "external_urls": {"spotify": "https://open.spotify.com/artist/0QJIPDAEDILuo8AIq3pMuU"}, "id": "0QJIPDAEDILuo8AIq3pMuU", "uri": "spotify:artist:0QJIPDAEDILuo8AIq3pMuU", "href": "https://api.spotify.com/v1/artists/0QJIPDAEDILuo8AIq3pMuU"}], "images": [{"width": 640, "url": "https://i.scdn.co/image/973c746bb06183fdc3fa2dd7e8efd6c69b7b8006", "height": 640}, {"width": 300, "url": "https://i.scdn.co/image/57c2a880aacdfa93523bf9fc5ed2a9bbb0efe2bd", "height": 300}, {"width": 64, "url": "https://i.scdn.co/image/3aed76975e47e273e6014f9e482dfb1d16b571a5", "height": 64}], "available_markets": ["US"], "album_type": "single", "release_date_precision": "day", "name": "Paper Planes", "external_urls": {"spotify": "https://open.spotify.com/album/28XLKUCiDi5aGzJYQ2nvAW"}, "id": "28XLKUCiDi5aGzJYQ2nvAW", "uri": "spotify:album:28XLKUCiDi5aGzJYQ2nvAW"}, "external_ids": {"isrc": "GBBKS0800033"}, "name": "Paper Planes - DFA Remix", "duration_ms": 349480, "is_local": false, "disc_number": 1, "href": "https://api.spotify.com/v1/tracks/7j8H2Zyo4kRmM91p9xwp7a", "artists": [{"type": "artist", "name": "M.I.A.", "external_urls": {"spotify": "https://open.spotify.com/artist/0QJIPDAEDILuo8AIq3pMuU"}, "id": "0QJIPDAEDILuo8AIq3pMuU", "uri": "spotify:artist:0QJIPDAEDILuo8AIq3pMuU", "href": "https://api.spotify.com/v1/artists/0QJIPDAEDILuo8AIq3pMuU"}], "track_number": 4, "available_markets": ["US"], "type": "track", "preview_url": null, "explicit": false, "external_urls": {"spotify": "https://open.spotify.com/track/7j8H2Zyo4kRmM91p9xwp7a"}, "id": "7j8H2Zyo4kRmM91p9xwp7a", "uri": "spotify:track:7j8H2Zyo4kRmM91p9xwp7a", "popularity": 33}, {"album": {"total_tracks": 33, "type": "album", "release_date": "2014-08-25", "href": "https://api.spotify.com/v1/albums/19xt2EkDfNcbAdQzOVUttd", "artists": [{"type": "artist", "name": "Various Artists", "external_urls": {"spotify": "https://open.spotify.com/artist/0LyfQWJT6nXafLPZqxe9Of"}, "id": "0LyfQWJT6nXafLPZqxe9Of", "uri": "spotify:artist:0LyfQWJT6nXafLPZqxe9Of", "href": "https://api.spotify.com/v1/artists/0LyfQWJT6nXafLPZqxe9Of"}], "images": [{"width": 640, "url": "https://i.scdn.co/image/ab67616d0000b273f2084e0d4647cef727061f38", "height": 640}, {"width": 300, "url": "https://i.scdn.co/image/ab67616d00001e02f2084e0d4647cef727061f38", "height": 300}, {"width": 64, "url": "https://i.scdn.co/image/ab67616d00004851f2084e0d4647cef727061f38", "height": 64}], "available_markets": ["AD", "AE", "AR", "AT", "AU", "BE", "BG", "BH", "BO", "BR", "CA", "CH", "CL", "CO", "CR", "CY", "CZ", "DE", "DK", "DO", "DZ", "EC", "EE", "EG", "ES", "FI", "FR", "GB", "GR", "GT", "HK", "HN", "HU", "ID", "IE", "IL", "IN", "IS", "IT", "JO", "JP", "KW", "LB", "LI", "LT", "LU", "LV", "MA", "MC", "MT", "MX", "MY", "NI", "NL", "NO", "NZ", "OM", "PA", "PE", "PH", "PL", "PS", "PT", "PY", "QA", "RO", "SA", "SE", "SG", "SK", "SV", "TH", "TN", "TR", "TW", "US", "UY", "VN", "ZA"], "album_type": "compilation", "release_date_precision": "day", "name": "Pay Close Attention : XL Recordings", "external_urls": {"spotify": "https://open.spotify.com/album/19xt2EkDfNcbAdQzOVUttd"}, "id": "19xt2EkDfNcbAdQzOVUttd", "uri": "spotify:album:19xt2EkDfNcbAdQzOVUttd"}, "external_ids": {"isrc": "GBBKS0700215"}, "name": "Paper Planes", "duration_ms": 204520, "is_local": false, "disc_number": 2, "href": "https://api.spotify.com/v1/tracks/2aEPq4k1mg6vDe9y0HzDvP", "artists": [{"type": "artist", "name": "M.I.A.", "external_urls": {"spotify": "https://open.spotify.com/artist/0QJIPDAEDILuo8AIq3pMuU"}, "id": "0QJIPDAEDILuo8AIq3pMuU", "uri": "spotify:artist:0QJIPDAEDILuo8AIq3pMuU", "href": "https://api.spotify.com/v1/artists/0QJIPDAEDILuo8AIq3pMuU"}], "track_number": 7, "available_markets": ["AD", "AE", "AR", "AT", "AU", "BE", "BG", "BH", "BO", "BR", "CA", "CH", "CL", "CO", "CR", "CY", "CZ", "DE", "DK", "DO", "DZ", "EC", "EE", "EG", "ES", "FI", "FR", "GB", "GR", "GT", "HK", "HN", "HU", "ID", "IE", "IL", "IN", "IS", "IT", "JO", "JP", "KW", "LB", "LI", "LT", "LU", "LV", "MA", "MC", "MT", "MX", "MY", "NI", "NL", "NO", "NZ", "OM", "PA", "PE", "PH", "PL", "PS", "PT", "PY", "QA", "RO", "SA", "SE", "SG", "SK", "SV", "TH", "TN", "TR", "TW", "US", "UY", "VN", "ZA"], "type": "track", "preview_url": "https://p.scdn.co/mp3-preview/8d90c49e5c657545103f12f8ac60da6623c84038?cid=0c947b9d3f7547e28aee080174c283c9", "explicit": false, "external_urls": {"spotify": "https://open.spotify.com/track/2aEPq4k1mg6vDe9y0HzDvP"}, "id": "2aEPq4k1mg6vDe9y0HzDvP", "uri": "spotify:track:2aEPq4k1mg6vDe9y0HzDvP", "popularity": 24}], "previous": null, "href": "https://api.spotify.com/v1/search?query=artist%3AM.I.A.+track%3APaper+Planes&type=track&offset=0&limit=5", "limit": 5, "total": 8, "next": "https://api.spotify.com/v1/search?query=artist%3AM.I.A.+track%3APaper+Planes&type=track&offset=5&limit=5"}}