{"tracks": {"offset": 0, "items": [{"album": {"total_tracks": 10, "type": "album", "release_date": "2010-02-17", "href": "https://api.spotify.com/v1/albums/0SD7kwnJEC2oDzQBKEHQnH", "artists": [{"type": "artist", "name": "Two Door Cinema Club", "external_urls": {"spotify": "https://open.spotify.com/artist/536BYVgOnRky0xjsPT96zl"}, "id": "536BYVgOnRky0xjsPT96zl", "uri": "spotify:artist:536BYVgOnRky0xjsPT96zl", "href": "https://api.spotify.com/v1/artists/536BYVgOnRky0xjsPT96zl"}], "images": [{"width": 640, "url": "https://i.scdn.co/image/ab67616d0000b2731d579563f814da8508cafad2", "height": 640}, {"width": 300, "url": "https://i.scdn.co/image/ab67616d00001e021d579563f814da8508cafad2", "height": 300}, {"width": 64, "url": "https://i.scdn.co/image/ab67616d000048511d579563f814da8508cafad2", "height": 64}], "available_markets": ["CA", "US"], "album_type": "album", "release_date_precision": "day", "name": "Tourist History", "external_urls": {"spotify": "https://open.spotify.com/album/0SD7kwnJEC2oDzQBKEHQnH"}, "id": "0SD7kwnJEC2oDzQBKEHQnH", "uri": "spotify:album:0SD7kwnJEC2oDzQBKEHQnH"}, "external_ids": {"isrc": "FRU700900116"}, "name": "What You Know", "duration_ms": 191706, "is_local": false, "disc_number": 1, "href": "https://api.spotify.com/v1/tracks/3UjtIALeg72qmJiKPWBvM3", "artists": [{"type": "artist", "name": "Two Door Cinema Club", "external_urls": {"spotify": "https://open.spotify.com/artist/536BYVgOnRky0xjsPT96zl"}, "id": "536BYVgOnRky0xjsPT96zl", "uri": "spotify:artist:536BYVgOnRky0xjsPT96zl", "href": "https://api.spotify.com/v1/artists/536BYVgOnRky0xjsPT96zl"}], "track_number": 8, "available_markets": ["CA", "US"], "type": "track", "preview_url": "https://p.scdn.co/mp3-preview/14418e117358b937b89e6fb4555fa9c21c974d9c?cid=0c947b9d3f7547e28aee080174c283c9", "explicit": false, "external_urls": {"spotify": "https://open.spotify.com/track/3UjtIALeg72qmJiKPWBvM3"}, "id": "3UjtIALeg72qmJiKPWBvM3", "uri": "spotify:track:3UjtIALeg72qmJiKPWBvM3", "popularity": 70}, {"album": {"total_tracks": 5, "type": "album", "release_date": "2013-01-01", "href": "https://api.spotify.com/v1/albums/2JgdsqD8hAZtgQMQvBsJxF", "artists": [{"type": "artist", "name": "Two Door Cinema Club", "external_urls": {"spotify": "https://open.spotify.com/artist/536BYVgOnRky0xjsPT96zl"}, "id": "536BYVgOnRky0xjsPT96zl", "uri": "spotify:artist:536BYVgOnRky0xjsPT96zl", "href": "https://api.spotify.com/v1/artists/536BYVgOnRky0xjsPT96zl"}], "images": [{"width": 640, "url": "https://i.scdn.co/image/ab67616d0000b2738c79ec7cfd07d8622952b0a9", "height": 640}, {"width": 300, "url": "https://i.scdn.co/image/ab67616d00001e028c79ec7cfd07d8622952b0a9", "height": 300}, {"width": 64, "url": "https://i.scdn.co/image/ab67616d000048518c79ec7cfd07d8622952b0a9", "height": 64}], "available_markets": ["CA", "US"], "album_type": "single", "release_date_precision": "day", "name": "Spotify Sessions (Live From Spotify NYC/2013)", "external_urls": {"spotify": "https://open.spotify.com/album/2JgdsqD8hAZtgQMQvBsJxF"}, "id": "2JgdsqD8hAZtgQMQvBsJxF", "uri": "spotify:album:2JgdsqD8hAZtgQMQvBsJxF"}, "external_ids": {"isrc": "USYAH1300166"}, "name": "What You Know - Live", "duration_ms": 199840, "is_local": false, "disc_number": 1, "href": "https://api.spotify.com/v1/tracks/2ziR3y3L3HLvFArQKiWFGE", "artists": [{"type": "artist", "name": "Two Door Cinema Club", "external_urls": {"spotify": "https://open.spotify.com/artist/536BYVgOnRky0xjsPT96zl"}, "id": "536BYVgOnRky0xjsPT96zl", "uri": "spotify:artist:536BYVgOnRky0xjsPT96zl", "href": "https://api.spotify.com/v1/artists/536BYVgOnRky0xjsPT96zl"}], "track_number": 5, "available_markets": ["CA", "US"], "type": "track", "preview_url": "https://p.scdn.co/mp3-preview/372d8973dafd7de4723fd51579c65c5b42cde941?cid=0c947b9d3f7547e28aee080174c283c9", "explicit": false, "external_urls": {"spotify": "https://open.spotify.com/track/2ziR3y3L3HLvFArQKiWFGE"}, "id": "2ziR3y3L3HLvFArQKiWFGE", "uri": "spotify:track:2ziR3y3L3HLvFArQKiWFGE", "popularity": 39}, {"album": {"total_tracks": 25, "type": "album", "release_date": "2012-09-03", "href": "https://api.spotify.com/v1/albums/3iLfB8rVgHbQsjgamkbUiL", "artists": [{"type": "artist", "name": "Two Door Cinema Club", "external_urls": {"spotify": "https://open.spotify.com/artist/536BYVgOnRky0xjsPT96zl"}, "id": "536BYVgOnRky0xjsPT96zl", "uri": "spotify:artist:536BYVgOnRky0xjsPT96zl", "href": "https://api.spotify.com/v1/artists/536BYVgOnRky0xjsPT96zl"}], "images": [{"width": 640, "url": "https://i.scdn.co/image/ab67616d0000b27396acb432bb80bad46664b622", "height": 640}, {"width": 300, "url": "https://i.scdn.co/image/ab67616d00001e0296acb432bb80bad46664b622", "height": 300}, {"width": 64, "url": "https://i.scdn.co/image/ab67616d0000485196acb432bb80bad46664b622", "height": 64}], "available_markets": ["AR", "BO", "BR", "CA", "CL", "CO", "CR", "EC", "GT", "HN", "MX", "NI", "PA", "PE", "PY", "SV", "US", "UY"], "album_type": "album", "release_date_precision": "day", "name": "Beacon (Deluxe Version)", "external_urls": {"spotify": "https://open.spotify.com/album/3iLfB8rVgHbQsjgamkbUiL"}, "id": "3iLfB8rVgHbQsjgamkbUiL", "uri": "spotify:album:3iLfB8rVgHbQsjgamkbUiL"}, "external_ids": {"isrc": "FRU701200105"}, "name": "What You Know - Live at Brixton Academy, London / 2012", "duration_ms": 276600, "is_local": false, "disc_number": 2, "href": "https://api.spotify.com/v1/tracks/6Nx2FXzspxD6aNRjYV0k9g", "artists": [{"type": "artist", "name": "Two Door Cinema Club", "external_urls": {"spotify": "https://open.spotify.com/artist/536BYVgOnRky0xjsPT96zl"}, "id": "536BYVgOnRky0xjsPT96zl", "uri": "spotify:artist:536BYVgOnRky0xjsPT96zl", "href": "https://api.spotify.com/v1/artists/536BYVgOnRky0xjsPT96zl"}], "track_number": 11, "available_markets": ["AR", "BO", "BR", "CA", "CL", "CO", "CR", "EC", "GT", "HN", "MX", "NI", "PA", "PE", "PY", "SV", "US", "UY"], "type": "track", "preview_url": "https://p.scdn.co/mp3-preview/7bdf898fe7811ea8984a728a61da2866a22b0035?cid=0c947b9d3f7547e28aee080174c283c9", "explicit": false, "external_urls": {"spotify": "https://open.spotify.com/track/6Nx2FXzspxD6aNRjYV0k9g"}, "id": "6Nx2FXzspxD6aNRjYV0k9g", "uri": "spotify:track:6Nx2FXzspxD6aNRjYV0k9g", "popularity": 36}, {"album": {"total_tracks": 7, "type": "album", "release_date": "2011", "href": "https://api.spotify.com/v1/albums/2H60kUFfEoJuMzWWdmsKrL", "artists": [{"type": "artist", "name": "Two Door Cinema Club", "external_urls": {"spotify": "https://open.spotify.com/artist/536BYVgOnRky0xjsPT96zl"}, "id": "536BYVgOnRky0xjsPT96zl", "uri": "spotify:artist:536BYVgOnRky0xjsPT96zl", "href": "https://api.spotify.com/v1/artists/536BYVgOnRky0xjsPT96zl"}], "images": [{"width": 640, "url": "https://i.scdn.co/image/ab67616d0000b273d561ec27b6b7b603f7223374", "height": 640}, {"width": 300, "url": "https://i.scdn.co/image/ab67616d00001e02d561ec27b6b7b603f7223374", "height": 300}, {"width": 64, "url": "https://i.scdn.co/image/ab67616d00004851d561ec27b6b7b603f7223374", "height": 64}], "available_markets": ["CA", "US"], "album_type": "album", "release_date_precision": "year", "name": "Tourist History Remixes", "external_urls": {"spotify": "https://open.spotify.com/album/2H60kUFfEoJuMzWWdmsKrL"}, "id": "2H60kUFfEoJuMzWWdmsKrL", "uri": "spotify:album:2H60kUFfEoJuMzWWdmsKrL"}, "external_ids": {"isrc": "USYAH1000229"}, "name": "What You Know - Cassian Remix", "duration_ms": 298586, "is_local": false, "disc_number": 1, "href": "https://api.spotify.com/v1/tracks/123FKo6J7pIpiclcq94wNW", "artists": [{"type": "artist", "name": "Two Door Cinema Club", "external_urls": {"spotify": "https://open.spotify.com/artist/536BYVgOnRky0xjsPT96zl"}, "id": "536BYVgOnRky0xjsPT96zl", "uri": "spotify:artist:536BYVgOnRky0xjsPT96zl", "href": "https://api.spotify.com/v1/artists/536BYVgOnRky0xjsPT96zl"}, {"type": "artist", "name": "Cassian", "external_urls": {"spotify": "https://open.spotify.com/artist/3DQ8dNQWta0hOs6TT8JCnV"}, "id": "3DQ8dNQWta0hOs6TT8JCnV", "uri": "spotify:artist:3DQ8dNQWta0hOs6TT8JCnV", "href": "https://api.spotify.com/v1/artists/3DQ8dNQWta0hOs6TT8JCnV"}], "track_number": 6, "available_markets": ["CA", "US"], "type": "track", "preview_url": "https://p.scdn.co/mp3-preview/47e2142010eef51c0440e3870045b5d84b05fad4?cid=0c947b9d3f7547e28aee080174c283c9", "explicit": false, "external_urls": {"spotify": "https://open.spotify.com/track/123FKo6J7pIpiclcq94wNW"}, "id": "123FKo6J7pIpiclcq94wNW", "uri": "spotify:track:123FKo6J7pIpiclcq94wNW", "popularity": 18}, {"album": {"total_tracks": 25, "type": "album", "release_date": "2012-09-03", "href": "https://api.spotify.com/v1/albums/185ZUl6UkMEarTL7erVTwK", "artists": [{"type": "artist", "name": "Two Door Cinema Club", "external_urls": {"spotify": "https://open.spotify.com/artist/536BYVgOnRky0xjsPT96zl"}, "id": "536BYVgOnRky0xjsPT96zl", "uri": "spotify:artist:536BYVgOnRky0xjsPT96zl", "href": "https://api.spotify.com/v1/artists/536BYVgOnRky0xjsPT96zl"}], "images": [{"width": 640, "url": "https://i.scdn.co/image/ab67616d0000b2731be7f9bd9470d9aebf784e70", "height": 640}, {"width": 300, "url": "https://i.scdn.co/image/ab67616d00001e021be7f9bd9470d9aebf784e70", "height": 300}, {"width": 64, "url": "https://i.scdn.co/image/ab67616d000048511be7f9bd9470d9aebf784e70", "height": 64}], "available_markets": ["AR", "BO", "BR", "CA", "CL", "CO", "EC", "MX", "PE", "PY", "US", "UY"], "album_type": "album", "release_date_precision": "day", "name": "Beacon (Deluxe Version)", "external_urls": {"spotify": "https://open.spotify.com/album/185ZUl6UkMEarTL7erVTwK"}, "id": "185ZUl6UkMEarTL7erVTwK", "uri": "spotify:album:185ZUl6UkMEarTL7erVTwK"}, "external_ids": {"isrc": "FRU701200105"}, "name": "What You Know - Live at Brixton Academy, London, 2012", "duration_ms": 276600, "is_local": false, "disc_number": 2, "href": "https://api.spotify.com/v1/tracks/6ueYEbLdSChxZgTRYvOzWS", "artists": [{"type": "artist", "name": "Two Door Cinema Club", "external_urls": {"spotify": "https://open.spotify.com/artist/536BYVgOnRky0xjsPT96zl"}, "id": "536BYVgOnRky0xjsPT96zl", "uri": "spotify:artist:536BYVgOnRky0xjsPT96zl", "href": "https://api.spotify.com/v1/artists/536BYVgOnRky0xjsPT96zl"}], "track_number": 11, "available_markets": ["AR", "BO", "BR", "CA", "CL", "CO", "EC", "MX", "PE", "PY", "US", "UY"], "type": "track", "preview_url": "https://p.scdn.co/mp3-preview/7bdf898fe7811ea8984a728a61da2866a22b0035?cid=0c947b9d3f7547e28aee080174c283c9", "explicit": false, "external_urls": {"spotify": "https://open.spotify.com/track/6ueYEbLdSChxZgTRYvOzWS"}, "id": "6ueYEbLdSChxZgTRYvOzWS", "uri": "spotify:track:6ueYEbLdSChxZgTRYvOzWS", "popularity": 23}], "previous": null, "href": "https://api.spotify.com/v1/search?query=artist%3ATwo+Door+Cinema+Club+track%3AWhat+You+Know&type=track&offset=0&limit=5", "limit": 5, "total": 6, "next": "https://api.spotify.com/v1/search?query=artist%3ATwo+Door+Cinema+Club+track%3AWhat+You+Know&type=track&offset=5&limit=5"}}