{"tracks": {"offset": 0, "items": [{"album": {"total_tracks": 11, "type": "album", "release_date": "2004-06-15", "href": "https://api.spotify.com/v1/albums/4undIeGmofnAYKhnDclN1w", "artists": [{"type": "artist", "name": "The Killers", "external_urls": {"spotify": "https://open.spotify.com/artist/0C0XlULifJtAgn6ZNCW2eu"}, "id": "0C0XlULifJtAgn6ZNCW2eu", "uri": "spotify:artist:0C0XlULifJtAgn6ZNCW2eu", "href": "https://api.spotify.com/v1/artists/0C0XlULifJtAgn6ZNCW2eu"}], "images": [{"width": 640, "url": "https://i.scdn.co/image/3aa79be73da460800b3677856c2d93f5f322899b", "height": 640}, {"width": 300, "url": "https://i.scdn.co/image/ae4121eaf5103bbe04dc4ad8ef8b3d65c3b6df7a", "height": 300}, {"width": 64, "url": "https://i.scdn.co/image/7d778100d0160184d61981dc8aa666ee6fec0151", "height": 64}], "available_markets": ["CA", "MX", "US"], "album_type": "album", "release_date_precision": "day", "name": "Hot Fuss", "external_urls": {"spotify": "https://open.spotify.com/album/4undIeGmofnAYKhnDclN1w"}, "id": "4undIeGmofnAYKhnDclN1w", "uri": "spotify:album:4undIeGmofnAYKhnDclN1w"}, "external_ids": {"isrc": "USIR20400274"}, "name": "Mr. Brightside", "duration_ms": 222586, "is_local": false, "disc_number": 1, "href": "https://api.spotify.com/v1/tracks/7oK9VyNzrYvRFo7nQEYkWN", "artists": [{"type": "artist", "name": "The Killers", "external_urls": {"spotify": "https://open.spotify.com/artist/0C0XlULifJtAgn6ZNCW2eu"}, "id": "0C0XlULifJtAgn6ZNCW2eu", "uri": "spotify:artist:0C0XlULifJtAgn6ZNCW2eu", "href": "https://api.spotify.com/v1/artists/0C0XlULifJtAgn6ZNCW2eu"}], "track_number": 2, "available_markets": ["CA", "MX", "US"], "type": "track", "preview_url": null, "explicit": false, "external_urls": {"spotify": "https://open.spotify.com/track/7oK9VyNzrYvRFo7nQEYkWN"}, "id": "7oK9VyNzrYvRFo7nQEYkWN", "uri": "spotify:track:7oK9VyNzrYvRFo7nQEYkWN", "popularity": 79}, {"album": {"total_tracks": 18, "type": "album", "release_date": "2013-01-01", "href": "https://api.spotify.com/v1/albums/3T5bbO2BOnnjun6jKhJdjV", "artists": [{"type": "artist", "name": "The Killers", "external_urls": {"spotify": "https://open.spotify.com/artist/0C0XlULifJtAgn6ZNCW2eu"}, "id": "0C0XlULifJtAgn6ZNCW2eu", "uri": "spotify:artist:0C0XlULifJtAgn6ZNCW2eu", "href": "https://api.spotify.com/v1/artists/0C0XlULifJtAgn6ZNCW2eu"}], "images": [{"width": 640, "url": "https://i.scdn.co/image/8e061183f95439a75b25e7a2cb63a3a164f429b7", "height": 640}, {"width": 300, "url": "https://i.scdn.co/image/99d22604f33466a588b1c43e7b349d08ca75d433", "height": 300}, {"width": 64, "url": "https://i.scdn.co/image/fa94e2f46d35dbcf00fd26ca8801a8dc2ae1b182", "height": 64}], "available_markets": ["AD", "AE", "AR", "AT", "AU", "BE", "BG", "BH", "BO", "BR", "CA", "CH", "CL", "CO", "CR", "CY", "CZ", "DE", "DK", "DO", "DZ", "EC", "EE", "EG", "ES", "FI", "FR", "GB", "GR", "GT", "HK", "HN", "HU", "ID", "IE", "IL", "IN", "IS", "IT", "JO", "JP", "KW", "LB", "LI", "LT", "LU", "LV", "MA", "MC", "MT", "MX", "MY", "NI", "NL", "NO", "NZ", "OM", "PA", "PE", "PH", "PL", "PS", "PT", "PY", "QA", "RO", "SA", "SE", "SG", "SK", "SV", "TH", "TN", "TR", "TW", "US", "UY", "VN", "ZA"], "album_type": "compilation", "release_date_precision": "day", "name": "Direct Hits", "external_urls": {"spotify": "https://open.spotify.com/album/3T5bbO2BOnnjun6jKhJdjV"}, "id": "3T5bbO2BOnnjun6jKhJdjV", "uri": "spotify:album:3T5bbO2BOnnjun6jKhJdjV"}, "external_ids": {"isrc": "USIR20400274"}, "name": "Mr. Brightside", "duration_ms": 223973, "is_local": false, "disc_number": 1, "href": "https://api.spotify.com/v1/tracks/2RvbnvBX3XKkHy8daq3PUT", "artists": [{"type": "artist", "name": "The Killers", "external_urls": {"spotify": "https://open.spotify.com/artist/0C0XlULifJtAgn6ZNCW2eu"}, "id": "0C0XlULifJtAgn6ZNCW2eu", "uri": "spotify:artist:0C0XlULifJtAgn6ZNCW2eu", "href": "https://api.spotify.com/v1/artists/0C0XlULifJtAgn6ZNCW2eu"}], "track_number": 1, "available_markets": ["AD", "AE", "AR", "AT", "AU", "BE", "BG", "BH", "BO", "BR", "CA", "CH", "CL", "CO", "CR", "CY", "CZ", "DE", "DK", "DO", "DZ", "EC", "EE", "EG", "ES", "FI", "FR", "GB", "GR", "GT", "HK", "HN", "HU", "ID", "IE", "IL", "IN", "IS", "IT", "JO", "JP", "KW", "LB", "LI", "LT", "LU", "LV", "MA", "MC", "MT", "MX", "MY", "NI", "NL", "NO", "NZ", "OM", "PA", "PE", "PH", "PL", "PS", "PT", "PY", "QA", "RO", "SA", "SE", "SG", "SK", "SV", "TH", "TN", "TR", "TW", "US", "UY", "VN", "ZA"], "type": "track", "preview_url": null, "explicit": false, "external_urls": {"spotify": "https://open.spotify.com/track/2RvbnvBX3XKkHy8daq3PUT"}, "id": "2RvbnvBX3XKkHy8daq3PUT", "uri": "spotify:track:2RvbnvBX3XKkHy8daq3PUT", "popularity": 46}, {"album": {"total_tracks": 17, "type": "album", "release_date": "2007-01-01", "href": "https://api.spotify.com/v1/albums/4NtamseeVOGesCm8W9oHSz", "artists": [{"type": "artist", "name": "The Killers", "external_urls": {"spotify": "https://open.spotify.com/artist/0C0XlULifJtAgn6ZNCW2eu"}, "id": "0C0XlULifJtAgn6ZNCW2eu", "uri": "spotify:artist:0C0XlULifJtAgn6ZNCW2eu", "href": "https://api.spotify.com/v1/artists/0C0XlULifJtAgn6ZNCW2eu"}], "images": [{"width": 640, "url": "https://i.scdn.co/image/5f6c8b6fee5d0453a0dfc78ffd712967a7627773", "height": 640}, {"width": 300, "url": "https://i.scdn.co/image/735f763cf79fc35400221433598a1be50e7830c8", "height": 300}, {"width": 64, "url": "https://i.scdn.co/image/803bea9695ba5b8819c298d42a0828ec7583ae2d", "height": 64}], "available_markets": ["AD", "AE", "AR", "AT", "AU", "BE", "BG", "BH", "BO", "BR", "CA", "CH", "CL", "CO", "CR", "CY", "CZ", "DE", "DK", "DO", "DZ", "EC", "EE", "EG", "ES", "FI", "FR", "GB", "GR", "GT", "HK", "HN", "HU", "ID", "IE", "IL", "IN", "IS", "IT", "JO", "JP", "KW", "LB", "LI", "LT", "LU", "LV", "MA", "MC", "MT", "MX", "MY", "NI", "NL", "NO", "NZ", "OM", "PA", "PE", "PH", "PL", "PS", "PT", "PY", "QA", "RO", "SA", "SE", "SG", "SK", "SV", "TH", "TN", "TR", "TW", "US", "UY", "VN", "ZA"], "album_type": "compilation", "release_date_precision": "day", "name": "Sawdust", "external_urls": {"spotify": "https://open.spotify.com/album/4NtamseeVOGesCm8W9oHSz"}, "id": "4NtamseeVOGesCm8W9oHSz", "uri": "spotify:album:4NtamseeVOGesCm8W9oHSz"}, "external_ids": {"isrc": "USIR20500022"}, "name": "Mr. Brightside - Jacques Lu Cont's Thin White Duke Mix", "duration_ms": 528026, "is_local": false, "disc_number": 1, "href": "https://api.spotify.com/v1/tracks/46gog9DTymoam1Atq4xpDl", "artists": [{"type": "artist", "name": "The Killers", "external_urls": {"spotify": "https://open.spotify.com/artist/0C0XlULifJtAgn6ZNCW2eu"}, "id": "0C0XlULifJtAgn6ZNCW2eu", "uri": "spotify:artist:0C0XlULifJtAgn6ZNCW2eu", "href": "https://api.spotify.com/v1/artists/0C0XlULifJtAgn6ZNCW2eu"}, {"type": "artist", "name": "Jacques Lu Cont", "external_urls": {"spotify": "https://open.spotify.com/artist/4SINYGzldpKMExpCjseS9o"}, "id": "4SINYGzldpKMExpCjseS9o", "uri": "spotify:artist:4SINYGzldpKMExpCjseS9o", "href": "https://api.spotify.com/v1/artists/4SINYGzldpKMExpCjseS9o"}], "track_number": 17, "available_markets": ["AD", "AE", "AR", "AT", "AU", "BE", "BG", "BH", "BO", "BR", "CA", "CH", "CL", "CO", "CR", "CY", "CZ", "DE", "DK", "DO", "DZ", "EC", "EE", "EG", "ES", "FI", "FR", "GB", "GR", "GT", "HK", "HN", "HU", "ID", "IE", "IL", "IN", "IS", "IT", "JO", "JP", "KW", "LB", "LI", "LT", "LU", "LV", "MA", "MC", "MT", "MX", "MY", "NI", "NL", "NO", "NZ", "OM", "PA", "PE", "PH", "PL", "PS", "PT", "PY", "QA", "RO", "SA", "SE", "SG", "SK", "SV", "TH", "TN", "TR", "TW", "US", "UY", "VN", "ZA"], "type": "track", "preview_url": null, "explicit": false, "external_urls": {"spotify": "https://open.spotify.com/track/46gog9DTymoam1Atq4xpDl"}, "id": "46gog9DTymoam1Atq4xpDl", "uri": "spotify:track:46gog9DTymoam1Atq4xpDl", "popularity": 43}, {"album": {"total_tracks": 18, "type": "album", "release_date": "2013-01-01", "href": "https://api.spotify.com/v1/albums/3T5bbO2BOnnjun6jKhJdjV", "artists": [{"type": "artist", "name": "The Killers", "external_urls": {"spotify": "https://open.spotify.com/artist/0C0XlULifJtAgn6ZNCW2eu"}, "id": "0C0XlULifJtAgn6ZNCW2eu", "uri": "spotify:artist:0C0XlULifJtAgn6ZNCW2eu", "href": "https://api.spotify.com/v1/artists/0C0XlULifJtAgn6ZNCW2eu"}], "images": [{"width": 640, "url": "https://i.scdn.co/image/8e061183f95439a75b25e7a2cb63a3a164f429b7", "height": 640}, {"width": 300, "url": "https://i.scdn.co/image/99d22604f33466a588b1c43e7b349d08ca75d433", "height": 300}, {"width": 64, "url": "https://i.scdn.co/image/fa94e2f46d35dbcf00fd26ca8801a8dc2ae1b182", "height": 64}], "available_markets": ["AD", "AE", "AR", "AT", "AU", "BE", "BG", "BH", "BO", "BR", "CA", "CH", "CL", "CO", "CR", "CY", "CZ", "DE", "DK", "DO", "DZ", "EC", "EE", "EG", "ES", "FI", "FR", "GB", "GR", "GT", "HK", "HN", "HU", "ID", "IE", "IL", "IN", "IS", "IT", "JO", "JP", "KW", "LB", "LI", "LT", "LU", "LV", "MA", "MC", "MT", "MX", "MY", "NI", "NL", "NO", "NZ", "OM", "PA", "PE", "PH", "PL", "PS", "PT", "PY", "QA", "RO", "SA", "SE", "SG", "SK", "SV", "TH", "TN", "TR", "TW", "US", "UY", "VN", "ZA"], "album_type": "compilation", "release_date_precision": "day", "name": "Direct Hits", "external_urls": {"spotify": "https://open.spotify.com/album/3T5bbO2BOnnjun6jKhJdjV"}, "id": "3T5bbO2BOnnjun6jKhJdjV", "uri": "spotify:album:3T5bbO2BOnnjun6jKhJdjV"}, "external_ids": {"isrc": "USUM71312340"}, "name": "Mr. Brightside - Original Demo", "duration_ms": 262560, "is_local": false, "disc_number": 1, "href": "https://api.spotify.com/v1/tracks/4Kgcv788IgBM86F1G56t7i", "artists": [{"type": "artist", "name": "The Killers", "external_urls": {"spotify": "https://open.spotify.com/artist/0C0XlULifJtAgn6ZNCW2eu"}, "id": "0C0XlULifJtAgn6ZNCW2eu", "uri": "spotify:artist:0C0XlULifJtAgn6ZNCW2eu", "href": "https://api.spotify.com/v1/artists/0C0XlULifJtAgn6ZNCW2eu"}], "track_number": 16, "available_markets": ["AD", "AE", "AR", "AT", "AU", "BE", "BG", "BH", "BO", "BR", "CA", "CH", "CL", "CO", "CR", "CY", "CZ", "DE", "DK", "DO", "DZ", "EC", "EE", "EG", "ES", "FI", "FR", "GB", "GR", "GT", "HK", "HN", "HU", "ID", "IE", "IL", "IN", "IS", "IT", "JO", "JP", "KW", "LB", "LI", "LT", "LU", "LV", "MA", "MC", "MT", "MX", "MY", "NI", "NL", "NO", "NZ", "OM", "PA", "PE", "PH", "PL", "PS", "PT", "PY", "QA", "RO", "SA", "SE", "SG", "SK", "SV", "TH", "TN", "TR", "TW", "US", "UY", "VN", "ZA"], "type": "track", "preview_url": null, "explicit": false, "external_urls": {"spotify": "https://open.spotify.com/track/4Kgcv788IgBM86F1G56t7i"}, "id": "4Kgcv788IgBM86F1G56t7i", "uri": "spotify:track:4Kgcv788IgBM86F1G56t7i", "popularity": 41}, {"album": {"total_tracks": 17, "type": "album", "release_date": "2009-11-03", "href": "https://api.spotify.com/v1/albums/1TYHZLZv5mLBkajWsV7cQq", "artists": [{"type": "artist", "name": "The Killers", "external_urls": {"spotify": "https://open.spotify.com/artist/0C0XlULifJtAgn6ZNCW2eu"}, "id": "0C0XlULifJtAgn6ZNCW2eu", "uri": "spotify:artist:0C0XlULifJtAgn6ZNCW2eu", "href": "https://api.spotify.com/v1/artists/0C0XlULifJtAgn6ZNCW2eu"}], "images": [{"width": 640, "url": "https://i.scdn.co/image/fd7d58e63daf2ae5ea4a66c0317ee79939058fea", "height": 640}, {"width": 300, "url": "https://i.scdn.co/image/d347ef067e673f5ecb796c183b8708e94c87e8e9", "height": 300}, {"width": 64, "url": "https://i.scdn.co/image/fe51dd7735ea473371b7a58f5040d721a5e74e42", "height": 64}], "available_markets": ["AD", "AE", "AR", "AT", "AU", "BE", "BG", "BH", "BO", "BR", "CA", "CH", "CL", "CO", "CR", "CY", "CZ", "DE", "DK", "DO", "DZ", "EC", "EE", "EG", "ES", "FI", "FR", "GB", "GR", "GT", "HK", "HN", "HU", "ID", "IE", "IL", "IN", "IS", "IT", "JO", "JP", "KW", "LB", "LI", "LT", "LU", "LV", "MA", "MC", "MT", "MX", "MY", "NI", "NL", "NO", "NZ", "OM", "PA", "PE", "PH", "PL", "PS", "PT", "PY", "QA", "RO", "SA", "SE", "SG", "SK", "SV", "TH", "TN", "TR", "TW", "US", "UY", "VN", "ZA"], "album_type": "album", "release_date_precision": "day", "name": "Live From The Royal Albert Hall", "external_urls": {"spotify": "https://open.spotify.com/album/1TYHZLZv5mLBkajWsV7cQq"}, "id": "1TYHZLZv5mLBkajWsV7cQq", "uri": "spotify:album:1TYHZLZv5mLBkajWsV7cQq"}, "external_ids": {"isrc": "USUM70997811"}, "name": "Mr. Brightside - Live From The Royal Albert Hall / 2009", "duration_ms": 233440, "is_local": false, "disc_number": 1, "href": "https://api.spotify.com/v1/tracks/5s457o0GLooprDJNitW5WF", "artists": [{"type": "artist", "name": "The Killers", "external_urls": {"spotify": "https://open.spotify.com/artist/0C0XlULifJtAgn6ZNCW2eu"}, "id": "0C0XlULifJtAgn6ZNCW2eu", "uri": "spotify:artist:0C0XlULifJtAgn6ZNCW2eu", "href": "https://api.spotify.com/v1/artists/0C0XlULifJtAgn6ZNCW2eu"}], "track_number": 14, "available_markets": ["AD", "AE", "AR", "AT", "AU", "BE", "BG", "BH", "BO", "BR", "CA", "CH", "CL", "CO", "CR", "CY", "CZ", "DE", "DK", "DO", "DZ", "EC", "EE", "EG", "ES", "FI", "FR", "GB", "GR", "GT", "HK", "HN", "HU", "ID", "IE", "IL", "IN", "IS", "IT", "JO", "JP", "KW", "LB", "LI", "LT", "LU", "LV", "MA", "MC", "MT", "MX", "MY", "NI", "NL", "NO", "NZ", "OM", "PA", "PE", "PH", "PL", "PS", "PT", "PY", "QA", "RO", "SA", "SE", "SG", "SK", "SV", "TH", "TN", "TR", "TW", "US", "UY", "VN", "ZA"], "type": "track", "preview_url": null, "explicit": false, "external_urls": {"spotify": "https://open.spotify.com/track/5s457o0GLooprDJNitW5WF"}, "id": "5s457o0GLooprDJNitW5WF", "uri": "spotify:track:5s457o0GLooprDJNitW5WF", "popularity": 41}], "previous": null, "href": "https://api.spotify.com/v1/search?query=artist%3AThe+Killers+track%3AMr.+Brightside&type=track&offset=0&limit=5", "limit": 5, "total": 39, "next": "https://api.spotify.com/v1/search?query=artist%3AThe+Killers+track%3AMr.+Brightside&type=track&offset=5&limit=5"}}