{"tracks": {"offset": 0, "items": [{"album": {"total_tracks": 1, "type": "album", "release_date": "2014-01-17", "href": "https://api.spotify.com/v1/albums/4UB0J5V3JsZZtNR360pZ6r", "artists": [{"type": "artist", "name": "Clean Bandit", "external_urls": {"spotify": "https://open.spotify.com/artist/6MDME20pz9RveH9rEXvrOM"}, "id": "6MDME20pz9RveH9rEXvrOM", "uri": "spotify:artist:6MDME20pz9RveH9rEXvrOM", "href": "https://api.spotify.com/v1/artists/6MDME20pz9RveH9rEXvrOM"}], "images": [{"width": 640, "url": "https://i.scdn.co/image/ab67616d0000b2737e519297d9876b6afff2ab7b", "height": 640}, {"width": 300, "url": "https://i.scdn.co/image/ab67616d00001e027e519297d9876b6afff2ab7b", "height": 300}, {"width": 64, "url": "https://i.scdn.co/image/ab67616d000048517e519297d9876b6afff2ab7b", "height": 64}], "available_markets": ["AD", "AE", "AR", "AT", "AU", "BE", "BG", "BH", "BO", "BR", "CA", "CH", "CL", "CO", "CR", "CY", "CZ", "DE", "DK", "DO", "DZ", "EC", "EE", "EG", "ES", "FI", "FR", "GB", "GR", "GT", "HK", "HN", "HU", "ID", "IE", "IL", "IS", "IT", "JO", "JP", "KW", "LB", "LT", "LU", "LV", "MA", "MC", "MT", "MX", "MY", "NI", "NL", "NO", "NZ", "OM", "PA", "PE", "PH", "PL", "PT", "PY", "QA", "RO", "SA", "SE", "SG", "SK", "SV", "TH", "TN", "TR", "TW", "US", "UY", "VN", "ZA"], "album_type": "single", "release_date_precision": "day", "name": "Rather Be (feat. Jess Glynne)", "external_urls": {"spotify": "https://open.spotify.com/album/4UB0J5V3JsZZtNR360pZ6r"}, "id": "4UB0J5V3JsZZtNR360pZ6r", "uri": "spotify:album:4UB0J5V3JsZZtNR360pZ6r"}, "external_ids": {"isrc": "GBAHS1300498"}, "name": "Rather Be (feat. Jess Glynne)", "duration_ms": 227833, "is_local": false, "disc_number": 1, "href": "https://api.spotify.com/v1/tracks/3s4U7OHV7gnj42VV72eSZ6", "artists": [{"type": "artist", "name": "Clean Bandit", "external_urls": {"spotify": "https://open.spotify.com/artist/6MDME20pz9RveH9rEXvrOM"}, "id": "6MDME20pz9RveH9rEXvrOM", "uri": "spotify:artist:6MDME20pz9RveH9rEXvrOM", "href": "https://api.spotify.com/v1/artists/6MDME20pz9RveH9rEXvrOM"}, {"type": "artist", "name": "Jess Glynne", "external_urls": {"spotify": "https://open.spotify.com/artist/4ScCswdRlyA23odg9thgIO"}, "id": "4ScCswdRlyA23odg9thgIO", "uri": "spotify:artist:4ScCswdRlyA23odg9thgIO", "href": "https://api.spotify.com/v1/artists/4ScCswdRlyA23odg9thgIO"}], "track_number": 1, "available_markets": ["AD", "AE", "AR", "AT", "AU", "BE", "BG", "BH", "BO", "BR", "CA", "CH", "CL", "CO", "CR", "CY", "CZ", "DE", "DK", "DO", "DZ", "EC", "EE", "EG", "ES", "FI", "FR", "GB", "GR", "GT", "HK", "HN", "HU", "ID", "IE", "IL", "IS", "IT", "JO", "JP", "KW", "LB", "LT", "LU", "LV", "MA", "MC", "MT", "MX", "MY", "NI", "NL", "NO", "NZ", "OM", "PA", "PE", "PH", "PL", "PT", "PY", "QA", "RO", "SA", "SE", "SG", "SK", "SV", "TH", "TN", "TR", "TW", "US", "UY", "VN", "ZA"], "type": "track", "preview_url": "https://p.scdn.co/mp3-preview/a9d9d2d68603e22dd2f04693c8e29e4f5823e09f?cid=0c947b9d3f7547e28aee080174c283c9", "explicit": false, "external_urls": {"spotify": "https://open.spotify.com/track/3s4U7OHV7gnj42VV72eSZ6"}, "id": "3s4U7OHV7gnj42VV72eSZ6", "uri": "spotify:track:3s4U7OHV7gnj42VV72eSZ6", "popularity": 73}, {"album": {"total_tracks": 13, "type": "album", "release_date": "2014-06-02", "href": "https://api.spotify.com/v1/albums/4a6DxkhmMvvEdPXxm4ergN", "artists": [{"type": "artist", "name": "Clean Bandit", "external_urls": {"spotify": "https://open.spotify.com/artist/6MDME20pz9RveH9rEXvrOM"}, "id": "6MDME20pz9RveH9rEXvrOM", "uri": "spotify:artist:6MDME20pz9RveH9rEXvrOM", "href": "https://api.spotify.com/v1/artists/6MDME20pz9RveH9rEXvrOM"}], "images": [{"width": 640, "url": "https://i.scdn.co/image/ab67616d0000b273e2a93f34e3c52c12f2a5578f", "height": 640}, {"width": 300, "url": "https://i.scdn.co/image/ab67616d00001e02e2a93f34e3c52c12f2a5578f", "height": 300}, {"width": 64, "url": "https://i.scdn.co/image/ab67616d00004851e2a93f34e3c52c12f2a5578f", "height": 64}], "available_markets": ["US"], "album_type": "album", "release_date_precision": "day", "name": "New Eyes", "external_urls": {"spotify": "https://open.spotify.com/album/4a6DxkhmMvvEdPXxm4ergN"}, "id": "4a6DxkhmMvvEdPXxm4ergN", "uri": "spotify:album:4a6DxkhmMvvEdPXxm4ergN"}, "external_ids": {"isrc": "GBAHS1300498"}, "name": "Rather Be (feat. Jess Glynne)", "duration_ms": 227833, "is_local": false, "disc_number": 1, "href": "https://api.spotify.com/v1/tracks/0am001WwFBVGDGLwRh3ixi", "artists": [{"type": "artist", "name": "Clean Bandit", "external_urls": {"spotify": "https://open.spotify.com/artist/6MDME20pz9RveH9rEXvrOM"}, "id": "6MDME20pz9RveH9rEXvrOM", "uri": "spotify:artist:6MDME20pz9RveH9rEXvrOM", "href": "https://api.spotify.com/v1/artists/6MDME20pz9RveH9rEXvrOM"}, {"type": "artist", "name": "Jess Glynne", "external_urls": {"spotify": "https://open.spotify.com/artist/4ScCswdRlyA23odg9thgIO"}, "id": "4ScCswdRlyA23odg9thgIO", "uri": "spotify:artist:4ScCswdRlyA23odg9thgIO", "href": "https://api.spotify.com/v1/artists/4ScCswdRlyA23odg9thgIO"}], "track_number": 3, "available_markets": ["US"], "type": "track", "preview_url": "https://p.scdn.co/mp3-preview/a9d9d2d68603e22dd2f04693c8e29e4f5823e09f?cid=0c947b9d3f7547e28aee080174c283c9", "explicit": false, "external_urls": {"spotify": "https://open.spotify.com/track/0am001WwFBVGDGLwRh3ixi"}, "id": "0am001WwFBVGDGLwRh3ixi", "uri": "spotify:track:0am001WwFBVGDGLwRh3ixi", "popularity": 59}, {"album": {"total_tracks": 11, "type": "album", "release_date": "2013", "href": "https://api.spotify.com/v1/albums/6AGmGousDdMGevlVZO04LO", "artists": [{"type": "artist", "name": "Jess Glynne", "external_urls": {"spotify": "https://open.spotify.com/artist/4ScCswdRlyA23odg9thgIO"}, "id": "4ScCswdRlyA23odg9thgIO", "uri": "spotify:artist:4ScCswdRlyA23odg9thgIO", "href": "https://api.spotify.com/v1/artists/4ScCswdRlyA23odg9thgIO"}], "images": [{"width": 640, "url": "https://i.scdn.co/image/64a7ae4a4804ae88f3b93af220c2eff8ee9b2882", "height": 640}, {"width": 300, "url": "https://i.scdn.co/image/bae3fdea03d703ec0e06b5a584d17a6af8f3ed1a", "height": 300}, {"width": 64, "url": "https://i.scdn.co/image/1c7c821199e9ca963108f6d7b99dede10b19605e", "height": 64}], "available_markets": ["CA", "US"], "album_type": "album", "release_date_precision": "year", "name": "I Cry When I Laugh", "external_urls": {"spotify": "https://open.spotify.com/album/6AGmGousDdMGevlVZO04LO"}, "id": "6AGmGousDdMGevlVZO04LO", "uri": "spotify:album:6AGmGousDdMGevlVZO04LO"}, "external_ids": {"isrc": "GBAHS1300498"}, "name": "Rather Be (feat. Jess Glynne)", "duration_ms": 227833, "is_local": false, "disc_number": 1, "href": "https://api.spotify.com/v1/tracks/6o4BYWzrQvfaFmQhm8Zq2v", "artists": [{"type": "artist", "name": "Clean Bandit", "external_urls": {"spotify": "https://open.spotify.com/artist/6MDME20pz9RveH9rEXvrOM"}, "id": "6MDME20pz9RveH9rEXvrOM", "uri": "spotify:artist:6MDME20pz9RveH9rEXvrOM", "href": "https://api.spotify.com/v1/artists/6MDME20pz9RveH9rEXvrOM"}, {"type": "artist", "name": "Jess Glynne", "external_urls": {"spotify": "https://open.spotify.com/artist/4ScCswdRlyA23odg9thgIO"}, "id": "4ScCswdRlyA23odg9thgIO", "uri": "spotify:artist:4ScCswdRlyA23odg9thgIO", "href": "https://api.spotify.com/v1/artists/4ScCswdRlyA23odg9thgIO"}], "track_number": 9, "available_markets": ["CA", "US"], "type": "track", "preview_url": "https://p.scdn.co/mp3-preview/a9d9d2d68603e22dd2f04693c8e29e4f5823e09f?cid=0c947b9d3f7547e28aee080174c283c9", "explicit": false, "external_urls": {"spotify": "https://open.spotify.com/track/6o4BYWzrQvfaFmQhm8Zq2v"}, "id": "6o4BYWzrQvfaFmQhm8Zq2v", "uri": "spotify:track:6o4BYWzrQvfaFmQhm8Zq2v", "popularity": 46}, {"album": {"total_tracks": 4, "type": "album", "release_date": "2014-01-17", "href": "https://api.spotify.com/v1/albums/6a50SaJpvdWDp13t0wUcPU", "artists": [{"type": "artist", "name": "Clean Bandit", "external_urls": {"spotify": "https://open.spotify.com/artist/6MDME20pz9RveH9rEXvrOM"}, "id": "6MDME20pz9RveH9rEXvrOM", "uri": "spotify:artist:6MDME20pz9RveH9rEXvrOM", "href": "https://api.spotify.com/v1/artists/6MDME20pz9RveH9rEXvrOM"}], "images": [{"width": 640, "url": "https://i.scdn.co/image/ab67616d0000b273622a8b61bf7a303165faef5c", "height": 640}, {"width": 300, "url": "https://i.scdn.co/image/ab67616d00001e02622a8b61bf7a303165faef5c", "height": 300}, {"width": 64, "url": "https://i.scdn.co/image/ab67616d00004851622a8b61bf7a303165faef5c", "height": 64}], "available_markets": ["AD", "AE", "AR", "AT", "BE", "BG", "BH", "BO", "BR", "CA", "CH", "CL", "CO", "CR", "CY", "CZ", "DE", "DK", "DO", "DZ", "EC", "EE", "EG", "ES", "FI", "FR", "GB", "GR", "GT", "HK", "HN", "HU", "ID", "IE", "IL", "IS", "IT", "JO", "JP", "KW", "LB", "LT", "LU", "LV", "MA", "MC", "MT", "MX", "MY", "NI", "NL", "NO", "NZ", "OM", "PA", "PE", "PH", "PL", "PT", "PY", "QA", "RO", "SA", "SE", "SG", "SK", "SV", "TH", "TN", "TR", "TW", "US", "UY", "VN", "ZA"], "album_type": "single", "release_date_precision": "day", "name": "Rather Be (feat. Jess Glynne) [Remixes]", "external_urls": {"spotify": "https://open.spotify.com/album/6a50SaJpvdWDp13t0wUcPU"}, "id": "6a50SaJpvdWDp13t0wUcPU", "uri": "spotify:album:6a50SaJpvdWDp13t0wUcPU"}, "external_ids": {"isrc": "GBAHS1300595"}, "name": "Rather Be (feat. Jess Glynne) - The Magician Remix", "duration_ms": 274834, "is_local": false, "disc_number": 1, "href": "https://api.spotify.com/v1/tracks/54ONgeVMiuy3xCioWgG823", "artists": [{"type": "artist", "name": "Clean Bandit", "external_urls": {"spotify": "https://open.spotify.com/artist/6MDME20pz9RveH9rEXvrOM"}, "id": "6MDME20pz9RveH9rEXvrOM", "uri": "spotify:artist:6MDME20pz9RveH9rEXvrOM", "href": "https://api.spotify.com/v1/artists/6MDME20pz9RveH9rEXvrOM"}, {"type": "artist", "name": "Jess Glynne", "external_urls": {"spotify": "https://open.spotify.com/artist/4ScCswdRlyA23odg9thgIO"}, "id": "4ScCswdRlyA23odg9thgIO", "uri": "spotify:artist:4ScCswdRlyA23odg9thgIO", "href": "https://api.spotify.com/v1/artists/4ScCswdRlyA23odg9thgIO"}], "track_number": 1, "available_markets": ["AD", "AE", "AR", "AT", "BE", "BG", "BH", "BO", "BR", "CA", "CH", "CL", "CO", "CR", "CY", "CZ", "DE", "DK", "DO", "DZ", "EC", "EE", "EG", "ES", "FI", "FR", "GB", "GR", "GT", "HK", "HN", "HU", "ID", "IE", "IL", "IS", "IT", "JO", "JP", "KW", "LB", "LT", "LU", "LV", "MA", "MC", "MT", "MX", "MY", "NI", "NL", "NO", "NZ", "OM", "PA", "PE", "PH", "PL", "PT", "PY", "QA", "RO", "SA", "SE", "SG", "SK", "SV", "TH", "TN", "TR", "TW", "US", "UY", "VN", "ZA"], "type": "track", "preview_url": "https://p.scdn.co/mp3-preview/fb3d33b71c06c45d4be4a50c5b5677df96e1d0ea?cid=0c947b9d3f7547e28aee080174c283c9", "explicit": false, "external_urls": {"spotify": "https://open.spotify.com/track/54ONgeVMiuy3xCioWgG823"}, "id": "54ONgeVMiuy3xCioWgG823", "uri": "spotify:track:54ONgeVMiuy3xCioWgG823", "popularity": 52}, {"album": {"total_tracks": 13, "type": "album", "release_date": "2014-09-19", "href": "https://api.spotify.com/v1/albums/1FnkZ3HMw2v2WXTL1L5iHi", "artists": [{"type": "artist", "name": "Robin Schulz", "external_urls": {"spotify": "https://open.spotify.com/artist/3t5xRXzsuZmMDkQzgOX35S"}, "id": "3t5xRXzsuZmMDkQzgOX35S", "uri": "spotify:artist:3t5xRXzsuZmMDkQzgOX35S", "href": "https://api.spotify.com/v1/artists/3t5xRXzsuZmMDkQzgOX35S"}], "images": [{"width": 640, "url": "https://i.scdn.co/image/ab67616d0000b273046799d93686a413e078bb23", "height": 640}, {"width": 300, "url": "https://i.scdn.co/image/ab67616d00001e02046799d93686a413e078bb23", "height": 300}, {"width": 64, "url": "https://i.scdn.co/image/ab67616d00004851046799d93686a413e078bb23", "height": 64}], "available_markets": ["CA", "US"], "album_type": "album", "release_date_precision": "day", "name": "Prayer", "external_urls": {"spotify": "https://open.spotify.com/album/1FnkZ3HMw2v2WXTL1L5iHi"}, "id": "1FnkZ3HMw2v2WXTL1L5iHi", "uri": "spotify:album:1FnkZ3HMw2v2WXTL1L5iHi"}, "external_ids": {"isrc": "GBAHS1400266"}, "name": "Rather Be (feat. Jess Glynne) - Robin Schulz Edit [Robin Schulz Edit]", "duration_ms": 192453, "is_local": false, "disc_number": 1, "href": "https://api.spotify.com/v1/tracks/2XQKBjk8k5EVK7Iiyeu6iI", "artists": [{"type": "artist", "name": "Clean Bandit", "external_urls": {"spotify": "https://open.spotify.com/artist/6MDME20pz9RveH9rEXvrOM"}, "id": "6MDME20pz9RveH9rEXvrOM", "uri": "spotify:artist:6MDME20pz9RveH9rEXvrOM", "href": "https://api.spotify.com/v1/artists/6MDME20pz9RveH9rEXvrOM"}, {"type": "artist", "name": "Jess Glynne", "external_urls": {"spotify": "https://open.spotify.com/artist/4ScCswdRlyA23odg9thgIO"}, "id": "4ScCswdRlyA23odg9thgIO", "uri": "spotify:artist:4ScCswdRlyA23odg9thgIO", "href": "https://api.spotify.com/v1/artists/4ScCswdRlyA23odg9thgIO"}], "track_number": 4, "available_markets": ["CA", "US"], "type": "track", "preview_url": "https://p.scdn.co/mp3-preview/e00b81a177a706ba655566968aa8a73bb851b93c?cid=0c947b9d3f7547e28aee080174c283c9", "explicit": false, "external_urls": {"spotify": "https://open.spotify.com/track/2XQKBjk8k5EVK7Iiyeu6iI"}, "id": "2XQKBjk8k5EVK7Iiyeu6iI", "uri": "spotify:track:2XQKBjk8k5EVK7Iiyeu6iI", "popularity": 33}], "previous": null, "href": "https://api.spotify.com/v1/search?query=artist%3AClean+Bandit+track%3ARather+Be+%28feat.+Jess+Glynne%29&type=track&offset=0&limit=5", "limit": 5, "total": 15, "next": "https://api.spotify.com/v1/search?query=artist%3AClean+Bandit+track%3ARather+Be+%28feat.+Jess+Glynne%29&type=track&offset=5&limit=5"}}