{"tracks": {"offset": 0, "items": [{"album": {"total_tracks": 11, "type": "album", "release_date": "2006-01-01", "href": "https://api.spotify.com/v1/albums/6fb7z9rBdrjzpBTg1R1Bwp", "artists": [{"type": "artist", "name": "Snow Patrol", "external_urls": {"spotify": "https://open.spotify.com/artist/3rIZMv9rysU7JkLzEaC5Jp"}, "id": "3rIZMv9rysU7JkLzEaC5Jp", "uri": "spotify:artist:3rIZMv9rysU7JkLzEaC5Jp", "href": "https://api.spotify.com/v1/artists/3rIZMv9rysU7JkLzEaC5Jp"}], "images": [{"width": 640, "url": "https://i.scdn.co/image/ab67616d0000b2735797cb65aabf5577d78a81bd", "height": 640}, {"width": 300, "url": "https://i.scdn.co/image/ab67616d00001e025797cb65aabf5577d78a81bd", "height": 300}, {"width": 64, "url": "https://i.scdn.co/image/ab67616d000048515797cb65aabf5577d78a81bd", "height": 64}], "available_markets": ["AE", "AR", "AU", "BH", "BO", "BR", "CA", "CL", "CO", "CR", "DO", "DZ", "EC", "GT", "HK", "HN", "ID", "IN", "JO", "KW", "LB", "MA", "MX", "MY", "NI", "OM", "PA", "PE", "PH", "PY", "QA", "SA", "SG", "SV", "TH", "TN", "TR", "TW", "US", "VN", "ZA"], "album_type": "album", "release_date_precision": "day", "name": "Eyes Open", "external_urls": {"spotify": "https://open.spotify.com/album/6fb7z9rBdrjzpBTg1R1Bwp"}, "id": "6fb7z9rBdrjzpBTg1R1Bwp", "uri": "spotify:album:6fb7z9rBdrjzpBTg1R1Bwp"}, "external_ids": {"isrc": "GBUM70600345"}, "name": "Chasing Cars", "duration_ms": 267933, "is_local": false, "disc_number": 1, "href": "https://api.spotify.com/v1/tracks/11bD1JtSjlIgKgZG2134DZ", "artists": [{"type": "artist", "name": "Snow Patrol", "external_urls": {"spotify": "https://open.spotify.com/artist/3rIZMv9rysU7JkLzEaC5Jp"}, "id": "3rIZMv9rysU7JkLzEaC5Jp", "uri": "spotify:artist:3rIZMv9rysU7JkLzEaC5Jp", "href": "https://api.spotify.com/v1/artists/3rIZMv9rysU7JkLzEaC5Jp"}], "track_number": 3, "available_markets": ["AE", "AR", "AU", "BH", "BO", "BR", "CA", "CL", "CO", "CR", "DO", "DZ", "EC", "GT", "HK", "HN", "ID", "IN", "JO", "KW", "LB", "MA", "MX", "MY", "NI", "OM", "PA", "PE", "PH", "PY", "QA", "SA", "SG", "SV", "TH", "TN", "TR", "TW", "US", "VN", "ZA"], "type": "track", "preview_url": null, "explicit": false, "external_urls": {"spotify": "https://open.spotify.com/track/11bD1JtSjlIgKgZG2134DZ"}, "id": "11bD1JtSjlIgKgZG2134DZ", "uri": "spotify:track:11bD1JtSjlIgKgZG2134DZ", "popularity": 79}, {"album": {"total_tracks": 14, "type": "album", "release_date": "2013-01-01", "href": "https://api.spotify.com/v1/albums/4mUt2ELNS2XhfqHEsaiDaN", "artists": [{"type": "artist", "name": "Snow Patrol", "external_urls": {"spotify": "https://open.spotify.com/artist/3rIZMv9rysU7JkLzEaC5Jp"}, "id": "3rIZMv9rysU7JkLzEaC5Jp", "uri": "spotify:artist:3rIZMv9rysU7JkLzEaC5Jp", "href": "https://api.spotify.com/v1/artists/3rIZMv9rysU7JkLzEaC5Jp"}], "images": [{"width": 640, "url": "https://i.scdn.co/image/3179bbcbeedbeac8af99faa47a19bd7278db266b", "height": 640}, {"width": 300, "url": "https://i.scdn.co/image/72a669fe250d53e9eec2b08538181ae7cb7ebc7d", "height": 300}, {"width": 64, "url": "https://i.scdn.co/image/4e6182709b73099b191193c1f6851568fca4de0b", "height": 64}], "available_markets": ["CA", "CR", "MX", "US"], "album_type": "compilation", "release_date_precision": "day", "name": "Greatest Hits", "external_urls": {"spotify": "https://open.spotify.com/album/4mUt2ELNS2XhfqHEsaiDaN"}, "id": "4mUt2ELNS2XhfqHEsaiDaN", "uri": "spotify:album:4mUt2ELNS2XhfqHEsaiDaN"}, "external_ids": {"isrc": "GBUM70600345"}, "name": "Chasing Cars", "duration_ms": 265840, "is_local": false, "disc_number": 1, "href": "https://api.spotify.com/v1/tracks/0W1jvQeXOJmvUUQMOPSVNx", "artists": [{"type": "artist", "name": "Snow Patrol", "external_urls": {"spotify": "https://open.spotify.com/artist/3rIZMv9rysU7JkLzEaC5Jp"}, "id": "3rIZMv9rysU7JkLzEaC5Jp", "uri": "spotify:artist:3rIZMv9rysU7JkLzEaC5Jp", "href": "https://api.spotify.com/v1/artists/3rIZMv9rysU7JkLzEaC5Jp"}], "track_number": 2, "available_markets": ["CA", "CR", "MX", "US"], "type": "track", "preview_url": null, "explicit": false, "external_urls": {"spotify": "https://open.spotify.com/track/0W1jvQeXOJmvUUQMOPSVNx"}, "id": "0W1jvQeXOJmvUUQMOPSVNx", "uri": "spotify:track:0W1jvQeXOJmvUUQMOPSVNx", "popularity": 33}, {"album": {"total_tracks": 14, "type": "album", "release_date": "2006-05-01", "href": "https://api.spotify.com/v1/albums/2YDBLlsC6og1bt9oIddktl", "artists": [{"type": "artist", "name": "Snow Patrol", "external_urls": {"spotify": "https://open.spotify.com/artist/3rIZMv9rysU7JkLzEaC5Jp"}, "id": "3rIZMv9rysU7JkLzEaC5Jp", "uri": "spotify:artist:3rIZMv9rysU7JkLzEaC5Jp", "href": "https://api.spotify.com/v1/artists/3rIZMv9rysU7JkLzEaC5Jp"}], "images": [{"width": 640, "url": "https://i.scdn.co/image/ab67616d0000b27323020a3f1cf353ce1a50d0b3", "height": 640}, {"width": 300, "url": "https://i.scdn.co/image/ab67616d00001e0223020a3f1cf353ce1a50d0b3", "height": 300}, {"width": 64, "url": "https://i.scdn.co/image/ab67616d0000485123020a3f1cf353ce1a50d0b3", "height": 64}], "available_markets": ["AD", "AE", "AR", "AT", "AU", "BE", "BG", "BH", "BO", "BR", "CA", "CH", "CL", "CO", "CR", "CY", "CZ", "DE", "DK", "DO", "DZ", "EC", "EE", "EG", "ES", "FI", "FR", "GB", "GR", "GT", "HK", "HN", "HU", "ID", "IE", "IL", "IN", "IS", "IT", "JO", "JP", "KW", "LB", "LI", "LT", "LU", "LV", "MA", "MC", "MT", "MX", "MY", "NI", "NL", "NO", "NZ", "OM", "PA", "PE", "PH", "PL", "PS", "PT", "PY", "QA", "RO", "SA", "SE", "SG", "SK", "SV", "TH", "TN", "TR", "TW", "US", "UY", "VN", "ZA"], "album_type": "album", "release_date_precision": "day", "name": "Eyes Open", "external_urls": {"spotify": "https://open.spotify.com/album/2YDBLlsC6og1bt9oIddktl"}, "id": "2YDBLlsC6og1bt9oIddktl", "uri": "spotify:album:2YDBLlsC6og1bt9oIddktl"}, "external_ids": {"isrc": "GBUM70600345"}, "name": "Chasing Cars", "duration_ms": 267960, "is_local": false, "disc_number": 1, "href": "https://api.spotify.com/v1/tracks/11Rni0JK2FbiFEVC1iHj3O", "artists": [{"type": "artist", "name": "Snow Patrol", "external_urls": {"spotify": "https://open.spotify.com/artist/3rIZMv9rysU7JkLzEaC5Jp"}, "id": "3rIZMv9rysU7JkLzEaC5Jp", "uri": "spotify:artist:3rIZMv9rysU7JkLzEaC5Jp", "href": "https://api.spotify.com/v1/artists/3rIZMv9rysU7JkLzEaC5Jp"}], "track_number": 3, "available_markets": ["AD", "AE", "AR", "AT", "AU", "BE", "BG", "BH", "BO", "BR", "CA", "CH", "CL", "CO", "CR", "CY", "CZ", "DE", "DK", "DO", "DZ", "EC", "EE", "EG", "ES", "FI", "FR", "GB", "GR", "GT", "HK", "HN", "HU", "ID", "IE", "IL", "IN", "IS", "IT", "JO", "JP", "KW", "LB", "LI", "LT", "LU", "LV", "MA", "MC", "MT", "MX", "MY", "NI", "NL", "NO", "NZ", "OM", "PA", "PE", "PH", "PL", "PS", "PT", "PY", "QA", "RO", "SA", "SE", "SG", "SK", "SV", "TH", "TN", "TR", "TW", "US", "UY", "VN", "ZA"], "type": "track", "preview_url": null, "explicit": false, "external_urls": {"spotify": "https://open.spotify.com/track/11Rni0JK2FbiFEVC1iHj3O"}, "id": "11Rni0JK2FbiFEVC1iHj3O", "uri": "spotify:track:11Rni0JK2FbiFEVC1iHj3O", "popularity": 37}, {"album": {"total_tracks": 14, "type": "album", "release_date": "2006-05-01", "href": "https://api.spotify.com/v1/albums/2YDBLlsC6og1bt9oIddktl", "artists": [{"type": "artist", "name": "Snow Patrol", "external_urls": {"spotify": "https://open.spotify.com/artist/3rIZMv9rysU7JkLzEaC5Jp"}, "id": "3rIZMv9rysU7JkLzEaC5Jp", "uri": "spotify:artist:3rIZMv9rysU7JkLzEaC5Jp", "href": "https://api.spotify.com/v1/artists/3rIZMv9rysU7JkLzEaC5Jp"}], "images": [{"width": 640, "url": "https://i.scdn.co/image/ab67616d0000b27323020a3f1cf353ce1a50d0b3", "height": 640}, {"width": 300, "url": "https://i.scdn.co/image/ab67616d00001e0223020a3f1cf353ce1a50d0b3", "height": 300}, {"width": 64, "url": "https://i.scdn.co/image/ab67616d0000485123020a3f1cf353ce1a50d0b3", "height": 64}], "available_markets": ["AD", "AE", "AR", "AT", "AU", "BE", "BG", "BH", "BO", "BR", "CA", "CH", "CL", "CO", "CR", "CY", "CZ", "DE", "DK", "DO", "DZ", "EC", "EE", "EG", "ES", "FI", "FR", "GB", "GR", "GT", "HK", "HN", "HU", "ID", "IE", "IL", "IN", "IS", "IT", "JO", "JP", "KW", "LB", "LI", "LT", "LU", "LV", "MA", "MC", "MT", "MX", "MY", "NI", "NL", "NO", "NZ", "OM", "PA", "PE", "PH", "PL", "PS", "PT", "PY", "QA", "RO", "SA", "SE", "SG", "SK", "SV", "TH", "TN", "TR", "TW", "US", "UY", "VN", "ZA"], "album_type": "album", "release_date_precision": "day", "name": "Eyes Open", "external_urls": {"spotify": "https://open.spotify.com/album/2YDBLlsC6og1bt9oIddktl"}, "id": "2YDBLlsC6og1bt9oIddktl", "uri": "spotify:album:2YDBLlsC6og1bt9oIddktl"}, "external_ids": {"isrc": "GBUM70601600"}, "name": "Chasing Cars - Live In Toronto", "duration_ms": 269373, "is_local": false, "disc_number": 2, "href": "https://api.spotify.com/v1/tracks/1D78k2HGhZxJ6do7JGKO4A", "artists": [{"type": "artist", "name": "Snow Patrol", "external_urls": {"spotify": "https://open.spotify.com/artist/3rIZMv9rysU7JkLzEaC5Jp"}, "id": "3rIZMv9rysU7JkLzEaC5Jp", "uri": "spotify:artist:3rIZMv9rysU7JkLzEaC5Jp", "href": "https://api.spotify.com/v1/artists/3rIZMv9rysU7JkLzEaC5Jp"}], "track_number": 1, "available_markets": ["AD", "AE", "AR", "AT", "AU", "BE", "BG", "BH", "BO", "BR", "CA", "CH", "CL", "CO", "CR", "CY", "CZ", "DE", "DK", "DO", "DZ", "EC", "EE", "EG", "ES", "FI", "FR", "GB", "GR", "GT", "HK", "HN", "HU", "ID", "IE", "IL", "IN", "IS", "IT", "JO", "JP", "KW", "LB", "LI", "LT", "LU", "LV", "MA", "MC", "MT", "MX", "MY", "NI", "NL", "NO", "NZ", "OM", "PA", "PE", "PH", "PL", "PS", "PT", "PY", "QA", "RO", "SA", "SE", "SG", "SK", "SV", "TH", "TN", "TR", "TW", "US", "UY", "VN", "ZA"], "type": "track", "preview_url": null, "explicit": false, "external_urls": {"spotify": "https://open.spotify.com/track/1D78k2HGhZxJ6do7JGKO4A"}, "id": "1D78k2HGhZxJ6do7JGKO4A", "uri": "spotify:track:1D78k2HGhZxJ6do7JGKO4A", "popularity": 38}, {"album": {"total_tracks": 14, "type": "album", "release_date": "2013-01-01", "href": "https://api.spotify.com/v1/albums/1XpLoHBtwcJyTIV855skwc", "artists": [{"type": "artist", "name": "Snow Patrol", "external_urls": {"spotify": "https://open.spotify.com/artist/3rIZMv9rysU7JkLzEaC5Jp"}, "id": "3rIZMv9rysU7JkLzEaC5Jp", "uri": "spotify:artist:3rIZMv9rysU7JkLzEaC5Jp", "href": "https://api.spotify.com/v1/artists/3rIZMv9rysU7JkLzEaC5Jp"}], "images": [{"width": 640, "url": "https://i.scdn.co/image/ab67616d0000b273032988f4b88157b696ca0c99", "height": 640}, {"width": 300, "url": "https://i.scdn.co/image/ab67616d00001e02032988f4b88157b696ca0c99", "height": 300}, {"width": 64, "url": "https://i.scdn.co/image/ab67616d00004851032988f4b88157b696ca0c99", "height": 64}], "available_markets": ["CA", "US"], "album_type": "compilation", "release_date_precision": "day", "name": "Greatest Hits", "external_urls": {"spotify": "https://open.spotify.com/album/1XpLoHBtwcJyTIV855skwc"}, "id": "1XpLoHBtwcJyTIV855skwc", "uri": "spotify:album:1XpLoHBtwcJyTIV855skwc"}, "external_ids": {"isrc": "GBUM70600345"}, "name": "Chasing Cars", "duration_ms": 265813, "is_local": false, "disc_number": 1, "href": "https://api.spotify.com/v1/tracks/2PhQIP0jxMQPWvuhuQEb7k", "artists": [{"type": "artist", "name": "Snow Patrol", "external_urls": {"spotify": "https://open.spotify.com/artist/3rIZMv9rysU7JkLzEaC5Jp"}, "id": "3rIZMv9rysU7JkLzEaC5Jp", "uri": "spotify:artist:3rIZMv9rysU7JkLzEaC5Jp", "href": "https://api.spotify.com/v1/artists/3rIZMv9rysU7JkLzEaC5Jp"}], "track_number": 2, "available_markets": ["CA", "US"], "type": "track", "preview_url": null, "explicit": false, "external_urls": {"spotify": "https://open.spotify.com/track/2PhQIP0jxMQPWvuhuQEb7k"}, "id": "2PhQIP0jxMQPWvuhuQEb7k", "uri": "spotify:track:2PhQIP0jxMQPWvuhuQEb7k", "popularity": 22}], "previous": null, "href": "https://api.spotify.com/v1/search?query=artist%3ASnow+Patrol+track%3AChasing+Cars&type=track&offset=0&limit=5", "limit": 5, "total": 14, "next": "https://api.spotify.com/v1/search?query=artist%3ASnow+Patrol+track%3AChasing+Cars&type=track&offset=5&limit=5"}}