{"tracks": {"offset": 0, "items": [{"album": {"total_tracks": 11, "type": "album", "release_date": "2011-11-18", "href": "https://api.spotify.com/v1/albums/2g1EakEaW7fPTZC6vBmBCn", "artists": [{"type": "artist", "name": "Rihanna", "external_urls": {"spotify": "https://open.spotify.com/artist/5pKCCKE2ajJHZ9KAiaK11H"}, "id": "5pKCCKE2ajJHZ9KAiaK11H", "uri": "spotify:artist:5pKCCKE2ajJHZ9KAiaK11H", "href": "https://api.spotify.com/v1/artists/5pKCCKE2ajJHZ9KAiaK11H"}], "images": [{"width": 640, "url": "https://i.scdn.co/image/0988706eac690e65f0b685ee3f52b11496d5c984", "height": 640}, {"width": 300, "url": "https://i.scdn.co/image/f1d8cb7cdf44f448680d62260f45bd96a5cc5bd5", "height": 300}, {"width": 64, "url": "https://i.scdn.co/image/f401ea88b6c63af3c4ed9722e0d14defb1977e3a", "height": 64}], "available_markets": ["AD", "AR", "AU", "BG", "BO", "BR", "CA", "CL", "CO", "CR", "CY", "CZ", "DO", "EC", "EE", "ES", "FI", "GR", "GT", "HK", "HN", "HU", "ID", "IL", "IN", "IS", "JP", "LI", "LT", "LV", "MC", "MT", "MY", "NI", "NL", "NO", "NZ", "PA", "PE", "PH", "PL", "PT", "PY", "RO", "SG", "SK", "SV", "TH", "TR", "TW", "US", "VN", "ZA"], "album_type": "album", "release_date_precision": "day", "name": "Talk That Talk", "external_urls": {"spotify": "https://open.spotify.com/album/2g1EakEaW7fPTZC6vBmBCn"}, "id": "2g1EakEaW7fPTZC6vBmBCn", "uri": "spotify:album:2g1EakEaW7fPTZC6vBmBCn"}, "external_ids": {"isrc": "USUM71115507"}, "name": "We Found Love", "duration_ms": 215226, "is_local": false, "disc_number": 1, "href": "https://api.spotify.com/v1/tracks/6qn9YLKt13AGvpq9jfO8py", "artists": [{"type": "artist", "name": "Rihanna", "external_urls": {"spotify": "https://open.spotify.com/artist/5pKCCKE2ajJHZ9KAiaK11H"}, "id": "5pKCCKE2ajJHZ9KAiaK11H", "uri": "spotify:artist:5pKCCKE2ajJHZ9KAiaK11H", "href": "https://api.spotify.com/v1/artists/5pKCCKE2ajJHZ9KAiaK11H"}, {"type": "artist", "name": "Calvin Harris", "external_urls": {"spotify": "https://open.spotify.com/artist/7CajNmpbOovFoOoasH2HaY"}, "id": "7CajNmpbOovFoOoasH2HaY", "uri": "spotify:artist:7CajNmpbOovFoOoasH2HaY", "href": "https://api.spotify.com/v1/artists/7CajNmpbOovFoOoasH2HaY"}], "track_number": 3, "available_markets": ["AD", "AR", "AU", "BG", "BO", "BR", "CA", "CL", "CO", "CR", "CY", "CZ", "DO", "EC", "EE", "ES", "FI", "GR", "GT", "HK", "HN", "HU", "ID", "IL", "IN", "IS", "JP", "LI", "LT", "LV", "MC", "MT", "MY", "NI", "NL", "NO", "NZ", "PA", "PE", "PH", "PL", "PT", "PY", "RO", "SG", "SK", "SV", "TH", "TR", "TW", "US", "VN", "ZA"], "type": "track", "preview_url": null, "explicit": false, "external_urls": {"spotify": "https://open.spotify.com/track/6qn9YLKt13AGvpq9jfO8py"}, "id": "6qn9YLKt13AGvpq9jfO8py", "uri": "spotify:track:6qn9YLKt13AGvpq9jfO8py", "popularity": 75}, {"album": {"total_tracks": 11, "type": "album", "release_date": "2011-11-19", "href": "https://api.spotify.com/v1/albums/1Kw1bVd07oRqcjrcjQKC8T", "artists": [{"type": "artist", "name": "Rihanna", "external_urls": {"spotify": "https://open.spotify.com/artist/5pKCCKE2ajJHZ9KAiaK11H"}, "id": "5pKCCKE2ajJHZ9KAiaK11H", "uri": "spotify:artist:5pKCCKE2ajJHZ9KAiaK11H", "href": "https://api.spotify.com/v1/artists/5pKCCKE2ajJHZ9KAiaK11H"}], "images": [{"width": 640, "url": "https://i.scdn.co/image/50bd512994a5eb125157c4987808b3f8840339e5", "height": 640}, {"width": 300, "url": "https://i.scdn.co/image/481d8c5a9581371871499c860d8f4601e6c58ba8", "height": 300}, {"width": 64, "url": "https://i.scdn.co/image/a6ad492fcb8d4162db3cf9b7b0243356b9964e86", "height": 64}], "available_markets": ["AD", "AE", "AR", "AT", "AU", "BE", "BG", "BH", "BO", "BR", "CA", "CH", "CL", "CO", "CR", "CY", "CZ", "DE", "DK", "DO", "DZ", "EC", "EE", "EG", "ES", "FI", "FR", "GB", "GR", "GT", "HK", "HN", "HU", "ID", "IE", "IL", "IN", "IS", "IT", "JO", "JP", "KW", "LB", "LI", "LT", "LU", "LV", "MA", "MC", "MT", "MX", "MY", "NI", "NL", "NO", "NZ", "OM", "PA", "PE", "PH", "PL", "PS", "PT", "PY", "QA", "RO", "SA", "SG", "SK", "SV", "TH", "TN", "TR", "TW", "US", "UY", "VN", "ZA"], "album_type": "album", "release_date_precision": "day", "name": "Talk That Talk", "external_urls": {"spotify": "https://open.spotify.com/album/1Kw1bVd07oRqcjrcjQKC8T"}, "id": "1Kw1bVd07oRqcjrcjQKC8T", "uri": "spotify:album:1Kw1bVd07oRqcjrcjQKC8T"}, "external_ids": {"isrc": "USUM71115507"}, "name": "We Found Love", "duration_ms": 215226, "is_local": false, "disc_number": 1, "href": "https://api.spotify.com/v1/tracks/0U10zFw4GlBacOy9VDGfGL", "artists": [{"type": "artist", "name": "Rihanna", "external_urls": {"spotify": "https://open.spotify.com/artist/5pKCCKE2ajJHZ9KAiaK11H"}, "id": "5pKCCKE2ajJHZ9KAiaK11H", "uri": "spotify:artist:5pKCCKE2ajJHZ9KAiaK11H", "href": "https://api.spotify.com/v1/artists/5pKCCKE2ajJHZ9KAiaK11H"}, {"type": "artist", "name": "Calvin Harris", "external_urls": {"spotify": "https://open.spotify.com/artist/7CajNmpbOovFoOoasH2HaY"}, "id": "7CajNmpbOovFoOoasH2HaY", "uri": "spotify:artist:7CajNmpbOovFoOoasH2HaY", "href": "https://api.spotify.com/v1/artists/7CajNmpbOovFoOoasH2HaY"}], "track_number": 3, "available_markets": ["AD", "AE", "AR", "AT", "AU", "BE", "BG", "BH", "BO", "BR", "CA", "CH", "CL", "CO", "CR", "CY", "CZ", "DE", "DK", "DO", "DZ", "EC", "EE", "EG", "ES", "FI", "FR", "GB", "GR", "GT", "HK", "HN", "HU", "ID", "IE", "IL", "IN", "IS", "IT", "JO", "JP", "KW", "LB", "LI", "LT", "LU", "LV", "MA", "MC", "MT", "MX", "MY", "NI", "NL", "NO", "NZ", "OM", "PA", "PE", "PH", "PL", "PS", "PT", "PY", "QA", "RO", "SA", "SG", "SK", "SV", "TH", "TN", "TR", "TW", "US", "UY", "VN", "ZA"], "type": "track", "preview_url": null, "explicit": false, "external_urls": {"spotify": "https://open.spotify.com/track/0U10zFw4GlBacOy9VDGfGL"}, "id": "0U10zFw4GlBacOy9VDGfGL", "uri": "spotify:track:0U10zFw4GlBacOy9VDGfGL", "popularity": 71}, {"album": {"total_tracks": 14, "type": "album", "release_date": "2012-07-18", "href": "https://api.spotify.com/v1/albums/3sW7wD2qdMjs7KncaOoIJ5", "artists": [{"type": "artist", "name": "Rihanna", "external_urls": {"spotify": "https://open.spotify.com/artist/5pKCCKE2ajJHZ9KAiaK11H"}, "id": "5pKCCKE2ajJHZ9KAiaK11H", "uri": "spotify:artist:5pKCCKE2ajJHZ9KAiaK11H", "href": "https://api.spotify.com/v1/artists/5pKCCKE2ajJHZ9KAiaK11H"}], "images": [{"width": 640, "url": "https://i.scdn.co/image/ceb05d22ad52f91a3caaeadcf78a015802a8a5aa", "height": 640}, {"width": 300, "url": "https://i.scdn.co/image/94aba10565f2e0f10fcde4e8a2dcd1f768890bf9", "height": 300}, {"width": 64, "url": "https://i.scdn.co/image/4d3f9da6b20b587a16276d316dbe4fcc104939f3", "height": 64}], "available_markets": ["AD", "AE", "AR", "AT", "AU", "BE", "BG", "BH", "BO", "BR", "CA", "CH", "CL", "CO", "CR", "CY", "CZ", "DE", "DK", "DO", "DZ", "EC", "EE", "EG", "ES", "FI", "FR", "GB", "GR", "GT", "HK", "HN", "HU", "ID", "IE", "IL", "IN", "IS", "IT", "JO", "JP", "KW", "LB", "LI", "LT", "LU", "LV", "MA", "MC", "MT", "MX", "MY", "NI", "NL", "NO", "NZ", "OM", "PA", "PE", "PH", "PL", "PS", "PT", "PY", "QA", "RO", "SA", "SE", "SG", "SK", "SV", "TH", "TN", "TR", "TW", "US", "UY", "VN", "ZA"], "album_type": "album", "release_date_precision": "day", "name": "Talk That Talk (Deluxe)", "external_urls": {"spotify": "https://open.spotify.com/album/3sW7wD2qdMjs7KncaOoIJ5"}, "id": "3sW7wD2qdMjs7KncaOoIJ5", "uri": "spotify:album:3sW7wD2qdMjs7KncaOoIJ5"}, "external_ids": {"isrc": "USUM71115507"}, "name": "We Found Love", "duration_ms": 215226, "is_local": false, "disc_number": 1, "href": "https://api.spotify.com/v1/tracks/3t4HeVfURZ5DuqMWz0Cmqg", "artists": [{"type": "artist", "name": "Rihanna", "external_urls": {"spotify": "https://open.spotify.com/artist/5pKCCKE2ajJHZ9KAiaK11H"}, "id": "5pKCCKE2ajJHZ9KAiaK11H", "uri": "spotify:artist:5pKCCKE2ajJHZ9KAiaK11H", "href": "https://api.spotify.com/v1/artists/5pKCCKE2ajJHZ9KAiaK11H"}, {"type": "artist", "name": "Calvin Harris", "external_urls": {"spotify": "https://open.spotify.com/artist/7CajNmpbOovFoOoasH2HaY"}, "id": "7CajNmpbOovFoOoasH2HaY", "uri": "spotify:artist:7CajNmpbOovFoOoasH2HaY", "href": "https://api.spotify.com/v1/artists/7CajNmpbOovFoOoasH2HaY"}], "track_number": 3, "available_markets": ["AD", "AE", "AR", "AT", "AU", "BE", "BG", "BH", "BO", "BR", "CA", "CH", "CL", "CO", "CR", "CY", "CZ", "DE", "DK", "DO", "DZ", "EC", "EE", "EG", "ES", "FI", "FR", "GB", "GR", "GT", "HK", "HN", "HU", "ID", "IE", "IL", "IN", "IS", "IT", "JO", "JP", "KW", "LB", "LI", "LT", "LU", "LV", "MA", "MC", "MT", "MX", "MY", "NI", "NL", "NO", "NZ", "OM", "PA", "PE", "PH", "PL", "PS", "PT", "PY", "QA", "RO", "SA", "SE", "SG", "SK", "SV", "TH", "TN", "TR", "TW", "US", "UY", "VN", "ZA"], "type": "track", "preview_url": null, "explicit": false, "external_urls": {"spotify": "https://open.spotify.com/track/3t4HeVfURZ5DuqMWz0Cmqg"}, "id": "3t4HeVfURZ5DuqMWz0Cmqg", "uri": "spotify:track:3t4HeVfURZ5DuqMWz0Cmqg", "popularity": 61}, {"album": {"total_tracks": 9, "type": "album", "release_date": "2011-09-22", "href": "https://api.spotify.com/v1/albums/3pz7AIR2zIkGJRKWcZt7G4", "artists": [{"type": "artist", "name": "Rihanna", "external_urls": {"spotify": "https://open.spotify.com/artist/5pKCCKE2ajJHZ9KAiaK11H"}, "id": "5pKCCKE2ajJHZ9KAiaK11H", "uri": "spotify:artist:5pKCCKE2ajJHZ9KAiaK11H", "href": "https://api.spotify.com/v1/artists/5pKCCKE2ajJHZ9KAiaK11H"}], "images": [{"width": 640, "url": "https://i.scdn.co/image/09c1b532ae1310a7f06517b0011ecc78e5d4fcd8", "height": 640}, {"width": 300, "url": "https://i.scdn.co/image/027affdd55c18f32ae9c7d9fd5ef62d018bfb918", "height": 300}, {"width": 64, "url": "https://i.scdn.co/image/56df18429536bc74b6639082b31d9b81dc93e38d", "height": 64}], "available_markets": ["CA", "CR", "MX", "US"], "album_type": "single", "release_date_precision": "day", "name": "We Found Love (The Remixes)", "external_urls": {"spotify": "https://open.spotify.com/album/3pz7AIR2zIkGJRKWcZt7G4"}, "id": "3pz7AIR2zIkGJRKWcZt7G4", "uri": "spotify:album:3pz7AIR2zIkGJRKWcZt7G4"}, "external_ids": {"isrc": "USUM71116798"}, "name": "We Found Love - Chuckie Extended Remix", "duration_ms": 357226, "is_local": false, "disc_number": 1, "href": "https://api.spotify.com/v1/tracks/3eiljiHHlpZKkfj2uQTunn", "artists": [{"type": "artist", "name": "Rihanna", "external_urls": {"spotify": "https://open.spotify.com/artist/5pKCCKE2ajJHZ9KAiaK11H"}, "id": "5pKCCKE2ajJHZ9KAiaK11H", "uri": "spotify:artist:5pKCCKE2ajJHZ9KAiaK11H", "href": "https://api.spotify.com/v1/artists/5pKCCKE2ajJHZ9KAiaK11H"}, {"type": "artist", "name": "Calvin Harris", "external_urls": {"spotify": "https://open.spotify.com/artist/7CajNmpbOovFoOoasH2HaY"}, "id": "7CajNmpbOovFoOoasH2HaY", "uri": "spotify:artist:7CajNmpbOovFoOoasH2HaY", "href": "https://api.spotify.com/v1/artists/7CajNmpbOovFoOoasH2HaY"}, {"type": "artist", "name": "Chuckie", "external_urls": {"spotify": "https://open.spotify.com/artist/3nHopzYkbX13vU0LXil7dw"}, "id": "3nHopzYkbX13vU0LXil7dw", "uri": "spotify:artist:3nHopzYkbX13vU0LXil7dw", "href": "https://api.spotify.com/v1/artists/3nHopzYkbX13vU0LXil7dw"}, {"type": "artist", "name": "Fabian Lenssen", "external_urls": {"spotify": "https://open.spotify.com/artist/0byDvgqI7MVJuoGMzxpDoV"}, "id": "0byDvgqI7MVJuoGMzxpDoV", "uri": "spotify:artist:0byDvgqI7MVJuoGMzxpDoV", "href": "https://api.spotify.com/v1/artists/0byDvgqI7MVJuoGMzxpDoV"}], "track_number": 1, "available_markets": ["CA", "CR", "MX", "US"], "type": "track", "preview_url": null, "explicit": false, "external_urls": {"spotify": "https://open.spotify.com/track/3eiljiHHlpZKkfj2uQTunn"}, "id": "3eiljiHHlpZKkfj2uQTunn", "uri": "spotify:track:3eiljiHHlpZKkfj2uQTunn", "popularity": 32}, {"album": {"total_tracks": 9, "type": "album", "release_date": "2011-09-22", "href": "https://api.spotify.com/v1/albums/3pz7AIR2zIkGJRKWcZt7G4", "artists": [{"type": "artist", "name": "Rihanna", "external_urls": {"spotify": "https://open.spotify.com/artist/5pKCCKE2ajJHZ9KAiaK11H"}, "id": "5pKCCKE2ajJHZ9KAiaK11H", "uri": "spotify:artist:5pKCCKE2ajJHZ9KAiaK11H", "href": "https://api.spotify.com/v1/artists/5pKCCKE2ajJHZ9KAiaK11H"}], "images": [{"width": 640, "url": "https://i.scdn.co/image/09c1b532ae1310a7f06517b0011ecc78e5d4fcd8", "height": 640}, {"width": 300, "url": "https://i.scdn.co/image/027affdd55c18f32ae9c7d9fd5ef62d018bfb918", "height": 300}, {"width": 64, "url": "https://i.scdn.co/image/56df18429536bc74b6639082b31d9b81dc93e38d", "height": 64}], "available_markets": ["CA", "CR", "MX", "US"], "album_type": "single", "release_date_precision": "day", "name": "We Found Love (The Remixes)", "external_urls": {"spotify": "https://open.spotify.com/album/3pz7AIR2zIkGJRKWcZt7G4"}, "id": "3pz7AIR2zIkGJRKWcZt7G4", "uri": "spotify:album:3pz7AIR2zIkGJRKWcZt7G4"}, "external_ids": {"isrc": "USUM71116801"}, "name": "We Found Love - R3hab's XS Remix Edit", "duration_ms": 220640, "is_local": false, "disc_number": 1, "href": "https://api.spotify.com/v1/tracks/43byoJF6OuPtVvUqUydU0G", "artists": [{"type": "artist", "name": "Rihanna", "external_urls": {"spotify": "https://open.spotify.com/artist/5pKCCKE2ajJHZ9KAiaK11H"}, "id": "5pKCCKE2ajJHZ9KAiaK11H", "uri": "spotify:artist:5pKCCKE2ajJHZ9KAiaK11H", "href": "https://api.spotify.com/v1/artists/5pKCCKE2ajJHZ9KAiaK11H"}, {"type": "artist", "name": "Calvin Harris", "external_urls": {"spotify": "https://open.spotify.com/artist/7CajNmpbOovFoOoasH2HaY"}, "id": "7CajNmpbOovFoOoasH2HaY", "uri": "spotify:artist:7CajNmpbOovFoOoasH2HaY", "href": "https://api.spotify.com/v1/artists/7CajNmpbOovFoOoasH2HaY"}, {"type": "artist", "name": "R3HAB", "external_urls": {"spotify": "https://open.spotify.com/artist/6cEuCEZu7PAE9ZSzLLc2oQ"}, "id": "6cEuCEZu7PAE9ZSzLLc2oQ", "uri": "spotify:artist:6cEuCEZu7PAE9ZSzLLc2oQ", "href": "https://api.spotify.com/v1/artists/6cEuCEZu7PAE9ZSzLLc2oQ"}], "track_number": 6, "available_markets": ["CA", "CR", "MX", "US"], "type": "track", "preview_url": null, "explicit": false, "external_urls": {"spotify": "https://open.spotify.com/track/43byoJF6OuPtVvUqUydU0G"}, "id": "43byoJF6OuPtVvUqUydU0G", "uri": "spotify:track:43byoJF6OuPtVvUqUydU0G", "popularity": 29}], "previous": null, "href": "https://api.spotify.com/v1/search?query=artist%3ARihanna+track%3AWe+Found+Love&type=track&offset=0&limit=5", "limit": 5, "total": 15, "next": "https://api.spotify.com/v1/search?query=artist%3ARihanna+track%3AWe+Found+Love&type=track&offset=5&limit=5"}}