{"tracks": {"offset": 0, "items": [{"album": {"total_tracks": 15, "type": "album", "release_date": "2015-01-09", "href": "https://api.spotify.com/v1/albums/5W98Ab4VvQEuFEE4TIe5fE", "artists": [{"type": "artist", "name": "Meghan Trainor", "external_urls": {"spotify": "https://open.spotify.com/artist/6JL8zeS1NmiOftqZTRgdTz"}, "id": "6JL8zeS1NmiOftqZTRgdTz", "uri": "spotify:artist:6JL8zeS1NmiOftqZTRgdTz", "href": "https://api.spotify.com/v1/artists/6JL8zeS1NmiOftqZTRgdTz"}], "images": [{"width": 640, "url": "https://i.scdn.co/image/ab67616d0000b2733b11178cccd78ec77fc12dbc", "height": 640}, {"width": 300, "url": "https://i.scdn.co/image/ab67616d00001e023b11178cccd78ec77fc12dbc", "height": 300}, {"width": 64, "url": "https://i.scdn.co/image/ab67616d000048513b11178cccd78ec77fc12dbc", "height": 64}], "available_markets": ["AE", "AR", "AU", "BE", "BG", "BH", "BO", "BR", "CA", "CH", "CL", "CO", "CR", "CY", "CZ", "DK", "DO", "EC", "EE", "EG", "ES", "FI", "GB", "GR", "GT", "HK", "HN", "HU", "ID", "IE", "IL", "IN", "IS", "IT", "JO", "JP", "KW", "LB", "LI", "LT", "LU", "LV", "MT", "MX", "MY", "NI", "NL", "NO", "NZ", "OM", "PA", "PE", "PH", "PL", "PS", "PT", "PY", "QA", "RO", "SA", "SG", "SK", "SV", "TH", "TR", "TW", "US", "UY", "VN", "ZA"], "album_type": "album", "release_date_precision": "day", "name": "Title (Deluxe)", "external_urls": {"spotify": "https://open.spotify.com/album/5W98Ab4VvQEuFEE4TIe5fE"}, "id": "5W98Ab4VvQEuFEE4TIe5fE", "uri": "spotify:album:5W98Ab4VvQEuFEE4TIe5fE"}, "external_ids": {"isrc": "USSM11401317"}, "name": "All About That Bass", "duration_ms": 187920, "is_local": false, "disc_number": 1, "href": "https://api.spotify.com/v1/tracks/5jE48hhRu8E6zBDPRSkEq7", "artists": [{"type": "artist", "name": "Meghan Trainor", "external_urls": {"spotify": "https://open.spotify.com/artist/6JL8zeS1NmiOftqZTRgdTz"}, "id": "6JL8zeS1NmiOftqZTRgdTz", "uri": "spotify:artist:6JL8zeS1NmiOftqZTRgdTz", "href": "https://api.spotify.com/v1/artists/6JL8zeS1NmiOftqZTRgdTz"}], "track_number": 2, "available_markets": ["AE", "AR", "AU", "BE", "BG", "BH", "BO", "BR", "CA", "CH", "CL", "CO", "CR", "CY", "CZ", "DK", "DO", "EC", "EE", "EG", "ES", "FI", "GB", "GR", "GT", "HK", "HN", "HU", "ID", "IE", "IL", "IN", "IS", "IT", "JO", "JP", "KW", "LB", "LI", "LT", "LU", "LV", "MT", "MX", "MY", "NI", "NL", "NO", "NZ", "OM", "PA", "PE", "PH", "PL", "PS", "PT", "PY", "QA", "RO", "SA", "SG", "SK", "SV", "TH", "TR", "TW", "US", "UY", "VN", "ZA"], "type": "track", "preview_url": "https://p.scdn.co/mp3-preview/d20d6fc24fbf2eae191b3d943e1b640570acb466?cid=0c947b9d3f7547e28aee080174c283c9", "explicit": true, "external_urls": {"spotify": "https://open.spotify.com/track/5jE48hhRu8E6zBDPRSkEq7"}, "id": "5jE48hhRu8E6zBDPRSkEq7", "uri": "spotify:track:5jE48hhRu8E6zBDPRSkEq7", "popularity": 70}, {"album": {"total_tracks": 1, "type": "album", "release_date": "2014-06-30", "href": "https://api.spotify.com/v1/albums/2Gf7TGoOt6FyRi7p32OzUM", "artists": [{"type": "artist", "name": "Meghan Trainor", "external_urls": {"spotify": "https://open.spotify.com/artist/6JL8zeS1NmiOftqZTRgdTz"}, "id": "6JL8zeS1NmiOftqZTRgdTz", "uri": "spotify:artist:6JL8zeS1NmiOftqZTRgdTz", "href": "https://api.spotify.com/v1/artists/6JL8zeS1NmiOftqZTRgdTz"}], "images": [{"width": 640, "url": "https://i.scdn.co/image/ab67616d0000b273344ff7c990f123679535da32", "height": 640}, {"width": 300, "url": "https://i.scdn.co/image/ab67616d00001e02344ff7c990f123679535da32", "height": 300}, {"width": 64, "url": "https://i.scdn.co/image/ab67616d00004851344ff7c990f123679535da32", "height": 64}], "available_markets": ["AD", "AE", "AR", "AT", "AU", "BG", "BH", "BO", "BR", "CA", "CH", "CL", "CO", "CR", "CY", "CZ", "DE", "DO", "DZ", "EC", "EG", "ES", "FR", "GB", "GR", "GT", "HK", "HN", "HU", "ID", "IE", "IL", "IN", "IT", "JO", "KW", "LB", "LI", "MA", "MC", "MT", "MX", "MY", "NI", "NO", "NZ", "OM", "PA", "PE", "PH", "PL", "PS", "PT", "PY", "QA", "RO", "SA", "SG", "SK", "SV", "TH", "TN", "TR", "TW", "US", "UY", "VN", "ZA"], "album_type": "single", "release_date_precision": "day", "name": "All About That Bass", "external_urls": {"spotify": "https://open.spotify.com/album/2Gf7TGoOt6FyRi7p32OzUM"}, "id": "2Gf7TGoOt6FyRi7p32OzUM", "uri": "spotify:album:2Gf7TGoOt6FyRi7p32OzUM"}, "external_ids": {"isrc": "USSM11401317"}, "name": "All About That Bass", "duration_ms": 188754, "is_local": false, "disc_number": 1, "href": "https://api.spotify.com/v1/tracks/0ifSeVGUr7py5GggttDhXw", "artists": [{"type": "artist", "name": "Meghan Trainor", "external_urls": {"spotify": "https://open.spotify.com/artist/6JL8zeS1NmiOftqZTRgdTz"}, "id": "6JL8zeS1NmiOftqZTRgdTz", "uri": "spotify:artist:6JL8zeS1NmiOftqZTRgdTz", "href": "https://api.spotify.com/v1/artists/6JL8zeS1NmiOftqZTRgdTz"}], "track_number": 1, "available_markets": ["AD", "AE", "AR", "AT", "AU", "BG", "BH", "BO", "BR", "CA", "CH", "CL", "CO", "CR", "CY", "CZ", "DE", "DO", "DZ", "EC", "EG", "ES", "FR", "GB", "GR", "GT", "HK", "HN", "HU", "ID", "IE", "IL", "IN", "IT", "JO", "KW", "LB", "LI", "MA", "MC", "MT", "MX", "MY", "NI", "NO", "NZ", "OM", "PA", "PE", "PH", "PL", "PS", "PT", "PY", "QA", "RO", "SA", "SG", "SK", "SV", "TH", "TN", "TR", "TW", "US", "UY", "VN", "ZA"], "type": "track", "preview_url": "https://p.scdn.co/mp3-preview/25128e3ab7e61b593d5f15ab601369bc83bd9c5e?cid=0c947b9d3f7547e28aee080174c283c9", "explicit": true, "external_urls": {"spotify": "https://open.spotify.com/track/0ifSeVGUr7py5GggttDhXw"}, "id": "0ifSeVGUr7py5GggttDhXw", "uri": "spotify:track:0ifSeVGUr7py5GggttDhXw", "popularity": 66}, {"album": {"total_tracks": 18, "type": "album", "release_date": "2015-01-09", "href": "https://api.spotify.com/v1/albums/7m2Gzfu5nMgHTiMbNDwPr7", "artists": [{"type": "artist", "name": "Meghan Trainor", "external_urls": {"spotify": "https://open.spotify.com/artist/6JL8zeS1NmiOftqZTRgdTz"}, "id": "6JL8zeS1NmiOftqZTRgdTz", "uri": "spotify:artist:6JL8zeS1NmiOftqZTRgdTz", "href": "https://api.spotify.com/v1/artists/6JL8zeS1NmiOftqZTRgdTz"}], "images": [{"width": 640, "url": "https://i.scdn.co/image/ab67616d0000b2730753a386572b590eb0728227", "height": 640}, {"width": 300, "url": "https://i.scdn.co/image/ab67616d00001e020753a386572b590eb0728227", "height": 300}, {"width": 64, "url": "https://i.scdn.co/image/ab67616d000048510753a386572b590eb0728227", "height": 64}], "available_markets": ["AD", "AE", "AR", "AT", "AU", "BE", "BG", "BH", "BO", "BR", "CA", "CH", "CL", "CO", "CR", "CY", "CZ", "DE", "DK", "DO", "DZ", "EC", "EE", "EG", "ES", "FI", "FR", "GB", "GR", "GT", "HK", "HN", "HU", "ID", "IE", "IL", "IN", "IS", "IT", "JO", "JP", "KW", "LB", "LI", "LT", "LU", "LV", "MA", "MC", "MT", "MX", "MY", "NI", "NL", "NO", "NZ", "OM", "PA", "PE", "PH", "PL", "PS", "PT", "PY", "QA", "RO", "SA", "SE", "SG", "SK", "SV", "TH", "TN", "TR", "TW", "US", "UY", "VN", "ZA"], "album_type": "album", "release_date_precision": "day", "name": "Title (Expanded Edition)", "external_urls": {"spotify": "https://open.spotify.com/album/7m2Gzfu5nMgHTiMbNDwPr7"}, "id": "7m2Gzfu5nMgHTiMbNDwPr7", "uri": "spotify:album:7m2Gzfu5nMgHTiMbNDwPr7"}, "external_ids": {"isrc": "USSM11401317"}, "name": "All About That Bass", "duration_ms": 187866, "is_local": false, "disc_number": 1, "href": "https://api.spotify.com/v1/tracks/5jSlcXdUGLWOV2pSfYYiBs", "artists": [{"type": "artist", "name": "Meghan Trainor", "external_urls": {"spotify": "https://open.spotify.com/artist/6JL8zeS1NmiOftqZTRgdTz"}, "id": "6JL8zeS1NmiOftqZTRgdTz", "uri": "spotify:artist:6JL8zeS1NmiOftqZTRgdTz", "href": "https://api.spotify.com/v1/artists/6JL8zeS1NmiOftqZTRgdTz"}], "track_number": 2, "available_markets": ["AD", "AE", "AR", "AT", "AU", "BE", "BG", "BH", "BO", "BR", "CA", "CH", "CL", "CO", "CR", "CY", "CZ", "DE", "DK", "DO", "DZ", "EC", "EE", "EG", "ES", "FI", "FR", "GB", "GR", "GT", "HK", "HN", "HU", "ID", "IE", "IL", "IN", "IS", "IT", "JO", "JP", "KW", "LB", "LI", "LT", "LU", "LV", "MA", "MC", "MT", "MX", "MY", "NI", "NL", "NO", "NZ", "OM", "PA", "PE", "PH", "PL", "PS", "PT", "PY", "QA", "RO", "SA", "SE", "SG", "SK", "SV", "TH", "TN", "TR", "TW", "US", "UY", "VN", "ZA"], "type": "track", "preview_url": "https://p.scdn.co/mp3-preview/7d6007401f37455eeaff11bfdbd7b8215589aeb0?cid=0c947b9d3f7547e28aee080174c283c9", "explicit": true, "external_urls": {"spotify": "https://open.spotify.com/track/5jSlcXdUGLWOV2pSfYYiBs"}, "id": "5jSlcXdUGLWOV2pSfYYiBs", "uri": "spotify:track:5jSlcXdUGLWOV2pSfYYiBs", "popularity": 55}, {"album": {"total_tracks": 6, "type": "album", "release_date": "2015-02-27", "href": "https://api.spotify.com/v1/albums/0CL4Zsk4SKMXvLQKa41BOv", "artists": [{"type": "artist", "name": "Meghan Trainor", "external_urls": {"spotify": "https://open.spotify.com/artist/6JL8zeS1NmiOftqZTRgdTz"}, "id": "6JL8zeS1NmiOftqZTRgdTz", "uri": "spotify:artist:6JL8zeS1NmiOftqZTRgdTz", "href": "https://api.spotify.com/v1/artists/6JL8zeS1NmiOftqZTRgdTz"}], "images": [{"width": 640, "url": "https://i.scdn.co/image/ab67616d0000b273ba88ef46a7d7fc26a94b8ef3", "height": 640}, {"width": 300, "url": "https://i.scdn.co/image/ab67616d00001e02ba88ef46a7d7fc26a94b8ef3", "height": 300}, {"width": 64, "url": "https://i.scdn.co/image/ab67616d00004851ba88ef46a7d7fc26a94b8ef3", "height": 64}], "available_markets": ["AD", "AE", "AR", "AT", "AU", "BE", "BG", "BH", "BO", "BR", "CA", "CH", "CL", "CO", "CR", "CY", "CZ", "DE", "DK", "DO", "DZ", "EC", "EE", "EG", "ES", "FI", "FR", "GB", "GR", "GT", "HK", "HN", "HU", "ID", "IE", "IL", "IN", "IS", "IT", "JO", "JP", "KW", "LB", "LI", "LT", "LU", "LV", "MA", "MC", "MT", "MX", "MY", "NI", "NL", "NO", "NZ", "OM", "PA", "PE", "PH", "PL", "PS", "PT", "PY", "QA", "RO", "SA", "SE", "SG", "SK", "SV", "TH", "TN", "TR", "TW", "US", "UY", "VN", "ZA"], "album_type": "single", "release_date_precision": "day", "name": "Spotify Sessions", "external_urls": {"spotify": "https://open.spotify.com/album/0CL4Zsk4SKMXvLQKa41BOv"}, "id": "0CL4Zsk4SKMXvLQKa41BOv", "uri": "spotify:album:0CL4Zsk4SKMXvLQKa41BOv"}, "external_ids": {"isrc": "USSM11501134"}, "name": "All About That Bass - Live from Spotify London", "duration_ms": 171830, "is_local": false, "disc_number": 1, "href": "https://api.spotify.com/v1/tracks/6mPCZm2rCaTledoBjTqSRl", "artists": [{"type": "artist", "name": "Meghan Trainor", "external_urls": {"spotify": "https://open.spotify.com/artist/6JL8zeS1NmiOftqZTRgdTz"}, "id": "6JL8zeS1NmiOftqZTRgdTz", "uri": "spotify:artist:6JL8zeS1NmiOftqZTRgdTz", "href": "https://api.spotify.com/v1/artists/6JL8zeS1NmiOftqZTRgdTz"}], "track_number": 5, "available_markets": ["AD", "AE", "AR", "AT", "AU", "BE", "BG", "BH", "BO", "BR", "CA", "CH", "CL", "CO", "CR", "CY", "CZ", "DE", "DK", "DO", "DZ", "EC", "EE", "EG", "ES", "FI", "FR", "GB", "GR", "GT", "HK", "HN", "HU", "ID", "IE", "IL", "IN", "IS", "IT", "JO", "JP", "KW", "LB", "LI", "LT", "LU", "LV", "MA", "MC", "MT", "MX", "MY", "NI", "NL", "NO", "NZ", "OM", "PA", "PE", "PH", "PL", "PS", "PT", "PY", "QA", "RO", "SA", "SE", "SG", "SK", "SV", "TH", "TN", "TR", "TW", "US", "UY", "VN", "ZA"], "type": "track", "preview_url": "https://p.scdn.co/mp3-preview/64399679df33fdb25aed3ab11a0532db0c9a68c6?cid=0c947b9d3f7547e28aee080174c283c9", "explicit": false, "external_urls": {"spotify": "https://open.spotify.com/track/6mPCZm2rCaTledoBjTqSRl"}, "id": "6mPCZm2rCaTledoBjTqSRl", "uri": "spotify:track:6mPCZm2rCaTledoBjTqSRl", "popularity": 42}, {"album": {"total_tracks": 31, "type": "album", "release_date": "2018-03-02", "href": "https://api.spotify.com/v1/albums/0LplRIGNE4ds9AmJ6w0qXa", "artists": [{"type": "artist", "name": "Various Artists", "external_urls": {"spotify": "https://open.spotify.com/artist/0LyfQWJT6nXafLPZqxe9Of"}, "id": "0LyfQWJT6nXafLPZqxe9Of", "uri": "spotify:artist:0LyfQWJT6nXafLPZqxe9Of", "href": "https://api.spotify.com/v1/artists/0LyfQWJT6nXafLPZqxe9Of"}], "images": [{"width": 640, "url": "https://i.scdn.co/image/ab67616d0000b273369c5ebfe2b60892107b0265", "height": 640}, {"width": 300, "url": "https://i.scdn.co/image/ab67616d00001e02369c5ebfe2b60892107b0265", "height": 300}, {"width": 64, "url": "https://i.scdn.co/image/ab67616d00004851369c5ebfe2b60892107b0265", "height": 64}], "available_markets": ["AD", "AE", "AR", "AT", "AU", "BE", "BG", "BH", "BO", "BR", "CA", "CH", "CL", "CO", "CR", "CY", "CZ", "DE", "DK", "DO", "DZ", "EC", "EE", "EG", "ES", "FI", "FR", "GB", "GR", "GT", "HK", "HN", "HU", "ID", "IE", "IL", "IN", "IS", "IT", "JO", "JP", "KW", "LB", "LI", "LT", "LU", "LV", "MA", "MC", "MT", "MX", "MY", "NI", "NL", "NO", "NZ", "OM", "PA", "PE", "PH", "PL", "PS", "PT", "PY", "QA", "RO", "SA", "SE", "SG", "SK", "SV", "TH", "TN", "TR", "TW", "US", "UY", "VN", "ZA"], "album_type": "compilation", "release_date_precision": "day", "name": "Mother's Day Songs", "external_urls": {"spotify": "https://open.spotify.com/album/0LplRIGNE4ds9AmJ6w0qXa"}, "id": "0LplRIGNE4ds9AmJ6w0qXa", "uri": "spotify:album:0LplRIGNE4ds9AmJ6w0qXa"}, "external_ids": {"isrc": "USSM11401604"}, "name": "All About That Bass", "duration_ms": 187893, "is_local": false, "disc_number": 1, "href": "https://api.spotify.com/v1/tracks/2188jHbv5gWJskFc71ctbt", "artists": [{"type": "artist", "name": "Meghan Trainor", "external_urls": {"spotify": "https://open.spotify.com/artist/6JL8zeS1NmiOftqZTRgdTz"}, "id": "6JL8zeS1NmiOftqZTRgdTz", "uri": "spotify:artist:6JL8zeS1NmiOftqZTRgdTz", "href": "https://api.spotify.com/v1/artists/6JL8zeS1NmiOftqZTRgdTz"}], "track_number": 10, "available_markets": ["AD", "AE", "AR", "AT", "AU", "BE", "BG", "BH", "BO", "BR", "CA", "CH", "CL", "CO", "CR", "CY", "CZ", "DE", "DK", "DO", "DZ", "EC", "EE", "EG", "ES", "FI", "FR", "GB", "GR", "GT", "HK", "HN", "HU", "ID", "IE", "IL", "IN", "IS", "IT", "JO", "JP", "KW", "LB", "LI", "LT", "LU", "LV", "MA", "MC", "MT", "MX", "MY", "NI", "NL", "NO", "NZ", "OM", "PA", "PE", "PH", "PL", "PS", "PT", "PY", "QA", "RO", "SA", "SE", "SG", "SK", "SV", "TH", "TN", "TR", "TW", "US", "UY", "VN", "ZA"], "type": "track", "preview_url": "https://p.scdn.co/mp3-preview/aed57464853d4a7631bc75fec4295bbfe04dcced?cid=0c947b9d3f7547e28aee080174c283c9", "explicit": false, "external_urls": {"spotify": "https://open.spotify.com/track/2188jHbv5gWJskFc71ctbt"}, "id": "2188jHbv5gWJskFc71ctbt", "uri": "spotify:track:2188jHbv5gWJskFc71ctbt", "popularity": 30}], "previous": null, "href": "https://api.spotify.com/v1/search?query=artist%3AMeghan+Trainor+track%3AAll+About+That+Bass&type=track&offset=0&limit=5", "limit": 5, "total": 11, "next": "https://api.spotify.com/v1/search?query=artist%3AMeghan+Trainor+track%3AAll+About+That+Bass&type=track&offset=5&limit=5"}}