{"tracks": {"offset": 0, "items": [{"album": {"total_tracks": 20, "type": "album", "release_date": "2015-05-01", "href": "https://api.spotify.com/v1/albums/6FdNvoO5sF4EKwCX9je1MH", "artists": [{"type": "artist", "name": "Sia", "external_urls": {"spotify": "https://open.spotify.com/artist/5WUlDfRSoLAfcVSX1WnrxN"}, "id": "5WUlDfRSoLAfcVSX1WnrxN", "uri": "spotify:artist:5WUlDfRSoLAfcVSX1WnrxN", "href": "https://api.spotify.com/v1/artists/5WUlDfRSoLAfcVSX1WnrxN"}], "images": [{"width": 640, "url": "https://i.scdn.co/image/03d97de27e99fd8099506ea172531cea0da59654", "height": 640}, {"width": 300, "url": "https://i.scdn.co/image/58595889bbd362182cd3ef5c3633e1c56823d859", "height": 300}, {"width": 64, "url": "https://i.scdn.co/image/b8b3036b13b0db9108aeca2b8b779da317973c16", "height": 64}], "available_markets": ["AD", "AE", "AR", "AT", "BE", "BG", "BH", "BO", "BR", "CA", "CH", "CL", "CO", "CR", "CY", "CZ", "DE", "DK", "DO", "DZ", "EC", "EE", "EG", "ES", "FI", "FR", "GB", "GR", "GT", "HK", "HN", "HU", "ID", "IE", "IL", "IN", "IS", "IT", "JO", "JP", "KW", "LB", "LI", "LT", "LU", "LV", "MA", "MC", "MT", "MX", "MY", "NI", "NL", "NO", "OM", "PA", "PE", "PH", "PL", "PS", "PT", "PY", "QA", "RO", "SA", "SE", "SG", "SK", "SV", "TH", "TN", "TR", "TW", "US", "UY", "VN", "ZA"], "album_type": "album", "release_date_precision": "day", "name": "1000 Forms Of Fear (Deluxe Version)", "external_urls": {"spotify": "https://open.spotify.com/album/6FdNvoO5sF4EKwCX9je1MH"}, "id": "6FdNvoO5sF4EKwCX9je1MH", "uri": "spotify:album:6FdNvoO5sF4EKwCX9je1MH"}, "external_ids": {"isrc": "USRC11400498"}, "name": "Chandelier", "duration_ms": 216120, "is_local": false, "disc_number": 1, "href": "https://api.spotify.com/v1/tracks/2s1sdSqGcKxpPr5lCl7jAV", "artists": [{"type": "artist", "name": "Sia", "external_urls": {"spotify": "https://open.spotify.com/artist/5WUlDfRSoLAfcVSX1WnrxN"}, "id": "5WUlDfRSoLAfcVSX1WnrxN", "uri": "spotify:artist:5WUlDfRSoLAfcVSX1WnrxN", "href": "https://api.spotify.com/v1/artists/5WUlDfRSoLAfcVSX1WnrxN"}], "track_number": 1, "available_markets": ["AD", "AE", "AR", "AT", "BE", "BG", "BH", "BO", "BR", "CA", "CH", "CL", "CO", "CR", "CY", "CZ", "DE", "DK", "DO", "DZ", "EC", "EE", "EG", "ES", "FI", "FR", "GB", "GR", "GT", "HK", "HN", "HU", "ID", "IE", "IL", "IN", "IS", "IT", "JO", "JP", "KW", "LB", "LI", "LT", "LU", "LV", "MA", "MC", "MT", "MX", "MY", "NI", "NL", "NO", "OM", "PA", "PE", "PH", "PL", "PS", "PT", "PY", "QA", "RO", "SA", "SE", "SG", "SK", "SV", "TH", "TN", "TR", "TW", "US", "UY", "VN", "ZA"], "type": "track", "preview_url": "https://p.scdn.co/mp3-preview/f1898cf5fd5640d4f0d7faafa6c572fc29db3db6?cid=0c947b9d3f7547e28aee080174c283c9", "explicit": false, "external_urls": {"spotify": "https://open.spotify.com/track/2s1sdSqGcKxpPr5lCl7jAV"}, "id": "2s1sdSqGcKxpPr5lCl7jAV", "uri": "spotify:track:2s1sdSqGcKxpPr5lCl7jAV", "popularity": 71}, {"album": {"total_tracks": 20, "type": "album", "release_date": "2015-05-01", "href": "https://api.spotify.com/v1/albums/6FdNvoO5sF4EKwCX9je1MH", "artists": [{"type": "artist", "name": "Sia", "external_urls": {"spotify": "https://open.spotify.com/artist/5WUlDfRSoLAfcVSX1WnrxN"}, "id": "5WUlDfRSoLAfcVSX1WnrxN", "uri": "spotify:artist:5WUlDfRSoLAfcVSX1WnrxN", "href": "https://api.spotify.com/v1/artists/5WUlDfRSoLAfcVSX1WnrxN"}], "images": [{"width": 640, "url": "https://i.scdn.co/image/03d97de27e99fd8099506ea172531cea0da59654", "height": 640}, {"width": 300, "url": "https://i.scdn.co/image/58595889bbd362182cd3ef5c3633e1c56823d859", "height": 300}, {"width": 64, "url": "https://i.scdn.co/image/b8b3036b13b0db9108aeca2b8b779da317973c16", "height": 64}], "available_markets": ["AD", "AE", "AR", "AT", "BE", "BG", "BH", "BO", "BR", "CA", "CH", "CL", "CO", "CR", "CY", "CZ", "DE", "DK", "DO", "DZ", "EC", "EE", "EG", "ES", "FI", "FR", "GB", "GR", "GT", "HK", "HN", "HU", "ID", "IE", "IL", "IN", "IS", "IT", "JO", "JP", "KW", "LB", "LI", "LT", "LU", "LV", "MA", "MC", "MT", "MX", "MY", "NI", "NL", "NO", "OM", "PA", "PE", "PH", "PL", "PS", "PT", "PY", "QA", "RO", "SA", "SE", "SG", "SK", "SV", "TH", "TN", "TR", "TW", "US", "UY", "VN", "ZA"], "album_type": "album", "release_date_precision": "day", "name": "1000 Forms Of Fear (Deluxe Version)", "external_urls": {"spotify": "https://open.spotify.com/album/6FdNvoO5sF4EKwCX9je1MH"}, "id": "6FdNvoO5sF4EKwCX9je1MH", "uri": "spotify:album:6FdNvoO5sF4EKwCX9je1MH"}, "external_ids": {"isrc": "USRC11402032"}, "name": "Chandelier - Piano Version", "duration_ms": 241693, "is_local": false, "disc_number": 1, "href": "https://api.spotify.com/v1/tracks/0Ha4WnjeGxmsnzTnlEvjvZ", "artists": [{"type": "artist", "name": "Sia", "external_urls": {"spotify": "https://open.spotify.com/artist/5WUlDfRSoLAfcVSX1WnrxN"}, "id": "5WUlDfRSoLAfcVSX1WnrxN", "uri": "spotify:artist:5WUlDfRSoLAfcVSX1WnrxN", "href": "https://api.spotify.com/v1/artists/5WUlDfRSoLAfcVSX1WnrxN"}], "track_number": 13, "available_markets": ["AD", "AE", "AR", "AT", "BE", "BG", "BH", "BO", "BR", "CA", "CH", "CL", "CO", "CR", "CY", "CZ", "DE", "DK", "DO", "DZ", "EC", "EE", "EG", "ES", "FI", "FR", "GB", "GR", "GT", "HK", "HN", "HU", "ID", "IE", "IL", "IN", "IS", "IT", "JO", "JP", "KW", "LB", "LI", "LT", "LU", "LV", "MA", "MC", "MT", "MX", "MY", "NI", "NL", "NO", "OM", "PA", "PE", "PH", "PL", "PS", "PT", "PY", "QA", "RO", "SA", "SE", "SG", "SK", "SV", "TH", "TN", "TR", "TW", "US", "UY", "VN", "ZA"], "type": "track", "preview_url": "https://p.scdn.co/mp3-preview/f2c848dc7a31f27cd8edeb1d4fd20bcc6293bc92?cid=0c947b9d3f7547e28aee080174c283c9", "explicit": false, "external_urls": {"spotify": "https://open.spotify.com/track/0Ha4WnjeGxmsnzTnlEvjvZ"}, "id": "0Ha4WnjeGxmsnzTnlEvjvZ", "uri": "spotify:track:0Ha4WnjeGxmsnzTnlEvjvZ", "popularity": 58}, {"album": {"total_tracks": 1, "type": "album", "release_date": "2014-09-09", "href": "https://api.spotify.com/v1/albums/5jJssYihQiAJzdx3rgdbRz", "artists": [{"type": "artist", "name": "Sia", "external_urls": {"spotify": "https://open.spotify.com/artist/5WUlDfRSoLAfcVSX1WnrxN"}, "id": "5WUlDfRSoLAfcVSX1WnrxN", "uri": "spotify:artist:5WUlDfRSoLAfcVSX1WnrxN", "href": "https://api.spotify.com/v1/artists/5WUlDfRSoLAfcVSX1WnrxN"}], "images": [{"width": 640, "url": "https://i.scdn.co/image/ab67616d0000b27339ba9f46839c88cd17c1882b", "height": 640}, {"width": 300, "url": "https://i.scdn.co/image/ab67616d00001e0239ba9f46839c88cd17c1882b", "height": 300}, {"width": 64, "url": "https://i.scdn.co/image/ab67616d0000485139ba9f46839c88cd17c1882b", "height": 64}], "available_markets": ["AE", "AR", "AT", "BE", "BG", "BH", "BO", "BR", "CA", "CH", "CL", "CO", "CR", "CY", "CZ", "DE", "DK", "DO", "EC", "EE", "EG", "ES", "FI", "GB", "GR", "GT", "HK", "HN", "HU", "ID", "IE", "IL", "IN", "IS", "IT", "JO", "JP", "KW", "LB", "LI", "LT", "LU", "LV", "MT", "MX", "MY", "NI", "NL", "NO", "OM", "PA", "PE", "PH", "PL", "PS", "PT", "PY", "QA", "RO", "SA", "SE", "SG", "SK", "SV", "TH", "TR", "TW", "US", "UY", "VN", "ZA"], "album_type": "single", "release_date_precision": "day", "name": "Chandelier (Piano Version)", "external_urls": {"spotify": "https://open.spotify.com/album/5jJssYihQiAJzdx3rgdbRz"}, "id": "5jJssYihQiAJzdx3rgdbRz", "uri": "spotify:album:5jJssYihQiAJzdx3rgdbRz"}, "external_ids": {"isrc": "USRC11402032"}, "name": "Chandelier - Piano Version", "duration_ms": 240400, "is_local": false, "disc_number": 1, "href": "https://api.spotify.com/v1/tracks/1F42Ox5sB2wHdy3aDrs3K9", "artists": [{"type": "artist", "name": "Sia", "external_urls": {"spotify": "https://open.spotify.com/artist/5WUlDfRSoLAfcVSX1WnrxN"}, "id": "5WUlDfRSoLAfcVSX1WnrxN", "uri": "spotify:artist:5WUlDfRSoLAfcVSX1WnrxN", "href": "https://api.spotify.com/v1/artists/5WUlDfRSoLAfcVSX1WnrxN"}], "track_number": 1, "available_markets": ["AE", "AR", "AT", "BE", "BG", "BH", "BO", "BR", "CA", "CH", "CL", "CO", "CR", "CY", "CZ", "DE", "DK", "DO", "EC", "EE", "EG", "ES", "FI", "GB", "GR", "GT", "HK", "HN", "HU", "ID", "IE", "IL", "IN", "IS", "IT", "JO", "JP", "KW", "LB", "LI", "LT", "LU", "LV", "MT", "MX", "MY", "NI", "NL", "NO", "OM", "PA", "PE", "PH", "PL", "PS", "PT", "PY", "QA", "RO", "SA", "SE", "SG", "SK", "SV", "TH", "TR", "TW", "US", "UY", "VN", "ZA"], "type": "track", "preview_url": "https://p.scdn.co/mp3-preview/7c7f72470c554c2b674f7c73977b5cedd0ed80d5?cid=0c947b9d3f7547e28aee080174c283c9", "explicit": false, "external_urls": {"spotify": "https://open.spotify.com/track/1F42Ox5sB2wHdy3aDrs3K9"}, "id": "1F42Ox5sB2wHdy3aDrs3K9", "uri": "spotify:track:1F42Ox5sB2wHdy3aDrs3K9", "popularity": 54}, {"album": {"total_tracks": 6, "type": "album", "release_date": "2016-04-13", "href": "https://api.spotify.com/v1/albums/2fBKreCrztEPXW5bUIgBTf", "artists": [{"type": "artist", "name": "Sia", "external_urls": {"spotify": "https://open.spotify.com/artist/5WUlDfRSoLAfcVSX1WnrxN"}, "id": "5WUlDfRSoLAfcVSX1WnrxN", "uri": "spotify:artist:5WUlDfRSoLAfcVSX1WnrxN", "href": "https://api.spotify.com/v1/artists/5WUlDfRSoLAfcVSX1WnrxN"}], "images": [{"width": 640, "url": "https://i.scdn.co/image/ab67616d0000b273858d8767593fd2db82a0def8", "height": 640}, {"width": 300, "url": "https://i.scdn.co/image/ab67616d00001e02858d8767593fd2db82a0def8", "height": 300}, {"width": 64, "url": "https://i.scdn.co/image/ab67616d00004851858d8767593fd2db82a0def8", "height": 64}], "available_markets": ["AD", "AE", "AR", "AT", "BE", "BG", "BH", "BO", "BR", "CA", "CH", "CL", "CO", "CR", "CY", "CZ", "DE", "DK", "DO", "DZ", "EC", "EE", "EG", "ES", "FI", "FR", "GB", "GR", "GT", "HK", "HN", "HU", "ID", "IE", "IL", "IN", "IS", "IT", "JO", "KW", "LB", "LI", "LT", "LU", "LV", "MA", "MC", "MT", "MX", "MY", "NI", "NL", "NO", "OM", "PA", "PE", "PH", "PL", "PS", "PT", "PY", "QA", "RO", "SA", "SE", "SG", "SK", "SV", "TH", "TN", "TR", "TW", "US", "UY", "VN", "ZA"], "album_type": "single", "release_date_precision": "day", "name": "Spotify Sessions", "external_urls": {"spotify": "https://open.spotify.com/album/2fBKreCrztEPXW5bUIgBTf"}, "id": "2fBKreCrztEPXW5bUIgBTf", "uri": "spotify:album:2fBKreCrztEPXW5bUIgBTf"}, "external_ids": {"isrc": "USRC11600687"}, "name": "Chandelier - Live from The Village", "duration_ms": 237333, "is_local": false, "disc_number": 1, "href": "https://api.spotify.com/v1/tracks/2CZX6RHW9EYFhhTANVsF5A", "artists": [{"type": "artist", "name": "Sia", "external_urls": {"spotify": "https://open.spotify.com/artist/5WUlDfRSoLAfcVSX1WnrxN"}, "id": "5WUlDfRSoLAfcVSX1WnrxN", "uri": "spotify:artist:5WUlDfRSoLAfcVSX1WnrxN", "href": "https://api.spotify.com/v1/artists/5WUlDfRSoLAfcVSX1WnrxN"}], "track_number": 5, "available_markets": ["AD", "AE", "AR", "AT", "BE", "BG", "BH", "BO", "BR", "CA", "CH", "CL", "CO", "CR", "CY", "CZ", "DE", "DK", "DO", "DZ", "EC", "EE", "EG", "ES", "FI", "FR", "GB", "GR", "GT", "HK", "HN", "HU", "ID", "IE", "IL", "IN", "IS", "IT", "JO", "KW", "LB", "LI", "LT", "LU", "LV", "MA", "MC", "MT", "MX", "MY", "NI", "NL", "NO", "OM", "PA", "PE", "PH", "PL", "PS", "PT", "PY", "QA", "RO", "SA", "SE", "SG", "SK", "SV", "TH", "TN", "TR", "TW", "US", "UY", "VN", "ZA"], "type": "track", "preview_url": "https://p.scdn.co/mp3-preview/0fbf7decd77da3ca028a6ffabe3e85fd04f637b8?cid=0c947b9d3f7547e28aee080174c283c9", "explicit": false, "external_urls": {"spotify": "https://open.spotify.com/track/2CZX6RHW9EYFhhTANVsF5A"}, "id": "2CZX6RHW9EYFhhTANVsF5A", "uri": "spotify:track:2CZX6RHW9EYFhhTANVsF5A", "popularity": 55}, {"album": {"total_tracks": 20, "type": "album", "release_date": "2015-05-01", "href": "https://api.spotify.com/v1/albums/6FdNvoO5sF4EKwCX9je1MH", "artists": [{"type": "artist", "name": "Sia", "external_urls": {"spotify": "https://open.spotify.com/artist/5WUlDfRSoLAfcVSX1WnrxN"}, "id": "5WUlDfRSoLAfcVSX1WnrxN", "uri": "spotify:artist:5WUlDfRSoLAfcVSX1WnrxN", "href": "https://api.spotify.com/v1/artists/5WUlDfRSoLAfcVSX1WnrxN"}], "images": [{"width": 640, "url": "https://i.scdn.co/image/03d97de27e99fd8099506ea172531cea0da59654", "height": 640}, {"width": 300, "url": "https://i.scdn.co/image/58595889bbd362182cd3ef5c3633e1c56823d859", "height": 300}, {"width": 64, "url": "https://i.scdn.co/image/b8b3036b13b0db9108aeca2b8b779da317973c16", "height": 64}], "available_markets": ["AD", "AE", "AR", "AT", "BE", "BG", "BH", "BO", "BR", "CA", "CH", "CL", "CO", "CR", "CY", "CZ", "DE", "DK", "DO", "DZ", "EC", "EE", "EG", "ES", "FI", "FR", "GB", "GR", "GT", "HK", "HN", "HU", "ID", "IE", "IL", "IN", "IS", "IT", "JO", "JP", "KW", "LB", "LI", "LT", "LU", "LV", "MA", "MC", "MT", "MX", "MY", "NI", "NL", "NO", "OM", "PA", "PE", "PH", "PL", "PS", "PT", "PY", "QA", "RO", "SA", "SE", "SG", "SK", "SV", "TH", "TN", "TR", "TW", "US", "UY", "VN", "ZA"], "album_type": "album", "release_date_precision": "day", "name": "1000 Forms Of Fear (Deluxe Version)", "external_urls": {"spotify": "https://open.spotify.com/album/6FdNvoO5sF4EKwCX9je1MH"}, "id": "6FdNvoO5sF4EKwCX9je1MH", "uri": "spotify:album:6FdNvoO5sF4EKwCX9je1MH"}, "external_ids": {"isrc": "USRC11401054"}, "name": "Chandelier - Plastic Plates Remix", "duration_ms": 263386, "is_local": false, "disc_number": 1, "href": "https://api.spotify.com/v1/tracks/22yTrQldM6Pu8CONxbFVpS", "artists": [{"type": "artist", "name": "Sia", "external_urls": {"spotify": "https://open.spotify.com/artist/5WUlDfRSoLAfcVSX1WnrxN"}, "id": "5WUlDfRSoLAfcVSX1WnrxN", "uri": "spotify:artist:5WUlDfRSoLAfcVSX1WnrxN", "href": "https://api.spotify.com/v1/artists/5WUlDfRSoLAfcVSX1WnrxN"}, {"type": "artist", "name": "Felix Bloxsom", "external_urls": {"spotify": "https://open.spotify.com/artist/3ZpJUzKJR0vf1BoQ7NDYXs"}, "id": "3ZpJUzKJR0vf1BoQ7NDYXs", "uri": "spotify:artist:3ZpJUzKJR0vf1BoQ7NDYXs", "href": "https://api.spotify.com/v1/artists/3ZpJUzKJR0vf1BoQ7NDYXs"}], "track_number": 16, "available_markets": ["AD", "AE", "AR", "AT", "BE", "BG", "BH", "BO", "BR", "CA", "CH", "CL", "CO", "CR", "CY", "CZ", "DE", "DK", "DO", "DZ", "EC", "EE", "EG", "ES", "FI", "FR", "GB", "GR", "GT", "HK", "HN", "HU", "ID", "IE", "IL", "IN", "IS", "IT", "JO", "JP", "KW", "LB", "LI", "LT", "LU", "LV", "MA", "MC", "MT", "MX", "MY", "NI", "NL", "NO", "OM", "PA", "PE", "PH", "PL", "PS", "PT", "PY", "QA", "RO", "SA", "SE", "SG", "SK", "SV", "TH", "TN", "TR", "TW", "US", "UY", "VN", "ZA"], "type": "track", "preview_url": "https://p.scdn.co/mp3-preview/c092635728e4190f663c3d9eb86fc18a22f1bab7?cid=0c947b9d3f7547e28aee080174c283c9", "explicit": false, "external_urls": {"spotify": "https://open.spotify.com/track/22yTrQldM6Pu8CONxbFVpS"}, "id": "22yTrQldM6Pu8CONxbFVpS", "uri": "spotify:track:22yTrQldM6Pu8CONxbFVpS", "popularity": 39}], "previous": null, "href": "https://api.spotify.com/v1/search?query=artist%3ASia+track%3AChandelier&type=track&offset=0&limit=5", "limit": 5, "total": 16, "next": "https://api.spotify.com/v1/search?query=artist%3ASia+track%3AChandelier&type=track&offset=5&limit=5"}}