{"tracks": {"offset": 0, "items": [{"album": {"total_tracks": 15, "type": "album", "release_date": "2005-05-23", "href": "https://api.spotify.com/v1/albums/0bUTHlWbkSQysoM3VsWldT", "artists": [{"type": "artist", "name": "Gorillaz", "external_urls": {"spotify": "https://open.spotify.com/artist/3AA28KZvwAUcZuOKwyblJQ"}, "id": "3AA28KZvwAUcZuOKwyblJQ", "uri": "spotify:artist:3AA28KZvwAUcZuOKwyblJQ", "href": "https://api.spotify.com/v1/artists/3AA28KZvwAUcZuOKwyblJQ"}], "images": [{"width": 640, "url": "https://i.scdn.co/image/ab67616d0000b27319d85a472f328a6ed9b704cf", "height": 640}, {"width": 300, "url": "https://i.scdn.co/image/ab67616d00001e0219d85a472f328a6ed9b704cf", "height": 300}, {"width": 64, "url": "https://i.scdn.co/image/ab67616d0000485119d85a472f328a6ed9b704cf", "height": 64}], "available_markets": ["AD", "AE", "AR", "AT", "AU", "BE", "BG", "BH", "BO", "BR", "CA", "CH", "CL", "CO", "CR", "CY", "CZ", "DE", "DK", "DO", "DZ", "EC", "EE", "EG", "ES", "FI", "FR", "GB", "GR", "GT", "HK", "HN", "HU", "ID", "IE", "IL", "IS", "IT", "JO", "JP", "KW", "LB", "LT", "LU", "LV", "MA", "MC", "MT", "MX", "MY", "NI", "NL", "NO", "NZ", "OM", "PA", "PE", "PH", "PL", "PT", "PY", "QA", "RO", "SA", "SE", "SG", "SK", "SV", "TH", "TN", "TR", "TW", "US", "UY", "VN", "ZA"], "album_type": "album", "release_date_precision": "day", "name": "Demon Days", "external_urls": {"spotify": "https://open.spotify.com/album/0bUTHlWbkSQysoM3VsWldT"}, "id": "0bUTHlWbkSQysoM3VsWldT", "uri": "spotify:album:0bUTHlWbkSQysoM3VsWldT"}, "external_ids": {"isrc": "GBAYE0500172"}, "name": "Feel Good Inc.", "duration_ms": 222640, "is_local": false, "disc_number": 1, "href": "https://api.spotify.com/v1/tracks/0d28khcov6AiegSCpG5TuT", "artists": [{"type": "artist", "name": "Gorillaz", "external_urls": {"spotify": "https://open.spotify.com/artist/3AA28KZvwAUcZuOKwyblJQ"}, "id": "3AA28KZvwAUcZuOKwyblJQ", "uri": "spotify:artist:3AA28KZvwAUcZuOKwyblJQ", "href": "https://api.spotify.com/v1/artists/3AA28KZvwAUcZuOKwyblJQ"}], "track_number": 6, "available_markets": ["AD", "AE", "AR", "AT", "AU", "BE", "BG", "BH", "BO", "BR", "CA", "CH", "CL", "CO", "CR", "CY", "CZ", "DE", "DK", "DO", "DZ", "EC", "EE", "EG", "ES", "FI", "FR", "GB", "GR", "GT", "HK", "HN", "HU", "ID", "IE", "IL", "IS", "IT", "JO", "JP", "KW", "LB", "LT", "LU", "LV", "MA", "MC", "MT", "MX", "MY", "NI", "NL", "NO", "NZ", "OM", "PA", "PE", "PH", "PL", "PT", "PY", "QA", "RO", "SA", "SE", "SG", "SK", "SV", "TH", "TN", "TR", "TW", "US", "UY", "VN", "ZA"], "type": "track", "preview_url": "https://p.scdn.co/mp3-preview/7388c425022ced92b1caa7f73bcf0cb3080aee47?cid=0c947b9d3f7547e28aee080174c283c9", "explicit": false, "external_urls": {"spotify": "https://open.spotify.com/track/0d28khcov6AiegSCpG5TuT"}, "id": "0d28khcov6AiegSCpG5TuT", "uri": "spotify:track:0d28khcov6AiegSCpG5TuT", "popularity": 81}, {"album": {"total_tracks": 4, "type": "album", "release_date": "2006-01-24", "href": "https://api.spotify.com/v1/albums/76dV2Mwh7H7RgrldiA9NSJ", "artists": [{"type": "artist", "name": "Gorillaz", "external_urls": {"spotify": "https://open.spotify.com/artist/3AA28KZvwAUcZuOKwyblJQ"}, "id": "3AA28KZvwAUcZuOKwyblJQ", "uri": "spotify:artist:3AA28KZvwAUcZuOKwyblJQ", "href": "https://api.spotify.com/v1/artists/3AA28KZvwAUcZuOKwyblJQ"}], "images": [{"width": 640, "url": "https://i.scdn.co/image/ab67616d0000b27322c1b2b58a23408632527ab7", "height": 640}, {"width": 300, "url": "https://i.scdn.co/image/ab67616d00001e0222c1b2b58a23408632527ab7", "height": 300}, {"width": 64, "url": "https://i.scdn.co/image/ab67616d0000485122c1b2b58a23408632527ab7", "height": 64}], "available_markets": ["CA", "US"], "album_type": "single", "release_date_precision": "day", "name": "Feel Good Inc. EP", "external_urls": {"spotify": "https://open.spotify.com/album/76dV2Mwh7H7RgrldiA9NSJ"}, "id": "76dV2Mwh7H7RgrldiA9NSJ", "uri": "spotify:album:76dV2Mwh7H7RgrldiA9NSJ"}, "external_ids": {"isrc": "GBAYE0500172"}, "name": "Feel Good Inc.", "duration_ms": 222640, "is_local": false, "disc_number": 1, "href": "https://api.spotify.com/v1/tracks/35SJAMEdYx6YNqCaFPInIp", "artists": [{"type": "artist", "name": "Gorillaz", "external_urls": {"spotify": "https://open.spotify.com/artist/3AA28KZvwAUcZuOKwyblJQ"}, "id": "3AA28KZvwAUcZuOKwyblJQ", "uri": "spotify:artist:3AA28KZvwAUcZuOKwyblJQ", "href": "https://api.spotify.com/v1/artists/3AA28KZvwAUcZuOKwyblJQ"}], "track_number": 1, "available_markets": ["CA", "US"], "type": "track", "preview_url": "https://p.scdn.co/mp3-preview/7388c425022ced92b1caa7f73bcf0cb3080aee47?cid=0c947b9d3f7547e28aee080174c283c9", "explicit": false, "external_urls": {"spotify": "https://open.spotify.com/track/35SJAMEdYx6YNqCaFPInIp"}, "id": "35SJAMEdYx6YNqCaFPInIp", "uri": "spotify:track:35SJAMEdYx6YNqCaFPInIp", "popularity": 33}, {"album": {"total_tracks": 15, "type": "album", "release_date": "2011-11-21", "href": "https://api.spotify.com/v1/albums/3EqJvDO7ffoOKV9da4LvSq", "artists": [{"type": "artist", "name": "Gorillaz", "external_urls": {"spotify": "https://open.spotify.com/artist/3AA28KZvwAUcZuOKwyblJQ"}, "id": "3AA28KZvwAUcZuOKwyblJQ", "uri": "spotify:artist:3AA28KZvwAUcZuOKwyblJQ", "href": "https://api.spotify.com/v1/artists/3AA28KZvwAUcZuOKwyblJQ"}], "images": [{"width": 640, "url": "https://i.scdn.co/image/ab67616d0000b27312b8fe11a1e2379f84eab94f", "height": 640}, {"width": 300, "url": "https://i.scdn.co/image/ab67616d00001e0212b8fe11a1e2379f84eab94f", "height": 300}, {"width": 64, "url": "https://i.scdn.co/image/ab67616d0000485112b8fe11a1e2379f84eab94f", "height": 64}], "available_markets": ["AT", "CA", "CH", "DE", "US"], "album_type": "compilation", "release_date_precision": "day", "name": "The Singles Collection 2001-2011", "external_urls": {"spotify": "https://open.spotify.com/album/3EqJvDO7ffoOKV9da4LvSq"}, "id": "3EqJvDO7ffoOKV9da4LvSq", "uri": "spotify:album:3EqJvDO7ffoOKV9da4LvSq"}, "external_ids": {"isrc": "GBAYE0500172"}, "name": "Feel Good Inc.", "duration_ms": 222640, "is_local": false, "disc_number": 1, "href": "https://api.spotify.com/v1/tracks/16e6xoCgI27TS5DWi1LU3h", "artists": [{"type": "artist", "name": "Gorillaz", "external_urls": {"spotify": "https://open.spotify.com/artist/3AA28KZvwAUcZuOKwyblJQ"}, "id": "3AA28KZvwAUcZuOKwyblJQ", "uri": "spotify:artist:3AA28KZvwAUcZuOKwyblJQ", "href": "https://api.spotify.com/v1/artists/3AA28KZvwAUcZuOKwyblJQ"}], "track_number": 5, "available_markets": ["AT", "CA", "CH", "DE", "US"], "type": "track", "preview_url": "https://p.scdn.co/mp3-preview/7388c425022ced92b1caa7f73bcf0cb3080aee47?cid=0c947b9d3f7547e28aee080174c283c9", "explicit": false, "external_urls": {"spotify": "https://open.spotify.com/track/16e6xoCgI27TS5DWi1LU3h"}, "id": "16e6xoCgI27TS5DWi1LU3h", "uri": "spotify:track:16e6xoCgI27TS5DWi1LU3h", "popularity": 34}, {"album": {"total_tracks": 17, "type": "album", "release_date": "2011-11-25", "href": "https://api.spotify.com/v1/albums/0J3u0IeHzuymSz7v934vrd", "artists": [{"type": "artist", "name": "Gorillaz", "external_urls": {"spotify": "https://open.spotify.com/artist/3AA28KZvwAUcZuOKwyblJQ"}, "id": "3AA28KZvwAUcZuOKwyblJQ", "uri": "spotify:artist:3AA28KZvwAUcZuOKwyblJQ", "href": "https://api.spotify.com/v1/artists/3AA28KZvwAUcZuOKwyblJQ"}], "images": [{"width": 640, "url": "https://i.scdn.co/image/ab67616d0000b27380d8a81e97f8f33dfe7fab51", "height": 640}, {"width": 300, "url": "https://i.scdn.co/image/ab67616d00001e0280d8a81e97f8f33dfe7fab51", "height": 300}, {"width": 64, "url": "https://i.scdn.co/image/ab67616d0000485180d8a81e97f8f33dfe7fab51", "height": 64}], "available_markets": ["AE", "AR", "AT", "AU", "BE", "BG", "BH", "BO", "BR", "CA", "CH", "CL", "CO", "CR", "CY", "CZ", "DE", "DK", "DO", "EC", "EE", "EG", "ES", "FI", "FR", "GB", "GR", "GT", "HK", "HN", "HU", "ID", "IE", "IL", "IS", "IT", "JO", "JP", "KW", "LB", "LT", "LU", "LV", "MT", "MX", "MY", "NI", "NL", "NO", "NZ", "OM", "PA", "PE", "PH", "PL", "PT", "PY", "QA", "RO", "SA", "SE", "SG", "SK", "SV", "TH", "TN", "TR", "TW", "US", "UY", "VN", "ZA"], "album_type": "album", "release_date_precision": "day", "name": "Demon Days Live at the Manchester Opera House", "external_urls": {"spotify": "https://open.spotify.com/album/0J3u0IeHzuymSz7v934vrd"}, "id": "0J3u0IeHzuymSz7v934vrd", "uri": "spotify:album:0J3u0IeHzuymSz7v934vrd"}, "external_ids": {"isrc": "GBAYE1102092"}, "name": "Feel Good Inc. - Live at Manchester Opera House", "duration_ms": 236453, "is_local": false, "disc_number": 1, "href": "https://api.spotify.com/v1/tracks/7IN4zUEZQJkyATFepIrNWP", "artists": [{"type": "artist", "name": "Gorillaz", "external_urls": {"spotify": "https://open.spotify.com/artist/3AA28KZvwAUcZuOKwyblJQ"}, "id": "3AA28KZvwAUcZuOKwyblJQ", "uri": "spotify:artist:3AA28KZvwAUcZuOKwyblJQ", "href": "https://api.spotify.com/v1/artists/3AA28KZvwAUcZuOKwyblJQ"}], "track_number": 6, "available_markets": ["AE", "AR", "AT", "AU", "BE", "BG", "BH", "BO", "BR", "CA", "CH", "CL", "CO", "CR", "CY", "CZ", "DE", "DK", "DO", "EC", "EE", "EG", "ES", "FI", "FR", "GB", "GR", "GT", "HK", "HN", "HU", "ID", "IE", "IL", "IS", "IT", "JO", "JP", "KW", "LB", "LT", "LU", "LV", "MT", "MX", "MY", "NI", "NL", "NO", "NZ", "OM", "PA", "PE", "PH", "PL", "PT", "PY", "QA", "RO", "SA", "SE", "SG", "SK", "SV", "TH", "TN", "TR", "TW", "US", "UY", "VN", "ZA"], "type": "track", "preview_url": "https://p.scdn.co/mp3-preview/77b9c163fdd20270d6c55bbd2dacdc193cd32498?cid=0c947b9d3f7547e28aee080174c283c9", "explicit": false, "external_urls": {"spotify": "https://open.spotify.com/track/7IN4zUEZQJkyATFepIrNWP"}, "id": "7IN4zUEZQJkyATFepIrNWP", "uri": "spotify:track:7IN4zUEZQJkyATFepIrNWP", "popularity": 40}, {"album": {"total_tracks": 23, "type": "album", "release_date": "2007-11-19", "href": "https://api.spotify.com/v1/albums/2w4tLG1JH25BysuILfkI0x", "artists": [{"type": "artist", "name": "Gorillaz", "external_urls": {"spotify": "https://open.spotify.com/artist/3AA28KZvwAUcZuOKwyblJQ"}, "id": "3AA28KZvwAUcZuOKwyblJQ", "uri": "spotify:artist:3AA28KZvwAUcZuOKwyblJQ", "href": "https://api.spotify.com/v1/artists/3AA28KZvwAUcZuOKwyblJQ"}], "images": [{"width": 640, "url": "https://i.scdn.co/image/ab67616d0000b273fd7e9fc9e467e3da86540571", "height": 640}, {"width": 300, "url": "https://i.scdn.co/image/ab67616d00001e02fd7e9fc9e467e3da86540571", "height": 300}, {"width": 64, "url": "https://i.scdn.co/image/ab67616d00004851fd7e9fc9e467e3da86540571", "height": 64}], "available_markets": ["AD", "AE", "AR", "AT", "AU", "BE", "BG", "BH", "BO", "BR", "CA", "CH", "CL", "CO", "CR", "CY", "CZ", "DE", "DK", "DO", "DZ", "EC", "EE", "EG", "ES", "FI", "FR", "GB", "GR", "GT", "HK", "HN", "HU", "ID", "IE", "IL", "IS", "IT", "JO", "JP", "KW", "LB", "LT", "LU", "LV", "MA", "MC", "MT", "MX", "MY", "NI", "NL", "NO", "NZ", "OM", "PA", "PE", "PH", "PL", "PT", "PY", "QA", "RO", "SA", "SE", "SG", "SK", "SV", "TH", "TN", "TR", "TW", "US", "UY", "VN", "ZA"], "album_type": "album", "release_date_precision": "day", "name": "D-Sides [Special Edition]", "external_urls": {"spotify": "https://open.spotify.com/album/2w4tLG1JH25BysuILfkI0x"}, "id": "2w4tLG1JH25BysuILfkI0x", "uri": "spotify:album:2w4tLG1JH25BysuILfkI0x"}, "external_ids": {"isrc": "GBAYE0702883"}, "name": "Feel Good Inc. - Stanton Warriors Remix", "duration_ms": 444906, "is_local": false, "disc_number": 2, "href": "https://api.spotify.com/v1/tracks/566j2mk7SqZjDS4QfPyhyt", "artists": [{"type": "artist", "name": "Gorillaz", "external_urls": {"spotify": "https://open.spotify.com/artist/3AA28KZvwAUcZuOKwyblJQ"}, "id": "3AA28KZvwAUcZuOKwyblJQ", "uri": "spotify:artist:3AA28KZvwAUcZuOKwyblJQ", "href": "https://api.spotify.com/v1/artists/3AA28KZvwAUcZuOKwyblJQ"}, {"type": "artist", "name": "Dominic B", "external_urls": {"spotify": "https://open.spotify.com/artist/7dLuFyOYJBq0PTScywQ4nf"}, "id": "7dLuFyOYJBq0PTScywQ4nf", "uri": "spotify:artist:7dLuFyOYJBq0PTScywQ4nf", "href": "https://api.spotify.com/v1/artists/7dLuFyOYJBq0PTScywQ4nf"}, {"type": "artist", "name": "Mark Yardley", "external_urls": {"spotify": "https://open.spotify.com/artist/1U5rzalDImjs35eg5NtHeW"}, "id": "1U5rzalDImjs35eg5NtHeW", "uri": "spotify:artist:1U5rzalDImjs35eg5NtHeW", "href": "https://api.spotify.com/v1/artists/1U5rzalDImjs35eg5NtHeW"}], "track_number": 2, "available_markets": ["AD", "AE", "AR", "AT", "AU", "BE", "BG", "BH", "BO", "BR", "CA", "CH", "CL", "CO", "CR", "CY", "CZ", "DE", "DK", "DO", "DZ", "EC", "EE", "EG", "ES", "FI", "FR", "GB", "GR", "GT", "HK", "HN", "HU", "ID", "IE", "IL", "IS", "IT", "JO", "JP", "KW", "LB", "LT", "LU", "LV", "MA", "MC", "MT", "MX", "MY", "NI", "NL", "NO", "NZ", "OM", "PA", "PE", "PH", "PL", "PT", "PY", "QA", "RO", "SA", "SE", "SG", "SK", "SV", "TH", "TN", "TR", "TW", "US", "UY", "VN", "ZA"], "type": "track", "preview_url": "https://p.scdn.co/mp3-preview/b6b97a776120a736a54c5b2025ade954c8f7b51d?cid=0c947b9d3f7547e28aee080174c283c9", "explicit": false, "external_urls": {"spotify": "https://open.spotify.com/track/566j2mk7SqZjDS4QfPyhyt"}, "id": "566j2mk7SqZjDS4QfPyhyt", "uri": "spotify:track:566j2mk7SqZjDS4QfPyhyt", "popularity": 32}], "previous": null, "href": "https://api.spotify.com/v1/search?query=artist%3AGorillaz+track%3AFeel+Good+Inc&type=track&offset=0&limit=5", "limit": 5, "total": 8, "next": "https://api.spotify.com/v1/search?query=artist%3AGorillaz+track%3AFeel+Good+Inc&type=track&offset=5&limit=5"}}