{"tracks": {"offset": 0, "items": [{"album": {"total_tracks": 12, "type": "album", "release_date": "2012-02-21", "href": "https://api.spotify.com/v1/albums/7iycyHwOW2plljYIK6I1Zo", "artists": [{"type": "artist", "name": "fun.", "external_urls": {"spotify": "https://open.spotify.com/artist/5nCi3BB41mBaMH9gfr6Su0"}, "id": "5nCi3BB41mBaMH9gfr6Su0", "uri": "spotify:artist:5nCi3BB41mBaMH9gfr6Su0", "href": "https://api.spotify.com/v1/artists/5nCi3BB41mBaMH9gfr6Su0"}], "images": [{"width": 640, "url": "https://i.scdn.co/image/ab67616d0000b27322be1a7fbb767d23ec8737f8", "height": 640}, {"width": 300, "url": "https://i.scdn.co/image/ab67616d00001e0222be1a7fbb767d23ec8737f8", "height": 300}, {"width": 64, "url": "https://i.scdn.co/image/ab67616d0000485122be1a7fbb767d23ec8737f8", "height": 64}], "available_markets": ["AT", "BG", "CH", "CZ", "DE", "DK", "EE", "FI", "HU", "IL", "IS", "LT", "LV", "NO", "PL", "RO", "SE", "SK", "TR", "US"], "album_type": "album", "release_date_precision": "day", "name": "Some Nights (Spotify Exclusive)", "external_urls": {"spotify": "https://open.spotify.com/album/7iycyHwOW2plljYIK6I1Zo"}, "id": "7iycyHwOW2plljYIK6I1Zo", "uri": "spotify:album:7iycyHwOW2plljYIK6I1Zo"}, "external_ids": {"isrc": "USAT21101399"}, "name": "We Are Young (feat. Janelle Mon\u00e1e)", "duration_ms": 250626, "is_local": false, "disc_number": 1, "href": "https://api.spotify.com/v1/tracks/7a86XRg84qjasly9f6bPSD", "artists": [{"type": "artist", "name": "fun.", "external_urls": {"spotify": "https://open.spotify.com/artist/5nCi3BB41mBaMH9gfr6Su0"}, "id": "5nCi3BB41mBaMH9gfr6Su0", "uri": "spotify:artist:5nCi3BB41mBaMH9gfr6Su0", "href": "https://api.spotify.com/v1/artists/5nCi3BB41mBaMH9gfr6Su0"}, {"type": "artist", "name": "Janelle Mon\u00e1e", "external_urls": {"spotify": "https://open.spotify.com/artist/6ueGR6SWhUJfvEhqkvMsVs"}, "id": "6ueGR6SWhUJfvEhqkvMsVs", "uri": "spotify:artist:6ueGR6SWhUJfvEhqkvMsVs", "href": "https://api.spotify.com/v1/artists/6ueGR6SWhUJfvEhqkvMsVs"}], "track_number": 3, "available_markets": ["AT", "BG", "CH", "CZ", "DE", "DK", "EE", "FI", "HU", "IL", "IS", "LT", "LV", "NO", "PL", "RO", "SE", "SK", "TR", "US"], "type": "track", "preview_url": "https://p.scdn.co/mp3-preview/af96d9b11588ea7d7754ccf2a8cefa7ead23a7d6?cid=0c947b9d3f7547e28aee080174c283c9", "explicit": false, "external_urls": {"spotify": "https://open.spotify.com/track/7a86XRg84qjasly9f6bPSD"}, "id": "7a86XRg84qjasly9f6bPSD", "uri": "spotify:track:7a86XRg84qjasly9f6bPSD", "popularity": 72}, {"album": {"total_tracks": 12, "type": "album", "release_date": "2012-02-21", "href": "https://api.spotify.com/v1/albums/7iycyHwOW2plljYIK6I1Zo", "artists": [{"type": "artist", "name": "fun.", "external_urls": {"spotify": "https://open.spotify.com/artist/5nCi3BB41mBaMH9gfr6Su0"}, "id": "5nCi3BB41mBaMH9gfr6Su0", "uri": "spotify:artist:5nCi3BB41mBaMH9gfr6Su0", "href": "https://api.spotify.com/v1/artists/5nCi3BB41mBaMH9gfr6Su0"}], "images": [{"width": 640, "url": "https://i.scdn.co/image/ab67616d0000b27322be1a7fbb767d23ec8737f8", "height": 640}, {"width": 300, "url": "https://i.scdn.co/image/ab67616d00001e0222be1a7fbb767d23ec8737f8", "height": 300}, {"width": 64, "url": "https://i.scdn.co/image/ab67616d0000485122be1a7fbb767d23ec8737f8", "height": 64}], "available_markets": ["AT", "BG", "CH", "CZ", "DE", "DK", "EE", "FI", "HU", "IL", "IS", "LT", "LV", "NO", "PL", "RO", "SE", "SK", "TR", "US"], "album_type": "album", "release_date_precision": "day", "name": "Some Nights (Spotify Exclusive)", "external_urls": {"spotify": "https://open.spotify.com/album/7iycyHwOW2plljYIK6I1Zo"}, "id": "7iycyHwOW2plljYIK6I1Zo", "uri": "spotify:album:7iycyHwOW2plljYIK6I1Zo"}, "external_ids": {"isrc": "USAT21200122"}, "name": "We Are Young (feat. Janelle Mon\u00e1e) - Acoustic", "duration_ms": 272546, "is_local": false, "disc_number": 1, "href": "https://api.spotify.com/v1/tracks/5tbz0VnVwfF3jubvjDGdHo", "artists": [{"type": "artist", "name": "fun.", "external_urls": {"spotify": "https://open.spotify.com/artist/5nCi3BB41mBaMH9gfr6Su0"}, "id": "5nCi3BB41mBaMH9gfr6Su0", "uri": "spotify:artist:5nCi3BB41mBaMH9gfr6Su0", "href": "https://api.spotify.com/v1/artists/5nCi3BB41mBaMH9gfr6Su0"}, {"type": "artist", "name": "Janelle Mon\u00e1e", "external_urls": {"spotify": "https://open.spotify.com/artist/6ueGR6SWhUJfvEhqkvMsVs"}, "id": "6ueGR6SWhUJfvEhqkvMsVs", "uri": "spotify:artist:6ueGR6SWhUJfvEhqkvMsVs", "href": "https://api.spotify.com/v1/artists/6ueGR6SWhUJfvEhqkvMsVs"}], "track_number": 12, "available_markets": ["AT", "BG", "CH", "CZ", "DE", "DK", "EE", "FI", "HU", "IL", "IS", "LT", "LV", "NO", "PL", "RO", "SE", "SK", "TR", "US"], "type": "track", "preview_url": "https://p.scdn.co/mp3-preview/98f117833ec43a3a57c9bb1ce18f8c65e110b4eb?cid=0c947b9d3f7547e28aee080174c283c9", "explicit": false, "external_urls": {"spotify": "https://open.spotify.com/track/5tbz0VnVwfF3jubvjDGdHo"}, "id": "5tbz0VnVwfF3jubvjDGdHo", "uri": "spotify:track:5tbz0VnVwfF3jubvjDGdHo", "popularity": 47}, {"album": {"total_tracks": 11, "type": "album", "release_date": "2012-02-21", "href": "https://api.spotify.com/v1/albums/1NF1jYprU7PhbWepPZSpm2", "artists": [{"type": "artist", "name": "fun.", "external_urls": {"spotify": "https://open.spotify.com/artist/5nCi3BB41mBaMH9gfr6Su0"}, "id": "5nCi3BB41mBaMH9gfr6Su0", "uri": "spotify:artist:5nCi3BB41mBaMH9gfr6Su0", "href": "https://api.spotify.com/v1/artists/5nCi3BB41mBaMH9gfr6Su0"}], "images": [{"width": 640, "url": "https://i.scdn.co/image/ab67616d0000b2736aab310b646d0d269583b23d", "height": 640}, {"width": 300, "url": "https://i.scdn.co/image/ab67616d00001e026aab310b646d0d269583b23d", "height": 300}, {"width": 64, "url": "https://i.scdn.co/image/ab67616d000048516aab310b646d0d269583b23d", "height": 64}], "available_markets": ["CA", "US"], "album_type": "album", "release_date_precision": "day", "name": "Some Nights", "external_urls": {"spotify": "https://open.spotify.com/album/1NF1jYprU7PhbWepPZSpm2"}, "id": "1NF1jYprU7PhbWepPZSpm2", "uri": "spotify:album:1NF1jYprU7PhbWepPZSpm2"}, "external_ids": {"isrc": "USAT21101399"}, "name": "We Are Young (feat. Janelle Mon\u00e1e)", "duration_ms": 250626, "is_local": false, "disc_number": 1, "href": "https://api.spotify.com/v1/tracks/4fz20fbPHtJg8CLuxKOGFV", "artists": [{"type": "artist", "name": "fun.", "external_urls": {"spotify": "https://open.spotify.com/artist/5nCi3BB41mBaMH9gfr6Su0"}, "id": "5nCi3BB41mBaMH9gfr6Su0", "uri": "spotify:artist:5nCi3BB41mBaMH9gfr6Su0", "href": "https://api.spotify.com/v1/artists/5nCi3BB41mBaMH9gfr6Su0"}, {"type": "artist", "name": "Janelle Mon\u00e1e", "external_urls": {"spotify": "https://open.spotify.com/artist/6ueGR6SWhUJfvEhqkvMsVs"}, "id": "6ueGR6SWhUJfvEhqkvMsVs", "uri": "spotify:artist:6ueGR6SWhUJfvEhqkvMsVs", "href": "https://api.spotify.com/v1/artists/6ueGR6SWhUJfvEhqkvMsVs"}], "track_number": 3, "available_markets": ["CA", "US"], "type": "track", "preview_url": "https://p.scdn.co/mp3-preview/af96d9b11588ea7d7754ccf2a8cefa7ead23a7d6?cid=0c947b9d3f7547e28aee080174c283c9", "explicit": false, "external_urls": {"spotify": "https://open.spotify.com/track/4fz20fbPHtJg8CLuxKOGFV"}, "id": "4fz20fbPHtJg8CLuxKOGFV", "uri": "spotify:track:4fz20fbPHtJg8CLuxKOGFV", "popularity": 43}, {"album": {"total_tracks": 1, "type": "album", "release_date": "2012-03-19", "href": "https://api.spotify.com/v1/albums/2VNtmrE0y7MRIVxtGjXL1C", "artists": [{"type": "artist", "name": "fun.", "external_urls": {"spotify": "https://open.spotify.com/artist/5nCi3BB41mBaMH9gfr6Su0"}, "id": "5nCi3BB41mBaMH9gfr6Su0", "uri": "spotify:artist:5nCi3BB41mBaMH9gfr6Su0", "href": "https://api.spotify.com/v1/artists/5nCi3BB41mBaMH9gfr6Su0"}], "images": [{"width": 640, "url": "https://i.scdn.co/image/ab67616d0000b273d29dad225e34d70e4d448e5b", "height": 640}, {"width": 300, "url": "https://i.scdn.co/image/ab67616d00001e02d29dad225e34d70e4d448e5b", "height": 300}, {"width": 64, "url": "https://i.scdn.co/image/ab67616d00004851d29dad225e34d70e4d448e5b", "height": 64}], "available_markets": ["CA", "DK", "FI", "HK", "ID", "IL", "IS", "JP", "MY", "NO", "PH", "SE", "SG", "TH", "TR", "TW", "US", "VN", "ZA"], "album_type": "single", "release_date_precision": "day", "name": "We Are Young (feat. Janelle Mon\u00e1e) [Alvin Risk Remix]", "external_urls": {"spotify": "https://open.spotify.com/album/2VNtmrE0y7MRIVxtGjXL1C"}, "id": "2VNtmrE0y7MRIVxtGjXL1C", "uri": "spotify:album:2VNtmrE0y7MRIVxtGjXL1C"}, "external_ids": {"isrc": "USAT21200250"}, "name": "We Are Young (feat. Janelle Mon\u00e1e) - Alvin Risk Remix", "duration_ms": 249557, "is_local": false, "disc_number": 1, "href": "https://api.spotify.com/v1/tracks/1TOIrGIGW0EumcukTr5v8Z", "artists": [{"type": "artist", "name": "fun.", "external_urls": {"spotify": "https://open.spotify.com/artist/5nCi3BB41mBaMH9gfr6Su0"}, "id": "5nCi3BB41mBaMH9gfr6Su0", "uri": "spotify:artist:5nCi3BB41mBaMH9gfr6Su0", "href": "https://api.spotify.com/v1/artists/5nCi3BB41mBaMH9gfr6Su0"}, {"type": "artist", "name": "Janelle Mon\u00e1e", "external_urls": {"spotify": "https://open.spotify.com/artist/6ueGR6SWhUJfvEhqkvMsVs"}, "id": "6ueGR6SWhUJfvEhqkvMsVs", "uri": "spotify:artist:6ueGR6SWhUJfvEhqkvMsVs", "href": "https://api.spotify.com/v1/artists/6ueGR6SWhUJfvEhqkvMsVs"}, {"type": "artist", "name": "Alvin Risk", "external_urls": {"spotify": "https://open.spotify.com/artist/34PyHmCLNSwQGSH2AahyVN"}, "id": "34PyHmCLNSwQGSH2AahyVN", "uri": "spotify:artist:34PyHmCLNSwQGSH2AahyVN", "href": "https://api.spotify.com/v1/artists/34PyHmCLNSwQGSH2AahyVN"}], "track_number": 1, "available_markets": ["CA", "DK", "FI", "HK", "ID", "IL", "IS", "JP", "MY", "NO", "PH", "SE", "SG", "TH", "TR", "TW", "US", "VN", "ZA"], "type": "track", "preview_url": "https://p.scdn.co/mp3-preview/a965822d2959423f127ce8d01c76bf946048535b?cid=0c947b9d3f7547e28aee080174c283c9", "explicit": false, "external_urls": {"spotify": "https://open.spotify.com/track/1TOIrGIGW0EumcukTr5v8Z"}, "id": "1TOIrGIGW0EumcukTr5v8Z", "uri": "spotify:track:1TOIrGIGW0EumcukTr5v8Z", "popularity": 31}, {"album": {"total_tracks": 1, "type": "album", "release_date": "2012-05-01", "href": "https://api.spotify.com/v1/albums/0RIjUOiX4U1qej9AtHCHt0", "artists": [{"type": "artist", "name": "fun.", "external_urls": {"spotify": "https://open.spotify.com/artist/5nCi3BB41mBaMH9gfr6Su0"}, "id": "5nCi3BB41mBaMH9gfr6Su0", "uri": "spotify:artist:5nCi3BB41mBaMH9gfr6Su0", "href": "https://api.spotify.com/v1/artists/5nCi3BB41mBaMH9gfr6Su0"}], "images": [{"width": 640, "url": "https://i.scdn.co/image/ab67616d0000b2731a1f39f0530debc3e03eeb8b", "height": 640}, {"width": 300, "url": "https://i.scdn.co/image/ab67616d00001e021a1f39f0530debc3e03eeb8b", "height": 300}, {"width": 64, "url": "https://i.scdn.co/image/ab67616d000048511a1f39f0530debc3e03eeb8b", "height": 64}], "available_markets": ["BR", "CA", "IL", "MX", "TR", "US", "ZA"], "album_type": "single", "release_date_precision": "day", "name": "We Are Young (feat. Janelle Mon\u00e1e) [Betatraxx Remix]", "external_urls": {"spotify": "https://open.spotify.com/album/0RIjUOiX4U1qej9AtHCHt0"}, "id": "0RIjUOiX4U1qej9AtHCHt0", "uri": "spotify:album:0RIjUOiX4U1qej9AtHCHt0"}, "external_ids": {"isrc": "USAT21202294"}, "name": "We Are Young (feat. Janelle Mon\u00e1e) - Betatraxx Remix", "duration_ms": 234400, "is_local": false, "disc_number": 1, "href": "https://api.spotify.com/v1/tracks/0ESGkpqUbVmbEbxk5Jj4RG", "artists": [{"type": "artist", "name": "fun.", "external_urls": {"spotify": "https://open.spotify.com/artist/5nCi3BB41mBaMH9gfr6Su0"}, "id": "5nCi3BB41mBaMH9gfr6Su0", "uri": "spotify:artist:5nCi3BB41mBaMH9gfr6Su0", "href": "https://api.spotify.com/v1/artists/5nCi3BB41mBaMH9gfr6Su0"}, {"type": "artist", "name": "Janelle Mon\u00e1e", "external_urls": {"spotify": "https://open.spotify.com/artist/6ueGR6SWhUJfvEhqkvMsVs"}, "id": "6ueGR6SWhUJfvEhqkvMsVs", "uri": "spotify:artist:6ueGR6SWhUJfvEhqkvMsVs", "href": "https://api.spotify.com/v1/artists/6ueGR6SWhUJfvEhqkvMsVs"}, {"type": "artist", "name": "BetaTraxx", "external_urls": {"spotify": "https://open.spotify.com/artist/37mYQtdpxcjmCBwuMmLLal"}, "id": "37mYQtdpxcjmCBwuMmLLal", "uri": "spotify:artist:37mYQtdpxcjmCBwuMmLLal", "href": "https://api.spotify.com/v1/artists/37mYQtdpxcjmCBwuMmLLal"}], "track_number": 1, "available_markets": ["BR", "CA", "IL", "MX", "TR", "US", "ZA"], "type": "track", "preview_url": "https://p.scdn.co/mp3-preview/8f5869156328ba4a69a5dc89a91b15cc63e74b83?cid=0c947b9d3f7547e28aee080174c283c9", "explicit": false, "external_urls": {"spotify": "https://open.spotify.com/track/0ESGkpqUbVmbEbxk5Jj4RG"}, "id": "0ESGkpqUbVmbEbxk5Jj4RG", "uri": "spotify:track:0ESGkpqUbVmbEbxk5Jj4RG", "popularity": 19}], "previous": null, "href": "https://api.spotify.com/v1/search?query=artist%3AFun.+track%3AWe+Are+Young+%28feat.+Janelle+Mon%C3%A1e%29+-+feat.+Janelle+Monae&type=track&offset=0&limit=5", "limit": 5, "total": 6, "next": "https://api.spotify.com/v1/search?query=artist%3AFun.+track%3AWe+Are+Young+%28feat.+Janelle+Mon%C3%A1e%29+-+feat.+Janelle+Monae&type=track&offset=5&limit=5"}}