{"tracks": {"offset": 0, "items": [{"album": {"total_tracks": 11, "type": "album", "release_date": "2004", "href": "https://api.spotify.com/v1/albums/0mUEGMT2YlzCWGeWOJjBKD", "artists": [{"type": "artist", "name": "Franz Ferdinand", "external_urls": {"spotify": "https://open.spotify.com/artist/0XNa1vTidXlvJ2gHSsRi4A"}, "id": "0XNa1vTidXlvJ2gHSsRi4A", "uri": "spotify:artist:0XNa1vTidXlvJ2gHSsRi4A", "href": "https://api.spotify.com/v1/artists/0XNa1vTidXlvJ2gHSsRi4A"}], "images": [{"width": 640, "url": "https://i.scdn.co/image/ab67616d0000b273bf68b5be16edfc6f489a17d7", "height": 640}, {"width": 300, "url": "https://i.scdn.co/image/ab67616d00001e02bf68b5be16edfc6f489a17d7", "height": 300}, {"width": 64, "url": "https://i.scdn.co/image/ab67616d00004851bf68b5be16edfc6f489a17d7", "height": 64}], "available_markets": ["AR", "AU", "BO", "BR", "CA", "CL", "CO", "CR", "EC", "GT", "HK", "HN", "ID", "IN", "JP", "MX", "MY", "NI", "NZ", "PA", "PE", "PH", "PY", "SG", "SV", "TH", "TW", "US", "UY", "VN", "ZA"], "album_type": "album", "release_date_precision": "year", "name": "Franz Ferdinand", "external_urls": {"spotify": "https://open.spotify.com/album/0mUEGMT2YlzCWGeWOJjBKD"}, "id": "0mUEGMT2YlzCWGeWOJjBKD", "uri": "spotify:album:0mUEGMT2YlzCWGeWOJjBKD"}, "external_ids": {"isrc": "USSM10402947"}, "name": "Take Me Out", "duration_ms": 237026, "is_local": false, "disc_number": 1, "href": "https://api.spotify.com/v1/tracks/6ooluO7DiEhI1zmK94nRCM", "artists": [{"type": "artist", "name": "Franz Ferdinand", "external_urls": {"spotify": "https://open.spotify.com/artist/0XNa1vTidXlvJ2gHSsRi4A"}, "id": "0XNa1vTidXlvJ2gHSsRi4A", "uri": "spotify:artist:0XNa1vTidXlvJ2gHSsRi4A", "href": "https://api.spotify.com/v1/artists/0XNa1vTidXlvJ2gHSsRi4A"}], "track_number": 3, "available_markets": ["AR", "AU", "BO", "BR", "CA", "CL", "CO", "CR", "EC", "GT", "HK", "HN", "ID", "IN", "JP", "MX", "MY", "NI", "NZ", "PA", "PE", "PH", "PY", "SG", "SV", "TH", "TW", "US", "UY", "VN", "ZA"], "type": "track", "preview_url": "https://p.scdn.co/mp3-preview/7256fc64a7f9be216199e50f52dc45cb5207ca70?cid=0c947b9d3f7547e28aee080174c283c9", "explicit": false, "external_urls": {"spotify": "https://open.spotify.com/track/6ooluO7DiEhI1zmK94nRCM"}, "id": "6ooluO7DiEhI1zmK94nRCM", "uri": "spotify:track:6ooluO7DiEhI1zmK94nRCM", "popularity": 75}, {"album": {"total_tracks": 16, "type": "album", "release_date": "2004-11-23", "href": "https://api.spotify.com/v1/albums/5zVsO4V4xpxbQlME0bp8pb", "artists": [{"type": "artist", "name": "Franz Ferdinand", "external_urls": {"spotify": "https://open.spotify.com/artist/0XNa1vTidXlvJ2gHSsRi4A"}, "id": "0XNa1vTidXlvJ2gHSsRi4A", "uri": "spotify:artist:0XNa1vTidXlvJ2gHSsRi4A", "href": "https://api.spotify.com/v1/artists/0XNa1vTidXlvJ2gHSsRi4A"}], "images": [{"width": 640, "url": "https://i.scdn.co/image/ab67616d0000b273f9a6a43bbc63e6b02b08fb21", "height": 640}, {"width": 300, "url": "https://i.scdn.co/image/ab67616d00001e02f9a6a43bbc63e6b02b08fb21", "height": 300}, {"width": 64, "url": "https://i.scdn.co/image/ab67616d00004851f9a6a43bbc63e6b02b08fb21", "height": 64}], "available_markets": ["AR", "BO", "BR", "CA", "CL", "CO", "CR", "EC", "GT", "HK", "HN", "ID", "IN", "JP", "MX", "MY", "NI", "PA", "PE", "PH", "PY", "SG", "SV", "TH", "TW", "US", "UY", "VN", "ZA"], "album_type": "album", "release_date_precision": "day", "name": "Franz Ferdinand (Special Edition Version)", "external_urls": {"spotify": "https://open.spotify.com/album/5zVsO4V4xpxbQlME0bp8pb"}, "id": "5zVsO4V4xpxbQlME0bp8pb", "uri": "spotify:album:5zVsO4V4xpxbQlME0bp8pb"}, "external_ids": {"isrc": "USSM10402947"}, "name": "Take Me Out", "duration_ms": 237026, "is_local": false, "disc_number": 1, "href": "https://api.spotify.com/v1/tracks/4RDEEdMP1UvE5u9h6wcWst", "artists": [{"type": "artist", "name": "Franz Ferdinand", "external_urls": {"spotify": "https://open.spotify.com/artist/0XNa1vTidXlvJ2gHSsRi4A"}, "id": "0XNa1vTidXlvJ2gHSsRi4A", "uri": "spotify:artist:0XNa1vTidXlvJ2gHSsRi4A", "href": "https://api.spotify.com/v1/artists/0XNa1vTidXlvJ2gHSsRi4A"}], "track_number": 3, "available_markets": ["AR", "BO", "BR", "CA", "CL", "CO", "CR", "EC", "GT", "HK", "HN", "ID", "IN", "JP", "MX", "MY", "NI", "PA", "PE", "PH", "PY", "SG", "SV", "TH", "TW", "US", "UY", "VN", "ZA"], "type": "track", "preview_url": "https://p.scdn.co/mp3-preview/7256fc64a7f9be216199e50f52dc45cb5207ca70?cid=0c947b9d3f7547e28aee080174c283c9", "explicit": false, "external_urls": {"spotify": "https://open.spotify.com/track/4RDEEdMP1UvE5u9h6wcWst"}, "id": "4RDEEdMP1UvE5u9h6wcWst", "uri": "spotify:track:4RDEEdMP1UvE5u9h6wcWst", "popularity": 40}, {"album": {"total_tracks": 3, "type": "album", "release_date": "2004-05-11", "href": "https://api.spotify.com/v1/albums/6qiwy0fYY87slT0faRrrEP", "artists": [{"type": "artist", "name": "Franz Ferdinand", "external_urls": {"spotify": "https://open.spotify.com/artist/0XNa1vTidXlvJ2gHSsRi4A"}, "id": "0XNa1vTidXlvJ2gHSsRi4A", "uri": "spotify:artist:0XNa1vTidXlvJ2gHSsRi4A", "href": "https://api.spotify.com/v1/artists/0XNa1vTidXlvJ2gHSsRi4A"}], "images": [{"width": 640, "url": "https://i.scdn.co/image/ab67616d0000b273aa9f22ca32eec13469f43f5f", "height": 640}, {"width": 300, "url": "https://i.scdn.co/image/ab67616d00001e02aa9f22ca32eec13469f43f5f", "height": 300}, {"width": 64, "url": "https://i.scdn.co/image/ab67616d00004851aa9f22ca32eec13469f43f5f", "height": 64}], "available_markets": ["AR", "AU", "BO", "BR", "CA", "CL", "CO", "CR", "EC", "GT", "HK", "HN", "ID", "IN", "JP", "MX", "MY", "NI", "NZ", "PA", "PE", "PH", "PY", "SG", "SV", "TH", "TW", "US", "UY", "VN", "ZA"], "album_type": "single", "release_date_precision": "day", "name": "Take Me Out", "external_urls": {"spotify": "https://open.spotify.com/album/6qiwy0fYY87slT0faRrrEP"}, "id": "6qiwy0fYY87slT0faRrrEP", "uri": "spotify:album:6qiwy0fYY87slT0faRrrEP"}, "external_ids": {"isrc": "USSM10402947"}, "name": "Take Me Out", "duration_ms": 241673, "is_local": false, "disc_number": 1, "href": "https://api.spotify.com/v1/tracks/5x3DjsEgBrBfwyrqR27DJk", "artists": [{"type": "artist", "name": "Franz Ferdinand", "external_urls": {"spotify": "https://open.spotify.com/artist/0XNa1vTidXlvJ2gHSsRi4A"}, "id": "0XNa1vTidXlvJ2gHSsRi4A", "uri": "spotify:artist:0XNa1vTidXlvJ2gHSsRi4A", "href": "https://api.spotify.com/v1/artists/0XNa1vTidXlvJ2gHSsRi4A"}], "track_number": 1, "available_markets": ["AR", "AU", "BO", "BR", "CA", "CL", "CO", "CR", "EC", "GT", "HK", "HN", "ID", "IN", "JP", "MX", "MY", "NI", "NZ", "PA", "PE", "PH", "PY", "SG", "SV", "TH", "TW", "US", "UY", "VN", "ZA"], "type": "track", "preview_url": "https://p.scdn.co/mp3-preview/6e6231f25b9dca914a20170df22f2994a8f5762f?cid=0c947b9d3f7547e28aee080174c283c9", "explicit": false, "external_urls": {"spotify": "https://open.spotify.com/track/5x3DjsEgBrBfwyrqR27DJk"}, "id": "5x3DjsEgBrBfwyrqR27DJk", "uri": "spotify:track:5x3DjsEgBrBfwyrqR27DJk", "popularity": 33}, {"album": {"total_tracks": 6, "type": "album", "release_date": "2014-02-03", "href": "https://api.spotify.com/v1/albums/0S3drJbrd9qLMqBtpUvvt3", "artists": [{"type": "artist", "name": "Franz Ferdinand", "external_urls": {"spotify": "https://open.spotify.com/artist/0XNa1vTidXlvJ2gHSsRi4A"}, "id": "0XNa1vTidXlvJ2gHSsRi4A", "uri": "spotify:artist:0XNa1vTidXlvJ2gHSsRi4A", "href": "https://api.spotify.com/v1/artists/0XNa1vTidXlvJ2gHSsRi4A"}], "images": [{"width": 640, "url": "https://i.scdn.co/image/ab67616d0000b273763ef1e098b01f4be049587e", "height": 640}, {"width": 300, "url": "https://i.scdn.co/image/ab67616d00001e02763ef1e098b01f4be049587e", "height": 300}, {"width": 64, "url": "https://i.scdn.co/image/ab67616d00004851763ef1e098b01f4be049587e", "height": 64}], "available_markets": ["AD", "AE", "AR", "AT", "AU", "BE", "BG", "BH", "BO", "BR", "CA", "CH", "CL", "CO", "CR", "CY", "CZ", "DE", "DK", "DO", "DZ", "EC", "EE", "EG", "ES", "FI", "FR", "GB", "GR", "GT", "HK", "HN", "HU", "ID", "IE", "IL", "IN", "IS", "IT", "JO", "JP", "KW", "LB", "LI", "LT", "LU", "LV", "MA", "MC", "MT", "MX", "MY", "NI", "NL", "NO", "NZ", "OM", "PA", "PE", "PH", "PL", "PS", "PT", "PY", "QA", "RO", "SA", "SE", "SG", "SK", "SV", "TH", "TN", "TR", "TW", "US", "UY", "VN", "ZA"], "album_type": "single", "release_date_precision": "day", "name": "Spotify Session", "external_urls": {"spotify": "https://open.spotify.com/album/0S3drJbrd9qLMqBtpUvvt3"}, "id": "0S3drJbrd9qLMqBtpUvvt3", "uri": "spotify:album:0S3drJbrd9qLMqBtpUvvt3"}, "external_ids": {"isrc": "GBCEL1400044"}, "name": "Take Me Out - Live from Avatar Studios", "duration_ms": 238878, "is_local": false, "disc_number": 1, "href": "https://api.spotify.com/v1/tracks/48Gp6fl66YhMrA1lmMWiVb", "artists": [{"type": "artist", "name": "Franz Ferdinand", "external_urls": {"spotify": "https://open.spotify.com/artist/0XNa1vTidXlvJ2gHSsRi4A"}, "id": "0XNa1vTidXlvJ2gHSsRi4A", "uri": "spotify:artist:0XNa1vTidXlvJ2gHSsRi4A", "href": "https://api.spotify.com/v1/artists/0XNa1vTidXlvJ2gHSsRi4A"}], "track_number": 5, "available_markets": ["AD", "AE", "AR", "AT", "AU", "BE", "BG", "BH", "BO", "BR", "CA", "CH", "CL", "CO", "CR", "CY", "CZ", "DE", "DK", "DO", "DZ", "EC", "EE", "EG", "ES", "FI", "FR", "GB", "GR", "GT", "HK", "HN", "HU", "ID", "IE", "IL", "IN", "IS", "IT", "JO", "JP", "KW", "LB", "LI", "LT", "LU", "LV", "MA", "MC", "MT", "MX", "MY", "NI", "NL", "NO", "NZ", "OM", "PA", "PE", "PH", "PL", "PS", "PT", "PY", "QA", "RO", "SA", "SE", "SG", "SK", "SV", "TH", "TN", "TR", "TW", "US", "UY", "VN", "ZA"], "type": "track", "preview_url": "https://p.scdn.co/mp3-preview/10d594a1e3a5eb46cc7d2eb16e11a90733d197b8?cid=0c947b9d3f7547e28aee080174c283c9", "explicit": false, "external_urls": {"spotify": "https://open.spotify.com/track/48Gp6fl66YhMrA1lmMWiVb"}, "id": "48Gp6fl66YhMrA1lmMWiVb", "uri": "spotify:track:48Gp6fl66YhMrA1lmMWiVb", "popularity": 42}, {"album": {"total_tracks": 2, "type": "album", "release_date": "2013-07-08", "href": "https://api.spotify.com/v1/albums/72IEQAuiP85cfH8y4wUoK9", "artists": [{"type": "artist", "name": "Franz Ferdinand", "external_urls": {"spotify": "https://open.spotify.com/artist/0XNa1vTidXlvJ2gHSsRi4A"}, "id": "0XNa1vTidXlvJ2gHSsRi4A", "uri": "spotify:artist:0XNa1vTidXlvJ2gHSsRi4A", "href": "https://api.spotify.com/v1/artists/0XNa1vTidXlvJ2gHSsRi4A"}], "images": [{"width": 640, "url": "https://i.scdn.co/image/ab67616d0000b2732316da8c8a2a048b6c565eac", "height": 640}, {"width": 300, "url": "https://i.scdn.co/image/ab67616d00001e022316da8c8a2a048b6c565eac", "height": 300}, {"width": 64, "url": "https://i.scdn.co/image/ab67616d000048512316da8c8a2a048b6c565eac", "height": 64}], "available_markets": ["AR", "AU", "BO", "BR", "CA", "CL", "CO", "CR", "EC", "GT", "HK", "HN", "ID", "IN", "JP", "MX", "MY", "NI", "NZ", "PA", "PE", "PH", "PY", "SG", "SV", "TH", "TW", "US", "UY", "VN", "ZA"], "album_type": "single", "release_date_precision": "day", "name": "Take Me Out (Remix)", "external_urls": {"spotify": "https://open.spotify.com/album/72IEQAuiP85cfH8y4wUoK9"}, "id": "72IEQAuiP85cfH8y4wUoK9", "uri": "spotify:album:72IEQAuiP85cfH8y4wUoK9"}, "external_ids": {"isrc": "USSM11803341"}, "name": "Take Me Out - Daft Punk Remix", "duration_ms": 272640, "is_local": false, "disc_number": 1, "href": "https://api.spotify.com/v1/tracks/0t6LzgGYDqivpRdvNyvZwL", "artists": [{"type": "artist", "name": "Franz Ferdinand", "external_urls": {"spotify": "https://open.spotify.com/artist/0XNa1vTidXlvJ2gHSsRi4A"}, "id": "0XNa1vTidXlvJ2gHSsRi4A", "uri": "spotify:artist:0XNa1vTidXlvJ2gHSsRi4A", "href": "https://api.spotify.com/v1/artists/0XNa1vTidXlvJ2gHSsRi4A"}, {"type": "artist", "name": "Daft Punk", "external_urls": {"spotify": "https://open.spotify.com/artist/4tZwfgrHOc3mvqYlEYSvVi"}, "id": "4tZwfgrHOc3mvqYlEYSvVi", "uri": "spotify:artist:4tZwfgrHOc3mvqYlEYSvVi", "href": "https://api.spotify.com/v1/artists/4tZwfgrHOc3mvqYlEYSvVi"}], "track_number": 1, "available_markets": ["AR", "AU", "BO", "BR", "CA", "CL", "CO", "CR", "EC", "GT", "HK", "HN", "ID", "IN", "JP", "MX", "MY", "NI", "NZ", "PA", "PE", "PH", "PY", "SG", "SV", "TH", "TW", "US", "UY", "VN", "ZA"], "type": "track", "preview_url": "https://p.scdn.co/mp3-preview/24da68e74589c889168153eb16936b85647053bc?cid=0c947b9d3f7547e28aee080174c283c9", "explicit": false, "external_urls": {"spotify": "https://open.spotify.com/track/0t6LzgGYDqivpRdvNyvZwL"}, "id": "0t6LzgGYDqivpRdvNyvZwL", "uri": "spotify:track:0t6LzgGYDqivpRdvNyvZwL", "popularity": 24}], "previous": null, "href": "https://api.spotify.com/v1/search?query=artist%3AFranz+Ferdinand+track%3ATake+Me+Out&type=track&offset=0&limit=5", "limit": 5, "total": 6, "next": "https://api.spotify.com/v1/search?query=artist%3AFranz+Ferdinand+track%3ATake+Me+Out&type=track&offset=5&limit=5"}}