{"tracks": {"offset": 0, "items": [{"album": {"total_tracks": 13, "type": "album", "release_date": "1994-10-03", "href": "https://api.spotify.com/v1/albums/5GugLrmYMl5VRoe2zNgLGp", "artists": [{"type": "artist", "name": "The Cranberries", "external_urls": {"spotify": "https://open.spotify.com/artist/7t0rwkOPGlDPEhaOcVtOt9"}, "id": "7t0rwkOPGlDPEhaOcVtOt9", "uri": "spotify:artist:7t0rwkOPGlDPEhaOcVtOt9", "href": "https://api.spotify.com/v1/artists/7t0rwkOPGlDPEhaOcVtOt9"}], "images": [{"width": 640, "url": "https://i.scdn.co/image/ab67616d0000b273d84773d17fe87f9245b4723a", "height": 640}, {"width": 300, "url": "https://i.scdn.co/image/ab67616d00001e02d84773d17fe87f9245b4723a", "height": 300}, {"width": 64, "url": "https://i.scdn.co/image/ab67616d00004851d84773d17fe87f9245b4723a", "height": 64}], "available_markets": ["AD", "AE", "AR", "AT", "AU", "BE", "BG", "BH", "BO", "BR", "CA", "CH", "CL", "CO", "CR", "CY", "CZ", "DE", "DK", "DO", "DZ", "EC", "EE", "EG", "ES", "FI", "FR", "GB", "GR", "GT", "HK", "HN", "HU", "ID", "IE", "IL", "IN", "IS", "IT", "JO", "JP", "KW", "LB", "LI", "LT", "LU", "LV", "MA", "MC", "MT", "MX", "MY", "NI", "NL", "NO", "NZ", "OM", "PA", "PE", "PH", "PL", "PS", "PT", "PY", "QA", "RO", "SA", "SE", "SG", "SK", "SV", "TH", "TN", "TR", "TW", "US", "UY", "VN", "ZA"], "album_type": "album", "release_date_precision": "day", "name": "No Need To Argue", "external_urls": {"spotify": "https://open.spotify.com/album/5GugLrmYMl5VRoe2zNgLGp"}, "id": "5GugLrmYMl5VRoe2zNgLGp", "uri": "spotify:album:5GugLrmYMl5VRoe2zNgLGp"}, "external_ids": {"isrc": "USIR29400443"}, "name": "Zombie", "duration_ms": 306410, "is_local": false, "disc_number": 1, "href": "https://api.spotify.com/v1/tracks/2IZZqH4K02UIYg5EohpNHF", "artists": [{"type": "artist", "name": "The Cranberries", "external_urls": {"spotify": "https://open.spotify.com/artist/7t0rwkOPGlDPEhaOcVtOt9"}, "id": "7t0rwkOPGlDPEhaOcVtOt9", "uri": "spotify:artist:7t0rwkOPGlDPEhaOcVtOt9", "href": "https://api.spotify.com/v1/artists/7t0rwkOPGlDPEhaOcVtOt9"}], "track_number": 4, "available_markets": ["AD", "AE", "AR", "AT", "AU", "BE", "BG", "BH", "BO", "BR", "CA", "CH", "CL", "CO", "CR", "CY", "CZ", "DE", "DK", "DO", "DZ", "EC", "EE", "EG", "ES", "FI", "FR", "GB", "GR", "GT", "HK", "HN", "HU", "ID", "IE", "IL", "IN", "IS", "IT", "JO", "JP", "KW", "LB", "LI", "LT", "LU", "LV", "MA", "MC", "MT", "MX", "MY", "NI", "NL", "NO", "NZ", "OM", "PA", "PE", "PH", "PL", "PS", "PT", "PY", "QA", "RO", "SA", "SE", "SG", "SK", "SV", "TH", "TN", "TR", "TW", "US", "UY", "VN", "ZA"], "type": "track", "preview_url": null, "explicit": false, "external_urls": {"spotify": "https://open.spotify.com/track/2IZZqH4K02UIYg5EohpNHF"}, "id": "2IZZqH4K02UIYg5EohpNHF", "uri": "spotify:track:2IZZqH4K02UIYg5EohpNHF", "popularity": 81}, {"album": {"total_tracks": 13, "type": "album", "release_date": "2017-04-28", "href": "https://api.spotify.com/v1/albums/0iBRl2CMi7gbt17WfdVI2r", "artists": [{"type": "artist", "name": "The Cranberries", "external_urls": {"spotify": "https://open.spotify.com/artist/7t0rwkOPGlDPEhaOcVtOt9"}, "id": "7t0rwkOPGlDPEhaOcVtOt9", "uri": "spotify:artist:7t0rwkOPGlDPEhaOcVtOt9", "href": "https://api.spotify.com/v1/artists/7t0rwkOPGlDPEhaOcVtOt9"}], "images": [{"width": 640, "url": "https://i.scdn.co/image/ab67616d0000b273d28b05126ae5467e8d0c236c", "height": 640}, {"width": 300, "url": "https://i.scdn.co/image/ab67616d00001e02d28b05126ae5467e8d0c236c", "height": 300}, {"width": 64, "url": "https://i.scdn.co/image/ab67616d00004851d28b05126ae5467e8d0c236c", "height": 64}], "available_markets": ["AD", "AE", "AR", "AT", "AU", "BE", "BG", "BH", "BO", "BR", "CA", "CH", "CL", "CO", "CR", "CY", "CZ", "DE", "DK", "DO", "DZ", "EC", "EE", "EG", "ES", "FI", "FR", "GB", "GR", "GT", "HK", "HN", "HU", "ID", "IE", "IL", "IS", "IT", "JO", "JP", "KW", "LB", "LI", "LT", "LU", "LV", "MA", "MC", "MT", "MX", "MY", "NI", "NL", "NO", "NZ", "OM", "PA", "PE", "PH", "PL", "PS", "PT", "PY", "QA", "RO", "SA", "SE", "SG", "SK", "SV", "TH", "TN", "TR", "TW", "US", "UY", "VN", "ZA"], "album_type": "album", "release_date_precision": "day", "name": "Something Else", "external_urls": {"spotify": "https://open.spotify.com/album/0iBRl2CMi7gbt17WfdVI2r"}, "id": "0iBRl2CMi7gbt17WfdVI2r", "uri": "spotify:album:0iBRl2CMi7gbt17WfdVI2r"}, "external_ids": {"isrc": "GB5KW1700211"}, "name": "Zombie - Acoustic Version", "duration_ms": 241560, "is_local": false, "disc_number": 1, "href": "https://api.spotify.com/v1/tracks/1qylvO4iCIZZcqc4TqSjTZ", "artists": [{"type": "artist", "name": "The Cranberries", "external_urls": {"spotify": "https://open.spotify.com/artist/7t0rwkOPGlDPEhaOcVtOt9"}, "id": "7t0rwkOPGlDPEhaOcVtOt9", "uri": "spotify:artist:7t0rwkOPGlDPEhaOcVtOt9", "href": "https://api.spotify.com/v1/artists/7t0rwkOPGlDPEhaOcVtOt9"}], "track_number": 5, "available_markets": ["AD", "AE", "AR", "AT", "AU", "BE", "BG", "BH", "BO", "BR", "CA", "CH", "CL", "CO", "CR", "CY", "CZ", "DE", "DK", "DO", "DZ", "EC", "EE", "EG", "ES", "FI", "FR", "GB", "GR", "GT", "HK", "HN", "HU", "ID", "IE", "IL", "IS", "IT", "JO", "JP", "KW", "LB", "LI", "LT", "LU", "LV", "MA", "MC", "MT", "MX", "MY", "NI", "NL", "NO", "NZ", "OM", "PA", "PE", "PH", "PL", "PS", "PT", "PY", "QA", "RO", "SA", "SE", "SG", "SK", "SV", "TH", "TN", "TR", "TW", "US", "UY", "VN", "ZA"], "type": "track", "preview_url": "https://p.scdn.co/mp3-preview/711fc0d7bda084a82210eff4f82305954a3161d6?cid=0c947b9d3f7547e28aee080174c283c9", "explicit": false, "external_urls": {"spotify": "https://open.spotify.com/track/1qylvO4iCIZZcqc4TqSjTZ"}, "id": "1qylvO4iCIZZcqc4TqSjTZ", "uri": "spotify:track:1qylvO4iCIZZcqc4TqSjTZ", "popularity": 66}, {"album": {"total_tracks": 11, "type": "album", "release_date": "2005-09-27", "href": "https://api.spotify.com/v1/albums/4yRohkbSHhDhlmqlcnY1AE", "artists": [{"type": "artist", "name": "The Cranberries", "external_urls": {"spotify": "https://open.spotify.com/artist/7t0rwkOPGlDPEhaOcVtOt9"}, "id": "7t0rwkOPGlDPEhaOcVtOt9", "uri": "spotify:artist:7t0rwkOPGlDPEhaOcVtOt9", "href": "https://api.spotify.com/v1/artists/7t0rwkOPGlDPEhaOcVtOt9"}], "images": [{"width": 640, "url": "https://i.scdn.co/image/4a621b355e23e5f082443b8a8e23121b54cd5163", "height": 571}, {"width": 300, "url": "https://i.scdn.co/image/f4e5f25823dd045fe92abec21ad150f1b26b5e58", "height": 268}, {"width": 64, "url": "https://i.scdn.co/image/68f5eab495b47ecf1aab2a1947c68d36e065a4ef", "height": 57}], "available_markets": ["CA", "CR", "MX", "US"], "album_type": "compilation", "release_date_precision": "day", "name": "20th Century Masters - The Millennium Collection: The Best Of The Cranberries", "external_urls": {"spotify": "https://open.spotify.com/album/4yRohkbSHhDhlmqlcnY1AE"}, "id": "4yRohkbSHhDhlmqlcnY1AE", "uri": "spotify:album:4yRohkbSHhDhlmqlcnY1AE"}, "external_ids": {"isrc": "USIR29400443"}, "name": "Zombie", "duration_ms": 307440, "is_local": false, "disc_number": 1, "href": "https://api.spotify.com/v1/tracks/0vrZoFXahwpthoKGWI4L96", "artists": [{"type": "artist", "name": "The Cranberries", "external_urls": {"spotify": "https://open.spotify.com/artist/7t0rwkOPGlDPEhaOcVtOt9"}, "id": "7t0rwkOPGlDPEhaOcVtOt9", "uri": "spotify:artist:7t0rwkOPGlDPEhaOcVtOt9", "href": "https://api.spotify.com/v1/artists/7t0rwkOPGlDPEhaOcVtOt9"}], "track_number": 3, "available_markets": ["CA", "CR", "MX", "US"], "type": "track", "preview_url": null, "explicit": false, "external_urls": {"spotify": "https://open.spotify.com/track/0vrZoFXahwpthoKGWI4L96"}, "id": "0vrZoFXahwpthoKGWI4L96", "uri": "spotify:track:0vrZoFXahwpthoKGWI4L96", "popularity": 50}, {"album": {"total_tracks": 18, "type": "album", "release_date": "1994-10-03", "href": "https://api.spotify.com/v1/albums/1Bwo9JkbVwxGyvtQNMRK21", "artists": [{"type": "artist", "name": "The Cranberries", "external_urls": {"spotify": "https://open.spotify.com/artist/7t0rwkOPGlDPEhaOcVtOt9"}, "id": "7t0rwkOPGlDPEhaOcVtOt9", "uri": "spotify:artist:7t0rwkOPGlDPEhaOcVtOt9", "href": "https://api.spotify.com/v1/artists/7t0rwkOPGlDPEhaOcVtOt9"}], "images": [{"width": 640, "url": "https://i.scdn.co/image/ab67616d0000b2735f1c06c8904d455464b642b6", "height": 640}, {"width": 300, "url": "https://i.scdn.co/image/ab67616d00001e025f1c06c8904d455464b642b6", "height": 300}, {"width": 64, "url": "https://i.scdn.co/image/ab67616d000048515f1c06c8904d455464b642b6", "height": 64}], "available_markets": ["AD", "AE", "AR", "AT", "AU", "BE", "BG", "BH", "BO", "BR", "CA", "CH", "CL", "CO", "CR", "CY", "CZ", "DE", "DK", "DO", "DZ", "EC", "EE", "EG", "ES", "FI", "FR", "GB", "GR", "GT", "HK", "HN", "HU", "ID", "IE", "IL", "IN", "IS", "IT", "JO", "JP", "KW", "LB", "LI", "LT", "LU", "LV", "MC", "MT", "MX", "MY", "NI", "NL", "NO", "NZ", "OM", "PA", "PE", "PH", "PL", "PS", "PT", "PY", "QA", "RO", "SA", "SE", "SG", "SK", "SV", "TH", "TN", "TR", "TW", "US", "UY", "VN", "ZA"], "album_type": "album", "release_date_precision": "day", "name": "No Need To Argue (The Complete Sessions 1994-1995)", "external_urls": {"spotify": "https://open.spotify.com/album/1Bwo9JkbVwxGyvtQNMRK21"}, "id": "1Bwo9JkbVwxGyvtQNMRK21", "uri": "spotify:album:1Bwo9JkbVwxGyvtQNMRK21"}, "external_ids": {"isrc": "USIR29400443"}, "name": "Zombie", "duration_ms": 306440, "is_local": false, "disc_number": 1, "href": "https://api.spotify.com/v1/tracks/7EZC6E7UjZe63f1jRmkWxt", "artists": [{"type": "artist", "name": "The Cranberries", "external_urls": {"spotify": "https://open.spotify.com/artist/7t0rwkOPGlDPEhaOcVtOt9"}, "id": "7t0rwkOPGlDPEhaOcVtOt9", "uri": "spotify:artist:7t0rwkOPGlDPEhaOcVtOt9", "href": "https://api.spotify.com/v1/artists/7t0rwkOPGlDPEhaOcVtOt9"}], "track_number": 4, "available_markets": ["AD", "AE", "AR", "AT", "AU", "BE", "BG", "BH", "BO", "BR", "CA", "CH", "CL", "CO", "CR", "CY", "CZ", "DE", "DK", "DO", "DZ", "EC", "EE", "EG", "ES", "FI", "FR", "GB", "GR", "GT", "HK", "HN", "HU", "ID", "IE", "IL", "IN", "IS", "IT", "JO", "JP", "KW", "LB", "LI", "LT", "LU", "LV", "MC", "MT", "MX", "MY", "NI", "NL", "NO", "NZ", "OM", "PA", "PE", "PH", "PL", "PS", "PT", "PY", "QA", "RO", "SA", "SE", "SG", "SK", "SV", "TH", "TN", "TR", "TW", "US", "UY", "VN", "ZA"], "type": "track", "preview_url": null, "explicit": false, "external_urls": {"spotify": "https://open.spotify.com/track/7EZC6E7UjZe63f1jRmkWxt"}, "id": "7EZC6E7UjZe63f1jRmkWxt", "uri": "spotify:track:7EZC6E7UjZe63f1jRmkWxt", "popularity": 45}, {"album": {"total_tracks": 22, "type": "album", "release_date": "2012-12-03", "href": "https://api.spotify.com/v1/albums/0OdzgcmiA4tD4FqIX4qpKt", "artists": [{"type": "artist", "name": "The Cranberries", "external_urls": {"spotify": "https://open.spotify.com/artist/7t0rwkOPGlDPEhaOcVtOt9"}, "id": "7t0rwkOPGlDPEhaOcVtOt9", "uri": "spotify:artist:7t0rwkOPGlDPEhaOcVtOt9", "href": "https://api.spotify.com/v1/artists/7t0rwkOPGlDPEhaOcVtOt9"}], "images": [{"width": 640, "url": "https://i.scdn.co/image/ab67616d0000b2735ca447e71775ba60f142dd7c", "height": 640}, {"width": 300, "url": "https://i.scdn.co/image/ab67616d00001e025ca447e71775ba60f142dd7c", "height": 300}, {"width": 64, "url": "https://i.scdn.co/image/ab67616d000048515ca447e71775ba60f142dd7c", "height": 64}], "available_markets": ["AD", "AE", "AR", "AT", "AU", "BE", "BG", "BH", "BO", "BR", "CA", "CH", "CL", "CO", "CR", "CY", "CZ", "DE", "DK", "DO", "DZ", "EC", "EE", "EG", "ES", "FI", "FR", "GB", "GR", "GT", "HK", "HN", "HU", "ID", "IE", "IL", "IN", "IS", "IT", "JO", "JP", "KW", "LB", "LI", "LT", "LU", "LV", "MA", "MC", "MT", "MX", "MY", "NI", "NL", "NO", "NZ", "OM", "PA", "PE", "PH", "PL", "PS", "PT", "PY", "QA", "RO", "SA", "SE", "SG", "SK", "SV", "TH", "TN", "TR", "TW", "US", "UY", "VN", "ZA"], "album_type": "album", "release_date_precision": "day", "name": "Live At the Hammersmith Apollo, London 2012", "external_urls": {"spotify": "https://open.spotify.com/album/0OdzgcmiA4tD4FqIX4qpKt"}, "id": "0OdzgcmiA4tD4FqIX4qpKt", "uri": "spotify:album:0OdzgcmiA4tD4FqIX4qpKt"}, "external_ids": {"isrc": "GBC9X1100497"}, "name": "Zombie - Live", "duration_ms": 307999, "is_local": false, "disc_number": 1, "href": "https://api.spotify.com/v1/tracks/58ScVStEQpu8v3V6CX7OGC", "artists": [{"type": "artist", "name": "The Cranberries", "external_urls": {"spotify": "https://open.spotify.com/artist/7t0rwkOPGlDPEhaOcVtOt9"}, "id": "7t0rwkOPGlDPEhaOcVtOt9", "uri": "spotify:artist:7t0rwkOPGlDPEhaOcVtOt9", "href": "https://api.spotify.com/v1/artists/7t0rwkOPGlDPEhaOcVtOt9"}], "track_number": 19, "available_markets": ["AD", "AE", "AR", "AT", "AU", "BE", "BG", "BH", "BO", "BR", "CA", "CH", "CL", "CO", "CR", "CY", "CZ", "DE", "DK", "DO", "DZ", "EC", "EE", "EG", "ES", "FI", "FR", "GB", "GR", "GT", "HK", "HN", "HU", "ID", "IE", "IL", "IN", "IS", "IT", "JO", "JP", "KW", "LB", "LI", "LT", "LU", "LV", "MA", "MC", "MT", "MX", "MY", "NI", "NL", "NO", "NZ", "OM", "PA", "PE", "PH", "PL", "PS", "PT", "PY", "QA", "RO", "SA", "SE", "SG", "SK", "SV", "TH", "TN", "TR", "TW", "US", "UY", "VN", "ZA"], "type": "track", "preview_url": "https://p.scdn.co/mp3-preview/167becd1889d0096ff9950673e635832d631e113?cid=0c947b9d3f7547e28aee080174c283c9", "explicit": false, "external_urls": {"spotify": "https://open.spotify.com/track/58ScVStEQpu8v3V6CX7OGC"}, "id": "58ScVStEQpu8v3V6CX7OGC", "uri": "spotify:track:58ScVStEQpu8v3V6CX7OGC", "popularity": 42}], "previous": null, "href": "https://api.spotify.com/v1/search?query=artist%3AThe+Cranberries+track%3AZombie&type=track&offset=0&limit=5", "limit": 5, "total": 62, "next": "https://api.spotify.com/v1/search?query=artist%3AThe+Cranberries+track%3AZombie&type=track&offset=5&limit=5"}}