{"tracks": {"offset": 0, "items": [{"album": {"total_tracks": 30, "type": "album", "release_date": "1991-03-12", "href": "https://api.spotify.com/v1/albums/6yEuIwTQpciH1qtj7mP5GK", "artists": [{"type": "artist", "name": "R.E.M.", "external_urls": {"spotify": "https://open.spotify.com/artist/4KWTAlx2RvbpseOGMEmROg"}, "id": "4KWTAlx2RvbpseOGMEmROg", "uri": "spotify:artist:4KWTAlx2RvbpseOGMEmROg", "href": "https://api.spotify.com/v1/artists/4KWTAlx2RvbpseOGMEmROg"}], "images": [{"width": 640, "url": "https://i.scdn.co/image/ab67616d0000b273f93f634c5c4133da9d7464d1", "height": 640}, {"width": 300, "url": "https://i.scdn.co/image/ab67616d00001e02f93f634c5c4133da9d7464d1", "height": 300}, {"width": 64, "url": "https://i.scdn.co/image/ab67616d00004851f93f634c5c4133da9d7464d1", "height": 64}], "available_markets": ["AD", "AE", "AR", "AT", "AU", "BE", "BG", "BH", "BO", "BR", "CA", "CH", "CL", "CO", "CR", "CY", "CZ", "DE", "DK", "DO", "DZ", "EC", "EE", "EG", "ES", "FI", "FR", "GB", "GR", "GT", "HK", "HN", "HU", "ID", "IE", "IL", "IN", "IS", "IT", "JO", "JP", "KW", "LB", "LI", "LT", "LU", "LV", "MA", "MC", "MT", "MX", "MY", "NI", "NL", "NO", "NZ", "OM", "PA", "PE", "PH", "PL", "PS", "PT", "PY", "QA", "RO", "SA", "SE", "SG", "SK", "SV", "TH", "TN", "TR", "TW", "US", "UY", "VN", "ZA"], "album_type": "album", "release_date_precision": "day", "name": "Out Of Time (25th Anniversary Edition)", "external_urls": {"spotify": "https://open.spotify.com/album/6yEuIwTQpciH1qtj7mP5GK"}, "id": "6yEuIwTQpciH1qtj7mP5GK", "uri": "spotify:album:6yEuIwTQpciH1qtj7mP5GK"}, "external_ids": {"isrc": "USC4R1605373"}, "name": "Losing My Religion", "duration_ms": 268426, "is_local": false, "disc_number": 1, "href": "https://api.spotify.com/v1/tracks/31AOj9sFz2gM0O3hMARRBx", "artists": [{"type": "artist", "name": "R.E.M.", "external_urls": {"spotify": "https://open.spotify.com/artist/4KWTAlx2RvbpseOGMEmROg"}, "id": "4KWTAlx2RvbpseOGMEmROg", "uri": "spotify:artist:4KWTAlx2RvbpseOGMEmROg", "href": "https://api.spotify.com/v1/artists/4KWTAlx2RvbpseOGMEmROg"}], "track_number": 2, "available_markets": ["AD", "AE", "AR", "AT", "AU", "BE", "BG", "BH", "BO", "BR", "CA", "CH", "CL", "CO", "CR", "CY", "CZ", "DE", "DK", "DO", "DZ", "EC", "EE", "EG", "ES", "FI", "FR", "GB", "GR", "GT", "HK", "HN", "HU", "ID", "IE", "IL", "IN", "IS", "IT", "JO", "JP", "KW", "LB", "LI", "LT", "LU", "LV", "MA", "MC", "MT", "MX", "MY", "NI", "NL", "NO", "NZ", "OM", "PA", "PE", "PH", "PL", "PS", "PT", "PY", "QA", "RO", "SA", "SE", "SG", "SK", "SV", "TH", "TN", "TR", "TW", "US", "UY", "VN", "ZA"], "type": "track", "preview_url": null, "explicit": false, "external_urls": {"spotify": "https://open.spotify.com/track/31AOj9sFz2gM0O3hMARRBx"}, "id": "31AOj9sFz2gM0O3hMARRBx", "uri": "spotify:track:31AOj9sFz2gM0O3hMARRBx", "popularity": 82}, {"album": {"total_tracks": 6, "type": "album", "release_date": "2019-10-11", "href": "https://api.spotify.com/v1/albums/0Q9x791htrV3fM85nn6o4L", "artists": [{"type": "artist", "name": "R.E.M.", "external_urls": {"spotify": "https://open.spotify.com/artist/4KWTAlx2RvbpseOGMEmROg"}, "id": "4KWTAlx2RvbpseOGMEmROg", "uri": "spotify:artist:4KWTAlx2RvbpseOGMEmROg", "href": "https://api.spotify.com/v1/artists/4KWTAlx2RvbpseOGMEmROg"}], "images": [{"width": 640, "url": "https://i.scdn.co/image/08e8a0e3f92ddef0f4a4182aed76717c5e679b84", "height": 640}, {"width": 300, "url": "https://i.scdn.co/image/5dc871c2e51341e59068fb518acccd98673acc82", "height": 300}, {"width": 64, "url": "https://i.scdn.co/image/2221d156ae95a5813aaed1ad5b8bc91a518f0472", "height": 64}], "available_markets": ["NZ", "AU", "JP", "HK", "MY", "PH", "SG", "TW", "ID", "TH", "VN", "IN", "AE", "OM", "BG", "BH", "CY", "EE", "FI", "GR", "IL", "KW", "LB", "LT", "LV", "PS", "QA", "RO", "SA", "TR", "AD", "AT", "BE", "CH", "CZ", "DE", "DK", "EG", "ES", "FR", "HU", "IT", "JO", "LI", "LU", "MC", "MT", "NL", "NO", "PL", "SE", "SK", "ZA", "DZ", "GB", "IE", "MA", "PT", "TN", "IS", "BR", "AR", "CL", "PY", "UY", "BO", "CA", "DO", "US", "CO", "EC", "MX", "PA", "PE", "CR", "GT", "HN", "NI", "SV"], "album_type": "single", "release_date_precision": "day", "name": "Let Me In (Remix)", "external_urls": {"spotify": "https://open.spotify.com/album/0Q9x791htrV3fM85nn6o4L"}, "id": "0Q9x791htrV3fM85nn6o4L", "uri": "spotify:album:0Q9x791htrV3fM85nn6o4L"}, "external_ids": {"isrc": "USC4R1901489"}, "name": "Losing My Religion - Live In Chicago / 1995", "duration_ms": 294880, "is_local": false, "disc_number": 1, "href": "https://api.spotify.com/v1/tracks/6UczhKEuvFsQyBUyLR295v", "artists": [{"type": "artist", "name": "R.E.M.", "external_urls": {"spotify": "https://open.spotify.com/artist/4KWTAlx2RvbpseOGMEmROg"}, "id": "4KWTAlx2RvbpseOGMEmROg", "uri": "spotify:artist:4KWTAlx2RvbpseOGMEmROg", "href": "https://api.spotify.com/v1/artists/4KWTAlx2RvbpseOGMEmROg"}], "track_number": 5, "available_markets": ["NZ", "AU", "JP", "HK", "MY", "PH", "SG", "TW", "ID", "TH", "VN", "IN", "AE", "OM", "BG", "BH", "CY", "EE", "FI", "GR", "IL", "KW", "LB", "LT", "LV", "PS", "QA", "RO", "SA", "TR", "AD", "AT", "BE", "CH", "CZ", "DE", "DK", "EG", "ES", "FR", "HU", "IT", "JO", "LI", "LU", "MC", "MT", "NL", "NO", "PL", "SE", "SK", "ZA", "DZ", "GB", "IE", "MA", "PT", "TN", "IS", "BR", "AR", "CL", "PY", "UY", "BO", "CA", "DO", "US", "CO", "EC", "MX", "PA", "PE", "CR", "GT", "HN", "NI", "SV"], "type": "track", "preview_url": null, "explicit": false, "external_urls": {"spotify": "https://open.spotify.com/track/6UczhKEuvFsQyBUyLR295v"}, "id": "6UczhKEuvFsQyBUyLR295v", "uri": "spotify:track:6UczhKEuvFsQyBUyLR295v", "popularity": 22}, {"album": {"total_tracks": 18, "type": "album", "release_date": "2003-01-01", "href": "https://api.spotify.com/v1/albums/3UvVHQ31PhSMtI2GIS91Lz", "artists": [{"type": "artist", "name": "R.E.M.", "external_urls": {"spotify": "https://open.spotify.com/artist/4KWTAlx2RvbpseOGMEmROg"}, "id": "4KWTAlx2RvbpseOGMEmROg", "uri": "spotify:artist:4KWTAlx2RvbpseOGMEmROg", "href": "https://api.spotify.com/v1/artists/4KWTAlx2RvbpseOGMEmROg"}], "images": [{"width": 640, "url": "https://i.scdn.co/image/ab67616d0000b273685825fdf54bb298c95acc92", "height": 640}, {"width": 300, "url": "https://i.scdn.co/image/ab67616d00001e02685825fdf54bb298c95acc92", "height": 300}, {"width": 64, "url": "https://i.scdn.co/image/ab67616d00004851685825fdf54bb298c95acc92", "height": 64}], "available_markets": ["AD", "AE", "AR", "AT", "AU", "BE", "BG", "BH", "BO", "BR", "CA", "CH", "CL", "CO", "CR", "CY", "CZ", "DE", "DK", "DO", "DZ", "EC", "EE", "EG", "ES", "FI", "FR", "GB", "GR", "GT", "HK", "HN", "HU", "ID", "IE", "IL", "IN", "IS", "IT", "JO", "JP", "KW", "LB", "LI", "LT", "LU", "LV", "MA", "MC", "MT", "MX", "MY", "NI", "NL", "NO", "NZ", "OM", "PA", "PE", "PH", "PL", "PS", "PT", "PY", "QA", "RO", "SA", "SE", "SG", "SK", "SV", "TH", "TN", "TR", "TW", "US", "UY", "VN", "ZA"], "album_type": "compilation", "release_date_precision": "day", "name": "In Time: The Best Of R.E.M. 1988-2003", "external_urls": {"spotify": "https://open.spotify.com/album/3UvVHQ31PhSMtI2GIS91Lz"}, "id": "3UvVHQ31PhSMtI2GIS91Lz", "uri": "spotify:album:3UvVHQ31PhSMtI2GIS91Lz"}, "external_ids": {"isrc": "USWB19901521"}, "name": "Losing My Religion", "duration_ms": 269000, "is_local": false, "disc_number": 1, "href": "https://api.spotify.com/v1/tracks/6FBlNlVx0xrXPb9suicaMM", "artists": [{"type": "artist", "name": "R.E.M.", "external_urls": {"spotify": "https://open.spotify.com/artist/4KWTAlx2RvbpseOGMEmROg"}, "id": "4KWTAlx2RvbpseOGMEmROg", "uri": "spotify:artist:4KWTAlx2RvbpseOGMEmROg", "href": "https://api.spotify.com/v1/artists/4KWTAlx2RvbpseOGMEmROg"}], "track_number": 6, "available_markets": ["AD", "AE", "AR", "AT", "AU", "BE", "BG", "BH", "BO", "BR", "CA", "CH", "CL", "CO", "CR", "CY", "CZ", "DE", "DK", "DO", "DZ", "EC", "EE", "EG", "ES", "FI", "FR", "GB", "GR", "GT", "HK", "HN", "HU", "ID", "IE", "IL", "IN", "IS", "IT", "JO", "JP", "KW", "LB", "LI", "LT", "LU", "LV", "MA", "MC", "MT", "MX", "MY", "NI", "NL", "NO", "NZ", "OM", "PA", "PE", "PH", "PL", "PS", "PT", "PY", "QA", "RO", "SA", "SE", "SG", "SK", "SV", "TH", "TN", "TR", "TW", "US", "UY", "VN", "ZA"], "type": "track", "preview_url": null, "explicit": false, "external_urls": {"spotify": "https://open.spotify.com/track/6FBlNlVx0xrXPb9suicaMM"}, "id": "6FBlNlVx0xrXPb9suicaMM", "uri": "spotify:track:6FBlNlVx0xrXPb9suicaMM", "popularity": 50}, {"album": {"total_tracks": 33, "type": "album", "release_date": "2014-04-19", "href": "https://api.spotify.com/v1/albums/466yqXpT3oIlEG4QLwIfc6", "artists": [{"type": "artist", "name": "R.E.M.", "external_urls": {"spotify": "https://open.spotify.com/artist/4KWTAlx2RvbpseOGMEmROg"}, "id": "4KWTAlx2RvbpseOGMEmROg", "uri": "spotify:artist:4KWTAlx2RvbpseOGMEmROg", "href": "https://api.spotify.com/v1/artists/4KWTAlx2RvbpseOGMEmROg"}], "images": [{"width": 640, "url": "https://i.scdn.co/image/ab67616d0000b273c095a766b4119b270079a52c", "height": 640}, {"width": 300, "url": "https://i.scdn.co/image/ab67616d00001e02c095a766b4119b270079a52c", "height": 300}, {"width": 64, "url": "https://i.scdn.co/image/ab67616d00004851c095a766b4119b270079a52c", "height": 64}], "available_markets": ["AD", "AE", "AR", "AT", "AU", "BE", "BG", "BH", "BO", "BR", "CA", "CH", "CL", "CO", "CR", "CY", "CZ", "DE", "DK", "DO", "DZ", "EC", "EE", "EG", "ES", "FI", "FR", "GB", "GR", "GT", "HK", "HN", "HU", "ID", "IE", "IL", "IS", "IT", "JO", "JP", "KW", "LB", "LT", "LU", "LV", "MA", "MC", "MT", "MX", "MY", "NI", "NL", "NO", "NZ", "OM", "PA", "PE", "PH", "PL", "PT", "PY", "QA", "RO", "SA", "SE", "SG", "SK", "SV", "TH", "TN", "TR", "TW", "US", "UY", "VN", "ZA"], "album_type": "compilation", "release_date_precision": "day", "name": "Unplugged 1991/2001: The Complete Sessions", "external_urls": {"spotify": "https://open.spotify.com/album/466yqXpT3oIlEG4QLwIfc6"}, "id": "466yqXpT3oIlEG4QLwIfc6", "uri": "spotify:album:466yqXpT3oIlEG4QLwIfc6"}, "external_ids": {"isrc": "USRH11301631"}, "name": "Losing My Religion", "duration_ms": 293866, "is_local": false, "disc_number": 1, "href": "https://api.spotify.com/v1/tracks/1ZyBSeyX7ISulW1NARgWFS", "artists": [{"type": "artist", "name": "R.E.M.", "external_urls": {"spotify": "https://open.spotify.com/artist/4KWTAlx2RvbpseOGMEmROg"}, "id": "4KWTAlx2RvbpseOGMEmROg", "uri": "spotify:artist:4KWTAlx2RvbpseOGMEmROg", "href": "https://api.spotify.com/v1/artists/4KWTAlx2RvbpseOGMEmROg"}], "track_number": 10, "available_markets": ["AD", "AE", "AR", "AT", "AU", "BE", "BG", "BH", "BO", "BR", "CA", "CH", "CL", "CO", "CR", "CY", "CZ", "DE", "DK", "DO", "DZ", "EC", "EE", "EG", "ES", "FI", "FR", "GB", "GR", "GT", "HK", "HN", "HU", "ID", "IE", "IL", "IS", "IT", "JO", "JP", "KW", "LB", "LT", "LU", "LV", "MA", "MC", "MT", "MX", "MY", "NI", "NL", "NO", "NZ", "OM", "PA", "PE", "PH", "PL", "PT", "PY", "QA", "RO", "SA", "SE", "SG", "SK", "SV", "TH", "TN", "TR", "TW", "US", "UY", "VN", "ZA"], "type": "track", "preview_url": "https://p.scdn.co/mp3-preview/e9d31f0e5fe84806a49c5b04a5c51f3f48a270c7?cid=0c947b9d3f7547e28aee080174c283c9", "explicit": false, "external_urls": {"spotify": "https://open.spotify.com/track/1ZyBSeyX7ISulW1NARgWFS"}, "id": "1ZyBSeyX7ISulW1NARgWFS", "uri": "spotify:track:1ZyBSeyX7ISulW1NARgWFS", "popularity": 63}, {"album": {"total_tracks": 11, "type": "album", "release_date": "1991-03-12", "href": "https://api.spotify.com/v1/albums/2vPM8y0gBZTnEO48rGnCzs", "artists": [{"type": "artist", "name": "R.E.M.", "external_urls": {"spotify": "https://open.spotify.com/artist/4KWTAlx2RvbpseOGMEmROg"}, "id": "4KWTAlx2RvbpseOGMEmROg", "uri": "spotify:artist:4KWTAlx2RvbpseOGMEmROg", "href": "https://api.spotify.com/v1/artists/4KWTAlx2RvbpseOGMEmROg"}], "images": [{"width": 640, "url": "https://i.scdn.co/image/ab67616d0000b273f2a50ab6f608ae0c6277d868", "height": 640}, {"width": 300, "url": "https://i.scdn.co/image/ab67616d00001e02f2a50ab6f608ae0c6277d868", "height": 300}, {"width": 64, "url": "https://i.scdn.co/image/ab67616d00004851f2a50ab6f608ae0c6277d868", "height": 64}], "available_markets": ["AD", "AE", "AR", "AT", "AU", "BE", "BG", "BH", "BO", "BR", "CA", "CH", "CL", "CO", "CR", "CY", "CZ", "DE", "DK", "DO", "DZ", "EC", "EE", "EG", "ES", "FI", "FR", "GB", "GR", "GT", "HK", "HN", "HU", "ID", "IE", "IL", "IN", "IS", "IT", "JO", "JP", "KW", "LB", "LI", "LT", "LU", "LV", "MA", "MC", "MT", "MX", "MY", "NI", "NL", "NO", "NZ", "OM", "PA", "PE", "PH", "PL", "PS", "PT", "PY", "QA", "RO", "SA", "SE", "SG", "SK", "SV", "TH", "TN", "TR", "TW", "US", "UY", "VN", "ZA"], "album_type": "album", "release_date_precision": "day", "name": "Out Of Time", "external_urls": {"spotify": "https://open.spotify.com/album/2vPM8y0gBZTnEO48rGnCzs"}, "id": "2vPM8y0gBZTnEO48rGnCzs", "uri": "spotify:album:2vPM8y0gBZTnEO48rGnCzs"}, "external_ids": {"isrc": "USC4R1605373"}, "name": "Losing My Religion", "duration_ms": 268426, "is_local": false, "disc_number": 1, "href": "https://api.spotify.com/v1/tracks/6bCPryuQjsts5cEybA3Nb5", "artists": [{"type": "artist", "name": "R.E.M.", "external_urls": {"spotify": "https://open.spotify.com/artist/4KWTAlx2RvbpseOGMEmROg"}, "id": "4KWTAlx2RvbpseOGMEmROg", "uri": "spotify:artist:4KWTAlx2RvbpseOGMEmROg", "href": "https://api.spotify.com/v1/artists/4KWTAlx2RvbpseOGMEmROg"}], "track_number": 2, "available_markets": ["AD", "AE", "AR", "AT", "AU", "BE", "BG", "BH", "BO", "BR", "CA", "CH", "CL", "CO", "CR", "CY", "CZ", "DE", "DK", "DO", "DZ", "EC", "EE", "EG", "ES", "FI", "FR", "GB", "GR", "GT", "HK", "HN", "HU", "ID", "IE", "IL", "IN", "IS", "IT", "JO", "JP", "KW", "LB", "LI", "LT", "LU", "LV", "MA", "MC", "MT", "MX", "MY", "NI", "NL", "NO", "NZ", "OM", "PA", "PE", "PH", "PL", "PS", "PT", "PY", "QA", "RO", "SA", "SE", "SG", "SK", "SV", "TH", "TN", "TR", "TW", "US", "UY", "VN", "ZA"], "type": "track", "preview_url": null, "explicit": false, "external_urls": {"spotify": "https://open.spotify.com/track/6bCPryuQjsts5cEybA3Nb5"}, "id": "6bCPryuQjsts5cEybA3Nb5", "uri": "spotify:track:6bCPryuQjsts5cEybA3Nb5", "popularity": 40}], "previous": null, "href": "https://api.spotify.com/v1/search?query=artist%3AR.E.M.+track%3ALosing+My+Religion&type=track&offset=0&limit=5", "limit": 5, "total": 38, "next": "https://api.spotify.com/v1/search?query=artist%3AR.E.M.+track%3ALosing+My+Religion&type=track&offset=5&limit=5"}}