{"tracks": {"offset": 0, "items": [{"album": {"total_tracks": 92, "type": "album", "release_date": "1995", "href": "https://api.spotify.com/v1/albums/55RhFRyQFihIyGf61MgcfV", "artists": [{"type": "artist", "name": "The Smashing Pumpkins", "external_urls": {"spotify": "https://open.spotify.com/artist/40Yq4vzPs9VNUrIBG5Jr2i"}, "id": "40Yq4vzPs9VNUrIBG5Jr2i", "uri": "spotify:artist:40Yq4vzPs9VNUrIBG5Jr2i", "href": "https://api.spotify.com/v1/artists/40Yq4vzPs9VNUrIBG5Jr2i"}], "images": [{"width": 640, "url": "https://i.scdn.co/image/ab67616d0000b2736c2b0090e0c446cd05014380", "height": 640}, {"width": 300, "url": "https://i.scdn.co/image/ab67616d00001e026c2b0090e0c446cd05014380", "height": 300}, {"width": 64, "url": "https://i.scdn.co/image/ab67616d000048516c2b0090e0c446cd05014380", "height": 64}], "available_markets": ["AD", "AE", "AR", "AT", "AU", "BE", "BG", "BH", "BO", "BR", "CA", "CH", "CL", "CO", "CR", "CY", "CZ", "DE", "DK", "DO", "DZ", "EC", "EE", "EG", "ES", "FI", "FR", "GB", "GR", "GT", "HK", "HN", "HU", "ID", "IE", "IL", "IN", "IS", "IT", "JO", "JP", "KW", "LB", "LI", "LT", "LU", "LV", "MA", "MC", "MT", "MX", "MY", "NI", "NL", "NO", "NZ", "OM", "PA", "PE", "PH", "PL", "PS", "PT", "PY", "QA", "RO", "SA", "SE", "SG", "SK", "SV", "TH", "TN", "TR", "TW", "US", "UY", "VN", "ZA"], "album_type": "album", "release_date_precision": "year", "name": "Mellon Collie And The Infinite Sadness (Deluxe Edition)", "external_urls": {"spotify": "https://open.spotify.com/album/55RhFRyQFihIyGf61MgcfV"}, "id": "55RhFRyQFihIyGf61MgcfV", "uri": "spotify:album:55RhFRyQFihIyGf61MgcfV"}, "external_ids": {"isrc": "USVI21200910"}, "name": "1979 - Remastered 2012", "duration_ms": 266200, "is_local": false, "disc_number": 2, "href": "https://api.spotify.com/v1/tracks/5QLHGv0DfpeXLNFo7SFEy1", "artists": [{"type": "artist", "name": "The Smashing Pumpkins", "external_urls": {"spotify": "https://open.spotify.com/artist/40Yq4vzPs9VNUrIBG5Jr2i"}, "id": "40Yq4vzPs9VNUrIBG5Jr2i", "uri": "spotify:artist:40Yq4vzPs9VNUrIBG5Jr2i", "href": "https://api.spotify.com/v1/artists/40Yq4vzPs9VNUrIBG5Jr2i"}], "track_number": 5, "available_markets": ["AD", "AE", "AR", "AT", "AU", "BE", "BG", "BH", "BO", "BR", "CA", "CH", "CL", "CO", "CR", "CY", "CZ", "DE", "DK", "DO", "DZ", "EC", "EE", "EG", "ES", "FI", "FR", "GB", "GR", "GT", "HK", "HN", "HU", "ID", "IE", "IL", "IN", "IS", "IT", "JO", "JP", "KW", "LB", "LI", "LT", "LU", "LV", "MA", "MC", "MT", "MX", "MY", "NI", "NL", "NO", "NZ", "OM", "PA", "PE", "PH", "PL", "PS", "PT", "PY", "QA", "RO", "SA", "SE", "SG", "SK", "SV", "TH", "TN", "TR", "TW", "US", "UY", "VN", "ZA"], "type": "track", "preview_url": null, "explicit": false, "external_urls": {"spotify": "https://open.spotify.com/track/5QLHGv0DfpeXLNFo7SFEy1"}, "id": "5QLHGv0DfpeXLNFo7SFEy1", "uri": "spotify:track:5QLHGv0DfpeXLNFo7SFEy1", "popularity": 75}, {"album": {"total_tracks": 4, "type": "album", "release_date": "2019-08-09", "href": "https://api.spotify.com/v1/albums/72e1hGI7smOcRHPCkC79ec", "artists": [{"type": "artist", "name": "The Contortionist", "external_urls": {"spotify": "https://open.spotify.com/artist/7nCgNmfYJcsVy3vOOzExYS"}, "id": "7nCgNmfYJcsVy3vOOzExYS", "uri": "spotify:artist:7nCgNmfYJcsVy3vOOzExYS", "href": "https://api.spotify.com/v1/artists/7nCgNmfYJcsVy3vOOzExYS"}], "images": [{"width": 640, "url": "https://i.scdn.co/image/ab67616d0000b2733a3b0235d375e292c21b66f3", "height": 640}, {"width": 300, "url": "https://i.scdn.co/image/ab67616d00001e023a3b0235d375e292c21b66f3", "height": 300}, {"width": 64, "url": "https://i.scdn.co/image/ab67616d000048513a3b0235d375e292c21b66f3", "height": 64}], "available_markets": ["AD", "AE", "AR", "AT", "AU", "BE", "BG", "BH", "BO", "BR", "CA", "CH", "CL", "CO", "CR", "CY", "CZ", "DE", "DK", "DO", "DZ", "EC", "EE", "EG", "ES", "FI", "FR", "GB", "GR", "GT", "HK", "HN", "HU", "ID", "IE", "IL", "IN", "IS", "IT", "JO", "JP", "KW", "LB", "LI", "LT", "LU", "LV", "MA", "MC", "MT", "MX", "MY", "NI", "NL", "NO", "NZ", "OM", "PA", "PE", "PH", "PL", "PS", "PT", "PY", "QA", "RO", "SA", "SE", "SG", "SK", "SV", "TH", "TN", "TR", "TW", "US", "UY", "VN", "ZA"], "album_type": "single", "release_date_precision": "day", "name": "Our Bones", "external_urls": {"spotify": "https://open.spotify.com/album/72e1hGI7smOcRHPCkC79ec"}, "id": "72e1hGI7smOcRHPCkC79ec", "uri": "spotify:album:72e1hGI7smOcRHPCkC79ec"}, "external_ids": {"isrc": "USKO11900210"}, "name": "1979 (Smashing Pumpkins Cover)", "duration_ms": 269477, "is_local": false, "disc_number": 1, "href": "https://api.spotify.com/v1/tracks/4Dclwpxj1dM3TXyMUfPDkc", "artists": [{"type": "artist", "name": "The Contortionist", "external_urls": {"spotify": "https://open.spotify.com/artist/7nCgNmfYJcsVy3vOOzExYS"}, "id": "7nCgNmfYJcsVy3vOOzExYS", "uri": "spotify:artist:7nCgNmfYJcsVy3vOOzExYS", "href": "https://api.spotify.com/v1/artists/7nCgNmfYJcsVy3vOOzExYS"}], "track_number": 4, "available_markets": ["AD", "AE", "AR", "AT", "AU", "BE", "BG", "BH", "BO", "BR", "CA", "CH", "CL", "CO", "CR", "CY", "CZ", "DE", "DK", "DO", "DZ", "EC", "EE", "EG", "ES", "FI", "FR", "GB", "GR", "GT", "HK", "HN", "HU", "ID", "IE", "IL", "IN", "IS", "IT", "JO", "JP", "KW", "LB", "LI", "LT", "LU", "LV", "MA", "MC", "MT", "MX", "MY", "NI", "NL", "NO", "NZ", "OM", "PA", "PE", "PH", "PL", "PS", "PT", "PY", "QA", "RO", "SA", "SE", "SG", "SK", "SV", "TH", "TN", "TR", "TW", "US", "UY", "VN", "ZA"], "type": "track", "preview_url": "https://p.scdn.co/mp3-preview/db9f5e8be2c23ae8feaba470813891ac0376c204?cid=0c947b9d3f7547e28aee080174c283c9", "explicit": false, "external_urls": {"spotify": "https://open.spotify.com/track/4Dclwpxj1dM3TXyMUfPDkc"}, "id": "4Dclwpxj1dM3TXyMUfPDkc", "uri": "spotify:track:4Dclwpxj1dM3TXyMUfPDkc", "popularity": 45}, {"album": {"total_tracks": 18, "type": "album", "release_date": "2001-01-01", "href": "https://api.spotify.com/v1/albums/1cUnNrx2TxvrpwPRtvpGwn", "artists": [{"type": "artist", "name": "The Smashing Pumpkins", "external_urls": {"spotify": "https://open.spotify.com/artist/40Yq4vzPs9VNUrIBG5Jr2i"}, "id": "40Yq4vzPs9VNUrIBG5Jr2i", "uri": "spotify:artist:40Yq4vzPs9VNUrIBG5Jr2i", "href": "https://api.spotify.com/v1/artists/40Yq4vzPs9VNUrIBG5Jr2i"}], "images": [{"width": 640, "url": "https://i.scdn.co/image/ab67616d0000b2736b03bdfb098e7280eaf3fead", "height": 640}, {"width": 300, "url": "https://i.scdn.co/image/ab67616d00001e026b03bdfb098e7280eaf3fead", "height": 300}, {"width": 64, "url": "https://i.scdn.co/image/ab67616d000048516b03bdfb098e7280eaf3fead", "height": 64}], "available_markets": ["AD", "AE", "AR", "AT", "AU", "BE", "BG", "BH", "BO", "BR", "CA", "CH", "CL", "CO", "CR", "CY", "CZ", "DE", "DK", "DO", "DZ", "EC", "EE", "EG", "ES", "FI", "FR", "GB", "GR", "GT", "HK", "HN", "HU", "ID", "IE", "IL", "IN", "IS", "IT", "JO", "JP", "KW", "LB", "LI", "LT", "LU", "LV", "MA", "MC", "MT", "MX", "MY", "NI", "NL", "NO", "NZ", "OM", "PA", "PE", "PH", "PL", "PS", "PT", "PY", "QA", "RO", "SA", "SE", "SG", "SK", "SV", "TH", "TN", "TR", "TW", "US", "UY", "VN", "ZA"], "album_type": "compilation", "release_date_precision": "day", "name": "(Rotten Apples) The Smashing Pumpkins Greatest Hits", "external_urls": {"spotify": "https://open.spotify.com/album/1cUnNrx2TxvrpwPRtvpGwn"}, "id": "1cUnNrx2TxvrpwPRtvpGwn", "uri": "spotify:album:1cUnNrx2TxvrpwPRtvpGwn"}, "external_ids": {"isrc": "USVI29500052"}, "name": "1979", "duration_ms": 263573, "is_local": false, "disc_number": 1, "href": "https://api.spotify.com/v1/tracks/3h5zik31hTTat9jmpCZZNC", "artists": [{"type": "artist", "name": "The Smashing Pumpkins", "external_urls": {"spotify": "https://open.spotify.com/artist/40Yq4vzPs9VNUrIBG5Jr2i"}, "id": "40Yq4vzPs9VNUrIBG5Jr2i", "uri": "spotify:artist:40Yq4vzPs9VNUrIBG5Jr2i", "href": "https://api.spotify.com/v1/artists/40Yq4vzPs9VNUrIBG5Jr2i"}], "track_number": 9, "available_markets": ["AD", "AE", "AR", "AT", "AU", "BE", "BG", "BH", "BO", "BR", "CA", "CH", "CL", "CO", "CR", "CY", "CZ", "DE", "DK", "DO", "DZ", "EC", "EE", "EG", "ES", "FI", "FR", "GB", "GR", "GT", "HK", "HN", "HU", "ID", "IE", "IL", "IN", "IS", "IT", "JO", "JP", "KW", "LB", "LI", "LT", "LU", "LV", "MA", "MC", "MT", "MX", "MY", "NI", "NL", "NO", "NZ", "OM", "PA", "PE", "PH", "PL", "PS", "PT", "PY", "QA", "RO", "SA", "SE", "SG", "SK", "SV", "TH", "TN", "TR", "TW", "US", "UY", "VN", "ZA"], "type": "track", "preview_url": null, "explicit": false, "external_urls": {"spotify": "https://open.spotify.com/track/3h5zik31hTTat9jmpCZZNC"}, "id": "3h5zik31hTTat9jmpCZZNC", "uri": "spotify:track:3h5zik31hTTat9jmpCZZNC", "popularity": 49}, {"album": {"total_tracks": 92, "type": "album", "release_date": "1995", "href": "https://api.spotify.com/v1/albums/55RhFRyQFihIyGf61MgcfV", "artists": [{"type": "artist", "name": "The Smashing Pumpkins", "external_urls": {"spotify": "https://open.spotify.com/artist/40Yq4vzPs9VNUrIBG5Jr2i"}, "id": "40Yq4vzPs9VNUrIBG5Jr2i", "uri": "spotify:artist:40Yq4vzPs9VNUrIBG5Jr2i", "href": "https://api.spotify.com/v1/artists/40Yq4vzPs9VNUrIBG5Jr2i"}], "images": [{"width": 640, "url": "https://i.scdn.co/image/ab67616d0000b2736c2b0090e0c446cd05014380", "height": 640}, {"width": 300, "url": "https://i.scdn.co/image/ab67616d00001e026c2b0090e0c446cd05014380", "height": 300}, {"width": 64, "url": "https://i.scdn.co/image/ab67616d000048516c2b0090e0c446cd05014380", "height": 64}], "available_markets": ["AD", "AE", "AR", "AT", "AU", "BE", "BG", "BH", "BO", "BR", "CA", "CH", "CL", "CO", "CR", "CY", "CZ", "DE", "DK", "DO", "DZ", "EC", "EE", "EG", "ES", "FI", "FR", "GB", "GR", "GT", "HK", "HN", "HU", "ID", "IE", "IL", "IN", "IS", "IT", "JO", "JP", "KW", "LB", "LI", "LT", "LU", "LV", "MA", "MC", "MT", "MX", "MY", "NI", "NL", "NO", "NZ", "OM", "PA", "PE", "PH", "PL", "PS", "PT", "PY", "QA", "RO", "SA", "SE", "SG", "SK", "SV", "TH", "TN", "TR", "TW", "US", "UY", "VN", "ZA"], "album_type": "album", "release_date_precision": "year", "name": "Mellon Collie And The Infinite Sadness (Deluxe Edition)", "external_urls": {"spotify": "https://open.spotify.com/album/55RhFRyQFihIyGf61MgcfV"}, "id": "55RhFRyQFihIyGf61MgcfV", "uri": "spotify:album:55RhFRyQFihIyGf61MgcfV"}, "external_ids": {"isrc": "USNPD1200229"}, "name": "1979 - Sadlands Demo", "duration_ms": 244746, "is_local": false, "disc_number": 3, "href": "https://api.spotify.com/v1/tracks/3F3cWAsRhYjqclBTQ6D6yD", "artists": [{"type": "artist", "name": "The Smashing Pumpkins", "external_urls": {"spotify": "https://open.spotify.com/artist/40Yq4vzPs9VNUrIBG5Jr2i"}, "id": "40Yq4vzPs9VNUrIBG5Jr2i", "uri": "spotify:artist:40Yq4vzPs9VNUrIBG5Jr2i", "href": "https://api.spotify.com/v1/artists/40Yq4vzPs9VNUrIBG5Jr2i"}], "track_number": 16, "available_markets": ["AD", "AE", "AR", "AT", "AU", "BE", "BG", "BH", "BO", "BR", "CA", "CH", "CL", "CO", "CR", "CY", "CZ", "DE", "DK", "DO", "DZ", "EC", "EE", "EG", "ES", "FI", "FR", "GB", "GR", "GT", "HK", "HN", "HU", "ID", "IE", "IL", "IN", "IS", "IT", "JO", "JP", "KW", "LB", "LI", "LT", "LU", "LV", "MA", "MC", "MT", "MX", "MY", "NI", "NL", "NO", "NZ", "OM", "PA", "PE", "PH", "PL", "PS", "PT", "PY", "QA", "RO", "SA", "SE", "SG", "SK", "SV", "TH", "TN", "TR", "TW", "US", "UY", "VN", "ZA"], "type": "track", "preview_url": null, "explicit": false, "external_urls": {"spotify": "https://open.spotify.com/track/3F3cWAsRhYjqclBTQ6D6yD"}, "id": "3F3cWAsRhYjqclBTQ6D6yD", "uri": "spotify:track:3F3cWAsRhYjqclBTQ6D6yD", "popularity": 33}, {"album": {"total_tracks": 90, "type": "album", "release_date": "2013-01-01", "href": "https://api.spotify.com/v1/albums/5y5Qnze6BJUbON6FxndO9c", "artists": [{"type": "artist", "name": "The Smashing Pumpkins", "external_urls": {"spotify": "https://open.spotify.com/artist/40Yq4vzPs9VNUrIBG5Jr2i"}, "id": "40Yq4vzPs9VNUrIBG5Jr2i", "uri": "spotify:artist:40Yq4vzPs9VNUrIBG5Jr2i", "href": "https://api.spotify.com/v1/artists/40Yq4vzPs9VNUrIBG5Jr2i"}], "images": [{"width": 640, "url": "https://i.scdn.co/image/ab6c10ea105306ffa954182758f7bdd60dbcbe4a", "height": 640}, {"width": 300, "url": "https://i.scdn.co/image/19fc1b434abbdff0624d59decbcf51d1be931406", "height": 300}, {"width": 64, "url": "https://i.scdn.co/image/324313b0193bfc1c2c3d80de7322c7dda9ce9211", "height": 64}], "available_markets": ["AD", "AR", "AT", "AU", "BE", "BG", "BO", "BR", "CA", "CH", "CL", "CO", "CR", "CY", "CZ", "DE", "DK", "DO", "DZ", "EC", "EE", "ES", "FI", "FR", "GB", "GR", "GT", "HK", "HN", "HU", "ID", "IE", "IL", "IN", "IS", "IT", "JP", "KW", "LI", "LT", "LU", "LV", "MC", "MT", "MX", "MY", "NI", "NL", "NO", "NZ", "PA", "PE", "PH", "PL", "PT", "PY", "RO", "SE", "SG", "SK", "SV", "TH", "TR", "TW", "US", "UY", "VN", "ZA"], "album_type": "compilation", "release_date_precision": "day", "name": "Aeroplane Flies High (Deluxe Edition)", "external_urls": {"spotify": "https://open.spotify.com/album/5y5Qnze6BJUbON6FxndO9c"}, "id": "5y5Qnze6BJUbON6FxndO9c", "uri": "spotify:album:5y5Qnze6BJUbON6FxndO9c"}, "external_ids": {"isrc": "USUM71307123"}, "name": "1979 - Acoustic", "duration_ms": 252986, "is_local": false, "disc_number": 2, "href": "https://api.spotify.com/v1/tracks/1hUD0aBTicbHb5G3p5P79e", "artists": [{"type": "artist", "name": "The Smashing Pumpkins", "external_urls": {"spotify": "https://open.spotify.com/artist/40Yq4vzPs9VNUrIBG5Jr2i"}, "id": "40Yq4vzPs9VNUrIBG5Jr2i", "uri": "spotify:artist:40Yq4vzPs9VNUrIBG5Jr2i", "href": "https://api.spotify.com/v1/artists/40Yq4vzPs9VNUrIBG5Jr2i"}], "track_number": 13, "available_markets": ["AD", "AR", "AT", "AU", "BE", "BG", "BO", "BR", "CA", "CH", "CL", "CO", "CR", "CY", "CZ", "DE", "DK", "DO", "DZ", "EC", "EE", "ES", "FI", "FR", "GB", "GR", "GT", "HK", "HN", "HU", "ID", "IE", "IL", "IN", "IS", "IT", "JP", "KW", "LI", "LT", "LU", "LV", "MC", "MT", "MX", "MY", "NI", "NL", "NO", "NZ", "PA", "PE", "PH", "PL", "PT", "PY", "RO", "SE", "SG", "SK", "SV", "TH", "TR", "TW", "US", "UY", "VN", "ZA"], "type": "track", "preview_url": null, "explicit": false, "external_urls": {"spotify": "https://open.spotify.com/track/1hUD0aBTicbHb5G3p5P79e"}, "id": "1hUD0aBTicbHb5G3p5P79e", "uri": "spotify:track:1hUD0aBTicbHb5G3p5P79e", "popularity": 31}], "previous": null, "href": "https://api.spotify.com/v1/search?query=artist%3AThe+Smashing+Pumpkins+track%3A1979&type=track&offset=0&limit=5", "limit": 5, "total": 33, "next": "https://api.spotify.com/v1/search?query=artist%3AThe+Smashing+Pumpkins+track%3A1979&type=track&offset=5&limit=5"}}