{"tracks": {"offset": 0, "items": [{"album": {"total_tracks": 32, "type": "album", "release_date": "1997-02-10", "href": "https://api.spotify.com/v1/albums/7HvIrSkKGJCzd8AKyjTJ6Q", "artists": [{"type": "artist", "name": "Blur", "external_urls": {"spotify": "https://open.spotify.com/artist/7MhMgCo0Bl0Kukl93PZbYS"}, "id": "7MhMgCo0Bl0Kukl93PZbYS", "uri": "spotify:artist:7MhMgCo0Bl0Kukl93PZbYS", "href": "https://api.spotify.com/v1/artists/7MhMgCo0Bl0Kukl93PZbYS"}], "images": [{"width": 640, "url": "https://i.scdn.co/image/8598dd87ca83d963fb9c6295f42ebb883fbfd93f", "height": 640}, {"width": 300, "url": "https://i.scdn.co/image/ad88757ab4021ac6855bc3ef5befc45e98d539c7", "height": 300}, {"width": 64, "url": "https://i.scdn.co/image/20b1573959e395187900f335abe02258d8a5bc36", "height": 64}], "available_markets": ["AD", "AE", "AR", "AT", "AU", "BE", "BG", "BH", "BO", "BR", "CA", "CH", "CL", "CO", "CR", "CY", "CZ", "DE", "DK", "DO", "DZ", "EC", "EE", "EG", "ES", "FI", "FR", "GB", "GR", "GT", "HK", "HN", "HU", "ID", "IE", "IL", "IS", "IT", "JO", "JP", "KW", "LB", "LI", "LT", "LU", "LV", "MA", "MC", "MT", "MX", "MY", "NI", "NL", "NO", "NZ", "OM", "PA", "PE", "PH", "PL", "PS", "PT", "PY", "QA", "RO", "SA", "SE", "SG", "SK", "SV", "TH", "TN", "TR", "TW", "US", "UY", "VN", "ZA"], "album_type": "album", "release_date_precision": "day", "name": "Blur [Special Edition]", "external_urls": {"spotify": "https://open.spotify.com/album/7HvIrSkKGJCzd8AKyjTJ6Q"}, "id": "7HvIrSkKGJCzd8AKyjTJ6Q", "uri": "spotify:album:7HvIrSkKGJCzd8AKyjTJ6Q"}, "external_ids": {"isrc": "GBAYE1200348"}, "name": "Song 2 - 2012 Remaster", "duration_ms": 121160, "is_local": false, "disc_number": 1, "href": "https://api.spotify.com/v1/tracks/1FTSo4v6BOZH9QxKc3MbVM", "artists": [{"type": "artist", "name": "Blur", "external_urls": {"spotify": "https://open.spotify.com/artist/7MhMgCo0Bl0Kukl93PZbYS"}, "id": "7MhMgCo0Bl0Kukl93PZbYS", "uri": "spotify:artist:7MhMgCo0Bl0Kukl93PZbYS", "href": "https://api.spotify.com/v1/artists/7MhMgCo0Bl0Kukl93PZbYS"}], "track_number": 2, "available_markets": ["AD", "AE", "AR", "AT", "AU", "BE", "BG", "BH", "BO", "BR", "CA", "CH", "CL", "CO", "CR", "CY", "CZ", "DE", "DK", "DO", "DZ", "EC", "EE", "EG", "ES", "FI", "FR", "GB", "GR", "GT", "HK", "HN", "HU", "ID", "IE", "IL", "IS", "IT", "JO", "JP", "KW", "LB", "LI", "LT", "LU", "LV", "MA", "MC", "MT", "MX", "MY", "NI", "NL", "NO", "NZ", "OM", "PA", "PE", "PH", "PL", "PS", "PT", "PY", "QA", "RO", "SA", "SE", "SG", "SK", "SV", "TH", "TN", "TR", "TW", "US", "UY", "VN", "ZA"], "type": "track", "preview_url": "https://p.scdn.co/mp3-preview/183c0855e94b58dcb267e2b0721d4a3c99260acf?cid=0c947b9d3f7547e28aee080174c283c9", "explicit": false, "external_urls": {"spotify": "https://open.spotify.com/track/1FTSo4v6BOZH9QxKc3MbVM"}, "id": "1FTSo4v6BOZH9QxKc3MbVM", "uri": "spotify:track:1FTSo4v6BOZH9QxKc3MbVM", "popularity": 76}, {"album": {"total_tracks": 18, "type": "album", "release_date": "2000-10-23", "href": "https://api.spotify.com/v1/albums/1bgkxe4t0HNeLn9rhrx79x", "artists": [{"type": "artist", "name": "Blur", "external_urls": {"spotify": "https://open.spotify.com/artist/7MhMgCo0Bl0Kukl93PZbYS"}, "id": "7MhMgCo0Bl0Kukl93PZbYS", "uri": "spotify:artist:7MhMgCo0Bl0Kukl93PZbYS", "href": "https://api.spotify.com/v1/artists/7MhMgCo0Bl0Kukl93PZbYS"}], "images": [{"width": 640, "url": "https://i.scdn.co/image/ab67616d0000b2736eba1a0996d9e69ad20ec88b", "height": 640}, {"width": 300, "url": "https://i.scdn.co/image/ab67616d00001e026eba1a0996d9e69ad20ec88b", "height": 300}, {"width": 64, "url": "https://i.scdn.co/image/ab67616d000048516eba1a0996d9e69ad20ec88b", "height": 64}], "available_markets": ["AD", "AE", "AR", "AT", "AU", "BE", "BG", "BH", "BO", "BR", "CA", "CH", "CL", "CO", "CR", "CY", "CZ", "DE", "DK", "DO", "DZ", "EC", "EE", "EG", "ES", "FI", "FR", "GB", "GR", "GT", "HK", "HN", "HU", "ID", "IE", "IL", "IS", "IT", "JO", "JP", "KW", "LB", "LT", "LU", "LV", "MA", "MC", "MT", "MX", "MY", "NI", "NL", "NO", "NZ", "OM", "PA", "PE", "PH", "PL", "PT", "PY", "QA", "RO", "SA", "SE", "SG", "SK", "SV", "TH", "TN", "TR", "TW", "US", "UY", "VN", "ZA"], "album_type": "compilation", "release_date_precision": "day", "name": "Blur: The Best Of", "external_urls": {"spotify": "https://open.spotify.com/album/1bgkxe4t0HNeLn9rhrx79x"}, "id": "1bgkxe4t0HNeLn9rhrx79x", "uri": "spotify:album:1bgkxe4t0HNeLn9rhrx79x"}, "external_ids": {"isrc": "GBAYE9600015"}, "name": "Song 2", "duration_ms": 121880, "is_local": false, "disc_number": 1, "href": "https://api.spotify.com/v1/tracks/3GfOAdcoc3X5GPiiXmpBjK", "artists": [{"type": "artist", "name": "Blur", "external_urls": {"spotify": "https://open.spotify.com/artist/7MhMgCo0Bl0Kukl93PZbYS"}, "id": "7MhMgCo0Bl0Kukl93PZbYS", "uri": "spotify:artist:7MhMgCo0Bl0Kukl93PZbYS", "href": "https://api.spotify.com/v1/artists/7MhMgCo0Bl0Kukl93PZbYS"}], "track_number": 2, "available_markets": ["AD", "AE", "AR", "AT", "AU", "BE", "BG", "BH", "BO", "BR", "CA", "CH", "CL", "CO", "CR", "CY", "CZ", "DE", "DK", "DO", "DZ", "EC", "EE", "EG", "ES", "FI", "FR", "GB", "GR", "GT", "HK", "HN", "HU", "ID", "IE", "IL", "IS", "IT", "JO", "JP", "KW", "LB", "LT", "LU", "LV", "MA", "MC", "MT", "MX", "MY", "NI", "NL", "NO", "NZ", "OM", "PA", "PE", "PH", "PL", "PT", "PY", "QA", "RO", "SA", "SE", "SG", "SK", "SV", "TH", "TN", "TR", "TW", "US", "UY", "VN", "ZA"], "type": "track", "preview_url": "https://p.scdn.co/mp3-preview/dfa055d3831ac3ec60cf66d92bda9ab68e302dbd?cid=0c947b9d3f7547e28aee080174c283c9", "explicit": false, "external_urls": {"spotify": "https://open.spotify.com/track/3GfOAdcoc3X5GPiiXmpBjK"}, "id": "3GfOAdcoc3X5GPiiXmpBjK", "uri": "spotify:track:3GfOAdcoc3X5GPiiXmpBjK", "popularity": 65}, {"album": {"total_tracks": 28, "type": "album", "release_date": "2000-10-23", "href": "https://api.spotify.com/v1/albums/1fGFAIzXyLi3fVGQwZ1VNT", "artists": [{"type": "artist", "name": "Blur", "external_urls": {"spotify": "https://open.spotify.com/artist/7MhMgCo0Bl0Kukl93PZbYS"}, "id": "7MhMgCo0Bl0Kukl93PZbYS", "uri": "spotify:artist:7MhMgCo0Bl0Kukl93PZbYS", "href": "https://api.spotify.com/v1/artists/7MhMgCo0Bl0Kukl93PZbYS"}], "images": [{"width": 640, "url": "https://i.scdn.co/image/ab67616d0000b273d742dee2174e2a0b1418b0af", "height": 640}, {"width": 300, "url": "https://i.scdn.co/image/ab67616d00001e02d742dee2174e2a0b1418b0af", "height": 300}, {"width": 64, "url": "https://i.scdn.co/image/ab67616d00004851d742dee2174e2a0b1418b0af", "height": 64}], "available_markets": ["CA", "US"], "album_type": "compilation", "release_date_precision": "day", "name": "The Best Of", "external_urls": {"spotify": "https://open.spotify.com/album/1fGFAIzXyLi3fVGQwZ1VNT"}, "id": "1fGFAIzXyLi3fVGQwZ1VNT", "uri": "spotify:album:1fGFAIzXyLi3fVGQwZ1VNT"}, "external_ids": {"isrc": "GBAYE9600015"}, "name": "Song 2", "duration_ms": 121880, "is_local": false, "disc_number": 1, "href": "https://api.spotify.com/v1/tracks/0YZLy2PSpOA7Nw2Yg0Hfxa", "artists": [{"type": "artist", "name": "Blur", "external_urls": {"spotify": "https://open.spotify.com/artist/7MhMgCo0Bl0Kukl93PZbYS"}, "id": "7MhMgCo0Bl0Kukl93PZbYS", "uri": "spotify:artist:7MhMgCo0Bl0Kukl93PZbYS", "href": "https://api.spotify.com/v1/artists/7MhMgCo0Bl0Kukl93PZbYS"}], "track_number": 2, "available_markets": ["CA", "US"], "type": "track", "preview_url": "https://p.scdn.co/mp3-preview/dfa055d3831ac3ec60cf66d92bda9ab68e302dbd?cid=0c947b9d3f7547e28aee080174c283c9", "explicit": false, "external_urls": {"spotify": "https://open.spotify.com/track/0YZLy2PSpOA7Nw2Yg0Hfxa"}, "id": "0YZLy2PSpOA7Nw2Yg0Hfxa", "uri": "spotify:track:0YZLy2PSpOA7Nw2Yg0Hfxa", "popularity": 40}, {"album": {"total_tracks": 14, "type": "album", "release_date": "1997-02-10", "href": "https://api.spotify.com/v1/albums/3VyHgnHE4cp7YuU7skzuJ2", "artists": [{"type": "artist", "name": "Blur", "external_urls": {"spotify": "https://open.spotify.com/artist/7MhMgCo0Bl0Kukl93PZbYS"}, "id": "7MhMgCo0Bl0Kukl93PZbYS", "uri": "spotify:artist:7MhMgCo0Bl0Kukl93PZbYS", "href": "https://api.spotify.com/v1/artists/7MhMgCo0Bl0Kukl93PZbYS"}], "images": [{"width": 640, "url": "https://i.scdn.co/image/ab67616d0000b27318073371261cd205988be64d", "height": 640}, {"width": 300, "url": "https://i.scdn.co/image/ab67616d00001e0218073371261cd205988be64d", "height": 300}, {"width": 64, "url": "https://i.scdn.co/image/ab67616d0000485118073371261cd205988be64d", "height": 64}], "available_markets": ["AD", "AE", "AR", "AT", "AU", "BE", "BG", "BH", "BO", "BR", "CA", "CH", "CL", "CO", "CR", "CY", "CZ", "DE", "DK", "DO", "DZ", "EC", "EE", "EG", "ES", "FI", "FR", "GB", "GR", "GT", "HK", "HN", "HU", "ID", "IE", "IL", "IS", "IT", "JO", "JP", "KW", "LB", "LI", "LT", "LU", "LV", "MA", "MC", "MT", "MX", "MY", "NI", "NL", "NO", "NZ", "OM", "PA", "PE", "PH", "PL", "PS", "PT", "PY", "QA", "RO", "SA", "SE", "SG", "SK", "SV", "TH", "TN", "TR", "TW", "US", "UY", "VN", "ZA"], "album_type": "album", "release_date_precision": "day", "name": "Blur", "external_urls": {"spotify": "https://open.spotify.com/album/3VyHgnHE4cp7YuU7skzuJ2"}, "id": "3VyHgnHE4cp7YuU7skzuJ2", "uri": "spotify:album:3VyHgnHE4cp7YuU7skzuJ2"}, "external_ids": {"isrc": "GBAYE1200348"}, "name": "Song 2 - 2012 Remaster", "duration_ms": 121160, "is_local": false, "disc_number": 1, "href": "https://api.spotify.com/v1/tracks/1id6H6vcwSB9GGv9NXh5cl", "artists": [{"type": "artist", "name": "Blur", "external_urls": {"spotify": "https://open.spotify.com/artist/7MhMgCo0Bl0Kukl93PZbYS"}, "id": "7MhMgCo0Bl0Kukl93PZbYS", "uri": "spotify:artist:7MhMgCo0Bl0Kukl93PZbYS", "href": "https://api.spotify.com/v1/artists/7MhMgCo0Bl0Kukl93PZbYS"}], "track_number": 2, "available_markets": ["AD", "AE", "AR", "AT", "AU", "BE", "BG", "BH", "BO", "BR", "CA", "CH", "CL", "CO", "CR", "CY", "CZ", "DE", "DK", "DO", "DZ", "EC", "EE", "EG", "ES", "FI", "FR", "GB", "GR", "GT", "HK", "HN", "HU", "ID", "IE", "IL", "IS", "IT", "JO", "JP", "KW", "LB", "LI", "LT", "LU", "LV", "MA", "MC", "MT", "MX", "MY", "NI", "NL", "NO", "NZ", "OM", "PA", "PE", "PH", "PL", "PS", "PT", "PY", "QA", "RO", "SA", "SE", "SG", "SK", "SV", "TH", "TN", "TR", "TW", "US", "UY", "VN", "ZA"], "type": "track", "preview_url": "https://p.scdn.co/mp3-preview/183c0855e94b58dcb267e2b0721d4a3c99260acf?cid=0c947b9d3f7547e28aee080174c283c9", "explicit": false, "external_urls": {"spotify": "https://open.spotify.com/track/1id6H6vcwSB9GGv9NXh5cl"}, "id": "1id6H6vcwSB9GGv9NXh5cl", "uri": "spotify:track:1id6H6vcwSB9GGv9NXh5cl", "popularity": 45}, {"album": {"total_tracks": 25, "type": "album", "release_date": "2012-08-13", "href": "https://api.spotify.com/v1/albums/2PhWxS2sAQ0ISddTXREkqm", "artists": [{"type": "artist", "name": "Blur", "external_urls": {"spotify": "https://open.spotify.com/artist/7MhMgCo0Bl0Kukl93PZbYS"}, "id": "7MhMgCo0Bl0Kukl93PZbYS", "uri": "spotify:artist:7MhMgCo0Bl0Kukl93PZbYS", "href": "https://api.spotify.com/v1/artists/7MhMgCo0Bl0Kukl93PZbYS"}], "images": [{"width": 640, "url": "https://i.scdn.co/image/ab67616d0000b27369e28572141d9e7ed37eb32f", "height": 640}, {"width": 300, "url": "https://i.scdn.co/image/ab67616d00001e0269e28572141d9e7ed37eb32f", "height": 300}, {"width": 64, "url": "https://i.scdn.co/image/ab67616d0000485169e28572141d9e7ed37eb32f", "height": 64}], "available_markets": ["AD", "AE", "AR", "AT", "AU", "BE", "BG", "BH", "BO", "BR", "CA", "CH", "CL", "CO", "CR", "CY", "CZ", "DE", "DK", "DO", "DZ", "EC", "EE", "EG", "ES", "FI", "FR", "GB", "GR", "GT", "HK", "HN", "HU", "ID", "IE", "IL", "IS", "IT", "JO", "JP", "KW", "LB", "LI", "LT", "LU", "LV", "MA", "MC", "MT", "MX", "MY", "NI", "NL", "NO", "NZ", "OM", "PA", "PE", "PH", "PL", "PS", "PT", "PY", "QA", "RO", "SA", "SE", "SG", "SK", "SV", "TH", "TN", "TR", "TW", "US", "UY", "VN", "ZA"], "album_type": "album", "release_date_precision": "day", "name": "Parklive", "external_urls": {"spotify": "https://open.spotify.com/album/2PhWxS2sAQ0ISddTXREkqm"}, "id": "2PhWxS2sAQ0ISddTXREkqm", "uri": "spotify:album:2PhWxS2sAQ0ISddTXREkqm"}, "external_ids": {"isrc": "GBAYE1201856"}, "name": "Song 2 - Live", "duration_ms": 170373, "is_local": false, "disc_number": 2, "href": "https://api.spotify.com/v1/tracks/5xpBY8idlqam0rRDUySndU", "artists": [{"type": "artist", "name": "Blur", "external_urls": {"spotify": "https://open.spotify.com/artist/7MhMgCo0Bl0Kukl93PZbYS"}, "id": "7MhMgCo0Bl0Kukl93PZbYS", "uri": "spotify:artist:7MhMgCo0Bl0Kukl93PZbYS", "href": "https://api.spotify.com/v1/artists/7MhMgCo0Bl0Kukl93PZbYS"}], "track_number": 4, "available_markets": ["AD", "AE", "AR", "AT", "AU", "BE", "BG", "BH", "BO", "BR", "CA", "CH", "CL", "CO", "CR", "CY", "CZ", "DE", "DK", "DO", "DZ", "EC", "EE", "EG", "ES", "FI", "FR", "GB", "GR", "GT", "HK", "HN", "HU", "ID", "IE", "IL", "IS", "IT", "JO", "JP", "KW", "LB", "LI", "LT", "LU", "LV", "MA", "MC", "MT", "MX", "MY", "NI", "NL", "NO", "NZ", "OM", "PA", "PE", "PH", "PL", "PS", "PT", "PY", "QA", "RO", "SA", "SE", "SG", "SK", "SV", "TH", "TN", "TR", "TW", "US", "UY", "VN", "ZA"], "type": "track", "preview_url": "https://p.scdn.co/mp3-preview/bc72edb3bbd586959bf9e5919e958e82fd8b4c5e?cid=0c947b9d3f7547e28aee080174c283c9", "explicit": false, "external_urls": {"spotify": "https://open.spotify.com/track/5xpBY8idlqam0rRDUySndU"}, "id": "5xpBY8idlqam0rRDUySndU", "uri": "spotify:track:5xpBY8idlqam0rRDUySndU", "popularity": 16}], "previous": null, "href": "https://api.spotify.com/v1/search?query=artist%3ABlur+track%3ASong+2&type=track&offset=0&limit=5", "limit": 5, "total": 15, "next": "https://api.spotify.com/v1/search?query=artist%3ABlur+track%3ASong+2&type=track&offset=5&limit=5"}}