{"tracks": {"offset": 0, "items": [{"album": {"total_tracks": 12, "type": "album", "release_date": "2012-09-04", "href": "https://api.spotify.com/v1/albums/6htgf3qv7vGcsdxLCDxKp8", "artists": [{"type": "artist", "name": "Imagine Dragons", "external_urls": {"spotify": "https://open.spotify.com/artist/53XhwfbYqKCa1cC15pYq2q"}, "id": "53XhwfbYqKCa1cC15pYq2q", "uri": "spotify:artist:53XhwfbYqKCa1cC15pYq2q", "href": "https://api.spotify.com/v1/artists/53XhwfbYqKCa1cC15pYq2q"}], "images": [{"width": 640, "url": "https://i.scdn.co/image/2654511f372969510abf52e52fee458ceeb15bed", "height": 640}, {"width": 300, "url": "https://i.scdn.co/image/74cf1595d42b2ee09a96f895f1e04cc6e45a91d1", "height": 300}, {"width": 64, "url": "https://i.scdn.co/image/edd67bc11bf0360eb709ac10be3ad28039377434", "height": 64}], "available_markets": ["CA", "US"], "album_type": "album", "release_date_precision": "day", "name": "Night Visions", "external_urls": {"spotify": "https://open.spotify.com/album/6htgf3qv7vGcsdxLCDxKp8"}, "id": "6htgf3qv7vGcsdxLCDxKp8", "uri": "spotify:album:6htgf3qv7vGcsdxLCDxKp8"}, "external_ids": {"isrc": "USUM71201074"}, "name": "Radioactive", "duration_ms": 186813, "is_local": false, "disc_number": 1, "href": "https://api.spotify.com/v1/tracks/4G8gkOterJn0Ywt6uhqbhp", "artists": [{"type": "artist", "name": "Imagine Dragons", "external_urls": {"spotify": "https://open.spotify.com/artist/53XhwfbYqKCa1cC15pYq2q"}, "id": "53XhwfbYqKCa1cC15pYq2q", "uri": "spotify:artist:53XhwfbYqKCa1cC15pYq2q", "href": "https://api.spotify.com/v1/artists/53XhwfbYqKCa1cC15pYq2q"}], "track_number": 1, "available_markets": ["CA", "US"], "type": "track", "preview_url": null, "explicit": false, "external_urls": {"spotify": "https://open.spotify.com/track/4G8gkOterJn0Ywt6uhqbhp"}, "id": "4G8gkOterJn0Ywt6uhqbhp", "uri": "spotify:track:4G8gkOterJn0Ywt6uhqbhp", "popularity": 73}, {"album": {"total_tracks": 1, "type": "album", "release_date": "2014-01-01", "href": "https://api.spotify.com/v1/albums/2M0IZTKgkN3ZpYluF4lKAM", "artists": [{"type": "artist", "name": "Imagine Dragons", "external_urls": {"spotify": "https://open.spotify.com/artist/53XhwfbYqKCa1cC15pYq2q"}, "id": "53XhwfbYqKCa1cC15pYq2q", "uri": "spotify:artist:53XhwfbYqKCa1cC15pYq2q", "href": "https://api.spotify.com/v1/artists/53XhwfbYqKCa1cC15pYq2q"}], "images": [{"width": 640, "url": "https://i.scdn.co/image/71a0ef1a9057a6a2e9205dd33c3d9fa6f1885b7d", "height": 640}, {"width": 300, "url": "https://i.scdn.co/image/e1b7a2e9bda677c48fd453538c76af1c02142cb8", "height": 300}, {"width": 64, "url": "https://i.scdn.co/image/c7634b917e61f293d1418020973dc43610fe6af7", "height": 64}], "available_markets": ["AD", "AE", "AR", "AT", "AU", "BE", "BG", "BH", "BO", "BR", "CA", "CH", "CL", "CO", "CR", "CY", "CZ", "DE", "DK", "DO", "DZ", "EC", "EE", "EG", "ES", "FI", "FR", "GB", "GR", "GT", "HK", "HN", "HU", "ID", "IE", "IL", "IN", "IS", "IT", "JO", "JP", "KW", "LB", "LI", "LT", "LU", "LV", "MA", "MC", "MT", "MX", "MY", "NI", "NL", "NO", "NZ", "OM", "PA", "PE", "PH", "PL", "PS", "PT", "PY", "QA", "RO", "SA", "SE", "SG", "SK", "SV", "TH", "TN", "TR", "TW", "US", "UY", "VN", "ZA"], "album_type": "single", "release_date_precision": "day", "name": "Radioactive", "external_urls": {"spotify": "https://open.spotify.com/album/2M0IZTKgkN3ZpYluF4lKAM"}, "id": "2M0IZTKgkN3ZpYluF4lKAM", "uri": "spotify:album:2M0IZTKgkN3ZpYluF4lKAM"}, "external_ids": {"isrc": "USUM71400693"}, "name": "Radioactive", "duration_ms": 276040, "is_local": false, "disc_number": 1, "href": "https://api.spotify.com/v1/tracks/69yfbpvmkIaB10msnKT7Q5", "artists": [{"type": "artist", "name": "Imagine Dragons", "external_urls": {"spotify": "https://open.spotify.com/artist/53XhwfbYqKCa1cC15pYq2q"}, "id": "53XhwfbYqKCa1cC15pYq2q", "uri": "spotify:artist:53XhwfbYqKCa1cC15pYq2q", "href": "https://api.spotify.com/v1/artists/53XhwfbYqKCa1cC15pYq2q"}, {"type": "artist", "name": "Kendrick Lamar", "external_urls": {"spotify": "https://open.spotify.com/artist/2YZyLoL8N0Wb9xBt1NhZWg"}, "id": "2YZyLoL8N0Wb9xBt1NhZWg", "uri": "spotify:artist:2YZyLoL8N0Wb9xBt1NhZWg", "href": "https://api.spotify.com/v1/artists/2YZyLoL8N0Wb9xBt1NhZWg"}], "track_number": 1, "available_markets": ["AD", "AE", "AR", "AT", "AU", "BE", "BG", "BH", "BO", "BR", "CA", "CH", "CL", "CO", "CR", "CY", "CZ", "DE", "DK", "DO", "DZ", "EC", "EE", "EG", "ES", "FI", "FR", "GB", "GR", "GT", "HK", "HN", "HU", "ID", "IE", "IL", "IN", "IS", "IT", "JO", "JP", "KW", "LB", "LI", "LT", "LU", "LV", "MA", "MC", "MT", "MX", "MY", "NI", "NL", "NO", "NZ", "OM", "PA", "PE", "PH", "PL", "PS", "PT", "PY", "QA", "RO", "SA", "SE", "SG", "SK", "SV", "TH", "TN", "TR", "TW", "US", "UY", "VN", "ZA"], "type": "track", "preview_url": null, "explicit": true, "external_urls": {"spotify": "https://open.spotify.com/track/69yfbpvmkIaB10msnKT7Q5"}, "id": "69yfbpvmkIaB10msnKT7Q5", "uri": "spotify:track:69yfbpvmkIaB10msnKT7Q5", "popularity": 72}, {"album": {"total_tracks": 16, "type": "album", "release_date": "2012-09-04", "href": "https://api.spotify.com/v1/albums/1rzDtYMpZDhRgKNigB467r", "artists": [{"type": "artist", "name": "Imagine Dragons", "external_urls": {"spotify": "https://open.spotify.com/artist/53XhwfbYqKCa1cC15pYq2q"}, "id": "53XhwfbYqKCa1cC15pYq2q", "uri": "spotify:artist:53XhwfbYqKCa1cC15pYq2q", "href": "https://api.spotify.com/v1/artists/53XhwfbYqKCa1cC15pYq2q"}], "images": [{"width": 640, "url": "https://i.scdn.co/image/2654511f372969510abf52e52fee458ceeb15bed", "height": 640}, {"width": 300, "url": "https://i.scdn.co/image/74cf1595d42b2ee09a96f895f1e04cc6e45a91d1", "height": 300}, {"width": 64, "url": "https://i.scdn.co/image/edd67bc11bf0360eb709ac10be3ad28039377434", "height": 64}], "available_markets": ["MX", "US"], "album_type": "album", "release_date_precision": "day", "name": "Night Visions (Deluxe)", "external_urls": {"spotify": "https://open.spotify.com/album/1rzDtYMpZDhRgKNigB467r"}, "id": "1rzDtYMpZDhRgKNigB467r", "uri": "spotify:album:1rzDtYMpZDhRgKNigB467r"}, "external_ids": {"isrc": "USUM71201074"}, "name": "Radioactive", "duration_ms": 186813, "is_local": false, "disc_number": 1, "href": "https://api.spotify.com/v1/tracks/58rFzMvW9kxNwMtGTgBQoP", "artists": [{"type": "artist", "name": "Imagine Dragons", "external_urls": {"spotify": "https://open.spotify.com/artist/53XhwfbYqKCa1cC15pYq2q"}, "id": "53XhwfbYqKCa1cC15pYq2q", "uri": "spotify:artist:53XhwfbYqKCa1cC15pYq2q", "href": "https://api.spotify.com/v1/artists/53XhwfbYqKCa1cC15pYq2q"}], "track_number": 1, "available_markets": ["MX", "US"], "type": "track", "preview_url": null, "explicit": false, "external_urls": {"spotify": "https://open.spotify.com/track/58rFzMvW9kxNwMtGTgBQoP"}, "id": "58rFzMvW9kxNwMtGTgBQoP", "uri": "spotify:track:58rFzMvW9kxNwMtGTgBQoP", "popularity": 64}, {"album": {"total_tracks": 3, "type": "album", "release_date": "2013-01-01", "href": "https://api.spotify.com/v1/albums/2RQtDABXELc8EqB7pujcEi", "artists": [{"type": "artist", "name": "Imagine Dragons", "external_urls": {"spotify": "https://open.spotify.com/artist/53XhwfbYqKCa1cC15pYq2q"}, "id": "53XhwfbYqKCa1cC15pYq2q", "uri": "spotify:artist:53XhwfbYqKCa1cC15pYq2q", "href": "https://api.spotify.com/v1/artists/53XhwfbYqKCa1cC15pYq2q"}], "images": [{"width": 640, "url": "https://i.scdn.co/image/42b01e863a05ba39a67ac9868f44c6578c256b82", "height": 640}, {"width": 300, "url": "https://i.scdn.co/image/647a044b884ba0a324b973c0cf9474a87c7801dd", "height": 300}, {"width": 64, "url": "https://i.scdn.co/image/806e139d8c9af1bad6c06237acc11eead5b1dd18", "height": 64}], "available_markets": ["AD", "AT", "AU", "BE", "CA", "CH", "DE", "DK", "EE", "ES", "FI", "GB", "HK", "IE", "IS", "IT", "LI", "LT", "LV", "MC", "MX", "MY", "NL", "NO", "NZ", "PT", "SE", "SG", "US"], "album_type": "single", "release_date_precision": "day", "name": "Imagine Dragons (Live London Sessions)", "external_urls": {"spotify": "https://open.spotify.com/album/2RQtDABXELc8EqB7pujcEi"}, "id": "2RQtDABXELc8EqB7pujcEi", "uri": "spotify:album:2RQtDABXELc8EqB7pujcEi"}, "external_ids": {"isrc": "USUM71303062"}, "name": "Radioactive - Live London Sessions / 2013", "duration_ms": 270160, "is_local": false, "disc_number": 1, "href": "https://api.spotify.com/v1/tracks/7ukrAoAILpGPHaZ9uYmNL0", "artists": [{"type": "artist", "name": "Imagine Dragons", "external_urls": {"spotify": "https://open.spotify.com/artist/53XhwfbYqKCa1cC15pYq2q"}, "id": "53XhwfbYqKCa1cC15pYq2q", "uri": "spotify:artist:53XhwfbYqKCa1cC15pYq2q", "href": "https://api.spotify.com/v1/artists/53XhwfbYqKCa1cC15pYq2q"}], "track_number": 1, "available_markets": ["AD", "AT", "AU", "BE", "CA", "CH", "DE", "DK", "EE", "ES", "FI", "GB", "HK", "IE", "IS", "IT", "LI", "LT", "LV", "MC", "MX", "MY", "NL", "NO", "NZ", "PT", "SE", "SG", "US"], "type": "track", "preview_url": null, "explicit": false, "external_urls": {"spotify": "https://open.spotify.com/track/7ukrAoAILpGPHaZ9uYmNL0"}, "id": "7ukrAoAILpGPHaZ9uYmNL0", "uri": "spotify:track:7ukrAoAILpGPHaZ9uYmNL0", "popularity": 48}, {"album": {"total_tracks": 1, "type": "album", "release_date": "2014-01-01", "href": "https://api.spotify.com/v1/albums/2u7XJ8cLPaDkl4hMMQoWff", "artists": [{"type": "artist", "name": "Imagine Dragons", "external_urls": {"spotify": "https://open.spotify.com/artist/53XhwfbYqKCa1cC15pYq2q"}, "id": "53XhwfbYqKCa1cC15pYq2q", "uri": "spotify:artist:53XhwfbYqKCa1cC15pYq2q", "href": "https://api.spotify.com/v1/artists/53XhwfbYqKCa1cC15pYq2q"}], "images": [{"width": 640, "url": "https://i.scdn.co/image/818111f62e6375dbe67e2197ba86bc5387b945a4", "height": 640}, {"width": 300, "url": "https://i.scdn.co/image/040048863b9bdcee9fbb7fc8d3b7f40335775647", "height": 300}, {"width": 64, "url": "https://i.scdn.co/image/e50222a9dc0d32b7d7fa2cd31b3b9431dbaec90b", "height": 64}], "available_markets": ["AE", "BE", "BH", "CA", "DZ", "EG", "ES", "FR", "GB", "ID", "IE", "IN", "IS", "IT", "JO", "KW", "LB", "LU", "MA", "MX", "MY", "OM", "PL", "PT", "QA", "SA", "TN", "TR", "TW", "US"], "album_type": "single", "release_date_precision": "day", "name": "Radioactive", "external_urls": {"spotify": "https://open.spotify.com/album/2u7XJ8cLPaDkl4hMMQoWff"}, "id": "2u7XJ8cLPaDkl4hMMQoWff", "uri": "spotify:album:2u7XJ8cLPaDkl4hMMQoWff"}, "external_ids": {"isrc": "USUM71400767"}, "name": "Radioactive", "duration_ms": 276040, "is_local": false, "disc_number": 1, "href": "https://api.spotify.com/v1/tracks/5e3HJBYbAVb83D85z8k60X", "artists": [{"type": "artist", "name": "Imagine Dragons", "external_urls": {"spotify": "https://open.spotify.com/artist/53XhwfbYqKCa1cC15pYq2q"}, "id": "53XhwfbYqKCa1cC15pYq2q", "uri": "spotify:artist:53XhwfbYqKCa1cC15pYq2q", "href": "https://api.spotify.com/v1/artists/53XhwfbYqKCa1cC15pYq2q"}, {"type": "artist", "name": "Kendrick Lamar", "external_urls": {"spotify": "https://open.spotify.com/artist/2YZyLoL8N0Wb9xBt1NhZWg"}, "id": "2YZyLoL8N0Wb9xBt1NhZWg", "uri": "spotify:artist:2YZyLoL8N0Wb9xBt1NhZWg", "href": "https://api.spotify.com/v1/artists/2YZyLoL8N0Wb9xBt1NhZWg"}], "track_number": 1, "available_markets": ["AE", "BE", "BH", "CA", "DZ", "EG", "ES", "FR", "GB", "ID", "IE", "IN", "IS", "IT", "JO", "KW", "LB", "LU", "MA", "MX", "MY", "OM", "PL", "PT", "QA", "SA", "TN", "TR", "TW", "US"], "type": "track", "preview_url": null, "explicit": false, "external_urls": {"spotify": "https://open.spotify.com/track/5e3HJBYbAVb83D85z8k60X"}, "id": "5e3HJBYbAVb83D85z8k60X", "uri": "spotify:track:5e3HJBYbAVb83D85z8k60X", "popularity": 33}], "previous": null, "href": "https://api.spotify.com/v1/search?query=artist%3AImagine+Dragons+track%3ARadioactive&type=track&offset=0&limit=5", "limit": 5, "total": 23, "next": "https://api.spotify.com/v1/search?query=artist%3AImagine+Dragons+track%3ARadioactive&type=track&offset=5&limit=5"}}