{"tracks": {"offset": 0, "items": [{"album": {"total_tracks": 12, "type": "album", "release_date": "2012-01-01", "href": "https://api.spotify.com/v1/albums/4p9dVvZDaZliSjTCbFRhJy", "artists": [{"type": "artist", "name": "Of Monsters and Men", "external_urls": {"spotify": "https://open.spotify.com/artist/4dwdTW1Lfiq0cM8nBAqIIz"}, "id": "4dwdTW1Lfiq0cM8nBAqIIz", "uri": "spotify:artist:4dwdTW1Lfiq0cM8nBAqIIz", "href": "https://api.spotify.com/v1/artists/4dwdTW1Lfiq0cM8nBAqIIz"}], "images": [{"width": 640, "url": "https://i.scdn.co/image/ab67616d0000b273b3bfad81d4dd20d719056779", "height": 640}, {"width": 300, "url": "https://i.scdn.co/image/ab67616d00001e02b3bfad81d4dd20d719056779", "height": 300}, {"width": 64, "url": "https://i.scdn.co/image/ab67616d00004851b3bfad81d4dd20d719056779", "height": 64}], "available_markets": ["AD", "AE", "AR", "AT", "AU", "BE", "BG", "BH", "BO", "BR", "CA", "CH", "CL", "CO", "CR", "CY", "CZ", "DE", "DK", "DO", "DZ", "EC", "EE", "EG", "ES", "FI", "FR", "GB", "GR", "GT", "HK", "HN", "HU", "ID", "IE", "IL", "IN", "IT", "JO", "KW", "LB", "LI", "LT", "LU", "LV", "MA", "MC", "MT", "MX", "MY", "NI", "NL", "NO", "NZ", "OM", "PA", "PE", "PH", "PL", "PS", "PT", "PY", "QA", "RO", "SA", "SE", "SG", "SK", "SV", "TH", "TN", "TR", "TW", "US", "UY", "VN", "ZA"], "album_type": "album", "release_date_precision": "day", "name": "My Head Is An Animal", "external_urls": {"spotify": "https://open.spotify.com/album/4p9dVvZDaZliSjTCbFRhJy"}, "id": "4p9dVvZDaZliSjTCbFRhJy", "uri": "spotify:album:4p9dVvZDaZliSjTCbFRhJy"}, "external_ids": {"isrc": "USUM71119106"}, "name": "Little Talks", "duration_ms": 266600, "is_local": false, "disc_number": 1, "href": "https://api.spotify.com/v1/tracks/2ihCaVdNZmnHZWt0fvAM7B", "artists": [{"type": "artist", "name": "Of Monsters and Men", "external_urls": {"spotify": "https://open.spotify.com/artist/4dwdTW1Lfiq0cM8nBAqIIz"}, "id": "4dwdTW1Lfiq0cM8nBAqIIz", "uri": "spotify:artist:4dwdTW1Lfiq0cM8nBAqIIz", "href": "https://api.spotify.com/v1/artists/4dwdTW1Lfiq0cM8nBAqIIz"}], "track_number": 6, "available_markets": ["AD", "AE", "AR", "AT", "AU", "BE", "BG", "BH", "BO", "BR", "CA", "CH", "CL", "CO", "CR", "CY", "CZ", "DE", "DK", "DO", "DZ", "EC", "EE", "EG", "ES", "FI", "FR", "GB", "GR", "GT", "HK", "HN", "HU", "ID", "IE", "IL", "IN", "IT", "JO", "KW", "LB", "LI", "LT", "LU", "LV", "MA", "MC", "MT", "MX", "MY", "NI", "NL", "NO", "NZ", "OM", "PA", "PE", "PH", "PL", "PS", "PT", "PY", "QA", "RO", "SA", "SE", "SG", "SK", "SV", "TH", "TN", "TR", "TW", "US", "UY", "VN", "ZA"], "type": "track", "preview_url": null, "explicit": false, "external_urls": {"spotify": "https://open.spotify.com/track/2ihCaVdNZmnHZWt0fvAM7B"}, "id": "2ihCaVdNZmnHZWt0fvAM7B", "uri": "spotify:track:2ihCaVdNZmnHZWt0fvAM7B", "popularity": 76}, {"album": {"total_tracks": 12, "type": "album", "release_date": "2012-01-01", "href": "https://api.spotify.com/v1/albums/6uD3oJCWT1gtlSCg5lDiNF", "artists": [{"type": "artist", "name": "Of Monsters and Men", "external_urls": {"spotify": "https://open.spotify.com/artist/4dwdTW1Lfiq0cM8nBAqIIz"}, "id": "4dwdTW1Lfiq0cM8nBAqIIz", "uri": "spotify:artist:4dwdTW1Lfiq0cM8nBAqIIz", "href": "https://api.spotify.com/v1/artists/4dwdTW1Lfiq0cM8nBAqIIz"}], "images": [{"width": 640, "url": "https://i.scdn.co/image/ab67616d0000b2730362c848529ef6cf850e8c0d", "height": 640}, {"width": 300, "url": "https://i.scdn.co/image/ab67616d00001e020362c848529ef6cf850e8c0d", "height": 300}, {"width": 64, "url": "https://i.scdn.co/image/ab67616d000048510362c848529ef6cf850e8c0d", "height": 64}], "available_markets": ["CA", "MX", "US"], "album_type": "album", "release_date_precision": "day", "name": "My Head Is An Animal", "external_urls": {"spotify": "https://open.spotify.com/album/6uD3oJCWT1gtlSCg5lDiNF"}, "id": "6uD3oJCWT1gtlSCg5lDiNF", "uri": "spotify:album:6uD3oJCWT1gtlSCg5lDiNF"}, "external_ids": {"isrc": "USUM71119106"}, "name": "Little Talks", "duration_ms": 266600, "is_local": false, "disc_number": 1, "href": "https://api.spotify.com/v1/tracks/3a2tuvXCHbW5nuUckuHkKT", "artists": [{"type": "artist", "name": "Of Monsters and Men", "external_urls": {"spotify": "https://open.spotify.com/artist/4dwdTW1Lfiq0cM8nBAqIIz"}, "id": "4dwdTW1Lfiq0cM8nBAqIIz", "uri": "spotify:artist:4dwdTW1Lfiq0cM8nBAqIIz", "href": "https://api.spotify.com/v1/artists/4dwdTW1Lfiq0cM8nBAqIIz"}], "track_number": 6, "available_markets": ["CA", "MX", "US"], "type": "track", "preview_url": null, "explicit": false, "external_urls": {"spotify": "https://open.spotify.com/track/3a2tuvXCHbW5nuUckuHkKT"}, "id": "3a2tuvXCHbW5nuUckuHkKT", "uri": "spotify:track:3a2tuvXCHbW5nuUckuHkKT", "popularity": 64}, {"album": {"total_tracks": 7, "type": "album", "release_date": "2013-01-01", "href": "https://api.spotify.com/v1/albums/2uPzmLNiwogDAiyKfl7HX5", "artists": [{"type": "artist", "name": "Of Monsters and Men", "external_urls": {"spotify": "https://open.spotify.com/artist/4dwdTW1Lfiq0cM8nBAqIIz"}, "id": "4dwdTW1Lfiq0cM8nBAqIIz", "uri": "spotify:artist:4dwdTW1Lfiq0cM8nBAqIIz", "href": "https://api.spotify.com/v1/artists/4dwdTW1Lfiq0cM8nBAqIIz"}], "images": [{"width": 640, "url": "https://i.scdn.co/image/ab67616d0000b273abd850891371636905d8049e", "height": 640}, {"width": 300, "url": "https://i.scdn.co/image/ab67616d00001e02abd850891371636905d8049e", "height": 300}, {"width": 64, "url": "https://i.scdn.co/image/ab67616d00004851abd850891371636905d8049e", "height": 64}], "available_markets": ["AD", "AE", "AR", "AT", "AU", "BE", "BG", "BH", "BO", "BR", "CA", "CH", "CL", "CO", "CR", "CY", "CZ", "DE", "DK", "DO", "DZ", "EC", "EE", "EG", "ES", "FI", "FR", "GB", "GR", "GT", "HK", "HN", "HU", "ID", "IE", "IL", "IN", "IT", "JO", "JP", "KW", "LB", "LI", "LT", "LU", "LV", "MA", "MC", "MT", "MX", "MY", "NI", "NL", "NO", "NZ", "OM", "PA", "PE", "PH", "PL", "PS", "PT", "PY", "QA", "RO", "SA", "SE", "SG", "SK", "SV", "TH", "TN", "TR", "TW", "US", "UY", "VN", "ZA"], "album_type": "album", "release_date_precision": "day", "name": "LIVE FROM VATNAGAR\u00d0AR", "external_urls": {"spotify": "https://open.spotify.com/album/2uPzmLNiwogDAiyKfl7HX5"}, "id": "2uPzmLNiwogDAiyKfl7HX5", "uri": "spotify:album:2uPzmLNiwogDAiyKfl7HX5"}, "external_ids": {"isrc": "USUG11300945"}, "name": "Little Talks", "duration_ms": 212935, "is_local": false, "disc_number": 1, "href": "https://api.spotify.com/v1/tracks/0dGVOz8yFNtoF9TNOLv4MW", "artists": [{"type": "artist", "name": "Of Monsters and Men", "external_urls": {"spotify": "https://open.spotify.com/artist/4dwdTW1Lfiq0cM8nBAqIIz"}, "id": "4dwdTW1Lfiq0cM8nBAqIIz", "uri": "spotify:artist:4dwdTW1Lfiq0cM8nBAqIIz", "href": "https://api.spotify.com/v1/artists/4dwdTW1Lfiq0cM8nBAqIIz"}], "track_number": 6, "available_markets": ["AD", "AE", "AR", "AT", "AU", "BE", "BG", "BH", "BO", "BR", "CA", "CH", "CL", "CO", "CR", "CY", "CZ", "DE", "DK", "DO", "DZ", "EC", "EE", "EG", "ES", "FI", "FR", "GB", "GR", "GT", "HK", "HN", "HU", "ID", "IE", "IL", "IN", "IT", "JO", "JP", "KW", "LB", "LI", "LT", "LU", "LV", "MA", "MC", "MT", "MX", "MY", "NI", "NL", "NO", "NZ", "OM", "PA", "PE", "PH", "PL", "PS", "PT", "PY", "QA", "RO", "SA", "SE", "SG", "SK", "SV", "TH", "TN", "TR", "TW", "US", "UY", "VN", "ZA"], "type": "track", "preview_url": null, "explicit": false, "external_urls": {"spotify": "https://open.spotify.com/track/0dGVOz8yFNtoF9TNOLv4MW"}, "id": "0dGVOz8yFNtoF9TNOLv4MW", "uri": "spotify:track:0dGVOz8yFNtoF9TNOLv4MW", "popularity": 39}, {"album": {"total_tracks": 24, "type": "album", "release_date": "2019-08-02", "href": "https://api.spotify.com/v1/albums/6vIAI2eFE32lq3icbJu2lD", "artists": [{"type": "artist", "name": "Various Artists", "external_urls": {"spotify": "https://open.spotify.com/artist/0LyfQWJT6nXafLPZqxe9Of"}, "id": "0LyfQWJT6nXafLPZqxe9Of", "uri": "spotify:artist:0LyfQWJT6nXafLPZqxe9Of", "href": "https://api.spotify.com/v1/artists/0LyfQWJT6nXafLPZqxe9Of"}], "images": [{"width": 640, "url": "https://i.scdn.co/image/ab67616d0000b273cd1e539e5c1ffcb9c7c1426c", "height": 640}, {"width": 300, "url": "https://i.scdn.co/image/ab67616d00001e02cd1e539e5c1ffcb9c7c1426c", "height": 300}, {"width": 64, "url": "https://i.scdn.co/image/ab67616d00004851cd1e539e5c1ffcb9c7c1426c", "height": 64}], "available_markets": ["AR", "AT", "AU", "BE", "BG", "BO", "BR", "CA", "CH", "CL", "CO", "CR", "CZ", "DE", "DK", "EC", "ES", "FI", "FR", "GB", "GR", "GT", "HK", "HN", "HU", "ID", "IE", "IN", "IT", "JP", "MX", "MY", "NI", "NL", "NO", "NZ", "PA", "PE", "PH", "PL", "PT", "PY", "RO", "SE", "SG", "SK", "SV", "TH", "TR", "TW", "US", "UY", "ZA"], "album_type": "compilation", "release_date_precision": "day", "name": "Van Life", "external_urls": {"spotify": "https://open.spotify.com/album/6vIAI2eFE32lq3icbJu2lD"}, "id": "6vIAI2eFE32lq3icbJu2lD", "uri": "spotify:album:6vIAI2eFE32lq3icbJu2lD"}, "external_ids": {"isrc": "USUM71119106"}, "name": "Little Talks", "duration_ms": 266600, "is_local": false, "disc_number": 1, "href": "https://api.spotify.com/v1/tracks/7GMD0roD3oBqqvlrwa5EBj", "artists": [{"type": "artist", "name": "Of Monsters and Men", "external_urls": {"spotify": "https://open.spotify.com/artist/4dwdTW1Lfiq0cM8nBAqIIz"}, "id": "4dwdTW1Lfiq0cM8nBAqIIz", "uri": "spotify:artist:4dwdTW1Lfiq0cM8nBAqIIz", "href": "https://api.spotify.com/v1/artists/4dwdTW1Lfiq0cM8nBAqIIz"}], "track_number": 7, "available_markets": ["AR", "AT", "AU", "BE", "BG", "BO", "BR", "CA", "CH", "CL", "CO", "CR", "CZ", "DE", "DK", "EC", "ES", "FI", "FR", "GB", "GR", "GT", "HK", "HN", "HU", "ID", "IE", "IN", "IT", "JP", "MX", "MY", "NI", "NL", "NO", "NZ", "PA", "PE", "PH", "PL", "PT", "PY", "RO", "SE", "SG", "SK", "SV", "TH", "TR", "TW", "US", "UY", "ZA"], "type": "track", "preview_url": null, "explicit": false, "external_urls": {"spotify": "https://open.spotify.com/track/7GMD0roD3oBqqvlrwa5EBj"}, "id": "7GMD0roD3oBqqvlrwa5EBj", "uri": "spotify:track:7GMD0roD3oBqqvlrwa5EBj", "popularity": 18}, {"album": {"total_tracks": 30, "type": "album", "release_date": "2019-06-07", "href": "https://api.spotify.com/v1/albums/325PQ2dqUQsoT0YLqBojxy", "artists": [{"type": "artist", "name": "Various Artists", "external_urls": {"spotify": "https://open.spotify.com/artist/0LyfQWJT6nXafLPZqxe9Of"}, "id": "0LyfQWJT6nXafLPZqxe9Of", "uri": "spotify:artist:0LyfQWJT6nXafLPZqxe9Of", "href": "https://api.spotify.com/v1/artists/0LyfQWJT6nXafLPZqxe9Of"}], "images": [{"width": 640, "url": "https://i.scdn.co/image/ab67616d0000b273dab1ea7f6e826e14efaef55b", "height": 640}, {"width": 300, "url": "https://i.scdn.co/image/ab67616d00001e02dab1ea7f6e826e14efaef55b", "height": 300}, {"width": 64, "url": "https://i.scdn.co/image/ab67616d00004851dab1ea7f6e826e14efaef55b", "height": 64}], "available_markets": ["AR", "AT", "AU", "BO", "BR", "CA", "CH", "CL", "CO", "CR", "DE", "DK", "EC", "ES", "FI", "FR", "GB", "GT", "HN", "MX", "NI", "NO", "PA", "PE", "PY", "SE", "SV", "US", "UY"], "album_type": "compilation", "release_date_precision": "day", "name": "30 Top Pop Hits", "external_urls": {"spotify": "https://open.spotify.com/album/325PQ2dqUQsoT0YLqBojxy"}, "id": "325PQ2dqUQsoT0YLqBojxy", "uri": "spotify:album:325PQ2dqUQsoT0YLqBojxy"}, "external_ids": {"isrc": "USUM71119106"}, "name": "Little Talks", "duration_ms": 266600, "is_local": false, "disc_number": 1, "href": "https://api.spotify.com/v1/tracks/43fn6OT9lALEunA2ehf36t", "artists": [{"type": "artist", "name": "Of Monsters and Men", "external_urls": {"spotify": "https://open.spotify.com/artist/4dwdTW1Lfiq0cM8nBAqIIz"}, "id": "4dwdTW1Lfiq0cM8nBAqIIz", "uri": "spotify:artist:4dwdTW1Lfiq0cM8nBAqIIz", "href": "https://api.spotify.com/v1/artists/4dwdTW1Lfiq0cM8nBAqIIz"}], "track_number": 18, "available_markets": ["AR", "AT", "AU", "BO", "BR", "CA", "CH", "CL", "CO", "CR", "DE", "DK", "EC", "ES", "FI", "FR", "GB", "GT", "HN", "MX", "NI", "NO", "PA", "PE", "PY", "SE", "SV", "US", "UY"], "type": "track", "preview_url": null, "explicit": false, "external_urls": {"spotify": "https://open.spotify.com/track/43fn6OT9lALEunA2ehf36t"}, "id": "43fn6OT9lALEunA2ehf36t", "uri": "spotify:track:43fn6OT9lALEunA2ehf36t", "popularity": 17}], "previous": null, "href": "https://api.spotify.com/v1/search?query=artist%3AOf+Monsters+and+Men+track%3ALittle+Talks&type=track&offset=0&limit=5", "limit": 5, "total": 17, "next": "https://api.spotify.com/v1/search?query=artist%3AOf+Monsters+and+Men+track%3ALittle+Talks&type=track&offset=5&limit=5"}}