{"tracks": {"offset": 0, "items": [{"album": {"total_tracks": 20, "type": "album", "release_date": "2013-02-17", "href": "https://api.spotify.com/v1/albums/0yWveEIgWbV3oPq4ZA6BAj", "artists": [{"type": "artist", "name": "Passenger", "external_urls": {"spotify": "https://open.spotify.com/artist/0gadJ2b9A4SKsB1RFkBb66"}, "id": "0gadJ2b9A4SKsB1RFkBb66", "uri": "spotify:artist:0gadJ2b9A4SKsB1RFkBb66", "href": "https://api.spotify.com/v1/artists/0gadJ2b9A4SKsB1RFkBb66"}], "images": [{"width": 640, "url": "https://i.scdn.co/image/ab67616d0000b2730eee0bc55f367404a8f2af1c", "height": 640}, {"width": 300, "url": "https://i.scdn.co/image/ab67616d00001e020eee0bc55f367404a8f2af1c", "height": 300}, {"width": 64, "url": "https://i.scdn.co/image/ab67616d000048510eee0bc55f367404a8f2af1c", "height": 64}], "available_markets": ["CA", "DO", "MX", "US"], "album_type": "album", "release_date_precision": "day", "name": "All the Little Lights (Deluxe Version)", "external_urls": {"spotify": "https://open.spotify.com/album/0yWveEIgWbV3oPq4ZA6BAj"}, "id": "0yWveEIgWbV3oPq4ZA6BAj", "uri": "spotify:album:0yWveEIgWbV3oPq4ZA6BAj"}, "external_ids": {"isrc": "GBMQN1200012"}, "name": "Let Her Go", "duration_ms": 252733, "is_local": false, "disc_number": 1, "href": "https://api.spotify.com/v1/tracks/0JmiBCpWc1IAc0et7Xm7FL", "artists": [{"type": "artist", "name": "Passenger", "external_urls": {"spotify": "https://open.spotify.com/artist/0gadJ2b9A4SKsB1RFkBb66"}, "id": "0gadJ2b9A4SKsB1RFkBb66", "uri": "spotify:artist:0gadJ2b9A4SKsB1RFkBb66", "href": "https://api.spotify.com/v1/artists/0gadJ2b9A4SKsB1RFkBb66"}], "track_number": 2, "available_markets": ["CA", "DO", "MX", "US"], "type": "track", "preview_url": "https://p.scdn.co/mp3-preview/043435de75e5889850d1caa8a479d5168ecf5ff3?cid=0c947b9d3f7547e28aee080174c283c9", "explicit": false, "external_urls": {"spotify": "https://open.spotify.com/track/0JmiBCpWc1IAc0et7Xm7FL"}, "id": "0JmiBCpWc1IAc0et7Xm7FL", "uri": "spotify:track:0JmiBCpWc1IAc0et7Xm7FL", "popularity": 68}, {"album": {"total_tracks": 20, "type": "album", "release_date": "2013-02-17", "href": "https://api.spotify.com/v1/albums/0yWveEIgWbV3oPq4ZA6BAj", "artists": [{"type": "artist", "name": "Passenger", "external_urls": {"spotify": "https://open.spotify.com/artist/0gadJ2b9A4SKsB1RFkBb66"}, "id": "0gadJ2b9A4SKsB1RFkBb66", "uri": "spotify:artist:0gadJ2b9A4SKsB1RFkBb66", "href": "https://api.spotify.com/v1/artists/0gadJ2b9A4SKsB1RFkBb66"}], "images": [{"width": 640, "url": "https://i.scdn.co/image/ab67616d0000b2730eee0bc55f367404a8f2af1c", "height": 640}, {"width": 300, "url": "https://i.scdn.co/image/ab67616d00001e020eee0bc55f367404a8f2af1c", "height": 300}, {"width": 64, "url": "https://i.scdn.co/image/ab67616d000048510eee0bc55f367404a8f2af1c", "height": 64}], "available_markets": ["CA", "DO", "MX", "US"], "album_type": "album", "release_date_precision": "day", "name": "All the Little Lights (Deluxe Version)", "external_urls": {"spotify": "https://open.spotify.com/album/0yWveEIgWbV3oPq4ZA6BAj"}, "id": "0yWveEIgWbV3oPq4ZA6BAj", "uri": "spotify:album:0yWveEIgWbV3oPq4ZA6BAj"}, "external_ids": {"isrc": "GBMQN1200002"}, "name": "Let Her Go - Acoustic", "duration_ms": 266626, "is_local": false, "disc_number": 2, "href": "https://api.spotify.com/v1/tracks/4tzAf07GCR6DlycQkUKlgN", "artists": [{"type": "artist", "name": "Passenger", "external_urls": {"spotify": "https://open.spotify.com/artist/0gadJ2b9A4SKsB1RFkBb66"}, "id": "0gadJ2b9A4SKsB1RFkBb66", "uri": "spotify:artist:0gadJ2b9A4SKsB1RFkBb66", "href": "https://api.spotify.com/v1/artists/0gadJ2b9A4SKsB1RFkBb66"}], "track_number": 1, "available_markets": ["CA", "DO", "MX", "US"], "type": "track", "preview_url": "https://p.scdn.co/mp3-preview/24c6c37ffd7f07a7b1dc375913ddaa2f8c479d20?cid=0c947b9d3f7547e28aee080174c283c9", "explicit": false, "external_urls": {"spotify": "https://open.spotify.com/track/4tzAf07GCR6DlycQkUKlgN"}, "id": "4tzAf07GCR6DlycQkUKlgN", "uri": "spotify:track:4tzAf07GCR6DlycQkUKlgN", "popularity": 54}, {"album": {"total_tracks": 4, "type": "album", "release_date": "2012-06-29", "href": "https://api.spotify.com/v1/albums/6gMzMZ9HpMXosMlu2JtGti", "artists": [{"type": "artist", "name": "Passenger", "external_urls": {"spotify": "https://open.spotify.com/artist/0gadJ2b9A4SKsB1RFkBb66"}, "id": "0gadJ2b9A4SKsB1RFkBb66", "uri": "spotify:artist:0gadJ2b9A4SKsB1RFkBb66", "href": "https://api.spotify.com/v1/artists/0gadJ2b9A4SKsB1RFkBb66"}], "images": [{"width": 640, "url": "https://i.scdn.co/image/ab67616d0000b273cf0a0810b829015b704d6825", "height": 640}, {"width": 300, "url": "https://i.scdn.co/image/ab67616d00001e02cf0a0810b829015b704d6825", "height": 300}, {"width": 64, "url": "https://i.scdn.co/image/ab67616d00004851cf0a0810b829015b704d6825", "height": 64}], "available_markets": ["CA", "CR", "DO", "GB", "GT", "HN", "IE", "MX", "NI", "PA", "SV", "US"], "album_type": "single", "release_date_precision": "day", "name": "Spotify Session", "external_urls": {"spotify": "https://open.spotify.com/album/6gMzMZ9HpMXosMlu2JtGti"}, "id": "6gMzMZ9HpMXosMlu2JtGti", "uri": "spotify:album:6gMzMZ9HpMXosMlu2JtGti"}, "external_ids": {"isrc": "NLP761200064"}, "name": "Let Her Go - Live At Spotify Amsterdam", "duration_ms": 223573, "is_local": false, "disc_number": 1, "href": "https://api.spotify.com/v1/tracks/2JXnsuFhfVgLHPL1mp3xdW", "artists": [{"type": "artist", "name": "Passenger", "external_urls": {"spotify": "https://open.spotify.com/artist/0gadJ2b9A4SKsB1RFkBb66"}, "id": "0gadJ2b9A4SKsB1RFkBb66", "uri": "spotify:artist:0gadJ2b9A4SKsB1RFkBb66", "href": "https://api.spotify.com/v1/artists/0gadJ2b9A4SKsB1RFkBb66"}], "track_number": 1, "available_markets": ["CA", "CR", "DO", "GB", "GT", "HN", "IE", "MX", "NI", "PA", "SV", "US"], "type": "track", "preview_url": "https://p.scdn.co/mp3-preview/d440e9f5c6c52a62732c7bb62f682701d02c2733?cid=0c947b9d3f7547e28aee080174c283c9", "explicit": false, "external_urls": {"spotify": "https://open.spotify.com/track/2JXnsuFhfVgLHPL1mp3xdW"}, "id": "2JXnsuFhfVgLHPL1mp3xdW", "uri": "spotify:track:2JXnsuFhfVgLHPL1mp3xdW", "popularity": 39}, {"album": {"total_tracks": 3, "type": "album", "release_date": "2014-08-03", "href": "https://api.spotify.com/v1/albums/7mvfBRWLuUJzvppGr0NreR", "artists": [{"type": "artist", "name": "Loose Passenger Seat", "external_urls": {"spotify": "https://open.spotify.com/artist/5Dx4bvCuqjFyztRUYn82C5"}, "id": "5Dx4bvCuqjFyztRUYn82C5", "uri": "spotify:artist:5Dx4bvCuqjFyztRUYn82C5", "href": "https://api.spotify.com/v1/artists/5Dx4bvCuqjFyztRUYn82C5"}], "images": [{"width": 640, "url": "https://i.scdn.co/image/ab67616d0000b273d18921d993a1b0f2f2bdc1d7", "height": 640}, {"width": 300, "url": "https://i.scdn.co/image/ab67616d00001e02d18921d993a1b0f2f2bdc1d7", "height": 300}, {"width": 64, "url": "https://i.scdn.co/image/ab67616d00004851d18921d993a1b0f2f2bdc1d7", "height": 64}], "available_markets": ["AD", "AE", "AR", "AT", "AU", "BE", "BG", "BH", "BO", "BR", "CA", "CH", "CL", "CO", "CR", "CY", "CZ", "DE", "DK", "DO", "DZ", "EC", "EE", "EG", "ES", "FI", "FR", "GB", "GR", "GT", "HK", "HN", "HU", "ID", "IE", "IL", "IN", "IS", "IT", "JO", "JP", "KW", "LB", "LI", "LT", "LU", "LV", "MA", "MC", "MT", "MX", "MY", "NI", "NL", "NO", "NZ", "OM", "PA", "PE", "PH", "PL", "PS", "PT", "PY", "QA", "RO", "SA", "SE", "SG", "SK", "SV", "TH", "TN", "TR", "TW", "US", "UY", "VN", "ZA"], "album_type": "single", "release_date_precision": "day", "name": "One Direction Home EP", "external_urls": {"spotify": "https://open.spotify.com/album/7mvfBRWLuUJzvppGr0NreR"}, "id": "7mvfBRWLuUJzvppGr0NreR", "uri": "spotify:album:7mvfBRWLuUJzvppGr0NreR"}, "external_ids": {"isrc": "SEYOK1416270"}, "name": "I Let Her Go (acoustic mix)", "duration_ms": 125363, "is_local": false, "disc_number": 1, "href": "https://api.spotify.com/v1/tracks/3Ssak9ZUFG3ctLs70oUyUX", "artists": [{"type": "artist", "name": "Loose Passenger Seat", "external_urls": {"spotify": "https://open.spotify.com/artist/5Dx4bvCuqjFyztRUYn82C5"}, "id": "5Dx4bvCuqjFyztRUYn82C5", "uri": "spotify:artist:5Dx4bvCuqjFyztRUYn82C5", "href": "https://api.spotify.com/v1/artists/5Dx4bvCuqjFyztRUYn82C5"}], "track_number": 1, "available_markets": ["AD", "AE", "AR", "AT", "AU", "BE", "BG", "BH", "BO", "BR", "CA", "CH", "CL", "CO", "CR", "CY", "CZ", "DE", "DK", "DO", "DZ", "EC", "EE", "EG", "ES", "FI", "FR", "GB", "GR", "GT", "HK", "HN", "HU", "ID", "IE", "IL", "IN", "IS", "IT", "JO", "JP", "KW", "LB", "LI", "LT", "LU", "LV", "MA", "MC", "MT", "MX", "MY", "NI", "NL", "NO", "NZ", "OM", "PA", "PE", "PH", "PL", "PS", "PT", "PY", "QA", "RO", "SA", "SE", "SG", "SK", "SV", "TH", "TN", "TR", "TW", "US", "UY", "VN", "ZA"], "type": "track", "preview_url": "https://p.scdn.co/mp3-preview/66d5372367430a30decf5923ec0b6a58ec91840f?cid=0c947b9d3f7547e28aee080174c283c9", "explicit": false, "external_urls": {"spotify": "https://open.spotify.com/track/3Ssak9ZUFG3ctLs70oUyUX"}, "id": "3Ssak9ZUFG3ctLs70oUyUX", "uri": "spotify:track:3Ssak9ZUFG3ctLs70oUyUX", "popularity": 25}, {"album": {"total_tracks": 4, "type": "album", "release_date": "2014-06-13", "href": "https://api.spotify.com/v1/albums/0pP9IBLSbZ7AAFcPPZmIVL", "artists": [{"type": "artist", "name": "Passenger", "external_urls": {"spotify": "https://open.spotify.com/artist/0gadJ2b9A4SKsB1RFkBb66"}, "id": "0gadJ2b9A4SKsB1RFkBb66", "uri": "spotify:artist:0gadJ2b9A4SKsB1RFkBb66", "href": "https://api.spotify.com/v1/artists/0gadJ2b9A4SKsB1RFkBb66"}], "images": [{"width": 640, "url": "https://i.scdn.co/image/6b9bd740a1b4a7a8ac8a8ba7b836514a6ab03f0a", "height": 640}, {"width": 300, "url": "https://i.scdn.co/image/384b223f9c5628fb30770c66f5e0e12e4c554026", "height": 300}, {"width": 64, "url": "https://i.scdn.co/image/1a63acdfb5ff87048f56854d1a18fdb4b77392a1", "height": 64}], "available_markets": ["CA", "CR", "DO", "GT", "HN", "MX", "NI", "PA", "SV", "US"], "album_type": "single", "release_date_precision": "day", "name": "Spotify Sessions (Live Spotify Sydney Opera House)", "external_urls": {"spotify": "https://open.spotify.com/album/0pP9IBLSbZ7AAFcPPZmIVL"}, "id": "0pP9IBLSbZ7AAFcPPZmIVL", "uri": "spotify:album:0pP9IBLSbZ7AAFcPPZmIVL"}, "external_ids": {"isrc": "GBMQN1400066"}, "name": "Let Her Go - Live Spotify Sydney Opera House", "duration_ms": 212253, "is_local": false, "disc_number": 1, "href": "https://api.spotify.com/v1/tracks/2vFVmAYw2lVSgHPYxEaXAJ", "artists": [{"type": "artist", "name": "Passenger", "external_urls": {"spotify": "https://open.spotify.com/artist/0gadJ2b9A4SKsB1RFkBb66"}, "id": "0gadJ2b9A4SKsB1RFkBb66", "uri": "spotify:artist:0gadJ2b9A4SKsB1RFkBb66", "href": "https://api.spotify.com/v1/artists/0gadJ2b9A4SKsB1RFkBb66"}], "track_number": 1, "available_markets": ["CA", "CR", "DO", "GT", "HN", "MX", "NI", "PA", "SV", "US"], "type": "track", "preview_url": "https://p.scdn.co/mp3-preview/c674a2cdd95a134a10760591a4409f1281d8d4e5?cid=0c947b9d3f7547e28aee080174c283c9", "explicit": false, "external_urls": {"spotify": "https://open.spotify.com/track/2vFVmAYw2lVSgHPYxEaXAJ"}, "id": "2vFVmAYw2lVSgHPYxEaXAJ", "uri": "spotify:track:2vFVmAYw2lVSgHPYxEaXAJ", "popularity": 21}], "previous": null, "href": "https://api.spotify.com/v1/search?query=artist%3APassenger+track%3ALet+Her+Go&type=track&offset=0&limit=5", "limit": 5, "total": 24, "next": "https://api.spotify.com/v1/search?query=artist%3APassenger+track%3ALet+Her+Go&type=track&offset=5&limit=5"}}