{"tracks": {"offset": 0, "items": [{"album": {"total_tracks": 13, "type": "album", "release_date": "2009-07-14", "href": "https://api.spotify.com/v1/albums/39xrkt8RILtwa9DMyLkv32", "artists": [{"type": "artist", "name": "Edward Sharpe & The Magnetic Zeros", "external_urls": {"spotify": "https://open.spotify.com/artist/7giUHu5pv6YTZgSkxxCcgh"}, "id": "7giUHu5pv6YTZgSkxxCcgh", "uri": "spotify:artist:7giUHu5pv6YTZgSkxxCcgh", "href": "https://api.spotify.com/v1/artists/7giUHu5pv6YTZgSkxxCcgh"}], "images": [{"width": 640, "url": "https://i.scdn.co/image/ab67616d0000b273e0dd719897dd60694ce7593d", "height": 640}, {"width": 300, "url": "https://i.scdn.co/image/ab67616d00001e02e0dd719897dd60694ce7593d", "height": 300}, {"width": 64, "url": "https://i.scdn.co/image/ab67616d00004851e0dd719897dd60694ce7593d", "height": 64}], "available_markets": ["AR", "AU", "BO", "BR", "CA", "CL", "CO", "CR", "DO", "EC", "GT", "HN", "JP", "MX", "NI", "NZ", "PA", "PE", "PY", "SV", "US", "UY"], "album_type": "album", "release_date_precision": "day", "name": "Up from Below", "external_urls": {"spotify": "https://open.spotify.com/album/39xrkt8RILtwa9DMyLkv32"}, "id": "39xrkt8RILtwa9DMyLkv32", "uri": "spotify:album:39xrkt8RILtwa9DMyLkv32"}, "external_ids": {"isrc": "USVR90954206"}, "name": "Home", "duration_ms": 303200, "is_local": false, "disc_number": 1, "href": "https://api.spotify.com/v1/tracks/7w5cxTEzp1rfV3KCy0Bd5N", "artists": [{"type": "artist", "name": "Edward Sharpe & The Magnetic Zeros", "external_urls": {"spotify": "https://open.spotify.com/artist/7giUHu5pv6YTZgSkxxCcgh"}, "id": "7giUHu5pv6YTZgSkxxCcgh", "uri": "spotify:artist:7giUHu5pv6YTZgSkxxCcgh", "href": "https://api.spotify.com/v1/artists/7giUHu5pv6YTZgSkxxCcgh"}], "track_number": 6, "available_markets": ["AR", "AU", "BO", "BR", "CA", "CL", "CO", "CR", "DO", "EC", "GT", "HN", "JP", "MX", "NI", "NZ", "PA", "PE", "PY", "SV", "US", "UY"], "type": "track", "preview_url": "https://p.scdn.co/mp3-preview/8e1ff07117c78984d221597a80148e80eae6e146?cid=0c947b9d3f7547e28aee080174c283c9", "explicit": false, "external_urls": {"spotify": "https://open.spotify.com/track/7w5cxTEzp1rfV3KCy0Bd5N"}, "id": "7w5cxTEzp1rfV3KCy0Bd5N", "uri": "spotify:track:7w5cxTEzp1rfV3KCy0Bd5N", "popularity": 70}, {"album": {"total_tracks": 13, "type": "album", "release_date": "2009-07-07", "href": "https://api.spotify.com/v1/albums/71eRIPUemoGlRpNryhlZjU", "artists": [{"type": "artist", "name": "Edward Sharpe & The Magnetic Zeros", "external_urls": {"spotify": "https://open.spotify.com/artist/7giUHu5pv6YTZgSkxxCcgh"}, "id": "7giUHu5pv6YTZgSkxxCcgh", "uri": "spotify:artist:7giUHu5pv6YTZgSkxxCcgh", "href": "https://api.spotify.com/v1/artists/7giUHu5pv6YTZgSkxxCcgh"}], "images": [{"width": 640, "url": "https://i.scdn.co/image/ab67616d0000b27374a6778deef25cbf7195dfb6", "height": 640}, {"width": 300, "url": "https://i.scdn.co/image/ab67616d00001e0274a6778deef25cbf7195dfb6", "height": 300}, {"width": 64, "url": "https://i.scdn.co/image/ab67616d0000485174a6778deef25cbf7195dfb6", "height": 64}], "available_markets": ["AR", "AU", "BO", "BR", "CA", "CL", "CO", "CR", "DO", "EC", "GT", "HN", "JP", "MX", "NI", "NZ", "PA", "PE", "PY", "SV", "US", "UY", "ZA"], "album_type": "album", "release_date_precision": "day", "name": "Up From Below (10th Anniversary Edition) [2019 - Remaster]", "external_urls": {"spotify": "https://open.spotify.com/album/71eRIPUemoGlRpNryhlZjU"}, "id": "71eRIPUemoGlRpNryhlZjU", "uri": "spotify:album:71eRIPUemoGlRpNryhlZjU"}, "external_ids": {"isrc": "QMRSZ1901643"}, "name": "Home - 2019 - Remaster", "duration_ms": 306373, "is_local": false, "disc_number": 1, "href": "https://api.spotify.com/v1/tracks/7KWGfnsUU4Ri46TIvjpAPx", "artists": [{"type": "artist", "name": "Edward Sharpe & The Magnetic Zeros", "external_urls": {"spotify": "https://open.spotify.com/artist/7giUHu5pv6YTZgSkxxCcgh"}, "id": "7giUHu5pv6YTZgSkxxCcgh", "uri": "spotify:artist:7giUHu5pv6YTZgSkxxCcgh", "href": "https://api.spotify.com/v1/artists/7giUHu5pv6YTZgSkxxCcgh"}], "track_number": 6, "available_markets": ["AR", "AU", "BO", "BR", "CA", "CL", "CO", "CR", "DO", "EC", "GT", "HN", "JP", "MX", "NI", "NZ", "PA", "PE", "PY", "SV", "US", "UY", "ZA"], "type": "track", "preview_url": "https://p.scdn.co/mp3-preview/ecc427a12e60ff599a76469160d7bde983f6cf95?cid=0c947b9d3f7547e28aee080174c283c9", "explicit": false, "external_urls": {"spotify": "https://open.spotify.com/track/7KWGfnsUU4Ri46TIvjpAPx"}, "id": "7KWGfnsUU4Ri46TIvjpAPx", "uri": "spotify:track:7KWGfnsUU4Ri46TIvjpAPx", "popularity": 67}, {"album": {"total_tracks": 16, "type": "album", "release_date": "2006", "href": "https://api.spotify.com/v1/albums/6nKCSPUzU4GLM7cqqYmruM", "artists": [{"type": "artist", "name": "Edward Sharpe & The Magnetic Zeros", "external_urls": {"spotify": "https://open.spotify.com/artist/7giUHu5pv6YTZgSkxxCcgh"}, "id": "7giUHu5pv6YTZgSkxxCcgh", "uri": "spotify:artist:7giUHu5pv6YTZgSkxxCcgh", "href": "https://api.spotify.com/v1/artists/7giUHu5pv6YTZgSkxxCcgh"}], "images": [{"width": 640, "url": "https://i.scdn.co/image/ab67616d0000b273d427569f6bae48ce8a5bcac5", "height": 640}, {"width": 300, "url": "https://i.scdn.co/image/ab67616d00001e02d427569f6bae48ce8a5bcac5", "height": 300}, {"width": 64, "url": "https://i.scdn.co/image/ab67616d00004851d427569f6bae48ce8a5bcac5", "height": 64}], "available_markets": ["AD", "AE", "AR", "AT", "AU", "BE", "BG", "BH", "BO", "BR", "CA", "CH", "CL", "CO", "CR", "CY", "CZ", "DE", "DK", "DO", "DZ", "EC", "EE", "EG", "ES", "FI", "FR", "GB", "GR", "GT", "HK", "HN", "HU", "ID", "IE", "IL", "IN", "IS", "IT", "JO", "JP", "KW", "LB", "LI", "LT", "LU", "LV", "MA", "MC", "MT", "MX", "MY", "NI", "NL", "NO", "NZ", "OM", "PA", "PE", "PH", "PL", "PS", "PT", "PY", "QA", "RO", "SA", "SE", "SG", "SK", "SV", "TH", "TN", "TR", "TW", "US", "UY", "VN", "ZA"], "album_type": "album", "release_date_precision": "year", "name": "HOPE Campaign Tribute Album 2010", "external_urls": {"spotify": "https://open.spotify.com/album/6nKCSPUzU4GLM7cqqYmruM"}, "id": "6nKCSPUzU4GLM7cqqYmruM", "uri": "spotify:album:6nKCSPUzU4GLM7cqqYmruM"}, "external_ids": {"isrc": "USQY51049040"}, "name": "Home (featuring the Gulu Widows Choir)", "duration_ms": 304000, "is_local": false, "disc_number": 1, "href": "https://api.spotify.com/v1/tracks/0cPFDJKfL1CRsIirnN3mgW", "artists": [{"type": "artist", "name": "Edward Sharpe & The Magnetic Zeros", "external_urls": {"spotify": "https://open.spotify.com/artist/7giUHu5pv6YTZgSkxxCcgh"}, "id": "7giUHu5pv6YTZgSkxxCcgh", "uri": "spotify:artist:7giUHu5pv6YTZgSkxxCcgh", "href": "https://api.spotify.com/v1/artists/7giUHu5pv6YTZgSkxxCcgh"}], "track_number": 1, "available_markets": ["AD", "AE", "AR", "AT", "AU", "BE", "BG", "BH", "BO", "BR", "CA", "CH", "CL", "CO", "CR", "CY", "CZ", "DE", "DK", "DO", "DZ", "EC", "EE", "EG", "ES", "FI", "FR", "GB", "GR", "GT", "HK", "HN", "HU", "ID", "IE", "IL", "IN", "IS", "IT", "JO", "JP", "KW", "LB", "LI", "LT", "LU", "LV", "MA", "MC", "MT", "MX", "MY", "NI", "NL", "NO", "NZ", "OM", "PA", "PE", "PH", "PL", "PS", "PT", "PY", "QA", "RO", "SA", "SE", "SG", "SK", "SV", "TH", "TN", "TR", "TW", "US", "UY", "VN", "ZA"], "type": "track", "preview_url": "https://p.scdn.co/mp3-preview/16a288f6050ce4698f74ef239e68208fc4575d4c?cid=0c947b9d3f7547e28aee080174c283c9", "explicit": false, "external_urls": {"spotify": "https://open.spotify.com/track/0cPFDJKfL1CRsIirnN3mgW"}, "id": "0cPFDJKfL1CRsIirnN3mgW", "uri": "spotify:track:0cPFDJKfL1CRsIirnN3mgW", "popularity": 52}, {"album": {"total_tracks": 13, "type": "album", "release_date": "2012-01-01", "href": "https://api.spotify.com/v1/albums/2kAEABNjhDS3t4xIOO85fI", "artists": [{"type": "artist", "name": "Various Artists", "external_urls": {"spotify": "https://open.spotify.com/artist/0LyfQWJT6nXafLPZqxe9Of"}, "id": "0LyfQWJT6nXafLPZqxe9Of", "uri": "spotify:artist:0LyfQWJT6nXafLPZqxe9Of", "href": "https://api.spotify.com/v1/artists/0LyfQWJT6nXafLPZqxe9Of"}], "images": [{"width": 640, "url": "https://i.scdn.co/image/ab67616d0000b273879b60c4e8c5727a51fba48a", "height": 640}, {"width": 300, "url": "https://i.scdn.co/image/ab67616d00001e02879b60c4e8c5727a51fba48a", "height": 300}, {"width": 64, "url": "https://i.scdn.co/image/ab67616d00004851879b60c4e8c5727a51fba48a", "height": 64}], "available_markets": ["AD", "AE", "AR", "AT", "AU", "BE", "BG", "BH", "BO", "BR", "CA", "CH", "CL", "CO", "CR", "CY", "CZ", "DE", "DK", "DO", "DZ", "EC", "EE", "EG", "ES", "FI", "FR", "GB", "GR", "GT", "HK", "HN", "HU", "ID", "IE", "IL", "IN", "IS", "IT", "JO", "KW", "LB", "LI", "LT", "LU", "LV", "MA", "MC", "MT", "MX", "MY", "NI", "NL", "NO", "NZ", "OM", "PA", "PE", "PH", "PL", "PS", "PT", "PY", "QA", "RO", "SA", "SE", "SG", "SK", "SV", "TH", "TN", "TR", "TW", "US", "UY", "VN", "ZA"], "album_type": "compilation", "release_date_precision": "day", "name": "What To Expect When You're Expecting Soundtrack", "external_urls": {"spotify": "https://open.spotify.com/album/2kAEABNjhDS3t4xIOO85fI"}, "id": "2kAEABNjhDS3t4xIOO85fI", "uri": "spotify:album:2kAEABNjhDS3t4xIOO85fI"}, "external_ids": {"isrc": "USVR90954206"}, "name": "Home", "duration_ms": 303733, "is_local": false, "disc_number": 1, "href": "https://api.spotify.com/v1/tracks/1y6NrtYewc9g3XDkOdDwTQ", "artists": [{"type": "artist", "name": "Edward Sharpe & The Magnetic Zeros", "external_urls": {"spotify": "https://open.spotify.com/artist/7giUHu5pv6YTZgSkxxCcgh"}, "id": "7giUHu5pv6YTZgSkxxCcgh", "uri": "spotify:artist:7giUHu5pv6YTZgSkxxCcgh", "href": "https://api.spotify.com/v1/artists/7giUHu5pv6YTZgSkxxCcgh"}], "track_number": 9, "available_markets": ["AD", "AE", "AR", "AT", "AU", "BE", "BG", "BH", "BO", "BR", "CA", "CH", "CL", "CO", "CR", "CY", "CZ", "DE", "DK", "DO", "DZ", "EC", "EE", "EG", "ES", "FI", "FR", "GB", "GR", "GT", "HK", "HN", "HU", "ID", "IE", "IL", "IN", "IS", "IT", "JO", "KW", "LB", "LI", "LT", "LU", "LV", "MA", "MC", "MT", "MX", "MY", "NI", "NL", "NO", "NZ", "OM", "PA", "PE", "PH", "PL", "PS", "PT", "PY", "QA", "RO", "SA", "SE", "SG", "SK", "SV", "TH", "TN", "TR", "TW", "US", "UY", "VN", "ZA"], "type": "track", "preview_url": null, "explicit": false, "external_urls": {"spotify": "https://open.spotify.com/track/1y6NrtYewc9g3XDkOdDwTQ"}, "id": "1y6NrtYewc9g3XDkOdDwTQ", "uri": "spotify:track:1y6NrtYewc9g3XDkOdDwTQ", "popularity": 42}, {"album": {"total_tracks": 21, "type": "album", "release_date": "2015-10-09", "href": "https://api.spotify.com/v1/albums/78OPD9ZJwD0TMEkNrDB2hB", "artists": [{"type": "artist", "name": "Edward Sharpe & The Magnetic Zeros", "external_urls": {"spotify": "https://open.spotify.com/artist/7giUHu5pv6YTZgSkxxCcgh"}, "id": "7giUHu5pv6YTZgSkxxCcgh", "uri": "spotify:artist:7giUHu5pv6YTZgSkxxCcgh", "href": "https://api.spotify.com/v1/artists/7giUHu5pv6YTZgSkxxCcgh"}], "images": [{"width": 640, "url": "https://i.scdn.co/image/ab67616d0000b273fb99bafcf59af8ba3085e68f", "height": 640}, {"width": 300, "url": "https://i.scdn.co/image/ab67616d00001e02fb99bafcf59af8ba3085e68f", "height": 300}, {"width": 64, "url": "https://i.scdn.co/image/ab67616d00004851fb99bafcf59af8ba3085e68f", "height": 64}], "available_markets": ["AD", "AE", "AR", "AT", "AU", "BE", "BG", "BH", "BO", "BR", "CA", "CH", "CL", "CO", "CR", "CY", "CZ", "DE", "DK", "DO", "DZ", "EC", "EE", "EG", "ES", "FI", "FR", "GB", "GR", "GT", "HK", "HN", "HU", "ID", "IE", "IL", "IN", "IS", "IT", "JO", "JP", "KW", "LB", "LI", "LT", "LU", "LV", "MA", "MC", "MT", "MX", "MY", "NI", "NL", "NO", "NZ", "OM", "PA", "PE", "PH", "PL", "PS", "PT", "PY", "QA", "RO", "SA", "SE", "SG", "SK", "SV", "TH", "TN", "TR", "TW", "US", "UY", "VN", "ZA"], "album_type": "album", "release_date_precision": "day", "name": "Live In No Particular Order: 2009 - 2014", "external_urls": {"spotify": "https://open.spotify.com/album/78OPD9ZJwD0TMEkNrDB2hB"}, "id": "78OPD9ZJwD0TMEkNrDB2hB", "uri": "spotify:album:78OPD9ZJwD0TMEkNrDB2hB"}, "external_ids": {"isrc": "GMNGX1500009"}, "name": "Home - Live at Floydfest, Floyd, VA, July 27, 2013", "duration_ms": 534839, "is_local": false, "disc_number": 1, "href": "https://api.spotify.com/v1/tracks/7ofcIkW5NMkzZC9FXrjQ9G", "artists": [{"type": "artist", "name": "Edward Sharpe & The Magnetic Zeros", "external_urls": {"spotify": "https://open.spotify.com/artist/7giUHu5pv6YTZgSkxxCcgh"}, "id": "7giUHu5pv6YTZgSkxxCcgh", "uri": "spotify:artist:7giUHu5pv6YTZgSkxxCcgh", "href": "https://api.spotify.com/v1/artists/7giUHu5pv6YTZgSkxxCcgh"}], "track_number": 9, "available_markets": ["AD", "AE", "AR", "AT", "AU", "BE", "BG", "BH", "BO", "BR", "CA", "CH", "CL", "CO", "CR", "CY", "CZ", "DE", "DK", "DO", "DZ", "EC", "EE", "EG", "ES", "FI", "FR", "GB", "GR", "GT", "HK", "HN", "HU", "ID", "IE", "IL", "IN", "IS", "IT", "JO", "JP", "KW", "LB", "LI", "LT", "LU", "LV", "MA", "MC", "MT", "MX", "MY", "NI", "NL", "NO", "NZ", "OM", "PA", "PE", "PH", "PL", "PS", "PT", "PY", "QA", "RO", "SA", "SE", "SG", "SK", "SV", "TH", "TN", "TR", "TW", "US", "UY", "VN", "ZA"], "type": "track", "preview_url": "https://p.scdn.co/mp3-preview/1130aef3545be6a82f517ba28f7119ca34bf8571?cid=0c947b9d3f7547e28aee080174c283c9", "explicit": false, "external_urls": {"spotify": "https://open.spotify.com/track/7ofcIkW5NMkzZC9FXrjQ9G"}, "id": "7ofcIkW5NMkzZC9FXrjQ9G", "uri": "spotify:track:7ofcIkW5NMkzZC9FXrjQ9G", "popularity": 29}], "previous": null, "href": "https://api.spotify.com/v1/search?query=artist%3AEdward+Sharpe+%26+The+Magnetic+Zeros+track%3AHome&type=track&offset=0&limit=5", "limit": 5, "total": 6, "next": "https://api.spotify.com/v1/search?query=artist%3AEdward+Sharpe+%26+The+Magnetic+Zeros+track%3AHome&type=track&offset=5&limit=5"}}