{"tracks": {"offset": 0, "items": [{"album": {"total_tracks": 14, "type": "album", "release_date": "2003-04-01", "href": "https://api.spotify.com/v1/albums/48Atx1uS9J4KL5iQt3weoS", "artists": [{"type": "artist", "name": "The White Stripes", "external_urls": {"spotify": "https://open.spotify.com/artist/4F84IBURUo98rz4r61KF70"}, "id": "4F84IBURUo98rz4r61KF70", "uri": "spotify:artist:4F84IBURUo98rz4r61KF70", "href": "https://api.spotify.com/v1/artists/4F84IBURUo98rz4r61KF70"}], "images": [{"width": 640, "url": "https://i.scdn.co/image/ab67616d0000b2734bd2abe1f7e9d345f38fd880", "height": 640}, {"width": 300, "url": "https://i.scdn.co/image/ab67616d00001e024bd2abe1f7e9d345f38fd880", "height": 300}, {"width": 64, "url": "https://i.scdn.co/image/ab67616d000048514bd2abe1f7e9d345f38fd880", "height": 64}], "available_markets": ["CA", "JP", "MX", "US"], "album_type": "album", "release_date_precision": "day", "name": "Elephant", "external_urls": {"spotify": "https://open.spotify.com/album/48Atx1uS9J4KL5iQt3weoS"}, "id": "48Atx1uS9J4KL5iQt3weoS", "uri": "spotify:album:48Atx1uS9J4KL5iQt3weoS"}, "external_ids": {"isrc": "USVT10300001"}, "name": "Seven Nation Army", "duration_ms": 231733, "is_local": false, "disc_number": 1, "href": "https://api.spotify.com/v1/tracks/7i6r9KotUPQg3ozKKgEPIN", "artists": [{"type": "artist", "name": "The White Stripes", "external_urls": {"spotify": "https://open.spotify.com/artist/4F84IBURUo98rz4r61KF70"}, "id": "4F84IBURUo98rz4r61KF70", "uri": "spotify:artist:4F84IBURUo98rz4r61KF70", "href": "https://api.spotify.com/v1/artists/4F84IBURUo98rz4r61KF70"}], "track_number": 1, "available_markets": ["CA", "JP", "MX", "US"], "type": "track", "preview_url": "https://p.scdn.co/mp3-preview/d5c742f7e2d651d8f34761e045cfbcdb76f6b077?cid=0c947b9d3f7547e28aee080174c283c9", "explicit": false, "external_urls": {"spotify": "https://open.spotify.com/track/7i6r9KotUPQg3ozKKgEPIN"}, "id": "7i6r9KotUPQg3ozKKgEPIN", "uri": "spotify:track:7i6r9KotUPQg3ozKKgEPIN", "popularity": 76}, {"album": {"total_tracks": 33, "type": "album", "release_date": "2014-08-25", "href": "https://api.spotify.com/v1/albums/19xt2EkDfNcbAdQzOVUttd", "artists": [{"type": "artist", "name": "Various Artists", "external_urls": {"spotify": "https://open.spotify.com/artist/0LyfQWJT6nXafLPZqxe9Of"}, "id": "0LyfQWJT6nXafLPZqxe9Of", "uri": "spotify:artist:0LyfQWJT6nXafLPZqxe9Of", "href": "https://api.spotify.com/v1/artists/0LyfQWJT6nXafLPZqxe9Of"}], "images": [{"width": 640, "url": "https://i.scdn.co/image/ab67616d0000b273f2084e0d4647cef727061f38", "height": 640}, {"width": 300, "url": "https://i.scdn.co/image/ab67616d00001e02f2084e0d4647cef727061f38", "height": 300}, {"width": 64, "url": "https://i.scdn.co/image/ab67616d00004851f2084e0d4647cef727061f38", "height": 64}], "available_markets": ["AD", "AE", "AR", "AT", "AU", "BE", "BG", "BH", "BO", "BR", "CA", "CH", "CL", "CO", "CR", "CY", "CZ", "DE", "DK", "DO", "DZ", "EC", "EE", "EG", "ES", "FI", "FR", "GB", "GR", "GT", "HK", "HN", "HU", "ID", "IE", "IL", "IN", "IS", "IT", "JO", "JP", "KW", "LB", "LI", "LT", "LU", "LV", "MA", "MC", "MT", "MX", "MY", "NI", "NL", "NO", "NZ", "OM", "PA", "PE", "PH", "PL", "PS", "PT", "PY", "QA", "RO", "SA", "SE", "SG", "SK", "SV", "TH", "TN", "TR", "TW", "US", "UY", "VN", "ZA"], "album_type": "compilation", "release_date_precision": "day", "name": "Pay Close Attention : XL Recordings", "external_urls": {"spotify": "https://open.spotify.com/album/19xt2EkDfNcbAdQzOVUttd"}, "id": "19xt2EkDfNcbAdQzOVUttd", "uri": "spotify:album:19xt2EkDfNcbAdQzOVUttd"}, "external_ids": {"isrc": "GBBKS0200608"}, "name": "Seven Nation Army", "duration_ms": 230733, "is_local": false, "disc_number": 2, "href": "https://api.spotify.com/v1/tracks/3kVRKixPYEjrerKc0MZPdK", "artists": [{"type": "artist", "name": "The White Stripes", "external_urls": {"spotify": "https://open.spotify.com/artist/4F84IBURUo98rz4r61KF70"}, "id": "4F84IBURUo98rz4r61KF70", "uri": "spotify:artist:4F84IBURUo98rz4r61KF70", "href": "https://api.spotify.com/v1/artists/4F84IBURUo98rz4r61KF70"}], "track_number": 3, "available_markets": ["AD", "AE", "AR", "AT", "AU", "BE", "BG", "BH", "BO", "BR", "CA", "CH", "CL", "CO", "CR", "CY", "CZ", "DE", "DK", "DO", "DZ", "EC", "EE", "EG", "ES", "FI", "FR", "GB", "GR", "GT", "HK", "HN", "HU", "ID", "IE", "IL", "IN", "IS", "IT", "JO", "JP", "KW", "LB", "LI", "LT", "LU", "LV", "MA", "MC", "MT", "MX", "MY", "NI", "NL", "NO", "NZ", "OM", "PA", "PE", "PH", "PL", "PS", "PT", "PY", "QA", "RO", "SA", "SE", "SG", "SK", "SV", "TH", "TN", "TR", "TW", "US", "UY", "VN", "ZA"], "type": "track", "preview_url": "https://p.scdn.co/mp3-preview/93e6b5cddeec8522f9271d80c554bcea129a4061?cid=0c947b9d3f7547e28aee080174c283c9", "explicit": false, "external_urls": {"spotify": "https://open.spotify.com/track/3kVRKixPYEjrerKc0MZPdK"}, "id": "3kVRKixPYEjrerKc0MZPdK", "uri": "spotify:track:3kVRKixPYEjrerKc0MZPdK", "popularity": 56}, {"album": {"total_tracks": 100, "type": "album", "release_date": "2012-07-16", "href": "https://api.spotify.com/v1/albums/2OZZPf10jAHiJAZSvCXbaj", "artists": [{"type": "artist", "name": "The Karaoke Machine", "external_urls": {"spotify": "https://open.spotify.com/artist/1SpCo1CAtNQODuohiHGICI"}, "id": "1SpCo1CAtNQODuohiHGICI", "uri": "spotify:artist:1SpCo1CAtNQODuohiHGICI", "href": "https://api.spotify.com/v1/artists/1SpCo1CAtNQODuohiHGICI"}], "images": [{"width": 640, "url": "https://i.scdn.co/image/ab67616d0000b273537add5fec1224c05fdfa1fc", "height": 640}, {"width": 300, "url": "https://i.scdn.co/image/ab67616d00001e02537add5fec1224c05fdfa1fc", "height": 300}, {"width": 64, "url": "https://i.scdn.co/image/ab67616d00004851537add5fec1224c05fdfa1fc", "height": 64}], "available_markets": ["AD", "AE", "AR", "AT", "AU", "BE", "BG", "BH", "BO", "BR", "CA", "CH", "CL", "CO", "CR", "CY", "CZ", "DE", "DK", "DO", "DZ", "EC", "EE", "EG", "ES", "FI", "FR", "GB", "GR", "GT", "HK", "HN", "HU", "ID", "IE", "IL", "IN", "IS", "IT", "JO", "JP", "KW", "LB", "LI", "LT", "LU", "LV", "MA", "MC", "MT", "MX", "MY", "NI", "NL", "NO", "NZ", "OM", "PA", "PE", "PH", "PL", "PS", "PT", "PY", "QA", "RO", "SA", "SE", "SG", "SK", "SV", "TH", "TN", "TR", "TW", "US", "UY", "VN", "ZA"], "album_type": "album", "release_date_precision": "day", "name": "The Karaoke Machine Presents - Karaoke Hot 100, Vol. 8", "external_urls": {"spotify": "https://open.spotify.com/album/2OZZPf10jAHiJAZSvCXbaj"}, "id": "2OZZPf10jAHiJAZSvCXbaj", "uri": "spotify:album:2OZZPf10jAHiJAZSvCXbaj"}, "external_ids": {"isrc": "USA2P1208247"}, "name": "Seven Nation Army (White Stripes Karaoke Tribute)", "duration_ms": 227914, "is_local": false, "disc_number": 1, "href": "https://api.spotify.com/v1/tracks/5J0nPPJd5Yz2X1fzqkKISD", "artists": [{"type": "artist", "name": "The Karaoke Machine", "external_urls": {"spotify": "https://open.spotify.com/artist/1SpCo1CAtNQODuohiHGICI"}, "id": "1SpCo1CAtNQODuohiHGICI", "uri": "spotify:artist:1SpCo1CAtNQODuohiHGICI", "href": "https://api.spotify.com/v1/artists/1SpCo1CAtNQODuohiHGICI"}], "track_number": 29, "available_markets": ["AD", "AE", "AR", "AT", "AU", "BE", "BG", "BH", "BO", "BR", "CA", "CH", "CL", "CO", "CR", "CY", "CZ", "DE", "DK", "DO", "DZ", "EC", "EE", "EG", "ES", "FI", "FR", "GB", "GR", "GT", "HK", "HN", "HU", "ID", "IE", "IL", "IN", "IS", "IT", "JO", "JP", "KW", "LB", "LI", "LT", "LU", "LV", "MA", "MC", "MT", "MX", "MY", "NI", "NL", "NO", "NZ", "OM", "PA", "PE", "PH", "PL", "PS", "PT", "PY", "QA", "RO", "SA", "SE", "SG", "SK", "SV", "TH", "TN", "TR", "TW", "US", "UY", "VN", "ZA"], "type": "track", "preview_url": "https://p.scdn.co/mp3-preview/a8a14abfeee57743348bd024110025004e8fbf0f?cid=0c947b9d3f7547e28aee080174c283c9", "explicit": false, "external_urls": {"spotify": "https://open.spotify.com/track/5J0nPPJd5Yz2X1fzqkKISD"}, "id": "5J0nPPJd5Yz2X1fzqkKISD", "uri": "spotify:track:5J0nPPJd5Yz2X1fzqkKISD", "popularity": 0}, {"album": {"total_tracks": 100, "type": "album", "release_date": "2015-04-13", "href": "https://api.spotify.com/v1/albums/0ZXLKw3GHl10Bnrmo97VMF", "artists": [{"type": "artist", "name": "The Retro Spectres", "external_urls": {"spotify": "https://open.spotify.com/artist/4ZULQheLrsg2TXuMYSkTzp"}, "id": "4ZULQheLrsg2TXuMYSkTzp", "uri": "spotify:artist:4ZULQheLrsg2TXuMYSkTzp", "href": "https://api.spotify.com/v1/artists/4ZULQheLrsg2TXuMYSkTzp"}], "images": [{"width": 640, "url": "https://i.scdn.co/image/ab67616d0000b273982c7813c74b5a0dcd757061", "height": 640}, {"width": 300, "url": "https://i.scdn.co/image/ab67616d00001e02982c7813c74b5a0dcd757061", "height": 300}, {"width": 64, "url": "https://i.scdn.co/image/ab67616d00004851982c7813c74b5a0dcd757061", "height": 64}], "available_markets": ["AD", "AE", "AR", "AT", "AU", "BE", "BG", "BH", "BO", "BR", "CA", "CH", "CL", "CO", "CR", "CY", "CZ", "DE", "DK", "DO", "DZ", "EC", "EE", "EG", "ES", "FI", "FR", "GB", "GR", "GT", "HK", "HN", "HU", "ID", "IE", "IL", "IN", "IS", "IT", "JO", "JP", "KW", "LB", "LI", "LT", "LU", "LV", "MA", "MC", "MT", "MX", "MY", "NI", "NL", "NO", "NZ", "OM", "PA", "PE", "PH", "PL", "PS", "PT", "PY", "QA", "RO", "SA", "SE", "SG", "SK", "SV", "TH", "TN", "TR", "TW", "US", "UY", "VN", "ZA"], "album_type": "album", "release_date_precision": "day", "name": "Heavy Rock, Punk and New Wave - Backing Tracks Galore", "external_urls": {"spotify": "https://open.spotify.com/album/0ZXLKw3GHl10Bnrmo97VMF"}, "id": "0ZXLKw3GHl10Bnrmo97VMF", "uri": "spotify:album:0ZXLKw3GHl10Bnrmo97VMF"}, "external_ids": {"isrc": "QM4TW1516229"}, "name": "Seven Nation Army (Originally Performed by White Stripes) [Instrumental]", "duration_ms": 224976, "is_local": false, "disc_number": 1, "href": "https://api.spotify.com/v1/tracks/51fivJ5ukaHydr3nHfLfQh", "artists": [{"type": "artist", "name": "The Retro Spectres", "external_urls": {"spotify": "https://open.spotify.com/artist/4ZULQheLrsg2TXuMYSkTzp"}, "id": "4ZULQheLrsg2TXuMYSkTzp", "uri": "spotify:artist:4ZULQheLrsg2TXuMYSkTzp", "href": "https://api.spotify.com/v1/artists/4ZULQheLrsg2TXuMYSkTzp"}], "track_number": 77, "available_markets": ["AD", "AE", "AR", "AT", "AU", "BE", "BG", "BH", "BO", "BR", "CA", "CH", "CL", "CO", "CR", "CY", "CZ", "DE", "DK", "DO", "DZ", "EC", "EE", "EG", "ES", "FI", "FR", "GB", "GR", "GT", "HK", "HN", "HU", "ID", "IE", "IL", "IN", "IS", "IT", "JO", "JP", "KW", "LB", "LI", "LT", "LU", "LV", "MA", "MC", "MT", "MX", "MY", "NI", "NL", "NO", "NZ", "OM", "PA", "PE", "PH", "PL", "PS", "PT", "PY", "QA", "RO", "SA", "SE", "SG", "SK", "SV", "TH", "TN", "TR", "TW", "US", "UY", "VN", "ZA"], "type": "track", "preview_url": "https://p.scdn.co/mp3-preview/c07804b035f261e893e0fdb3901e5df266651ce1?cid=0c947b9d3f7547e28aee080174c283c9", "explicit": false, "external_urls": {"spotify": "https://open.spotify.com/track/51fivJ5ukaHydr3nHfLfQh"}, "id": "51fivJ5ukaHydr3nHfLfQh", "uri": "spotify:track:51fivJ5ukaHydr3nHfLfQh", "popularity": 1}, {"album": {"total_tracks": 52, "type": "album", "release_date": "2009-06-01", "href": "https://api.spotify.com/v1/albums/0brXivMbnwEizEzudh5eZU", "artists": [{"type": "artist", "name": "The Rock Heroes", "external_urls": {"spotify": "https://open.spotify.com/artist/0wp7cYNFjMgSHBDdla5aC9"}, "id": "0wp7cYNFjMgSHBDdla5aC9", "uri": "spotify:artist:0wp7cYNFjMgSHBDdla5aC9", "href": "https://api.spotify.com/v1/artists/0wp7cYNFjMgSHBDdla5aC9"}], "images": [{"width": 640, "url": "https://i.scdn.co/image/ab67616d0000b273eb871e90c368f560ce15be5b", "height": 640}, {"width": 300, "url": "https://i.scdn.co/image/ab67616d00001e02eb871e90c368f560ce15be5b", "height": 300}, {"width": 64, "url": "https://i.scdn.co/image/ab67616d00004851eb871e90c368f560ce15be5b", "height": 64}], "available_markets": ["US"], "album_type": "album", "release_date_precision": "day", "name": "School's Out - The Summer Rock Collection", "external_urls": {"spotify": "https://open.spotify.com/album/0brXivMbnwEizEzudh5eZU"}, "id": "0brXivMbnwEizEzudh5eZU", "uri": "spotify:album:0brXivMbnwEizEzudh5eZU"}, "external_ids": {"isrc": "USA560987772"}, "name": "Seven Nation Army (as made famous by White Stripes)", "duration_ms": 232333, "is_local": false, "disc_number": 1, "href": "https://api.spotify.com/v1/tracks/79TRsvz0DA25MmNOMDvu6X", "artists": [{"type": "artist", "name": "The Rock Heroes", "external_urls": {"spotify": "https://open.spotify.com/artist/0wp7cYNFjMgSHBDdla5aC9"}, "id": "0wp7cYNFjMgSHBDdla5aC9", "uri": "spotify:artist:0wp7cYNFjMgSHBDdla5aC9", "href": "https://api.spotify.com/v1/artists/0wp7cYNFjMgSHBDdla5aC9"}], "track_number": 40, "available_markets": ["US"], "type": "track", "preview_url": "https://p.scdn.co/mp3-preview/a0efb37b0dbb8981342f36f1c2d708439d237979?cid=0c947b9d3f7547e28aee080174c283c9", "explicit": false, "external_urls": {"spotify": "https://open.spotify.com/track/79TRsvz0DA25MmNOMDvu6X"}, "id": "79TRsvz0DA25MmNOMDvu6X", "uri": "spotify:track:79TRsvz0DA25MmNOMDvu6X", "popularity": 0}], "previous": null, "href": "https://api.spotify.com/v1/search?query=artist%3AThe+White+Stripes+track%3ASeven+Nation+Army&type=track&offset=0&limit=5", "limit": 5, "total": 10, "next": "https://api.spotify.com/v1/search?query=artist%3AThe+White+Stripes+track%3ASeven+Nation+Army&type=track&offset=5&limit=5"}}