{"tracks": {"offset": 0, "items": [{"album": {"total_tracks": 13, "type": "album", "release_date": "2010", "href": "https://api.spotify.com/v1/albums/7strNUlU6xZqlVWBNUdOYv", "artists": [{"type": "artist", "name": "Maroon 5", "external_urls": {"spotify": "https://open.spotify.com/artist/04gDigrS5kc9YWfZHwBETP"}, "id": "04gDigrS5kc9YWfZHwBETP", "uri": "spotify:artist:04gDigrS5kc9YWfZHwBETP", "href": "https://api.spotify.com/v1/artists/04gDigrS5kc9YWfZHwBETP"}], "images": [{"width": 640, "url": "https://i.scdn.co/image/04ceb8dbf4bc2792c48d79b2c803c83574bcc553", "height": 640}, {"width": 300, "url": "https://i.scdn.co/image/6eec04939dae8cf060c89128e941b4d5d309b40a", "height": 300}, {"width": 64, "url": "https://i.scdn.co/image/4bbe411a1776e59da9391ca4249d1f77a0942037", "height": 64}], "available_markets": ["CA", "CR", "MX", "US"], "album_type": "album", "release_date_precision": "year", "name": "Hands All Over", "external_urls": {"spotify": "https://open.spotify.com/album/7strNUlU6xZqlVWBNUdOYv"}, "id": "7strNUlU6xZqlVWBNUdOYv", "uri": "spotify:album:7strNUlU6xZqlVWBNUdOYv"}, "external_ids": {"isrc": "USUM71109132"}, "name": "Moves Like Jagger - Studio Recording From The Voice Performance", "duration_ms": 201160, "is_local": false, "disc_number": 1, "href": "https://api.spotify.com/v1/tracks/7LcfRTgAVTs5pQGEQgUEzN", "artists": [{"type": "artist", "name": "Maroon 5", "external_urls": {"spotify": "https://open.spotify.com/artist/04gDigrS5kc9YWfZHwBETP"}, "id": "04gDigrS5kc9YWfZHwBETP", "uri": "spotify:artist:04gDigrS5kc9YWfZHwBETP", "href": "https://api.spotify.com/v1/artists/04gDigrS5kc9YWfZHwBETP"}, {"type": "artist", "name": "Christina Aguilera", "external_urls": {"spotify": "https://open.spotify.com/artist/1l7ZsJRRS8wlW3WfJfPfNS"}, "id": "1l7ZsJRRS8wlW3WfJfPfNS", "uri": "spotify:artist:1l7ZsJRRS8wlW3WfJfPfNS", "href": "https://api.spotify.com/v1/artists/1l7ZsJRRS8wlW3WfJfPfNS"}], "track_number": 13, "available_markets": ["CA", "CR", "MX", "US"], "type": "track", "preview_url": null, "explicit": false, "external_urls": {"spotify": "https://open.spotify.com/track/7LcfRTgAVTs5pQGEQgUEzN"}, "id": "7LcfRTgAVTs5pQGEQgUEzN", "uri": "spotify:track:7LcfRTgAVTs5pQGEQgUEzN", "popularity": 70}, {"album": {"total_tracks": 18, "type": "album", "release_date": "2010", "href": "https://api.spotify.com/v1/albums/2H4DCvJiZknLngsD2Yqf6k", "artists": [{"type": "artist", "name": "Maroon 5", "external_urls": {"spotify": "https://open.spotify.com/artist/04gDigrS5kc9YWfZHwBETP"}, "id": "04gDigrS5kc9YWfZHwBETP", "uri": "spotify:artist:04gDigrS5kc9YWfZHwBETP", "href": "https://api.spotify.com/v1/artists/04gDigrS5kc9YWfZHwBETP"}], "images": [{"width": 640, "url": "https://i.scdn.co/image/04ceb8dbf4bc2792c48d79b2c803c83574bcc553", "height": 640}, {"width": 300, "url": "https://i.scdn.co/image/6eec04939dae8cf060c89128e941b4d5d309b40a", "height": 300}, {"width": 64, "url": "https://i.scdn.co/image/4bbe411a1776e59da9391ca4249d1f77a0942037", "height": 64}], "available_markets": ["CR", "MX", "US"], "album_type": "album", "release_date_precision": "year", "name": "Hands All Over (Deluxe)", "external_urls": {"spotify": "https://open.spotify.com/album/2H4DCvJiZknLngsD2Yqf6k"}, "id": "2H4DCvJiZknLngsD2Yqf6k", "uri": "spotify:album:2H4DCvJiZknLngsD2Yqf6k"}, "external_ids": {"isrc": "USUM71109132"}, "name": "Moves Like Jagger - Studio Recording From The Voice Performance", "duration_ms": 201253, "is_local": false, "disc_number": 1, "href": "https://api.spotify.com/v1/tracks/2LNbLA2JSQlv6NRz1xdZRj", "artists": [{"type": "artist", "name": "Maroon 5", "external_urls": {"spotify": "https://open.spotify.com/artist/04gDigrS5kc9YWfZHwBETP"}, "id": "04gDigrS5kc9YWfZHwBETP", "uri": "spotify:artist:04gDigrS5kc9YWfZHwBETP", "href": "https://api.spotify.com/v1/artists/04gDigrS5kc9YWfZHwBETP"}, {"type": "artist", "name": "Christina Aguilera", "external_urls": {"spotify": "https://open.spotify.com/artist/1l7ZsJRRS8wlW3WfJfPfNS"}, "id": "1l7ZsJRRS8wlW3WfJfPfNS", "uri": "spotify:artist:1l7ZsJRRS8wlW3WfJfPfNS", "href": "https://api.spotify.com/v1/artists/1l7ZsJRRS8wlW3WfJfPfNS"}], "track_number": 13, "available_markets": ["CR", "MX", "US"], "type": "track", "preview_url": null, "explicit": false, "external_urls": {"spotify": "https://open.spotify.com/track/2LNbLA2JSQlv6NRz1xdZRj"}, "id": "2LNbLA2JSQlv6NRz1xdZRj", "uri": "spotify:track:2LNbLA2JSQlv6NRz1xdZRj", "popularity": 47}, {"album": {"total_tracks": 19, "type": "album", "release_date": "2011-01-01", "href": "https://api.spotify.com/v1/albums/5kygdThrNHarL5gnO2jMOt", "artists": [{"type": "artist", "name": "Maroon 5", "external_urls": {"spotify": "https://open.spotify.com/artist/04gDigrS5kc9YWfZHwBETP"}, "id": "04gDigrS5kc9YWfZHwBETP", "uri": "spotify:artist:04gDigrS5kc9YWfZHwBETP", "href": "https://api.spotify.com/v1/artists/04gDigrS5kc9YWfZHwBETP"}], "images": [{"width": 640, "url": "https://i.scdn.co/image/04ceb8dbf4bc2792c48d79b2c803c83574bcc553", "height": 640}, {"width": 300, "url": "https://i.scdn.co/image/6eec04939dae8cf060c89128e941b4d5d309b40a", "height": 300}, {"width": 64, "url": "https://i.scdn.co/image/4bbe411a1776e59da9391ca4249d1f77a0942037", "height": 64}], "available_markets": ["CA", "MX", "US"], "album_type": "album", "release_date_precision": "day", "name": "Hands All Over (Deluxe)", "external_urls": {"spotify": "https://open.spotify.com/album/5kygdThrNHarL5gnO2jMOt"}, "id": "5kygdThrNHarL5gnO2jMOt", "uri": "spotify:album:5kygdThrNHarL5gnO2jMOt"}, "external_ids": {"isrc": "USUM71109132"}, "name": "Moves Like Jagger - Studio Recording From The Voice Performance", "duration_ms": 201240, "is_local": false, "disc_number": 1, "href": "https://api.spotify.com/v1/tracks/5d63e8JNRbvshRK9zu8HGG", "artists": [{"type": "artist", "name": "Maroon 5", "external_urls": {"spotify": "https://open.spotify.com/artist/04gDigrS5kc9YWfZHwBETP"}, "id": "04gDigrS5kc9YWfZHwBETP", "uri": "spotify:artist:04gDigrS5kc9YWfZHwBETP", "href": "https://api.spotify.com/v1/artists/04gDigrS5kc9YWfZHwBETP"}, {"type": "artist", "name": "Christina Aguilera", "external_urls": {"spotify": "https://open.spotify.com/artist/1l7ZsJRRS8wlW3WfJfPfNS"}, "id": "1l7ZsJRRS8wlW3WfJfPfNS", "uri": "spotify:artist:1l7ZsJRRS8wlW3WfJfPfNS", "href": "https://api.spotify.com/v1/artists/1l7ZsJRRS8wlW3WfJfPfNS"}], "track_number": 13, "available_markets": ["CA", "MX", "US"], "type": "track", "preview_url": null, "explicit": false, "external_urls": {"spotify": "https://open.spotify.com/track/5d63e8JNRbvshRK9zu8HGG"}, "id": "5d63e8JNRbvshRK9zu8HGG", "uri": "spotify:track:5d63e8JNRbvshRK9zu8HGG", "popularity": 37}, {"album": {"total_tracks": 20, "type": "album", "release_date": "2016-12-30", "href": "https://api.spotify.com/v1/albums/3XRtJYheUZwYoncHS19u6L", "artists": [{"type": "artist", "name": "Various Artists", "external_urls": {"spotify": "https://open.spotify.com/artist/0LyfQWJT6nXafLPZqxe9Of"}, "id": "0LyfQWJT6nXafLPZqxe9Of", "uri": "spotify:artist:0LyfQWJT6nXafLPZqxe9Of", "href": "https://api.spotify.com/v1/artists/0LyfQWJT6nXafLPZqxe9Of"}], "images": [{"width": 640, "url": "https://i.scdn.co/image/ab67616d0000b2738e32f296e8a03b34bb624849", "height": 640}, {"width": 300, "url": "https://i.scdn.co/image/ab67616d00001e028e32f296e8a03b34bb624849", "height": 300}, {"width": 64, "url": "https://i.scdn.co/image/ab67616d000048518e32f296e8a03b34bb624849", "height": 64}], "available_markets": ["CA", "US"], "album_type": "compilation", "release_date_precision": "day", "name": "20 #1's: Party Hits", "external_urls": {"spotify": "https://open.spotify.com/album/3XRtJYheUZwYoncHS19u6L"}, "id": "3XRtJYheUZwYoncHS19u6L", "uri": "spotify:album:3XRtJYheUZwYoncHS19u6L"}, "external_ids": {"isrc": "USUM71109132"}, "name": "Moves Like Jagger - Studio Recording From The Voice Performance", "duration_ms": 201560, "is_local": false, "disc_number": 1, "href": "https://api.spotify.com/v1/tracks/6V96SdYTeLb6J1JwBKvmZx", "artists": [{"type": "artist", "name": "Maroon 5", "external_urls": {"spotify": "https://open.spotify.com/artist/04gDigrS5kc9YWfZHwBETP"}, "id": "04gDigrS5kc9YWfZHwBETP", "uri": "spotify:artist:04gDigrS5kc9YWfZHwBETP", "href": "https://api.spotify.com/v1/artists/04gDigrS5kc9YWfZHwBETP"}, {"type": "artist", "name": "Christina Aguilera", "external_urls": {"spotify": "https://open.spotify.com/artist/1l7ZsJRRS8wlW3WfJfPfNS"}, "id": "1l7ZsJRRS8wlW3WfJfPfNS", "uri": "spotify:artist:1l7ZsJRRS8wlW3WfJfPfNS", "href": "https://api.spotify.com/v1/artists/1l7ZsJRRS8wlW3WfJfPfNS"}], "track_number": 7, "available_markets": ["CA", "US"], "type": "track", "preview_url": null, "explicit": false, "external_urls": {"spotify": "https://open.spotify.com/track/6V96SdYTeLb6J1JwBKvmZx"}, "id": "6V96SdYTeLb6J1JwBKvmZx", "uri": "spotify:track:6V96SdYTeLb6J1JwBKvmZx", "popularity": 32}, {"album": {"total_tracks": 22, "type": "album", "release_date": "2019-08-23", "href": "https://api.spotify.com/v1/albums/06kwk9M664aflmjnZCT9Av", "artists": [{"type": "artist", "name": "Various Artists", "external_urls": {"spotify": "https://open.spotify.com/artist/0LyfQWJT6nXafLPZqxe9Of"}, "id": "0LyfQWJT6nXafLPZqxe9Of", "uri": "spotify:artist:0LyfQWJT6nXafLPZqxe9Of", "href": "https://api.spotify.com/v1/artists/0LyfQWJT6nXafLPZqxe9Of"}], "images": [{"width": 640, "url": "https://i.scdn.co/image/ab67616d0000b273d36c134452c769845d85f232", "height": 640}, {"width": 300, "url": "https://i.scdn.co/image/ab67616d00001e02d36c134452c769845d85f232", "height": 300}, {"width": 64, "url": "https://i.scdn.co/image/ab67616d00004851d36c134452c769845d85f232", "height": 64}], "available_markets": ["AR", "AT", "AU", "BE", "BG", "BO", "BR", "CA", "CH", "CL", "CO", "CR", "CZ", "DE", "DK", "EC", "ES", "FI", "FR", "GB", "GR", "GT", "HK", "HN", "HU", "ID", "IE", "IN", "IT", "JP", "MX", "MY", "NI", "NL", "NO", "NZ", "PA", "PE", "PH", "PL", "PT", "PY", "RO", "SE", "SG", "SK", "SV", "TH", "TR", "TW", "US", "UY", "ZA"], "album_type": "album", "release_date_precision": "day", "name": "Throwback Workout", "external_urls": {"spotify": "https://open.spotify.com/album/06kwk9M664aflmjnZCT9Av"}, "id": "06kwk9M664aflmjnZCT9Av", "uri": "spotify:album:06kwk9M664aflmjnZCT9Av"}, "external_ids": {"isrc": "USUM71109132"}, "name": "Moves Like Jagger - Studio Recording From The Voice Performance", "duration_ms": 201253, "is_local": false, "disc_number": 1, "href": "https://api.spotify.com/v1/tracks/5E7eW5JgheeQvdZ2cTKkPh", "artists": [{"type": "artist", "name": "Maroon 5", "external_urls": {"spotify": "https://open.spotify.com/artist/04gDigrS5kc9YWfZHwBETP"}, "id": "04gDigrS5kc9YWfZHwBETP", "uri": "spotify:artist:04gDigrS5kc9YWfZHwBETP", "href": "https://api.spotify.com/v1/artists/04gDigrS5kc9YWfZHwBETP"}, {"type": "artist", "name": "Christina Aguilera", "external_urls": {"spotify": "https://open.spotify.com/artist/1l7ZsJRRS8wlW3WfJfPfNS"}, "id": "1l7ZsJRRS8wlW3WfJfPfNS", "uri": "spotify:artist:1l7ZsJRRS8wlW3WfJfPfNS", "href": "https://api.spotify.com/v1/artists/1l7ZsJRRS8wlW3WfJfPfNS"}], "track_number": 6, "available_markets": ["AR", "AT", "AU", "BE", "BG", "BO", "BR", "CA", "CH", "CL", "CO", "CR", "CZ", "DE", "DK", "EC", "ES", "FI", "FR", "GB", "GR", "GT", "HK", "HN", "HU", "ID", "IE", "IN", "IT", "JP", "MX", "MY", "NI", "NL", "NO", "NZ", "PA", "PE", "PH", "PL", "PT", "PY", "RO", "SE", "SG", "SK", "SV", "TH", "TR", "TW", "US", "UY", "ZA"], "type": "track", "preview_url": null, "explicit": false, "external_urls": {"spotify": "https://open.spotify.com/track/5E7eW5JgheeQvdZ2cTKkPh"}, "id": "5E7eW5JgheeQvdZ2cTKkPh", "uri": "spotify:track:5E7eW5JgheeQvdZ2cTKkPh", "popularity": 24}], "previous": null, "href": "https://api.spotify.com/v1/search?query=artist%3AMaroon+5+track%3AMoves+Like+Jagger+-+Studio+Recording+From+The+Voice+Performance&type=track&offset=0&limit=5", "limit": 5, "total": 11, "next": "https://api.spotify.com/v1/search?query=artist%3AMaroon+5+track%3AMoves+Like+Jagger+-+Studio+Recording+From+The+Voice+Performance&type=track&offset=5&limit=5"}}