{"tracks": {"offset": 0, "items": [{"album": {"total_tracks": 11, "type": "album", "release_date": "2011-01-19", "href": "https://api.spotify.com/v1/albums/1azUkThwd2HfUDdeNeT147", "artists": [{"type": "artist", "name": "Adele", "external_urls": {"spotify": "https://open.spotify.com/artist/4dpARuHxo51G3z768sgnrY"}, "id": "4dpARuHxo51G3z768sgnrY", "uri": "spotify:artist:4dpARuHxo51G3z768sgnrY", "href": "https://api.spotify.com/v1/artists/4dpARuHxo51G3z768sgnrY"}], "images": [{"width": 640, "url": "https://i.scdn.co/image/ab67616d0000b2736d4056466fc11f6408be2566", "height": 640}, {"width": 300, "url": "https://i.scdn.co/image/ab67616d00001e026d4056466fc11f6408be2566", "height": 300}, {"width": 64, "url": "https://i.scdn.co/image/ab67616d000048516d4056466fc11f6408be2566", "height": 64}], "available_markets": ["AR", "BO", "BR", "CL", "CO", "CR", "DO", "EC", "GT", "HN", "MX", "NI", "PA", "PE", "PY", "SV", "US", "UY"], "album_type": "album", "release_date_precision": "day", "name": "21", "external_urls": {"spotify": "https://open.spotify.com/album/1azUkThwd2HfUDdeNeT147"}, "id": "1azUkThwd2HfUDdeNeT147", "uri": "spotify:album:1azUkThwd2HfUDdeNeT147"}, "external_ids": {"isrc": "GBBKS1000335"}, "name": "Rolling in the Deep", "duration_ms": 228293, "is_local": false, "disc_number": 1, "href": "https://api.spotify.com/v1/tracks/1CkvWZme3pRgbzaxZnTl5X", "artists": [{"type": "artist", "name": "Adele", "external_urls": {"spotify": "https://open.spotify.com/artist/4dpARuHxo51G3z768sgnrY"}, "id": "4dpARuHxo51G3z768sgnrY", "uri": "spotify:artist:4dpARuHxo51G3z768sgnrY", "href": "https://api.spotify.com/v1/artists/4dpARuHxo51G3z768sgnrY"}], "track_number": 1, "available_markets": ["AR", "BO", "BR", "CL", "CO", "CR", "DO", "EC", "GT", "HN", "MX", "NI", "PA", "PE", "PY", "SV", "US", "UY"], "type": "track", "preview_url": "https://p.scdn.co/mp3-preview/8c174ce25d94b502dfe31f0da8a070a32fb263db?cid=0c947b9d3f7547e28aee080174c283c9", "explicit": false, "external_urls": {"spotify": "https://open.spotify.com/track/1CkvWZme3pRgbzaxZnTl5X"}, "id": "1CkvWZme3pRgbzaxZnTl5X", "uri": "spotify:track:1CkvWZme3pRgbzaxZnTl5X", "popularity": 75}, {"album": {"total_tracks": 1, "type": "album", "release_date": "2010-11-30", "href": "https://api.spotify.com/v1/albums/6cw6QU9pF7FyQtSyJjzMua", "artists": [{"type": "artist", "name": "Adele", "external_urls": {"spotify": "https://open.spotify.com/artist/4dpARuHxo51G3z768sgnrY"}, "id": "4dpARuHxo51G3z768sgnrY", "uri": "spotify:artist:4dpARuHxo51G3z768sgnrY", "href": "https://api.spotify.com/v1/artists/4dpARuHxo51G3z768sgnrY"}], "images": [{"width": 640, "url": "https://i.scdn.co/image/4555322beb343a477c6db69e81e562f378fc0fe8", "height": 640}, {"width": 300, "url": "https://i.scdn.co/image/ac9b7b83e3117eadeeb51cb3138b956d8c34fbdb", "height": 300}, {"width": 64, "url": "https://i.scdn.co/image/5c94628d941cc2589f6b0a3b92ec0d3f41c7f7e3", "height": 64}], "available_markets": ["US"], "album_type": "single", "release_date_precision": "day", "name": "Rolling In The Deep", "external_urls": {"spotify": "https://open.spotify.com/album/6cw6QU9pF7FyQtSyJjzMua"}, "id": "6cw6QU9pF7FyQtSyJjzMua", "uri": "spotify:album:6cw6QU9pF7FyQtSyJjzMua"}, "external_ids": {"isrc": "GBBKS1000335"}, "name": "Rolling in the Deep", "duration_ms": 228093, "is_local": false, "disc_number": 1, "href": "https://api.spotify.com/v1/tracks/5xPazRvyrkVootu8pM9vUG", "artists": [{"type": "artist", "name": "Adele", "external_urls": {"spotify": "https://open.spotify.com/artist/4dpARuHxo51G3z768sgnrY"}, "id": "4dpARuHxo51G3z768sgnrY", "uri": "spotify:artist:4dpARuHxo51G3z768sgnrY", "href": "https://api.spotify.com/v1/artists/4dpARuHxo51G3z768sgnrY"}], "track_number": 1, "available_markets": ["US"], "type": "track", "preview_url": "https://p.scdn.co/mp3-preview/b2ba47ab9af2b4cd08a04e45b94803bd076c209d?cid=0c947b9d3f7547e28aee080174c283c9", "explicit": false, "external_urls": {"spotify": "https://open.spotify.com/track/5xPazRvyrkVootu8pM9vUG"}, "id": "5xPazRvyrkVootu8pM9vUG", "uri": "spotify:track:5xPazRvyrkVootu8pM9vUG", "popularity": 58}, {"album": {"total_tracks": 33, "type": "album", "release_date": "2014-08-25", "href": "https://api.spotify.com/v1/albums/19xt2EkDfNcbAdQzOVUttd", "artists": [{"type": "artist", "name": "Various Artists", "external_urls": {"spotify": "https://open.spotify.com/artist/0LyfQWJT6nXafLPZqxe9Of"}, "id": "0LyfQWJT6nXafLPZqxe9Of", "uri": "spotify:artist:0LyfQWJT6nXafLPZqxe9Of", "href": "https://api.spotify.com/v1/artists/0LyfQWJT6nXafLPZqxe9Of"}], "images": [{"width": 640, "url": "https://i.scdn.co/image/ab67616d0000b273f2084e0d4647cef727061f38", "height": 640}, {"width": 300, "url": "https://i.scdn.co/image/ab67616d00001e02f2084e0d4647cef727061f38", "height": 300}, {"width": 64, "url": "https://i.scdn.co/image/ab67616d00004851f2084e0d4647cef727061f38", "height": 64}], "available_markets": ["AD", "AE", "AR", "AT", "AU", "BE", "BG", "BH", "BO", "BR", "CA", "CH", "CL", "CO", "CR", "CY", "CZ", "DE", "DK", "DO", "DZ", "EC", "EE", "EG", "ES", "FI", "FR", "GB", "GR", "GT", "HK", "HN", "HU", "ID", "IE", "IL", "IN", "IS", "IT", "JO", "JP", "KW", "LB", "LI", "LT", "LU", "LV", "MA", "MC", "MT", "MX", "MY", "NI", "NL", "NO", "NZ", "OM", "PA", "PE", "PH", "PL", "PS", "PT", "PY", "QA", "RO", "SA", "SE", "SG", "SK", "SV", "TH", "TN", "TR", "TW", "US", "UY", "VN", "ZA"], "album_type": "compilation", "release_date_precision": "day", "name": "Pay Close Attention : XL Recordings", "external_urls": {"spotify": "https://open.spotify.com/album/19xt2EkDfNcbAdQzOVUttd"}, "id": "19xt2EkDfNcbAdQzOVUttd", "uri": "spotify:album:19xt2EkDfNcbAdQzOVUttd"}, "external_ids": {"isrc": "GBBKS1000335"}, "name": "Rolling In The Deep", "duration_ms": 228141, "is_local": false, "disc_number": 2, "href": "https://api.spotify.com/v1/tracks/2GblQ918RbkOs4Yo1Rpkcj", "artists": [{"type": "artist", "name": "Adele", "external_urls": {"spotify": "https://open.spotify.com/artist/4dpARuHxo51G3z768sgnrY"}, "id": "4dpARuHxo51G3z768sgnrY", "uri": "spotify:artist:4dpARuHxo51G3z768sgnrY", "href": "https://api.spotify.com/v1/artists/4dpARuHxo51G3z768sgnrY"}], "track_number": 18, "available_markets": ["AD", "AE", "AR", "AT", "AU", "BE", "BG", "BH", "BO", "BR", "CA", "CH", "CL", "CO", "CR", "CY", "CZ", "DE", "DK", "DO", "DZ", "EC", "EE", "EG", "ES", "FI", "FR", "GB", "GR", "GT", "HK", "HN", "HU", "ID", "IE", "IL", "IN", "IS", "IT", "JO", "JP", "KW", "LB", "LI", "LT", "LU", "LV", "MA", "MC", "MT", "MX", "MY", "NI", "NL", "NO", "NZ", "OM", "PA", "PE", "PH", "PL", "PS", "PT", "PY", "QA", "RO", "SA", "SE", "SG", "SK", "SV", "TH", "TN", "TR", "TW", "US", "UY", "VN", "ZA"], "type": "track", "preview_url": "https://p.scdn.co/mp3-preview/3858c424d6b802f62ba2ca1485c96d9861e278c2?cid=0c947b9d3f7547e28aee080174c283c9", "explicit": true, "external_urls": {"spotify": "https://open.spotify.com/track/2GblQ918RbkOs4Yo1Rpkcj"}, "id": "2GblQ918RbkOs4Yo1Rpkcj", "uri": "spotify:track:2GblQ918RbkOs4Yo1Rpkcj", "popularity": 60}, {"album": {"total_tracks": 50, "type": "album", "release_date": "2014-06-10", "href": "https://api.spotify.com/v1/albums/2NpjldKWg9XuoPU8gxBYds", "artists": [{"type": "artist", "name": "Various Artists", "external_urls": {"spotify": "https://open.spotify.com/artist/0LyfQWJT6nXafLPZqxe9Of"}, "id": "0LyfQWJT6nXafLPZqxe9Of", "uri": "spotify:artist:0LyfQWJT6nXafLPZqxe9Of", "href": "https://api.spotify.com/v1/artists/0LyfQWJT6nXafLPZqxe9Of"}], "images": [{"width": 640, "url": "https://i.scdn.co/image/ab67616d0000b2734c2aa888b8c54c42462bf761", "height": 640}, {"width": 300, "url": "https://i.scdn.co/image/ab67616d00001e024c2aa888b8c54c42462bf761", "height": 300}, {"width": 64, "url": "https://i.scdn.co/image/ab67616d000048514c2aa888b8c54c42462bf761", "height": 64}], "available_markets": ["US"], "album_type": "compilation", "release_date_precision": "day", "name": "50 Pop Sensations", "external_urls": {"spotify": "https://open.spotify.com/album/2NpjldKWg9XuoPU8gxBYds"}, "id": "2NpjldKWg9XuoPU8gxBYds", "uri": "spotify:album:2NpjldKWg9XuoPU8gxBYds"}, "external_ids": {"isrc": "GBBKS1000335"}, "name": "Rolling in the Deep", "duration_ms": 228293, "is_local": false, "disc_number": 1, "href": "https://api.spotify.com/v1/tracks/155fcu4G3BfFkZyY863KKs", "artists": [{"type": "artist", "name": "Adele", "external_urls": {"spotify": "https://open.spotify.com/artist/4dpARuHxo51G3z768sgnrY"}, "id": "4dpARuHxo51G3z768sgnrY", "uri": "spotify:artist:4dpARuHxo51G3z768sgnrY", "href": "https://api.spotify.com/v1/artists/4dpARuHxo51G3z768sgnrY"}], "track_number": 14, "available_markets": ["US"], "type": "track", "preview_url": "https://p.scdn.co/mp3-preview/8c174ce25d94b502dfe31f0da8a070a32fb263db?cid=0c947b9d3f7547e28aee080174c283c9", "explicit": false, "external_urls": {"spotify": "https://open.spotify.com/track/155fcu4G3BfFkZyY863KKs"}, "id": "155fcu4G3BfFkZyY863KKs", "uri": "spotify:track:155fcu4G3BfFkZyY863KKs", "popularity": 20}, {"album": {"total_tracks": 12, "type": "album", "release_date": "2018-09-04", "href": "https://api.spotify.com/v1/albums/3m3WotSCfp9D9nc2b3aICA", "artists": [{"type": "artist", "name": "92 Keys", "external_urls": {"spotify": "https://open.spotify.com/artist/7zG1hAjfaUQ1UlxgIdChYo"}, "id": "7zG1hAjfaUQ1UlxgIdChYo", "uri": "spotify:artist:7zG1hAjfaUQ1UlxgIdChYo", "href": "https://api.spotify.com/v1/artists/7zG1hAjfaUQ1UlxgIdChYo"}], "images": [{"width": 640, "url": "https://i.scdn.co/image/ab67616d0000b273a6997b82ed1abc1ba9506468", "height": 640}, {"width": 300, "url": "https://i.scdn.co/image/ab67616d00001e02a6997b82ed1abc1ba9506468", "height": 300}, {"width": 64, "url": "https://i.scdn.co/image/ab67616d00004851a6997b82ed1abc1ba9506468", "height": 64}], "available_markets": ["AD", "AE", "AR", "AT", "AU", "BE", "BG", "BH", "BO", "BR", "CA", "CH", "CL", "CO", "CR", "CY", "CZ", "DE", "DK", "DO", "DZ", "EC", "EE", "EG", "ES", "FI", "FR", "GB", "GR", "GT", "HK", "HN", "HU", "ID", "IE", "IL", "IN", "IS", "IT", "JO", "JP", "KW", "LB", "LI", "LT", "LU", "LV", "MA", "MC", "MT", "MX", "MY", "NI", "NL", "NO", "NZ", "OM", "PA", "PE", "PH", "PL", "PT", "PY", "QA", "RO", "SA", "SE", "SG", "SK", "SV", "TH", "TN", "TR", "TW", "US", "UY", "VN", "ZA"], "album_type": "album", "release_date_precision": "day", "name": "Spring of Fire", "external_urls": {"spotify": "https://open.spotify.com/album/3m3WotSCfp9D9nc2b3aICA"}, "id": "3m3WotSCfp9D9nc2b3aICA", "uri": "spotify:album:3m3WotSCfp9D9nc2b3aICA"}, "external_ids": {"isrc": "GBKPL1817078"}, "name": "Rolling in the Deep", "duration_ms": 187560, "is_local": false, "disc_number": 1, "href": "https://api.spotify.com/v1/tracks/3qathmSUDDztSA2hUBEdEm", "artists": [{"type": "artist", "name": "Adele Adkins", "external_urls": {"spotify": "https://open.spotify.com/artist/6HZ5IH5ksF7cs4mg0HQlSN"}, "id": "6HZ5IH5ksF7cs4mg0HQlSN", "uri": "spotify:artist:6HZ5IH5ksF7cs4mg0HQlSN", "href": "https://api.spotify.com/v1/artists/6HZ5IH5ksF7cs4mg0HQlSN"}, {"type": "artist", "name": "Paul Epworth", "external_urls": {"spotify": "https://open.spotify.com/artist/5LX6oeHA1d2YNCyqJO1jfw"}, "id": "5LX6oeHA1d2YNCyqJO1jfw", "uri": "spotify:artist:5LX6oeHA1d2YNCyqJO1jfw", "href": "https://api.spotify.com/v1/artists/5LX6oeHA1d2YNCyqJO1jfw"}, {"type": "artist", "name": "92 Keys", "external_urls": {"spotify": "https://open.spotify.com/artist/7zG1hAjfaUQ1UlxgIdChYo"}, "id": "7zG1hAjfaUQ1UlxgIdChYo", "uri": "spotify:artist:7zG1hAjfaUQ1UlxgIdChYo", "href": "https://api.spotify.com/v1/artists/7zG1hAjfaUQ1UlxgIdChYo"}, {"type": "artist", "name": "Chlo\u00e9 Trevor", "external_urls": {"spotify": "https://open.spotify.com/artist/1AmQv6WP0LUeUKJOsZqHRN"}, "id": "1AmQv6WP0LUeUKJOsZqHRN", "uri": "spotify:artist:1AmQv6WP0LUeUKJOsZqHRN", "href": "https://api.spotify.com/v1/artists/1AmQv6WP0LUeUKJOsZqHRN"}], "track_number": 4, "available_markets": ["AD", "AE", "AR", "AT", "AU", "BE", "BG", "BH", "BO", "BR", "CA", "CH", "CL", "CO", "CR", "CY", "CZ", "DE", "DK", "DO", "DZ", "EC", "EE", "EG", "ES", "FI", "FR", "GB", "GR", "GT", "HK", "HN", "HU", "ID", "IE", "IL", "IN", "IS", "IT", "JO", "JP", "KW", "LB", "LI", "LT", "LU", "LV", "MA", "MC", "MT", "MX", "MY", "NI", "NL", "NO", "NZ", "OM", "PA", "PE", "PH", "PL", "PT", "PY", "QA", "RO", "SA", "SE", "SG", "SK", "SV", "TH", "TN", "TR", "TW", "US", "UY", "VN", "ZA"], "type": "track", "preview_url": "https://p.scdn.co/mp3-preview/dc01b70b80fa08be8a3560a79918ae2a1e0b8e90?cid=0c947b9d3f7547e28aee080174c283c9", "explicit": false, "external_urls": {"spotify": "https://open.spotify.com/track/3qathmSUDDztSA2hUBEdEm"}, "id": "3qathmSUDDztSA2hUBEdEm", "uri": "spotify:track:3qathmSUDDztSA2hUBEdEm", "popularity": 16}], "previous": null, "href": "https://api.spotify.com/v1/search?query=artist%3AAdele+track%3ARolling+In+The+Deep&type=track&offset=0&limit=5", "limit": 5, "total": 24, "next": "https://api.spotify.com/v1/search?query=artist%3AAdele+track%3ARolling+In+The+Deep&type=track&offset=5&limit=5"}}