{"tracks": {"offset": 0, "items": [{"album": {"total_tracks": 16, "type": "album", "release_date": "2008-10-03", "href": "https://api.spotify.com/v1/albums/5B6XfyHHYawyLkEvNvhSPh", "artists": [{"type": "artist", "name": "Empire of the Sun", "external_urls": {"spotify": "https://open.spotify.com/artist/67hb7towEyKvt5Z8Bx306c"}, "id": "67hb7towEyKvt5Z8Bx306c", "uri": "spotify:artist:67hb7towEyKvt5Z8Bx306c", "href": "https://api.spotify.com/v1/artists/67hb7towEyKvt5Z8Bx306c"}], "images": [{"width": 640, "url": "https://i.scdn.co/image/ab67616d0000b273f3aa0e6ca22a382007f61e4d", "height": 640}, {"width": 300, "url": "https://i.scdn.co/image/ab67616d00001e02f3aa0e6ca22a382007f61e4d", "height": 300}, {"width": 64, "url": "https://i.scdn.co/image/ab67616d00004851f3aa0e6ca22a382007f61e4d", "height": 64}], "available_markets": ["AD", "AE", "AR", "AT", "AU", "BE", "BG", "BH", "BO", "BR", "CA", "CH", "CL", "CO", "CR", "CY", "CZ", "DE", "DK", "DO", "DZ", "EC", "EE", "EG", "ES", "FI", "FR", "GB", "GR", "GT", "HK", "HN", "HU", "ID", "IE", "IL", "IN", "IS", "IT", "JO", "JP", "KW", "LB", "LI", "LT", "LU", "LV", "MA", "MC", "MT", "MX", "MY", "NI", "NL", "NO", "NZ", "OM", "PA", "PE", "PH", "PL", "PS", "PT", "PY", "QA", "RO", "SA", "SE", "SG", "SK", "SV", "TH", "TN", "TR", "TW", "US", "UY", "VN", "ZA"], "album_type": "album", "release_date_precision": "day", "name": "Walking On A Dream (10th Anniversary Edition)", "external_urls": {"spotify": "https://open.spotify.com/album/5B6XfyHHYawyLkEvNvhSPh"}, "id": "5B6XfyHHYawyLkEvNvhSPh", "uri": "spotify:album:5B6XfyHHYawyLkEvNvhSPh"}, "external_ids": {"isrc": "AUEI10800039"}, "name": "Walking On A Dream", "duration_ms": 198440, "is_local": false, "disc_number": 1, "href": "https://api.spotify.com/v1/tracks/5r5cp9IpziiIsR6b93vcnQ", "artists": [{"type": "artist", "name": "Empire of the Sun", "external_urls": {"spotify": "https://open.spotify.com/artist/67hb7towEyKvt5Z8Bx306c"}, "id": "67hb7towEyKvt5Z8Bx306c", "uri": "spotify:artist:67hb7towEyKvt5Z8Bx306c", "href": "https://api.spotify.com/v1/artists/67hb7towEyKvt5Z8Bx306c"}], "track_number": 2, "available_markets": ["AD", "AE", "AR", "AT", "AU", "BE", "BG", "BH", "BO", "BR", "CA", "CH", "CL", "CO", "CR", "CY", "CZ", "DE", "DK", "DO", "DZ", "EC", "EE", "EG", "ES", "FI", "FR", "GB", "GR", "GT", "HK", "HN", "HU", "ID", "IE", "IL", "IN", "IS", "IT", "JO", "JP", "KW", "LB", "LI", "LT", "LU", "LV", "MA", "MC", "MT", "MX", "MY", "NI", "NL", "NO", "NZ", "OM", "PA", "PE", "PH", "PL", "PS", "PT", "PY", "QA", "RO", "SA", "SE", "SG", "SK", "SV", "TH", "TN", "TR", "TW", "US", "UY", "VN", "ZA"], "type": "track", "preview_url": null, "explicit": false, "external_urls": {"spotify": "https://open.spotify.com/track/5r5cp9IpziiIsR6b93vcnQ"}, "id": "5r5cp9IpziiIsR6b93vcnQ", "uri": "spotify:track:5r5cp9IpziiIsR6b93vcnQ", "popularity": 72}, {"album": {"total_tracks": 10, "type": "album", "release_date": "2009-02-23", "href": "https://api.spotify.com/v1/albums/04gYcIojJt78nYnN5oOrKt", "artists": [{"type": "artist", "name": "Empire of the Sun", "external_urls": {"spotify": "https://open.spotify.com/artist/67hb7towEyKvt5Z8Bx306c"}, "id": "67hb7towEyKvt5Z8Bx306c", "uri": "spotify:artist:67hb7towEyKvt5Z8Bx306c", "href": "https://api.spotify.com/v1/artists/67hb7towEyKvt5Z8Bx306c"}], "images": [{"width": 640, "url": "https://i.scdn.co/image/ab67616d0000b2731954e472c566058d60a10afe", "height": 640}, {"width": 300, "url": "https://i.scdn.co/image/ab67616d00001e021954e472c566058d60a10afe", "height": 300}, {"width": 64, "url": "https://i.scdn.co/image/ab67616d000048511954e472c566058d60a10afe", "height": 64}], "available_markets": ["AD", "BG", "CA", "CY", "CZ", "DK", "EE", "ES", "FI", "GR", "HU", "IL", "IS", "LI", "LT", "LU", "LV", "MC", "MT", "NO", "PL", "PT", "RO", "SE", "SK", "US", "ZA"], "album_type": "album", "release_date_precision": "day", "name": "Walking On A Dream", "external_urls": {"spotify": "https://open.spotify.com/album/04gYcIojJt78nYnN5oOrKt"}, "id": "04gYcIojJt78nYnN5oOrKt", "uri": "spotify:album:04gYcIojJt78nYnN5oOrKt"}, "external_ids": {"isrc": "AUEI10800039"}, "name": "Walking On A Dream", "duration_ms": 198440, "is_local": false, "disc_number": 1, "href": "https://api.spotify.com/v1/tracks/0mBkoM8r7KAQzZij5swTUL", "artists": [{"type": "artist", "name": "Empire of the Sun", "external_urls": {"spotify": "https://open.spotify.com/artist/67hb7towEyKvt5Z8Bx306c"}, "id": "67hb7towEyKvt5Z8Bx306c", "uri": "spotify:artist:67hb7towEyKvt5Z8Bx306c", "href": "https://api.spotify.com/v1/artists/67hb7towEyKvt5Z8Bx306c"}], "track_number": 2, "available_markets": ["AD", "BG", "CA", "CY", "CZ", "DK", "EE", "ES", "FI", "GR", "HU", "IL", "IS", "LI", "LT", "LU", "LV", "MC", "MT", "NO", "PL", "PT", "RO", "SE", "SK", "US", "ZA"], "type": "track", "preview_url": null, "explicit": false, "external_urls": {"spotify": "https://open.spotify.com/track/0mBkoM8r7KAQzZij5swTUL"}, "id": "0mBkoM8r7KAQzZij5swTUL", "uri": "spotify:track:0mBkoM8r7KAQzZij5swTUL", "popularity": 66}, {"album": {"total_tracks": 22, "type": "album", "release_date": "2009-01-01", "href": "https://api.spotify.com/v1/albums/1GoqBRUPZzBKvMKZxSQ1mp", "artists": [{"type": "artist", "name": "Empire of the Sun", "external_urls": {"spotify": "https://open.spotify.com/artist/67hb7towEyKvt5Z8Bx306c"}, "id": "67hb7towEyKvt5Z8Bx306c", "uri": "spotify:artist:67hb7towEyKvt5Z8Bx306c", "href": "https://api.spotify.com/v1/artists/67hb7towEyKvt5Z8Bx306c"}], "images": [{"width": 640, "url": "https://i.scdn.co/image/ab67616d0000b2735150f049380ca8d2ef885214", "height": 640}, {"width": 300, "url": "https://i.scdn.co/image/ab67616d00001e025150f049380ca8d2ef885214", "height": 300}, {"width": 64, "url": "https://i.scdn.co/image/ab67616d000048515150f049380ca8d2ef885214", "height": 64}], "available_markets": ["AD", "AE", "AR", "AT", "AU", "BE", "BG", "BH", "BO", "BR", "CA", "CH", "CL", "CO", "CR", "CY", "CZ", "DE", "DK", "DO", "DZ", "EC", "EE", "EG", "ES", "FI", "FR", "GB", "GR", "GT", "HK", "HN", "HU", "ID", "IE", "IL", "IN", "IS", "IT", "JO", "JP", "KW", "LB", "LI", "LT", "LU", "LV", "MA", "MC", "MT", "MX", "MY", "NI", "NL", "NO", "NZ", "OM", "PA", "PE", "PH", "PL", "PS", "PT", "PY", "QA", "RO", "SA", "SE", "SG", "SK", "SV", "TH", "TN", "TR", "TW", "US", "UY", "VN", "ZA"], "album_type": "album", "release_date_precision": "day", "name": "Walking On A Dream (Special Edition)", "external_urls": {"spotify": "https://open.spotify.com/album/1GoqBRUPZzBKvMKZxSQ1mp"}, "id": "1GoqBRUPZzBKvMKZxSQ1mp", "uri": "spotify:album:1GoqBRUPZzBKvMKZxSQ1mp"}, "external_ids": {"isrc": "AUEI10800039"}, "name": "Walking On A Dream", "duration_ms": 198440, "is_local": false, "disc_number": 1, "href": "https://api.spotify.com/v1/tracks/6A6qBFJHid4WutQu6HHEZt", "artists": [{"type": "artist", "name": "Empire of the Sun", "external_urls": {"spotify": "https://open.spotify.com/artist/67hb7towEyKvt5Z8Bx306c"}, "id": "67hb7towEyKvt5Z8Bx306c", "uri": "spotify:artist:67hb7towEyKvt5Z8Bx306c", "href": "https://api.spotify.com/v1/artists/67hb7towEyKvt5Z8Bx306c"}], "track_number": 2, "available_markets": ["AD", "AE", "AR", "AT", "AU", "BE", "BG", "BH", "BO", "BR", "CA", "CH", "CL", "CO", "CR", "CY", "CZ", "DE", "DK", "DO", "DZ", "EC", "EE", "EG", "ES", "FI", "FR", "GB", "GR", "GT", "HK", "HN", "HU", "ID", "IE", "IL", "IN", "IS", "IT", "JO", "JP", "KW", "LB", "LI", "LT", "LU", "LV", "MA", "MC", "MT", "MX", "MY", "NI", "NL", "NO", "NZ", "OM", "PA", "PE", "PH", "PL", "PS", "PT", "PY", "QA", "RO", "SA", "SE", "SG", "SK", "SV", "TH", "TN", "TR", "TW", "US", "UY", "VN", "ZA"], "type": "track", "preview_url": null, "explicit": false, "external_urls": {"spotify": "https://open.spotify.com/track/6A6qBFJHid4WutQu6HHEZt"}, "id": "6A6qBFJHid4WutQu6HHEZt", "uri": "spotify:track:6A6qBFJHid4WutQu6HHEZt", "popularity": 65}, {"album": {"total_tracks": 15, "type": "album", "release_date": "2016-10-28", "href": "https://api.spotify.com/v1/albums/2P33ELQaFVcZdLcDh3V7DG", "artists": [{"type": "artist", "name": "Empire of the Sun", "external_urls": {"spotify": "https://open.spotify.com/artist/67hb7towEyKvt5Z8Bx306c"}, "id": "67hb7towEyKvt5Z8Bx306c", "uri": "spotify:artist:67hb7towEyKvt5Z8Bx306c", "href": "https://api.spotify.com/v1/artists/67hb7towEyKvt5Z8Bx306c"}], "images": [{"width": 640, "url": "https://i.scdn.co/image/ab67616d0000b273f0fda19c88a5e71f2451fe90", "height": 640}, {"width": 300, "url": "https://i.scdn.co/image/ab67616d00001e02f0fda19c88a5e71f2451fe90", "height": 300}, {"width": 64, "url": "https://i.scdn.co/image/ab67616d00004851f0fda19c88a5e71f2451fe90", "height": 64}], "available_markets": ["CA", "MX", "US"], "album_type": "album", "release_date_precision": "day", "name": "Two Vines (Deluxe)", "external_urls": {"spotify": "https://open.spotify.com/album/2P33ELQaFVcZdLcDh3V7DG"}, "id": "2P33ELQaFVcZdLcDh3V7DG", "uri": "spotify:album:2P33ELQaFVcZdLcDh3V7DG"}, "external_ids": {"isrc": "AUEI10800039"}, "name": "Walking On A Dream", "duration_ms": 192373, "is_local": false, "disc_number": 1, "href": "https://api.spotify.com/v1/tracks/3od84pBPgDkxrjKLyDopC4", "artists": [{"type": "artist", "name": "Empire of the Sun", "external_urls": {"spotify": "https://open.spotify.com/artist/67hb7towEyKvt5Z8Bx306c"}, "id": "67hb7towEyKvt5Z8Bx306c", "uri": "spotify:artist:67hb7towEyKvt5Z8Bx306c", "href": "https://api.spotify.com/v1/artists/67hb7towEyKvt5Z8Bx306c"}], "track_number": 15, "available_markets": ["CA", "MX", "US"], "type": "track", "preview_url": null, "explicit": false, "external_urls": {"spotify": "https://open.spotify.com/track/3od84pBPgDkxrjKLyDopC4"}, "id": "3od84pBPgDkxrjKLyDopC4", "uri": "spotify:track:3od84pBPgDkxrjKLyDopC4", "popularity": 30}, {"album": {"total_tracks": 1, "type": "album", "release_date": "2016-05-27", "href": "https://api.spotify.com/v1/albums/5EbhOrUypsWoeoFNuaiJZr", "artists": [{"type": "artist", "name": "Empire of the Sun", "external_urls": {"spotify": "https://open.spotify.com/artist/67hb7towEyKvt5Z8Bx306c"}, "id": "67hb7towEyKvt5Z8Bx306c", "uri": "spotify:artist:67hb7towEyKvt5Z8Bx306c", "href": "https://api.spotify.com/v1/artists/67hb7towEyKvt5Z8Bx306c"}], "images": [{"width": 640, "url": "https://i.scdn.co/image/ab67616d0000b2730c50fd673edc30e94b844eb3", "height": 640}, {"width": 300, "url": "https://i.scdn.co/image/ab67616d00001e020c50fd673edc30e94b844eb3", "height": 300}, {"width": 64, "url": "https://i.scdn.co/image/ab67616d000048510c50fd673edc30e94b844eb3", "height": 64}], "available_markets": ["AD", "AE", "AR", "AT", "AU", "BE", "BG", "BH", "BO", "BR", "CA", "CH", "CL", "CO", "CR", "CY", "CZ", "DE", "DK", "DO", "DZ", "EC", "EE", "EG", "ES", "FI", "FR", "GB", "GR", "GT", "HK", "HN", "HU", "ID", "IE", "IL", "IN", "IS", "IT", "JO", "JP", "KW", "LB", "LI", "LT", "LU", "LV", "MA", "MC", "MT", "MX", "MY", "NI", "NL", "NO", "NZ", "OM", "PA", "PE", "PH", "PL", "PS", "PT", "PY", "QA", "RO", "SA", "SE", "SG", "SK", "SV", "TH", "TN", "TR", "TW", "US", "UY", "VN", "ZA"], "album_type": "single", "release_date_precision": "day", "name": "Walking On A Dream (PON CHO Remix)", "external_urls": {"spotify": "https://open.spotify.com/album/5EbhOrUypsWoeoFNuaiJZr"}, "id": "5EbhOrUypsWoeoFNuaiJZr", "uri": "spotify:album:5EbhOrUypsWoeoFNuaiJZr"}, "external_ids": {"isrc": "AUUM71600320"}, "name": "Walking On A Dream - PON CHO Remix", "duration_ms": 192971, "is_local": false, "disc_number": 1, "href": "https://api.spotify.com/v1/tracks/6025MfkRIX7z96dRw0wFIJ", "artists": [{"type": "artist", "name": "Empire of the Sun", "external_urls": {"spotify": "https://open.spotify.com/artist/67hb7towEyKvt5Z8Bx306c"}, "id": "67hb7towEyKvt5Z8Bx306c", "uri": "spotify:artist:67hb7towEyKvt5Z8Bx306c", "href": "https://api.spotify.com/v1/artists/67hb7towEyKvt5Z8Bx306c"}, {"type": "artist", "name": "PON CHO", "external_urls": {"spotify": "https://open.spotify.com/artist/2NYOggWBPKbqdEYs7jUr1n"}, "id": "2NYOggWBPKbqdEYs7jUr1n", "uri": "spotify:artist:2NYOggWBPKbqdEYs7jUr1n", "href": "https://api.spotify.com/v1/artists/2NYOggWBPKbqdEYs7jUr1n"}], "track_number": 1, "available_markets": ["AD", "AE", "AR", "AT", "AU", "BE", "BG", "BH", "BO", "BR", "CA", "CH", "CL", "CO", "CR", "CY", "CZ", "DE", "DK", "DO", "DZ", "EC", "EE", "EG", "ES", "FI", "FR", "GB", "GR", "GT", "HK", "HN", "HU", "ID", "IE", "IL", "IN", "IS", "IT", "JO", "JP", "KW", "LB", "LI", "LT", "LU", "LV", "MA", "MC", "MT", "MX", "MY", "NI", "NL", "NO", "NZ", "OM", "PA", "PE", "PH", "PL", "PS", "PT", "PY", "QA", "RO", "SA", "SE", "SG", "SK", "SV", "TH", "TN", "TR", "TW", "US", "UY", "VN", "ZA"], "type": "track", "preview_url": null, "explicit": false, "external_urls": {"spotify": "https://open.spotify.com/track/6025MfkRIX7z96dRw0wFIJ"}, "id": "6025MfkRIX7z96dRw0wFIJ", "uri": "spotify:track:6025MfkRIX7z96dRw0wFIJ", "popularity": 30}], "previous": null, "href": "https://api.spotify.com/v1/search?query=artist%3AEmpire+Of+The+Sun+track%3AWalking+On+A+Dream&type=track&offset=0&limit=5", "limit": 5, "total": 43, "next": "https://api.spotify.com/v1/search?query=artist%3AEmpire+Of+The+Sun+track%3AWalking+On+A+Dream&type=track&offset=5&limit=5"}}