{"tracks": {"offset": 0, "items": [{"album": {"total_tracks": 13, "type": "album", "release_date": "2005-06-07", "href": "https://api.spotify.com/v1/albums/4E7bV0pzG0LciBSWTszra6", "artists": [{"type": "artist", "name": "Coldplay", "external_urls": {"spotify": "https://open.spotify.com/artist/4gzpq5DPGxSnKTe4SA8HAU"}, "id": "4gzpq5DPGxSnKTe4SA8HAU", "uri": "spotify:artist:4gzpq5DPGxSnKTe4SA8HAU", "href": "https://api.spotify.com/v1/artists/4gzpq5DPGxSnKTe4SA8HAU"}], "images": [{"width": 640, "url": "https://i.scdn.co/image/ab67616d0000b27316c9fbeabda1e8c5d6dadf76", "height": 640}, {"width": 300, "url": "https://i.scdn.co/image/ab67616d00001e0216c9fbeabda1e8c5d6dadf76", "height": 300}, {"width": 64, "url": "https://i.scdn.co/image/ab67616d0000485116c9fbeabda1e8c5d6dadf76", "height": 64}], "available_markets": ["AD", "AE", "AR", "AT", "AU", "BE", "BG", "BH", "BO", "BR", "CA", "CH", "CL", "CO", "CR", "CY", "CZ", "DE", "DK", "DO", "DZ", "EC", "EE", "EG", "ES", "FI", "FR", "GB", "GR", "GT", "HK", "HN", "HU", "ID", "IE", "IL", "IS", "IT", "JO", "JP", "KW", "LB", "LI", "LT", "LU", "LV", "MA", "MC", "MT", "MX", "MY", "NI", "NL", "NO", "NZ", "OM", "PA", "PE", "PH", "PL", "PS", "PT", "PY", "QA", "RO", "SA", "SE", "SG", "SK", "SV", "TH", "TN", "TR", "TW", "US", "UY", "VN", "ZA"], "album_type": "album", "release_date_precision": "day", "name": "X&Y", "external_urls": {"spotify": "https://open.spotify.com/album/4E7bV0pzG0LciBSWTszra6"}, "id": "4E7bV0pzG0LciBSWTszra6", "uri": "spotify:album:4E7bV0pzG0LciBSWTszra6"}, "external_ids": {"isrc": "GBAYE0500605"}, "name": "Fix You", "duration_ms": 295533, "is_local": false, "disc_number": 1, "href": "https://api.spotify.com/v1/tracks/7LVHVU3tWfcxj5aiPFEW4Q", "artists": [{"type": "artist", "name": "Coldplay", "external_urls": {"spotify": "https://open.spotify.com/artist/4gzpq5DPGxSnKTe4SA8HAU"}, "id": "4gzpq5DPGxSnKTe4SA8HAU", "uri": "spotify:artist:4gzpq5DPGxSnKTe4SA8HAU", "href": "https://api.spotify.com/v1/artists/4gzpq5DPGxSnKTe4SA8HAU"}], "track_number": 4, "available_markets": ["AD", "AE", "AR", "AT", "AU", "BE", "BG", "BH", "BO", "BR", "CA", "CH", "CL", "CO", "CR", "CY", "CZ", "DE", "DK", "DO", "DZ", "EC", "EE", "EG", "ES", "FI", "FR", "GB", "GR", "GT", "HK", "HN", "HU", "ID", "IE", "IL", "IS", "IT", "JO", "JP", "KW", "LB", "LI", "LT", "LU", "LV", "MA", "MC", "MT", "MX", "MY", "NI", "NL", "NO", "NZ", "OM", "PA", "PE", "PH", "PL", "PS", "PT", "PY", "QA", "RO", "SA", "SE", "SG", "SK", "SV", "TH", "TN", "TR", "TW", "US", "UY", "VN", "ZA"], "type": "track", "preview_url": "https://p.scdn.co/mp3-preview/b1640815319b2df5ddfac27a28f016319a281468?cid=0c947b9d3f7547e28aee080174c283c9", "explicit": false, "external_urls": {"spotify": "https://open.spotify.com/track/7LVHVU3tWfcxj5aiPFEW4Q"}, "id": "7LVHVU3tWfcxj5aiPFEW4Q", "uri": "spotify:track:7LVHVU3tWfcxj5aiPFEW4Q", "popularity": 82}, {"album": {"total_tracks": 24, "type": "album", "release_date": "2018-12-07", "href": "https://api.spotify.com/v1/albums/19CvkGjYpifkdwgVJSbog2", "artists": [{"type": "artist", "name": "Coldplay", "external_urls": {"spotify": "https://open.spotify.com/artist/4gzpq5DPGxSnKTe4SA8HAU"}, "id": "4gzpq5DPGxSnKTe4SA8HAU", "uri": "spotify:artist:4gzpq5DPGxSnKTe4SA8HAU", "href": "https://api.spotify.com/v1/artists/4gzpq5DPGxSnKTe4SA8HAU"}], "images": [{"width": 640, "url": "https://i.scdn.co/image/ab67616d0000b273fe5f1f4d742869a253036971", "height": 640}, {"width": 300, "url": "https://i.scdn.co/image/ab67616d00001e02fe5f1f4d742869a253036971", "height": 300}, {"width": 64, "url": "https://i.scdn.co/image/ab67616d00004851fe5f1f4d742869a253036971", "height": 64}], "available_markets": ["AD", "AE", "AR", "AT", "AU", "BE", "BG", "BH", "BO", "BR", "CA", "CH", "CL", "CO", "CR", "CY", "CZ", "DE", "DK", "DO", "DZ", "EC", "EE", "EG", "ES", "FI", "FR", "GB", "GR", "GT", "HK", "HN", "HU", "ID", "IE", "IL", "IS", "IT", "JO", "JP", "KW", "LB", "LI", "LT", "LU", "LV", "MA", "MC", "MT", "MX", "MY", "NI", "NL", "NO", "NZ", "OM", "PA", "PE", "PH", "PL", "PS", "PT", "PY", "QA", "RO", "SA", "SE", "SG", "SK", "SV", "TH", "TN", "TR", "TW", "US", "UY", "VN", "ZA"], "album_type": "album", "release_date_precision": "day", "name": "Live in Buenos Aires", "external_urls": {"spotify": "https://open.spotify.com/album/19CvkGjYpifkdwgVJSbog2"}, "id": "19CvkGjYpifkdwgVJSbog2", "uri": "spotify:album:19CvkGjYpifkdwgVJSbog2"}, "external_ids": {"isrc": "GBAYE1800792"}, "name": "Fix You - Live in Buenos Aires", "duration_ms": 327466, "is_local": false, "disc_number": 1, "href": "https://api.spotify.com/v1/tracks/7mGJlNOAOmJ5ptkmujg1Gv", "artists": [{"type": "artist", "name": "Coldplay", "external_urls": {"spotify": "https://open.spotify.com/artist/4gzpq5DPGxSnKTe4SA8HAU"}, "id": "4gzpq5DPGxSnKTe4SA8HAU", "uri": "spotify:artist:4gzpq5DPGxSnKTe4SA8HAU", "href": "https://api.spotify.com/v1/artists/4gzpq5DPGxSnKTe4SA8HAU"}], "track_number": 14, "available_markets": ["AD", "AE", "AR", "AT", "AU", "BE", "BG", "BH", "BO", "BR", "CA", "CH", "CL", "CO", "CR", "CY", "CZ", "DE", "DK", "DO", "DZ", "EC", "EE", "EG", "ES", "FI", "FR", "GB", "GR", "GT", "HK", "HN", "HU", "ID", "IE", "IL", "IS", "IT", "JO", "JP", "KW", "LB", "LI", "LT", "LU", "LV", "MA", "MC", "MT", "MX", "MY", "NI", "NL", "NO", "NZ", "OM", "PA", "PE", "PH", "PL", "PS", "PT", "PY", "QA", "RO", "SA", "SE", "SG", "SK", "SV", "TH", "TN", "TR", "TW", "US", "UY", "VN", "ZA"], "type": "track", "preview_url": "https://p.scdn.co/mp3-preview/eda1a4db82848ee92774f59e4e4ed674b0ca2a2c?cid=0c947b9d3f7547e28aee080174c283c9", "explicit": false, "external_urls": {"spotify": "https://open.spotify.com/track/7mGJlNOAOmJ5ptkmujg1Gv"}, "id": "7mGJlNOAOmJ5ptkmujg1Gv", "uri": "spotify:track:7mGJlNOAOmJ5ptkmujg1Gv", "popularity": 62}, {"album": {"total_tracks": 4, "type": "album", "release_date": "2005-09-13", "href": "https://api.spotify.com/v1/albums/1skkhQGSj1VljTbaejos3f", "artists": [{"type": "artist", "name": "Coldplay", "external_urls": {"spotify": "https://open.spotify.com/artist/4gzpq5DPGxSnKTe4SA8HAU"}, "id": "4gzpq5DPGxSnKTe4SA8HAU", "uri": "spotify:artist:4gzpq5DPGxSnKTe4SA8HAU", "href": "https://api.spotify.com/v1/artists/4gzpq5DPGxSnKTe4SA8HAU"}], "images": [{"width": 640, "url": "https://i.scdn.co/image/ab67616d0000b273ca08527d4f8f75f4c2f17e6c", "height": 640}, {"width": 300, "url": "https://i.scdn.co/image/ab67616d00001e02ca08527d4f8f75f4c2f17e6c", "height": 300}, {"width": 64, "url": "https://i.scdn.co/image/ab67616d00004851ca08527d4f8f75f4c2f17e6c", "height": 64}], "available_markets": ["US"], "album_type": "single", "release_date_precision": "day", "name": "Fix You", "external_urls": {"spotify": "https://open.spotify.com/album/1skkhQGSj1VljTbaejos3f"}, "id": "1skkhQGSj1VljTbaejos3f", "uri": "spotify:album:1skkhQGSj1VljTbaejos3f"}, "external_ids": {"isrc": "GBAYE0500605"}, "name": "Fix You", "duration_ms": 295533, "is_local": false, "disc_number": 1, "href": "https://api.spotify.com/v1/tracks/1SWPQul8Zr5jezPUYPcLwR", "artists": [{"type": "artist", "name": "Coldplay", "external_urls": {"spotify": "https://open.spotify.com/artist/4gzpq5DPGxSnKTe4SA8HAU"}, "id": "4gzpq5DPGxSnKTe4SA8HAU", "uri": "spotify:artist:4gzpq5DPGxSnKTe4SA8HAU", "href": "https://api.spotify.com/v1/artists/4gzpq5DPGxSnKTe4SA8HAU"}], "track_number": 1, "available_markets": ["US"], "type": "track", "preview_url": "https://p.scdn.co/mp3-preview/b1640815319b2df5ddfac27a28f016319a281468?cid=0c947b9d3f7547e28aee080174c283c9", "explicit": false, "external_urls": {"spotify": "https://open.spotify.com/track/1SWPQul8Zr5jezPUYPcLwR"}, "id": "1SWPQul8Zr5jezPUYPcLwR", "uri": "spotify:track:1SWPQul8Zr5jezPUYPcLwR", "popularity": 43}, {"album": {"total_tracks": 15, "type": "album", "release_date": "2012-11-19", "href": "https://api.spotify.com/v1/albums/2OkEsqGTfu8PWRrNHzfr0m", "artists": [{"type": "artist", "name": "Coldplay", "external_urls": {"spotify": "https://open.spotify.com/artist/4gzpq5DPGxSnKTe4SA8HAU"}, "id": "4gzpq5DPGxSnKTe4SA8HAU", "uri": "spotify:artist:4gzpq5DPGxSnKTe4SA8HAU", "href": "https://api.spotify.com/v1/artists/4gzpq5DPGxSnKTe4SA8HAU"}], "images": [{"width": 640, "url": "https://i.scdn.co/image/ab67616d0000b2730e49a9823be8f295caf1a574", "height": 640}, {"width": 300, "url": "https://i.scdn.co/image/ab67616d00001e020e49a9823be8f295caf1a574", "height": 300}, {"width": 64, "url": "https://i.scdn.co/image/ab67616d000048510e49a9823be8f295caf1a574", "height": 64}], "available_markets": ["AD", "AE", "AR", "AT", "AU", "BE", "BG", "BH", "BO", "BR", "CA", "CH", "CL", "CO", "CR", "CY", "CZ", "DE", "DK", "DO", "DZ", "EC", "EE", "EG", "ES", "FI", "FR", "GB", "GR", "GT", "HK", "HN", "HU", "ID", "IE", "IL", "IS", "IT", "JO", "JP", "KW", "LB", "LT", "LU", "LV", "MA", "MC", "MT", "MX", "MY", "NI", "NL", "NO", "NZ", "OM", "PA", "PE", "PH", "PL", "PT", "PY", "QA", "RO", "SA", "SE", "SG", "SK", "SV", "TH", "TN", "TR", "TW", "US", "UY", "VN", "ZA"], "album_type": "compilation", "release_date_precision": "day", "name": "Live 2012", "external_urls": {"spotify": "https://open.spotify.com/album/2OkEsqGTfu8PWRrNHzfr0m"}, "id": "2OkEsqGTfu8PWRrNHzfr0m", "uri": "spotify:album:2OkEsqGTfu8PWRrNHzfr0m"}, "external_ids": {"isrc": "GBAYE1202192"}, "name": "Fix You - Live", "duration_ms": 300653, "is_local": false, "disc_number": 1, "href": "https://api.spotify.com/v1/tracks/6L0uCWhXyBNncoDgfEvK1R", "artists": [{"type": "artist", "name": "Coldplay", "external_urls": {"spotify": "https://open.spotify.com/artist/4gzpq5DPGxSnKTe4SA8HAU"}, "id": "4gzpq5DPGxSnKTe4SA8HAU", "uri": "spotify:artist:4gzpq5DPGxSnKTe4SA8HAU", "href": "https://api.spotify.com/v1/artists/4gzpq5DPGxSnKTe4SA8HAU"}], "track_number": 14, "available_markets": ["AD", "AE", "AR", "AT", "AU", "BE", "BG", "BH", "BO", "BR", "CA", "CH", "CL", "CO", "CR", "CY", "CZ", "DE", "DK", "DO", "DZ", "EC", "EE", "EG", "ES", "FI", "FR", "GB", "GR", "GT", "HK", "HN", "HU", "ID", "IE", "IL", "IS", "IT", "JO", "JP", "KW", "LB", "LT", "LU", "LV", "MA", "MC", "MT", "MX", "MY", "NI", "NL", "NO", "NZ", "OM", "PA", "PE", "PH", "PL", "PT", "PY", "QA", "RO", "SA", "SE", "SG", "SK", "SV", "TH", "TN", "TR", "TW", "US", "UY", "VN", "ZA"], "type": "track", "preview_url": "https://p.scdn.co/mp3-preview/8d6c3822ca9ff583f2a393196e9ff34209c4f513?cid=0c947b9d3f7547e28aee080174c283c9", "explicit": false, "external_urls": {"spotify": "https://open.spotify.com/track/6L0uCWhXyBNncoDgfEvK1R"}, "id": "6L0uCWhXyBNncoDgfEvK1R", "uri": "spotify:track:6L0uCWhXyBNncoDgfEvK1R", "popularity": 50}, {"album": {"total_tracks": 3, "type": "album", "release_date": "2005-09-05", "href": "https://api.spotify.com/v1/albums/6CbCdwVGEff1wKT5bxNtOR", "artists": [{"type": "artist", "name": "Coldplay", "external_urls": {"spotify": "https://open.spotify.com/artist/4gzpq5DPGxSnKTe4SA8HAU"}, "id": "4gzpq5DPGxSnKTe4SA8HAU", "uri": "spotify:artist:4gzpq5DPGxSnKTe4SA8HAU", "href": "https://api.spotify.com/v1/artists/4gzpq5DPGxSnKTe4SA8HAU"}], "images": [{"width": 640, "url": "https://i.scdn.co/image/ab67616d0000b273d1471c86e8772115e1d7b9bc", "height": 640}, {"width": 300, "url": "https://i.scdn.co/image/ab67616d00001e02d1471c86e8772115e1d7b9bc", "height": 300}, {"width": 64, "url": "https://i.scdn.co/image/ab67616d00004851d1471c86e8772115e1d7b9bc", "height": 64}], "available_markets": ["AD", "AE", "AR", "AT", "AU", "BE", "BG", "BH", "BO", "BR", "CA", "CH", "CL", "CO", "CR", "CY", "CZ", "DE", "DK", "DO", "DZ", "EC", "EE", "EG", "ES", "FI", "FR", "GB", "GR", "GT", "HK", "HN", "HU", "ID", "IE", "IL", "IS", "IT", "JO", "JP", "KW", "LB", "LI", "LT", "LU", "LV", "MA", "MC", "MT", "MX", "MY", "NI", "NL", "NO", "NZ", "OM", "PA", "PE", "PH", "PL", "PS", "PT", "PY", "QA", "RO", "SA", "SE", "SG", "SK", "SV", "TH", "TN", "TR", "TW", "US", "UY", "VN", "ZA"], "album_type": "single", "release_date_precision": "day", "name": "Fix You", "external_urls": {"spotify": "https://open.spotify.com/album/6CbCdwVGEff1wKT5bxNtOR"}, "id": "6CbCdwVGEff1wKT5bxNtOR", "uri": "spotify:album:6CbCdwVGEff1wKT5bxNtOR"}, "external_ids": {"isrc": "GBAYE0501398"}, "name": "Fix You", "duration_ms": 277400, "is_local": false, "disc_number": 1, "href": "https://api.spotify.com/v1/tracks/6YAbIZPjyQ5euHxyxUgRoQ", "artists": [{"type": "artist", "name": "Coldplay", "external_urls": {"spotify": "https://open.spotify.com/artist/4gzpq5DPGxSnKTe4SA8HAU"}, "id": "4gzpq5DPGxSnKTe4SA8HAU", "uri": "spotify:artist:4gzpq5DPGxSnKTe4SA8HAU", "href": "https://api.spotify.com/v1/artists/4gzpq5DPGxSnKTe4SA8HAU"}], "track_number": 1, "available_markets": ["AD", "AE", "AR", "AT", "AU", "BE", "BG", "BH", "BO", "BR", "CA", "CH", "CL", "CO", "CR", "CY", "CZ", "DE", "DK", "DO", "DZ", "EC", "EE", "EG", "ES", "FI", "FR", "GB", "GR", "GT", "HK", "HN", "HU", "ID", "IE", "IL", "IS", "IT", "JO", "JP", "KW", "LB", "LI", "LT", "LU", "LV", "MA", "MC", "MT", "MX", "MY", "NI", "NL", "NO", "NZ", "OM", "PA", "PE", "PH", "PL", "PS", "PT", "PY", "QA", "RO", "SA", "SE", "SG", "SK", "SV", "TH", "TN", "TR", "TW", "US", "UY", "VN", "ZA"], "type": "track", "preview_url": "https://p.scdn.co/mp3-preview/51971fbfc765e77f31cba1cbb38f7afe08bf53dc?cid=0c947b9d3f7547e28aee080174c283c9", "explicit": false, "external_urls": {"spotify": "https://open.spotify.com/track/6YAbIZPjyQ5euHxyxUgRoQ"}, "id": "6YAbIZPjyQ5euHxyxUgRoQ", "uri": "spotify:track:6YAbIZPjyQ5euHxyxUgRoQ", "popularity": 44}], "previous": null, "href": "https://api.spotify.com/v1/search?query=artist%3AColdplay+track%3AFix+You&type=track&offset=0&limit=5", "limit": 5, "total": 12, "next": "https://api.spotify.com/v1/search?query=artist%3AColdplay+track%3AFix+You&type=track&offset=5&limit=5"}}