{"tracks": {"offset": 0, "items": [{"album": {"total_tracks": 12, "type": "album", "release_date": "2013-09-20", "href": "https://api.spotify.com/v1/albums/7mYtNRrdUIZZymc5epjYHE", "artists": [{"type": "artist", "name": "CHVRCHES", "external_urls": {"spotify": "https://open.spotify.com/artist/3CjlHNtplJyTf9npxaPl5w"}, "id": "3CjlHNtplJyTf9npxaPl5w", "uri": "spotify:artist:3CjlHNtplJyTf9npxaPl5w", "href": "https://api.spotify.com/v1/artists/3CjlHNtplJyTf9npxaPl5w"}], "images": [{"width": 640, "url": "https://i.scdn.co/image/ab67616d0000b2737ecffdcb0c079ce32b47be74", "height": 640}, {"width": 300, "url": "https://i.scdn.co/image/ab67616d00001e027ecffdcb0c079ce32b47be74", "height": 300}, {"width": 64, "url": "https://i.scdn.co/image/ab67616d000048517ecffdcb0c079ce32b47be74", "height": 64}], "available_markets": ["AR", "BO", "BR", "CA", "CL", "CO", "CR", "EC", "GT", "HN", "MX", "NI", "PA", "PE", "PY", "SV", "US", "UY"], "album_type": "album", "release_date_precision": "day", "name": "The Bones of What You Believe", "external_urls": {"spotify": "https://open.spotify.com/album/7mYtNRrdUIZZymc5epjYHE"}, "id": "7mYtNRrdUIZZymc5epjYHE", "uri": "spotify:album:7mYtNRrdUIZZymc5epjYHE"}, "external_ids": {"isrc": "GBZN81300014"}, "name": "The Mother We Share", "duration_ms": 191293, "is_local": false, "disc_number": 1, "href": "https://api.spotify.com/v1/tracks/2pE0CMK1fE3mfU0eEOHhKw", "artists": [{"type": "artist", "name": "CHVRCHES", "external_urls": {"spotify": "https://open.spotify.com/artist/3CjlHNtplJyTf9npxaPl5w"}, "id": "3CjlHNtplJyTf9npxaPl5w", "uri": "spotify:artist:3CjlHNtplJyTf9npxaPl5w", "href": "https://api.spotify.com/v1/artists/3CjlHNtplJyTf9npxaPl5w"}], "track_number": 1, "available_markets": ["AR", "BO", "BR", "CA", "CL", "CO", "CR", "EC", "GT", "HN", "MX", "NI", "PA", "PE", "PY", "SV", "US", "UY"], "type": "track", "preview_url": "https://p.scdn.co/mp3-preview/39737742cf01c3bc7b06feb006799621cbf3b2ad?cid=0c947b9d3f7547e28aee080174c283c9", "explicit": true, "external_urls": {"spotify": "https://open.spotify.com/track/2pE0CMK1fE3mfU0eEOHhKw"}, "id": "2pE0CMK1fE3mfU0eEOHhKw", "uri": "spotify:track:2pE0CMK1fE3mfU0eEOHhKw", "popularity": 61}, {"album": {"total_tracks": 16, "type": "album", "release_date": "2013-09-24", "href": "https://api.spotify.com/v1/albums/6RtJAKlrtGqsOnJ849wreV", "artists": [{"type": "artist", "name": "CHVRCHES", "external_urls": {"spotify": "https://open.spotify.com/artist/3CjlHNtplJyTf9npxaPl5w"}, "id": "3CjlHNtplJyTf9npxaPl5w", "uri": "spotify:artist:3CjlHNtplJyTf9npxaPl5w", "href": "https://api.spotify.com/v1/artists/3CjlHNtplJyTf9npxaPl5w"}], "images": [{"width": 640, "url": "https://i.scdn.co/image/ab67616d0000b273b86b33d6cc57e061bc6d578c", "height": 640}, {"width": 300, "url": "https://i.scdn.co/image/ab67616d00001e02b86b33d6cc57e061bc6d578c", "height": 300}, {"width": 64, "url": "https://i.scdn.co/image/ab67616d00004851b86b33d6cc57e061bc6d578c", "height": 64}], "available_markets": ["AR", "BO", "BR", "CA", "CL", "CO", "CR", "EC", "GT", "HN", "MX", "NI", "PA", "PE", "PY", "SV", "US", "UY"], "album_type": "album", "release_date_precision": "day", "name": "The Bones of What You Believe (Special Edition)", "external_urls": {"spotify": "https://open.spotify.com/album/6RtJAKlrtGqsOnJ849wreV"}, "id": "6RtJAKlrtGqsOnJ849wreV", "uri": "spotify:album:6RtJAKlrtGqsOnJ849wreV"}, "external_ids": {"isrc": "GBZN81300014"}, "name": "The Mother We Share", "duration_ms": 191293, "is_local": false, "disc_number": 1, "href": "https://api.spotify.com/v1/tracks/7iAubsZEDDqqG7kweXZwAi", "artists": [{"type": "artist", "name": "CHVRCHES", "external_urls": {"spotify": "https://open.spotify.com/artist/3CjlHNtplJyTf9npxaPl5w"}, "id": "3CjlHNtplJyTf9npxaPl5w", "uri": "spotify:artist:3CjlHNtplJyTf9npxaPl5w", "href": "https://api.spotify.com/v1/artists/3CjlHNtplJyTf9npxaPl5w"}], "track_number": 1, "available_markets": ["AR", "BO", "BR", "CA", "CL", "CO", "CR", "EC", "GT", "HN", "MX", "NI", "PA", "PE", "PY", "SV", "US", "UY"], "type": "track", "preview_url": "https://p.scdn.co/mp3-preview/39737742cf01c3bc7b06feb006799621cbf3b2ad?cid=0c947b9d3f7547e28aee080174c283c9", "explicit": true, "external_urls": {"spotify": "https://open.spotify.com/track/7iAubsZEDDqqG7kweXZwAi"}, "id": "7iAubsZEDDqqG7kweXZwAi", "uri": "spotify:track:7iAubsZEDDqqG7kweXZwAi", "popularity": 37}, {"album": {"total_tracks": 16, "type": "album", "release_date": "2013-09-24", "href": "https://api.spotify.com/v1/albums/6RtJAKlrtGqsOnJ849wreV", "artists": [{"type": "artist", "name": "CHVRCHES", "external_urls": {"spotify": "https://open.spotify.com/artist/3CjlHNtplJyTf9npxaPl5w"}, "id": "3CjlHNtplJyTf9npxaPl5w", "uri": "spotify:artist:3CjlHNtplJyTf9npxaPl5w", "href": "https://api.spotify.com/v1/artists/3CjlHNtplJyTf9npxaPl5w"}], "images": [{"width": 640, "url": "https://i.scdn.co/image/ab67616d0000b273b86b33d6cc57e061bc6d578c", "height": 640}, {"width": 300, "url": "https://i.scdn.co/image/ab67616d00001e02b86b33d6cc57e061bc6d578c", "height": 300}, {"width": 64, "url": "https://i.scdn.co/image/ab67616d00004851b86b33d6cc57e061bc6d578c", "height": 64}], "available_markets": ["AR", "BO", "BR", "CA", "CL", "CO", "CR", "EC", "GT", "HN", "MX", "NI", "PA", "PE", "PY", "SV", "US", "UY"], "album_type": "album", "release_date_precision": "day", "name": "The Bones of What You Believe (Special Edition)", "external_urls": {"spotify": "https://open.spotify.com/album/6RtJAKlrtGqsOnJ849wreV"}, "id": "6RtJAKlrtGqsOnJ849wreV", "uri": "spotify:album:6RtJAKlrtGqsOnJ849wreV"}, "external_ids": {"isrc": "GBZN81300034"}, "name": "The Mother We Share - We Were Promised Jetpacks Remix", "duration_ms": 358722, "is_local": false, "disc_number": 1, "href": "https://api.spotify.com/v1/tracks/1chQvD9nNMBQeulhMVlcGt", "artists": [{"type": "artist", "name": "CHVRCHES", "external_urls": {"spotify": "https://open.spotify.com/artist/3CjlHNtplJyTf9npxaPl5w"}, "id": "3CjlHNtplJyTf9npxaPl5w", "uri": "spotify:artist:3CjlHNtplJyTf9npxaPl5w", "href": "https://api.spotify.com/v1/artists/3CjlHNtplJyTf9npxaPl5w"}], "track_number": 16, "available_markets": ["AR", "BO", "BR", "CA", "CL", "CO", "CR", "EC", "GT", "HN", "MX", "NI", "PA", "PE", "PY", "SV", "US", "UY"], "type": "track", "preview_url": "https://p.scdn.co/mp3-preview/5843e48112e812ee6fabdc358940b1b9b2d63a2f?cid=0c947b9d3f7547e28aee080174c283c9", "explicit": false, "external_urls": {"spotify": "https://open.spotify.com/track/1chQvD9nNMBQeulhMVlcGt"}, "id": "1chQvD9nNMBQeulhMVlcGt", "uri": "spotify:track:1chQvD9nNMBQeulhMVlcGt", "popularity": 30}, {"album": {"total_tracks": 10, "type": "album", "release_date": "2016-09-16", "href": "https://api.spotify.com/v1/albums/1KRlfrmEMLZlqbsUSNXOKP", "artists": [{"type": "artist", "name": "CHVRCHES", "external_urls": {"spotify": "https://open.spotify.com/artist/3CjlHNtplJyTf9npxaPl5w"}, "id": "3CjlHNtplJyTf9npxaPl5w", "uri": "spotify:artist:3CjlHNtplJyTf9npxaPl5w", "href": "https://api.spotify.com/v1/artists/3CjlHNtplJyTf9npxaPl5w"}], "images": [{"width": 640, "url": "https://i.scdn.co/image/bb319d94d23221af863e6d65a03ea1eb74fcf952", "height": 640}, {"width": 300, "url": "https://i.scdn.co/image/940296fb1ad1d59c24ca1f99e0b87ae2273bdb65", "height": 300}, {"width": 64, "url": "https://i.scdn.co/image/9aceeedd262a973f9f05d8e057b65216cb05c2fb", "height": 64}], "available_markets": ["AR", "BO", "BR", "CA", "CL", "CO", "CR", "EC", "GT", "HN", "MX", "NI", "PA", "PE", "PY", "SV", "US", "UY"], "album_type": "album", "release_date_precision": "day", "name": "Spotify Sessions", "external_urls": {"spotify": "https://open.spotify.com/album/1KRlfrmEMLZlqbsUSNXOKP"}, "id": "1KRlfrmEMLZlqbsUSNXOKP", "uri": "spotify:album:1KRlfrmEMLZlqbsUSNXOKP"}, "external_ids": {"isrc": "USYAH1600154"}, "name": "The Mother We Share - Live from Spotify House SXSW '16", "duration_ms": 302703, "is_local": false, "disc_number": 1, "href": "https://api.spotify.com/v1/tracks/0FRoAyxPoqhgXpLsSKEBpm", "artists": [{"type": "artist", "name": "CHVRCHES", "external_urls": {"spotify": "https://open.spotify.com/artist/3CjlHNtplJyTf9npxaPl5w"}, "id": "3CjlHNtplJyTf9npxaPl5w", "uri": "spotify:artist:3CjlHNtplJyTf9npxaPl5w", "href": "https://api.spotify.com/v1/artists/3CjlHNtplJyTf9npxaPl5w"}], "track_number": 10, "available_markets": ["AR", "BO", "BR", "CA", "CL", "CO", "CR", "EC", "GT", "HN", "MX", "NI", "PA", "PE", "PY", "SV", "US", "UY"], "type": "track", "preview_url": "https://p.scdn.co/mp3-preview/8374d2c3af95cc2036774614723643a276c09f46?cid=0c947b9d3f7547e28aee080174c283c9", "explicit": false, "external_urls": {"spotify": "https://open.spotify.com/track/0FRoAyxPoqhgXpLsSKEBpm"}, "id": "0FRoAyxPoqhgXpLsSKEBpm", "uri": "spotify:track:0FRoAyxPoqhgXpLsSKEBpm", "popularity": 27}, {"album": {"total_tracks": 5, "type": "album", "release_date": "2013-11-19", "href": "https://api.spotify.com/v1/albums/05KB16aoGYtAw0Asz7BGNp", "artists": [{"type": "artist", "name": "CHVRCHES", "external_urls": {"spotify": "https://open.spotify.com/artist/3CjlHNtplJyTf9npxaPl5w"}, "id": "3CjlHNtplJyTf9npxaPl5w", "uri": "spotify:artist:3CjlHNtplJyTf9npxaPl5w", "href": "https://api.spotify.com/v1/artists/3CjlHNtplJyTf9npxaPl5w"}], "images": [{"width": 640, "url": "https://i.scdn.co/image/ab67616d0000b27389fa4d061b8a2ac8249a9775", "height": 640}, {"width": 300, "url": "https://i.scdn.co/image/ab67616d00001e0289fa4d061b8a2ac8249a9775", "height": 300}, {"width": 64, "url": "https://i.scdn.co/image/ab67616d0000485189fa4d061b8a2ac8249a9775", "height": 64}], "available_markets": ["AR", "BO", "BR", "CA", "CL", "CO", "CR", "EC", "GT", "HN", "MX", "NI", "PA", "PE", "PY", "SV", "US", "UY"], "album_type": "single", "release_date_precision": "day", "name": "The Mother We Share", "external_urls": {"spotify": "https://open.spotify.com/album/05KB16aoGYtAw0Asz7BGNp"}, "id": "05KB16aoGYtAw0Asz7BGNp", "uri": "spotify:album:05KB16aoGYtAw0Asz7BGNp"}, "external_ids": {"isrc": "GBZN81300036"}, "name": "The Mother We Share - Blood Diamonds Remix", "duration_ms": 236080, "is_local": false, "disc_number": 1, "href": "https://api.spotify.com/v1/tracks/0CZjhkSOPTui45mfrjPkmm", "artists": [{"type": "artist", "name": "CHVRCHES", "external_urls": {"spotify": "https://open.spotify.com/artist/3CjlHNtplJyTf9npxaPl5w"}, "id": "3CjlHNtplJyTf9npxaPl5w", "uri": "spotify:artist:3CjlHNtplJyTf9npxaPl5w", "href": "https://api.spotify.com/v1/artists/3CjlHNtplJyTf9npxaPl5w"}], "track_number": 2, "available_markets": ["AR", "BO", "BR", "CA", "CL", "CO", "CR", "EC", "GT", "HN", "MX", "NI", "PA", "PE", "PY", "SV", "US", "UY"], "type": "track", "preview_url": "https://p.scdn.co/mp3-preview/19a9210e459a9d8dd0a9ca94d4ccfae483b699e2?cid=0c947b9d3f7547e28aee080174c283c9", "explicit": false, "external_urls": {"spotify": "https://open.spotify.com/track/0CZjhkSOPTui45mfrjPkmm"}, "id": "0CZjhkSOPTui45mfrjPkmm", "uri": "spotify:track:0CZjhkSOPTui45mfrjPkmm", "popularity": 18}], "previous": null, "href": "https://api.spotify.com/v1/search?query=artist%3ACHVRCHES+track%3AThe+Mother+We+Share&type=track&offset=0&limit=5", "limit": 5, "total": 8, "next": "https://api.spotify.com/v1/search?query=artist%3ACHVRCHES+track%3AThe+Mother+We+Share&type=track&offset=5&limit=5"}}